%!PS-Adobe-3.0 EPSF-3.0
%%Title: glps_renderer figure
%%Creator: GL2PS 1.3.8, (C) 1999-2012 C. Geuzaine
%%For: Octave
%%CreationDate: Fri Mar 22 19:38:48 2019
%%LanguageLevel: 3
%%DocumentData: Clean7Bit
%%Pages: 1
%%BoundingBox: 0 0 576 433
%%EndComments
%%BeginProlog
/gl2psdict 64 dict def gl2psdict begin
0 setlinecap 0 setlinejoin
/tryPS3shading false def % set to false to force subdivision
/rThreshold 0.064 def % red component subdivision threshold
/gThreshold 0.034 def % green component subdivision threshold
/bThreshold 0.1 def % blue component subdivision threshold
/BD { bind def } bind def
/C  { setrgbcolor } BD
/G  { 0.082 mul exch 0.6094 mul add exch 0.3086 mul add neg 1.0 add setgray } BD
/W  { setlinewidth } BD
/FC { findfont exch /SH exch def SH scalefont setfont } BD
/SW { dup stringwidth pop } BD
/S  { FC moveto show } BD
/SBC{ FC moveto SW -2 div 0 rmoveto show } BD
/SBR{ FC moveto SW neg 0 rmoveto show } BD
/SCL{ FC moveto 0 SH -2 div rmoveto show } BD
/SCC{ FC moveto SW -2 div SH -2 div rmoveto show } BD
/SCR{ FC moveto SW neg SH -2 div rmoveto show } BD
/STL{ FC moveto 0 SH neg rmoveto show } BD
/STC{ FC moveto SW -2 div SH neg rmoveto show } BD
/STR{ FC moveto SW neg SH neg rmoveto show } BD
/FCT { FC translate 0 0 } BD
/SR  { gsave FCT moveto rotate show grestore } BD
/SBCR{ gsave FCT moveto rotate SW -2 div 0 rmoveto show grestore } BD
/SBRR{ gsave FCT moveto rotate SW neg 0 rmoveto show grestore } BD
/SCLR{ gsave FCT moveto rotate 0 SH -2 div rmoveto show grestore} BD
/SCCR{ gsave FCT moveto rotate SW -2 div SH -2 div rmoveto show grestore} BD
/SCRR{ gsave FCT moveto rotate SW neg SH -2 div rmoveto show grestore} BD
/STLR{ gsave FCT moveto rotate 0 SH neg rmoveto show grestore } BD
/STCR{ gsave FCT moveto rotate SW -2 div SH neg rmoveto show grestore } BD
/STRR{ gsave FCT moveto rotate SW neg SH neg rmoveto show grestore } BD
/P  { newpath 0.0 360.0 arc closepath fill } BD
/LS { newpath moveto } BD
/L  { lineto } BD
/LE { lineto stroke } BD
/T  { newpath moveto lineto lineto closepath fill } BD
/STshfill {
      /b1 exch def /g1 exch def /r1 exch def /y1 exch def /x1 exch def
      /b2 exch def /g2 exch def /r2 exch def /y2 exch def /x2 exch def
      /b3 exch def /g3 exch def /r3 exch def /y3 exch def /x3 exch def
      gsave << /ShadingType 4 /ColorSpace [/DeviceRGB]
      /DataSource [ 0 x1 y1 r1 g1 b1 0 x2 y2 r2 g2 b2 0 x3 y3 r3 g3 b3 ] >>
      shfill grestore } BD
/Tm { 3 -1 roll 8 -1 roll 13 -1 roll add add 3 div
      3 -1 roll 7 -1 roll 11 -1 roll add add 3 div
      3 -1 roll 6 -1 roll 9 -1 roll add add 3 div C T } BD
/STsplit {
      4 index 15 index add 0.5 mul
      4 index 15 index add 0.5 mul
      4 index 15 index add 0.5 mul
      4 index 15 index add 0.5 mul
      4 index 15 index add 0.5 mul
      5 copy 5 copy 25 15 roll
      9 index 30 index add 0.5 mul
      9 index 30 index add 0.5 mul
      9 index 30 index add 0.5 mul
      9 index 30 index add 0.5 mul
      9 index 30 index add 0.5 mul
      5 copy 5 copy 35 5 roll 25 5 roll 15 5 roll
      4 index 10 index add 0.5 mul
      4 index 10 index add 0.5 mul
      4 index 10 index add 0.5 mul
      4 index 10 index add 0.5 mul
      4 index 10 index add 0.5 mul
      5 copy 5 copy 40 5 roll 25 5 roll 15 5 roll 25 5 roll
      STnoshfill STnoshfill STnoshfill STnoshfill } BD
/STnoshfill {
      2 index 8 index sub abs rThreshold gt
      { STsplit }
      { 1 index 7 index sub abs gThreshold gt
        { STsplit }
        { dup 6 index sub abs bThreshold gt
          { STsplit }
          { 2 index 13 index sub abs rThreshold gt
            { STsplit }
            { 1 index 12 index sub abs gThreshold gt
              { STsplit }
              { dup 11 index sub abs bThreshold gt
                { STsplit }
                { 7 index 13 index sub abs rThreshold gt
                  { STsplit }
                  { 6 index 12 index sub abs gThreshold gt
                    { STsplit }
                    { 5 index 11 index sub abs bThreshold gt
                      { STsplit }
                      { Tm }
                      ifelse }
                    ifelse }
                  ifelse }
                ifelse }
              ifelse }
            ifelse }
          ifelse }
        ifelse }
      ifelse } BD
tryPS3shading
{ /shfill where
  { /ST { STshfill } BD }
  { /ST { STnoshfill } BD }
  ifelse }
{ /ST { STnoshfill } BD }
ifelse
end
%%EndProlog
%%BeginSetup
/DeviceRGB setcolorspace
gl2psdict begin
%%EndSetup
%%Page: 1 1
%%BeginPageSetup
%%EndPageSetup
mark
gsave
1.0 1.0 scale
1 1 1 C
74.88 400.6 521.28 48.52 74.88 48.52 T
74.88 400.6 521.28 400.6 521.28 48.52 T
0 0 0 C
(0) 74.88 43.5189 10 /Helvetica STC
(1) 164.16 43.5189 10 /Helvetica STC
(2) 253.44 43.5189 10 /Helvetica STC
(3) 342.72 43.5189 10 /Helvetica STC
(4) 432 43.5189 10 /Helvetica STC
(5) 521.28 43.5189 10 /Helvetica STC
(120) 69.8755 88.7633 10 /Helvetica SCR
(140) 69.8755 139.067 10 /Helvetica SCR
(160) 69.8755 189.371 10 /Helvetica SCR
(180) 69.8755 239.676 10 /Helvetica SCR
(200) 69.8755 289.98 10 /Helvetica SCR
(220) 69.8755 340.284 10 /Helvetica SCR
(240) 69.8755 390.588 10 /Helvetica SCR
0.5 W
[16 0] 0 setdash
74.88 48.52 LS
521.28 48.52 LE
74.88 400.6 LS
521.28 400.6 LE
74.88 48.52 LS
74.88 400.6 LE
521.28 48.52 LS
521.28 400.6 LE
74.88 48.52 LS
74.88 52.985 LE
74.88 400.6 LS
74.88 396.135 LE
164.16 48.52 LS
164.16 52.985 LE
164.16 400.6 LS
164.16 396.135 LE
253.44 48.52 LS
253.44 52.985 LE
253.44 400.6 LS
253.44 396.135 LE
342.72 48.52 LS
342.72 52.985 LE
342.72 400.6 LS
342.72 396.135 LE
432 48.52 LS
432 52.985 LE
432 400.6 LS
432 396.135 LE
521.28 48.52 LS
521.28 52.985 LE
521.28 400.6 LS
521.28 396.135 LE
74.88 88.7633 LS
79.348 88.7633 LE
521.28 88.7633 LS
516.812 88.7633 LE
74.88 139.067 LS
79.348 139.067 LE
521.28 139.067 LS
516.812 139.067 LE
74.88 189.371 LS
79.348 189.371 LE
521.28 189.371 LS
516.812 189.371 LE
74.88 239.676 LS
79.348 239.676 LE
521.28 239.676 LS
516.812 239.676 LE
74.88 289.98 LS
79.348 289.98 LE
521.28 289.98 LS
516.812 289.98 LE
74.88 340.284 LS
79.348 340.284 LE
521.28 340.284 LS
516.812 340.284 LE
74.88 390.588 LS
79.348 390.588 LE
521.28 390.588 LS
516.812 390.588 LE
(Flowpipe for Ex. Arch 1) 298.08 410.6 10 /Helvetica SBC
[] 0 setdash
83.808 51.0352 LS
74.88 51.0352 L
74.88 53.5504 L
83.808 53.5504 L
83.808 51.0352 LE
92.736 59.0903 LS
83.808 59.0903 L
83.808 61.6081 L
92.736 61.6081 L
92.736 59.0903 LE
101.664 67.1361 LS
92.736 67.1361 L
92.736 69.6568 L
101.664 69.6568 L
101.664 67.1361 LE
110.592 75.1651 LS
101.664 75.1651 L
101.664 77.6888 L
110.592 77.6888 L
110.592 75.1651 LE
119.52 83.1709 LS
110.592 83.1709 L
110.592 85.6977 L
119.52 85.6977 L
119.52 83.1709 LE
128.448 91.1483 LS
119.52 91.1483 L
119.52 93.6784 L
128.448 93.6784 L
128.448 91.1483 LE
137.376 99.0932 LS
128.448 99.0932 L
128.448 101.627 L
137.376 101.627 L
137.376 99.0932 LE
146.304 107.002 LS
137.376 107.002 L
137.376 109.539 L
146.304 109.539 L
146.304 107.002 LE
155.232 114.872 LS
146.304 114.872 L
146.304 117.413 L
155.232 117.413 L
155.232 114.872 LE
164.16 122.701 LS
155.232 122.701 L
155.232 125.245 L
164.16 125.245 L
164.16 122.701 LE
173.088 130.487 LS
164.16 130.487 L
164.16 133.035 L
173.088 133.035 L
173.088 130.487 LE
182.016 138.229 LS
173.088 138.229 L
173.088 140.78 L
182.016 140.78 L
182.016 138.229 LE
190.944 145.924 LS
182.016 145.924 L
182.016 148.479 L
190.944 148.479 L
190.944 145.924 LE
199.872 153.573 LS
190.944 153.573 L
190.944 156.132 L
199.872 156.132 L
199.872 153.573 LE
208.8 161.174 LS
199.872 161.174 L
199.872 163.736 L
208.8 163.736 L
208.8 161.174 LE
217.728 168.727 LS
208.8 168.727 L
208.8 171.293 L
217.728 171.293 L
217.728 168.727 LE
226.656 176.231 LS
217.728 176.231 L
217.728 178.8 L
226.656 178.8 L
226.656 176.231 LE
235.584 183.685 LS
226.656 183.685 L
226.656 186.259 L
235.584 186.259 L
235.584 183.685 LE
244.512 191.09 LS
235.584 191.09 L
235.584 193.667 L
244.512 193.667 L
244.512 191.09 LE
253.44 198.445 LS
244.512 198.445 L
244.512 201.026 L
253.44 201.026 L
253.44 198.445 LE
262.368 205.749 LS
253.44 205.749 L
253.44 208.334 L
262.368 208.334 L
262.368 205.749 LE
271.296 213.003 LS
262.368 213.003 L
262.368 215.591 L
271.296 215.591 L
271.296 213.003 LE
280.224 220.207 LS
271.296 220.207 L
271.296 222.798 L
280.224 222.798 L
280.224 220.207 LE
289.152 227.359 LS
280.224 227.359 L
280.224 229.955 L
289.152 229.955 L
289.152 227.359 LE
298.08 234.461 LS
289.152 234.461 L
289.152 237.06 L
298.08 237.06 L
298.08 234.461 LE
307.008 241.512 LS
298.08 241.512 L
298.08 244.115 L
307.008 244.115 L
307.008 241.512 LE
315.936 248.511 LS
307.008 248.511 L
307.008 251.118 L
315.936 251.118 L
315.936 248.511 LE
324.864 255.46 LS
315.936 255.46 L
315.936 258.07 L
324.864 258.07 L
324.864 255.46 LE
333.792 262.358 LS
324.864 262.358 L
324.864 264.972 L
333.792 264.972 L
333.792 262.358 LE
342.72 269.204 LS
333.792 269.204 L
333.792 271.822 L
342.72 271.822 L
342.72 269.204 LE
351.648 275.999 LS
342.72 275.999 L
342.72 278.621 L
351.648 278.621 L
351.648 275.999 LE
360.576 282.743 LS
351.648 282.743 L
351.648 285.369 L
360.576 285.369 L
360.576 282.743 LE
369.504 289.436 LS
360.576 289.436 L
360.576 292.066 L
369.504 292.066 L
369.504 289.436 LE
378.432 296.078 LS
369.504 296.078 L
369.504 298.711 L
378.432 298.711 L
378.432 296.078 LE
387.36 302.669 LS
378.432 302.669 L
378.432 305.306 L
387.36 305.306 L
387.36 302.669 LE
396.288 309.208 LS
387.36 309.208 L
387.36 311.849 L
396.288 311.849 L
396.288 309.208 LE
405.216 315.697 LS
396.288 315.697 L
396.288 318.341 L
405.216 318.341 L
405.216 315.697 LE
414.144 322.134 LS
405.216 322.134 L
405.216 324.782 L
414.144 324.782 L
414.144 322.134 LE
423.072 328.52 LS
414.144 328.52 L
414.144 331.172 L
423.072 331.172 L
423.072 328.52 LE
432 334.855 LS
423.072 334.855 L
423.072 337.51 L
432 337.51 L
432 334.855 LE
440.928 341.138 LS
432 341.138 L
432 343.798 L
440.928 343.798 L
440.928 341.138 LE
449.856 347.371 LS
440.928 347.371 L
440.928 350.034 L
449.856 350.034 L
449.856 347.371 LE
458.784 353.552 LS
449.856 353.552 L
449.856 356.219 L
458.784 356.219 L
458.784 353.552 LE
467.712 359.683 LS
458.784 359.683 L
458.784 362.353 L
467.712 362.353 L
467.712 359.683 LE
476.64 365.762 LS
467.712 365.762 L
467.712 368.436 L
476.64 368.436 L
476.64 365.762 LE
485.568 371.79 LS
476.64 371.79 L
476.64 374.468 L
485.568 374.468 L
485.568 371.79 LE
494.496 377.767 LS
485.568 377.767 L
485.568 380.449 L
494.496 380.449 L
494.496 377.767 LE
503.424 383.693 LS
494.496 383.693 L
494.496 386.378 L
503.424 386.378 L
503.424 383.693 LE
512.352 389.568 LS
503.424 389.568 L
503.424 392.257 L
512.352 392.257 L
512.352 389.568 LE
521.28 395.392 LS
512.352 395.392 L
512.352 398.085 L
521.28 398.085 L
521.28 395.392 LE
grestore
showpage
cleartomark
%%PageTrailer
%%Trailer
end
%%EOF
