%!PS-Adobe-3.0 EPSF-3.0
%%Title: glps_renderer figure
%%Creator: GL2PS 1.3.8, (C) 1999-2012 C. Geuzaine
%%For: Octave
%%CreationDate: Wed Mar 13 14:10:12 2019
%%LanguageLevel: 3
%%DocumentData: Clean7Bit
%%Pages: 1
%%BoundingBox: 0 0 576 433
%%EndComments
%%BeginProlog
/gl2psdict 64 dict def gl2psdict begin
0 setlinecap 0 setlinejoin
/tryPS3shading false def % set to false to force subdivision
/rThreshold 0.064 def % red component subdivision threshold
/gThreshold 0.034 def % green component subdivision threshold
/bThreshold 0.1 def % blue component subdivision threshold
/BD { bind def } bind def
/C  { setrgbcolor } BD
/G  { 0.082 mul exch 0.6094 mul add exch 0.3086 mul add neg 1.0 add setgray } BD
/W  { setlinewidth } BD
/FC { findfont exch /SH exch def SH scalefont setfont } BD
/SW { dup stringwidth pop } BD
/S  { FC moveto show } BD
/SBC{ FC moveto SW -2 div 0 rmoveto show } BD
/SBR{ FC moveto SW neg 0 rmoveto show } BD
/SCL{ FC moveto 0 SH -2 div rmoveto show } BD
/SCC{ FC moveto SW -2 div SH -2 div rmoveto show } BD
/SCR{ FC moveto SW neg SH -2 div rmoveto show } BD
/STL{ FC moveto 0 SH neg rmoveto show } BD
/STC{ FC moveto SW -2 div SH neg rmoveto show } BD
/STR{ FC moveto SW neg SH neg rmoveto show } BD
/FCT { FC translate 0 0 } BD
/SR  { gsave FCT moveto rotate show grestore } BD
/SBCR{ gsave FCT moveto rotate SW -2 div 0 rmoveto show grestore } BD
/SBRR{ gsave FCT moveto rotate SW neg 0 rmoveto show grestore } BD
/SCLR{ gsave FCT moveto rotate 0 SH -2 div rmoveto show grestore} BD
/SCCR{ gsave FCT moveto rotate SW -2 div SH -2 div rmoveto show grestore} BD
/SCRR{ gsave FCT moveto rotate SW neg SH -2 div rmoveto show grestore} BD
/STLR{ gsave FCT moveto rotate 0 SH neg rmoveto show grestore } BD
/STCR{ gsave FCT moveto rotate SW -2 div SH neg rmoveto show grestore } BD
/STRR{ gsave FCT moveto rotate SW neg SH neg rmoveto show grestore } BD
/P  { newpath 0.0 360.0 arc closepath fill } BD
/LS { newpath moveto } BD
/L  { lineto } BD
/LE { lineto stroke } BD
/T  { newpath moveto lineto lineto closepath fill } BD
/STshfill {
      /b1 exch def /g1 exch def /r1 exch def /y1 exch def /x1 exch def
      /b2 exch def /g2 exch def /r2 exch def /y2 exch def /x2 exch def
      /b3 exch def /g3 exch def /r3 exch def /y3 exch def /x3 exch def
      gsave << /ShadingType 4 /ColorSpace [/DeviceRGB]
      /DataSource [ 0 x1 y1 r1 g1 b1 0 x2 y2 r2 g2 b2 0 x3 y3 r3 g3 b3 ] >>
      shfill grestore } BD
/Tm { 3 -1 roll 8 -1 roll 13 -1 roll add add 3 div
      3 -1 roll 7 -1 roll 11 -1 roll add add 3 div
      3 -1 roll 6 -1 roll 9 -1 roll add add 3 div C T } BD
/STsplit {
      4 index 15 index add 0.5 mul
      4 index 15 index add 0.5 mul
      4 index 15 index add 0.5 mul
      4 index 15 index add 0.5 mul
      4 index 15 index add 0.5 mul
      5 copy 5 copy 25 15 roll
      9 index 30 index add 0.5 mul
      9 index 30 index add 0.5 mul
      9 index 30 index add 0.5 mul
      9 index 30 index add 0.5 mul
      9 index 30 index add 0.5 mul
      5 copy 5 copy 35 5 roll 25 5 roll 15 5 roll
      4 index 10 index add 0.5 mul
      4 index 10 index add 0.5 mul
      4 index 10 index add 0.5 mul
      4 index 10 index add 0.5 mul
      4 index 10 index add 0.5 mul
      5 copy 5 copy 40 5 roll 25 5 roll 15 5 roll 25 5 roll
      STnoshfill STnoshfill STnoshfill STnoshfill } BD
/STnoshfill {
      2 index 8 index sub abs rThreshold gt
      { STsplit }
      { 1 index 7 index sub abs gThreshold gt
        { STsplit }
        { dup 6 index sub abs bThreshold gt
          { STsplit }
          { 2 index 13 index sub abs rThreshold gt
            { STsplit }
            { 1 index 12 index sub abs gThreshold gt
              { STsplit }
              { dup 11 index sub abs bThreshold gt
                { STsplit }
                { 7 index 13 index sub abs rThreshold gt
                  { STsplit }
                  { 6 index 12 index sub abs gThreshold gt
                    { STsplit }
                    { 5 index 11 index sub abs bThreshold gt
                      { STsplit }
                      { Tm }
                      ifelse }
                    ifelse }
                  ifelse }
                ifelse }
              ifelse }
            ifelse }
          ifelse }
        ifelse }
      ifelse } BD
tryPS3shading
{ /shfill where
  { /ST { STshfill } BD }
  { /ST { STnoshfill } BD }
  ifelse }
{ /ST { STnoshfill } BD }
ifelse
end
%%EndProlog
%%BeginSetup
/DeviceRGB setcolorspace
gl2psdict begin
%%EndSetup
%%Page: 1 1
%%BeginPageSetup
%%EndPageSetup
mark
gsave
1.0 1.0 scale
1 1 1 C
74.88 400.6 521.28 48.52 74.88 48.52 T
74.88 400.6 521.28 400.6 521.28 48.52 T
0.5 W
[16 0] 0 setdash
0 0 0 C
74.88 48.52 LS
521.28 48.52 LE
74.88 400.6 LS
521.28 400.6 LE
74.88 48.52 LS
74.88 400.6 LE
521.28 48.52 LS
521.28 400.6 LE
74.88 48.52 LS
74.88 52.985 LE
74.88 400.6 LS
74.88 396.135 LE
130.68 48.52 LS
130.68 52.985 LE
130.68 400.6 LS
130.68 396.135 LE
186.48 48.52 LS
186.48 52.985 LE
186.48 400.6 LS
186.48 396.135 LE
242.28 48.52 LS
242.28 52.985 LE
242.28 400.6 LS
242.28 396.135 LE
298.08 48.52 LS
298.08 52.985 LE
298.08 400.6 LS
298.08 396.135 LE
353.88 48.52 LS
353.88 52.985 LE
353.88 400.6 LS
353.88 396.135 LE
409.68 48.52 LS
409.68 52.985 LE
409.68 400.6 LS
409.68 396.135 LE
465.48 48.52 LS
465.48 52.985 LE
465.48 400.6 LS
465.48 396.135 LE
521.28 48.52 LS
521.28 52.985 LE
521.28 400.6 LS
521.28 396.135 LE
(-0.2) 74.88 43.5189 10 /Helvetica STC
(0) 130.68 43.5189 10 /Helvetica STC
(0.2) 186.48 43.5189 10 /Helvetica STC
(0.4) 242.28 43.5189 10 /Helvetica STC
(0.6) 298.08 43.5189 10 /Helvetica STC
(0.8) 353.88 43.5189 10 /Helvetica STC
(1) 409.68 43.5189 10 /Helvetica STC
(1.2) 465.48 43.5189 10 /Helvetica STC
(1.4) 521.28 43.5189 10 /Helvetica STC
74.88 48.52 LS
79.348 48.52 LE
521.28 48.52 LS
516.812 48.52 LE
74.88 92.53 LS
79.348 92.53 LE
521.28 92.53 LS
516.812 92.53 LE
74.88 136.54 LS
79.348 136.54 LE
521.28 136.54 LS
516.812 136.54 LE
74.88 180.55 LS
79.348 180.55 LE
521.28 180.55 LS
516.812 180.55 LE
74.88 224.56 LS
79.348 224.56 LE
521.28 224.56 LS
516.812 224.56 LE
74.88 268.57 LS
79.348 268.57 LE
521.28 268.57 LS
516.812 268.57 LE
74.88 312.58 LS
79.348 312.58 LE
521.28 312.58 LS
516.812 312.58 LE
74.88 356.59 LS
79.348 356.59 LE
521.28 356.59 LS
516.812 356.59 LE
74.88 400.6 LS
79.348 400.6 LE
521.28 400.6 LS
516.812 400.6 LE
(-0.8) 69.8755 48.52 10 /Helvetica SCR
(-0.6) 69.8755 92.53 10 /Helvetica SCR
(-0.4) 69.8755 136.54 10 /Helvetica SCR
(-0.2) 69.8755 180.55 10 /Helvetica SCR
(0) 69.8755 224.56 10 /Helvetica SCR
(0.2) 69.8755 268.57 10 /Helvetica SCR
(0.4) 69.8755 312.58 10 /Helvetica SCR
(0.6) 69.8755 356.59 10 /Helvetica SCR
(0.8) 69.8755 400.6 10 /Helvetica SCR
[] 0 setdash
0.11 0.11 0.11 C
325.98 313.484 LS
385.016 313.484 L
385.016 352.19 L
325.98 352.19 L
325.98 313.484 LE
328.3 310.841 LS
388.205 310.841 L
388.205 351.133 L
328.3 351.133 L
328.3 310.841 LE
330.575 308.189 LS
391.34 308.189 L
391.34 349.885 L
330.575 349.885 L
330.575 308.189 LE
332.802 305.417 LS
394.422 305.417 L
394.422 348.55 L
332.802 348.55 L
332.802 305.417 LE
334.977 302.525 LS
397.449 302.525 L
397.449 347.125 L
334.977 347.125 L
334.977 302.525 LE
337.1 299.513 LS
400.417 299.513 L
400.417 345.61 L
337.1 345.61 L
337.1 299.513 LE
339.167 296.383 LS
403.324 296.383 L
403.324 344.002 L
339.167 344.002 L
339.167 296.383 LE
341.177 293.134 LS
406.167 293.134 L
406.167 342.299 L
341.177 342.299 L
341.177 293.134 LE
343.126 289.77 LS
408.941 289.77 L
408.941 340.499 L
343.126 340.499 L
343.126 289.77 LE
345.013 286.29 LS
411.644 286.29 L
411.644 338.602 L
345.013 338.602 L
345.013 286.29 LE
346.835 282.811 LS
414.274 282.811 L
414.274 336.604 L
346.835 336.604 L
346.835 282.811 LE
348.593 279.195 LS
416.841 279.195 L
416.841 334.943 L
348.593 334.943 L
348.593 279.195 LE
350.283 275.41 LS
419.341 275.41 L
419.341 333.218 L
350.283 333.218 L
350.283 275.41 LE
351.905 271.507 LS
421.767 271.507 L
421.767 331.384 L
351.905 331.384 L
351.905 271.507 LE
353.455 267.49 LS
424.115 267.49 L
424.115 329.438 L
353.455 329.438 L
353.455 267.49 LE
354.932 263.367 LS
426.384 263.367 L
426.384 327.376 L
354.932 327.376 L
354.932 263.367 LE
356.334 259.141 LS
428.568 259.141 L
428.568 325.197 L
356.334 325.197 L
356.334 259.141 LE
357.657 254.81 LS
430.665 254.81 L
430.665 322.909 L
357.657 322.909 L
357.657 254.81 LE
358.9 250.391 LS
432.671 250.391 L
432.671 320.501 L
358.9 320.501 L
358.9 250.391 LE
360.06 245.889 LS
434.582 245.889 L
434.582 317.972 L
360.06 317.972 L
360.06 245.889 LE
361.137 241.311 LS
436.396 241.311 L
436.396 315.319 L
361.137 315.319 L
361.137 241.311 LE
362.126 236.432 LS
438.122 236.432 L
438.122 312.924 L
362.126 312.924 L
362.126 236.432 LE
363.027 231.578 LS
439.746 231.578 L
439.746 310.31 L
363.027 310.31 L
363.027 231.578 LE
363.837 226.682 LS
441.268 226.682 L
441.268 307.556 L
363.837 307.556 L
363.837 226.682 LE
364.554 221.762 LS
442.683 221.762 L
442.683 304.657 L
364.554 304.657 L
364.554 221.762 LE
365.056 216.83 LS
443.989 216.83 L
443.989 301.613 L
365.056 301.613 L
365.056 216.83 LE
365.46 211.9 LS
445.184 211.9 L
445.184 298.426 L
365.46 298.426 L
365.46 211.9 LE
365.768 206.986 LS
446.264 206.986 L
446.264 295.095 L
365.768 295.095 L
365.768 206.986 LE
365.98 202.103 LS
447.226 202.103 L
447.226 291.623 L
365.98 291.623 L
365.98 202.103 LE
366.096 197.263 LS
448.068 197.263 L
448.068 288.012 L
366.096 288.012 L
366.096 197.263 LE
366.116 192.534 LS
448.789 192.534 L
448.789 284.266 L
366.116 284.266 L
366.116 192.534 LE
366.04 187.808 LS
449.386 187.808 L
449.386 280.4 L
366.04 280.4 L
366.04 187.808 LE
365.868 183.192 LS
449.857 183.192 L
449.857 276.383 L
365.868 276.383 L
365.868 183.192 LE
365.602 178.673 LS
450.201 178.673 L
450.201 272.246 L
365.602 272.246 L
365.602 178.673 LE
365.242 174.234 LS
450.417 174.234 L
450.417 267.998 L
365.242 267.998 L
365.242 174.234 LE
364.787 169.757 LS
450.505 169.757 L
450.505 263.652 L
364.787 263.652 L
364.787 169.757 LE
364.239 165.402 LS
450.464 165.402 L
450.464 259.22 L
364.239 259.22 L
364.239 165.402 LE
363.6 161.178 LS
450.296 161.178 L
450.296 254.712 L
363.6 254.712 L
363.6 161.178 LE
362.871 157.094 LS
450 157.094 L
450 250.141 L
362.871 250.141 L
362.871 157.094 LE
362.053 153.156 LS
449.578 153.156 L
449.578 245.518 L
362.053 245.518 L
362.053 153.156 LE
361.147 149.234 LS
449.03 149.234 L
449.03 240.858 L
361.147 240.858 L
361.147 149.234 LE
360.153 145.527 LS
448.362 145.527 L
448.362 236.25 L
360.153 236.25 L
360.153 145.527 LE
359.076 142.031 LS
447.572 142.031 L
447.572 231.582 L
359.076 231.582 L
359.076 142.031 LE
357.916 138.702 LS
446.664 138.702 L
446.664 226.914 L
357.916 226.914 L
357.916 138.702 LE
356.675 135.545 LS
445.699 135.545 L
445.699 222.258 L
356.675 222.258 L
356.675 135.545 LE
355.355 132.56 LS
444.681 132.56 L
444.681 217.624 L
355.355 217.624 L
355.355 132.56 LE
353.957 129.747 LS
443.552 129.747 L
443.552 213.025 L
353.957 213.025 L
353.957 129.747 LE
352.485 127.106 LS
442.315 127.106 L
442.315 208.472 L
352.485 208.472 L
352.485 127.106 LE
350.94 124.635 LS
440.974 124.635 L
440.974 203.976 L
350.94 203.976 L
350.94 124.635 LE
349.325 122.331 LS
439.531 122.331 L
439.531 199.547 L
349.325 199.547 L
349.325 122.331 LE
347.642 120.162 LS
437.99 120.162 L
437.99 195.194 L
347.642 195.194 L
347.642 120.162 LE
345.902 118.46 LS
436.355 118.46 L
436.355 190.838 L
345.902 190.838 L
345.902 118.46 LE
344.106 116.991 LS
434.628 116.991 L
434.628 186.513 L
344.106 186.513 L
344.106 116.991 LE
342.254 115.681 LS
432.814 115.681 L
432.814 182.289 L
342.254 182.289 L
342.254 115.681 LE
340.348 114.524 LS
430.915 114.524 L
430.915 178.176 L
340.348 178.176 L
340.348 114.524 LE
338.392 113.512 LS
428.937 113.512 L
428.937 174.18 L
338.392 174.18 L
338.392 113.512 LE
336.388 112.637 LS
426.883 112.637 L
426.883 170.305 L
336.388 170.305 L
336.388 112.637 LE
334.339 111.892 LS
424.756 111.892 L
424.756 166.623 L
334.339 166.623 L
334.339 111.892 LE
332.246 111.268 LS
422.56 111.268 L
422.56 163.086 L
332.246 163.086 L
332.246 111.268 LE
330.113 110.758 LS
420.299 110.758 L
420.299 159.676 L
330.113 159.676 L
330.113 110.758 LE
327.942 110.355 LS
417.976 110.355 L
417.976 156.761 L
327.942 156.761 L
327.942 110.355 LE
325.74 110.215 LS
415.599 110.215 L
415.599 153.8 L
325.74 153.8 L
325.74 110.215 LE
323.506 110.155 LS
413.174 110.155 L
413.174 150.979 L
323.506 150.979 L
323.506 110.155 LE
321.243 110.171 LS
410.705 110.171 L
410.705 148.295 L
321.243 148.295 L
321.243 110.171 LE
318.952 110.256 LS
408.195 110.256 L
408.195 145.748 L
318.952 145.748 L
318.952 110.256 LE
316.637 110.405 LS
405.646 110.405 L
405.646 143.336 L
316.637 143.336 L
316.637 110.405 LE
314.298 110.611 LS
403.062 110.611 L
403.062 141.056 L
314.298 141.056 L
314.298 110.611 LE
311.938 110.871 LS
400.445 110.871 L
400.445 138.907 L
311.938 138.907 L
311.938 110.871 LE
309.558 111.178 LS
397.799 111.178 L
397.799 136.885 L
309.558 136.885 L
309.558 111.178 LE
307.136 110.463 LS
395.126 110.463 L
395.126 136.053 L
307.136 136.053 L
307.136 110.463 LE
304.699 109.907 LS
392.427 109.907 L
392.427 135.612 L
304.699 135.612 L
304.699 109.907 LE
302.254 109.445 LS
389.709 109.445 L
389.709 135.213 L
302.254 135.213 L
302.254 109.445 LE
299.804 109.039 LS
386.974 109.039 L
386.974 134.886 L
299.804 134.886 L
299.804 109.039 LE
297.349 108.687 LS
384.225 108.687 L
384.225 134.627 L
297.349 134.627 L
297.349 108.687 LE
294.891 108.395 LS
381.463 108.395 L
381.463 134.422 L
294.891 134.422 L
294.891 108.395 LE
292.431 108.15 LS
378.692 108.15 L
378.692 134.279 L
292.431 134.279 L
292.431 108.15 LE
289.969 107.954 LS
375.911 107.954 L
375.911 134.19 L
289.969 134.19 L
289.969 107.954 LE
287.508 107.807 LS
373.123 107.807 L
373.123 134.148 L
287.508 134.148 L
287.508 107.807 LE
285.047 107.709 LS
370.33 107.709 L
370.33 134.149 L
285.047 134.149 L
285.047 107.709 LE
282.588 107.657 LS
367.532 107.657 L
367.532 134.189 L
282.588 134.189 L
282.588 107.657 LE
280.137 108.032 LS
364.732 108.032 L
364.732 134.153 L
280.137 134.153 L
280.137 108.032 LE
277.696 108.384 LS
361.929 108.384 L
361.929 134.202 L
277.696 134.202 L
277.696 108.384 LE
275.266 108.748 LS
359.125 108.748 L
359.125 134.294 L
275.266 134.294 L
275.266 108.748 LE
272.847 109.13 LS
356.322 109.13 L
356.322 134.421 L
272.847 134.421 L
272.847 109.13 LE
270.439 109.528 LS
353.52 109.528 L
353.52 134.581 L
270.439 134.581 L
270.439 109.528 LE
268.044 109.935 LS
350.719 109.935 L
350.719 134.779 L
268.044 134.779 L
268.044 109.935 LE
265.66 110.355 LS
347.922 110.355 L
347.922 135.007 L
265.66 135.007 L
265.66 110.355 LE
263.289 110.789 LS
345.129 110.789 L
345.129 135.263 L
263.289 135.263 L
263.289 110.789 LE
260.931 111.236 LS
342.34 111.236 L
342.34 135.543 L
260.931 135.543 L
260.931 111.236 LE
258.585 111.695 LS
339.557 111.695 L
339.557 135.847 L
258.585 135.847 L
258.585 111.695 LE
256.254 112.332 LS
336.779 112.332 L
336.779 136.132 L
256.254 136.132 L
256.254 112.332 LE
253.937 112.892 LS
334.01 112.892 L
334.01 136.516 L
253.937 136.516 L
253.937 112.892 LE
251.634 113.46 LS
331.251 113.46 L
331.251 136.915 L
251.634 136.915 L
251.634 113.46 LE
249.346 114.033 LS
328.502 114.033 L
328.502 137.329 L
249.346 137.329 L
249.346 114.033 LE
247.071 114.612 LS
325.764 114.612 L
325.764 137.756 L
247.071 137.756 L
247.071 114.612 LE
244.81 115.196 LS
323.037 115.196 L
323.037 138.195 L
244.81 138.195 L
244.81 115.196 LE
242.564 115.783 LS
320.321 115.783 L
320.321 138.648 L
242.564 138.648 L
242.564 115.783 LE
240.333 116.374 LS
317.617 116.374 L
317.617 139.114 L
240.333 139.114 L
240.333 116.374 LE
238.116 116.968 LS
314.925 116.968 L
314.925 139.591 L
238.116 139.591 L
238.116 116.968 LE
235.914 117.556 LS
312.246 117.556 L
312.246 140.088 L
235.914 140.088 L
235.914 117.556 LE
233.727 118.186 LS
309.579 118.186 L
309.579 140.591 L
233.727 140.591 L
233.727 118.186 LE
231.555 118.797 LS
306.925 118.797 L
306.925 141.123 L
231.555 141.123 L
231.555 118.797 LE
229.398 119.411 LS
304.285 119.411 L
304.285 141.662 L
229.398 141.662 L
229.398 119.411 LE
227.256 120.027 LS
301.659 120.027 L
301.659 142.206 L
227.256 142.206 L
227.256 120.027 LE
225.129 120.645 LS
299.048 120.645 L
299.048 142.756 L
225.129 142.756 L
225.129 120.645 LE
223.018 121.266 LS
296.451 121.266 L
296.451 143.312 L
223.018 143.312 L
223.018 121.266 LE
220.921 121.888 LS
293.868 121.888 L
293.868 143.874 L
220.921 143.874 L
220.921 121.888 LE
218.84 122.511 LS
291.3 122.511 L
291.3 144.441 L
218.84 144.441 L
218.84 122.511 LE
216.775 123.136 LS
288.747 123.136 L
288.747 145.012 L
216.775 145.012 L
216.775 123.136 LE
214.725 123.754 LS
286.209 123.754 L
286.209 145.596 L
214.725 145.596 L
214.725 123.754 LE
212.689 124.354 LS
283.685 124.354 L
283.685 146.22 L
212.689 146.22 L
212.689 124.354 LE
210.669 124.941 LS
281.177 124.941 L
281.177 146.861 L
210.669 146.861 L
210.669 124.941 LE
208.665 125.528 LS
278.684 125.528 L
278.684 147.507 L
208.665 147.507 L
208.665 125.528 LE
206.676 126.119 LS
276.207 126.119 L
276.207 148.152 L
206.676 148.152 L
206.676 126.119 LE
204.704 126.713 LS
273.745 126.713 L
273.745 148.796 L
204.704 148.796 L
204.704 126.713 LE
202.747 127.311 LS
271.299 127.311 L
271.299 149.44 L
202.747 149.44 L
202.747 127.311 LE
200.806 127.912 LS
268.868 127.912 L
268.868 150.085 L
200.806 150.085 L
200.806 127.912 LE
198.881 128.516 LS
266.453 128.516 L
266.453 150.729 L
198.881 150.729 L
198.881 128.516 LE
196.972 129.123 LS
264.054 129.123 L
264.054 151.373 L
196.972 151.373 L
196.972 129.123 LE
195.079 129.733 LS
261.671 129.733 L
261.671 152.017 L
195.079 152.017 L
195.079 129.733 LE
193.2 130.269 LS
259.304 130.269 L
259.304 152.789 L
193.2 152.789 L
193.2 130.269 LE
191.339 130.843 LS
256.952 130.843 L
256.952 153.521 L
191.339 153.521 L
191.339 130.843 LE
189.494 131.414 LS
254.617 131.414 L
254.617 154.256 L
189.494 154.256 L
189.494 131.414 LE
187.666 131.99 LS
252.298 131.99 L
252.298 154.984 L
187.666 154.984 L
187.666 131.99 LE
185.855 132.57 LS
249.995 132.57 L
249.995 155.707 L
185.855 155.707 L
185.855 132.57 LE
184.061 133.155 LS
247.709 133.155 L
247.709 156.425 L
184.061 156.425 L
184.061 133.155 LE
182.284 133.745 LS
245.438 133.745 L
245.438 157.137 L
182.284 157.137 L
182.284 133.745 LE
180.524 134.339 LS
243.184 134.339 L
243.184 157.845 L
180.524 157.845 L
180.524 134.339 LE
178.781 134.936 LS
240.947 134.936 L
240.947 158.547 L
178.781 158.547 L
178.781 134.936 LE
177.054 135.537 LS
238.726 135.537 L
238.726 159.246 L
177.054 159.246 L
177.054 135.537 LE
175.344 136.133 LS
236.52 136.133 L
236.52 160.047 L
175.344 160.047 L
175.344 136.133 LE
173.653 136.785 LS
234.332 136.785 L
234.332 160.786 L
173.653 160.786 L
173.653 136.785 LE
171.981 137.431 LS
232.16 137.431 L
232.16 161.524 L
171.981 161.524 L
171.981 137.431 LE
170.327 138.078 LS
230.005 138.078 L
230.005 162.255 L
170.327 162.255 L
170.327 138.078 LE
168.692 138.726 LS
227.866 138.726 L
227.866 162.979 L
168.692 162.979 L
168.692 138.726 LE
167.075 139.374 LS
225.744 139.374 L
225.744 163.697 L
167.075 163.697 L
167.075 139.374 LE
165.475 140.023 LS
223.639 140.023 L
223.639 164.409 L
165.475 164.409 L
165.475 140.023 LE
163.894 140.673 LS
221.55 140.673 L
221.55 165.116 L
163.894 165.116 L
163.894 140.673 LE
162.331 141.323 LS
219.478 141.323 L
219.478 165.816 L
162.331 165.816 L
162.331 141.323 LE
160.786 141.974 LS
217.423 141.974 L
217.423 166.512 L
160.786 166.512 L
160.786 141.974 LE
159.258 142.659 LS
215.383 142.659 L
215.383 167.27 L
159.258 167.27 L
159.258 142.659 LE
157.751 143.383 LS
213.362 143.383 L
213.362 167.978 L
157.751 167.978 L
157.751 143.383 LE
156.262 144.102 LS
211.357 144.102 L
211.357 168.681 L
156.262 168.681 L
156.262 144.102 LE
154.791 144.818 LS
209.371 144.818 L
209.371 169.378 L
154.791 169.378 L
154.791 144.818 LE
153.339 145.53 LS
207.401 145.53 L
207.401 170.07 L
153.339 170.07 L
153.339 145.53 LE
151.905 146.239 LS
205.45 146.239 L
205.45 170.758 L
151.905 170.758 L
151.905 146.239 LE
150.489 146.944 LS
203.515 146.944 L
203.515 171.44 L
150.489 171.44 L
150.489 146.944 LE
149.091 147.646 LS
201.598 147.646 L
201.598 172.118 L
149.091 172.118 L
149.091 147.646 LE
147.711 148.346 LS
199.698 148.346 L
199.698 172.792 L
147.711 172.792 L
147.711 148.346 LE
146.349 149.043 LS
197.815 149.043 L
197.815 173.461 L
146.349 173.461 L
146.349 149.043 LE
145.005 149.762 LS
195.95 149.762 L
195.95 174.175 L
145.005 174.175 L
145.005 149.762 LE
143.679 150.504 LS
194.102 150.504 L
194.102 174.857 L
143.679 174.857 L
143.679 150.504 LE
142.371 151.241 LS
192.272 151.241 L
192.272 175.532 L
142.371 175.532 L
142.371 151.241 LE
141.08 151.974 LS
190.46 151.974 L
190.46 176.202 L
141.08 176.202 L
141.08 151.974 LE
139.808 152.701 LS
188.667 152.701 L
188.667 176.869 L
139.808 176.869 L
139.808 152.701 LE
138.552 153.424 LS
186.891 153.424 L
186.891 177.531 L
138.552 177.531 L
138.552 153.424 LE
137.314 154.143 LS
185.133 154.143 L
185.133 178.19 L
137.314 178.19 L
137.314 154.143 LE
136.093 154.856 LS
183.393 154.856 L
183.393 178.846 L
136.093 178.846 L
136.093 154.856 LE
134.89 155.564 LS
181.671 155.564 L
181.671 179.5 L
134.89 179.5 L
134.89 155.564 LE
133.703 156.268 LS
179.966 156.268 L
179.966 180.15 L
133.703 180.15 L
133.703 156.268 LE
132.533 156.979 LS
178.278 156.979 L
178.278 180.837 L
132.533 180.837 L
132.533 156.979 LE
131.381 157.7 LS
176.609 157.7 L
176.609 181.504 L
131.381 181.504 L
131.381 157.7 LE
130.245 158.42 LS
174.958 158.42 L
174.958 182.164 L
130.245 182.164 L
130.245 158.42 LE
129.126 159.135 LS
173.326 159.135 L
173.326 182.82 L
129.126 182.82 L
129.126 159.135 LE
128.023 159.845 LS
171.712 159.845 L
171.712 183.472 L
128.023 183.472 L
128.023 159.845 LE
126.936 160.551 LS
170.116 160.551 L
170.116 184.121 L
126.936 184.121 L
126.936 160.551 LE
125.866 161.254 LS
168.538 161.254 L
168.538 184.766 L
125.866 184.766 L
125.866 161.254 LE
124.812 161.952 LS
166.978 161.952 L
166.978 185.409 L
124.812 185.409 L
124.812 161.952 LE
123.774 162.647 LS
165.436 162.647 L
165.436 186.048 L
123.774 186.048 L
123.774 162.647 LE
122.752 163.338 LS
163.912 163.338 L
163.912 186.684 L
122.752 186.684 L
122.752 163.338 LE
121.746 164.027 LS
162.405 164.027 L
162.405 187.345 L
121.746 187.345 L
121.746 164.027 LE
120.757 164.72 LS
160.916 164.72 L
160.916 187.996 L
120.757 187.996 L
120.757 164.72 LE
119.783 165.411 LS
159.446 165.411 L
159.446 188.64 L
119.783 188.64 L
119.783 165.411 LE
118.825 166.098 LS
157.994 166.098 L
157.994 189.281 L
118.825 189.281 L
118.825 166.098 LE
117.882 166.783 LS
156.56 166.783 L
156.56 189.919 L
117.882 189.919 L
117.882 166.783 LE
116.956 167.463 LS
155.143 167.463 L
155.143 190.555 L
116.956 190.555 L
116.956 167.463 LE
116.044 168.141 LS
153.745 168.141 L
153.745 191.187 L
116.044 191.187 L
116.044 168.141 LE
115.148 168.816 LS
152.364 168.816 L
152.364 191.817 L
115.148 191.817 L
115.148 168.816 LE
114.268 169.487 LS
151.001 169.487 L
151.001 192.445 L
114.268 192.445 L
114.268 169.487 LE
113.404 170.156 LS
149.655 170.156 L
149.655 193.07 L
113.404 193.07 L
113.404 170.156 LE
112.555 170.834 LS
148.327 170.834 L
148.327 193.695 L
112.555 193.695 L
112.555 170.834 LE
111.721 171.509 LS
147.016 171.509 L
147.016 194.318 L
111.721 194.318 L
111.721 171.509 LE
110.903 172.183 LS
145.722 172.183 L
145.722 194.935 L
110.903 194.935 L
110.903 172.183 LE
110.1 172.852 LS
144.446 172.852 L
144.446 195.554 L
110.1 195.554 L
110.1 172.852 LE
109.312 173.517 LS
143.188 173.517 L
143.188 196.171 L
109.312 196.171 L
109.312 173.517 LE
108.539 174.18 LS
141.947 174.18 L
141.947 196.786 L
108.539 196.786 L
108.539 174.18 LE
107.782 174.84 LS
140.722 174.84 L
140.722 197.399 L
107.782 197.399 L
107.782 174.84 LE
107.04 175.494 LS
139.515 175.494 L
139.515 198.01 L
107.04 198.01 L
107.04 175.494 LE
106.313 176.141 LS
138.325 176.141 L
138.325 198.62 L
106.313 198.62 L
106.313 176.141 LE
105.601 176.786 LS
137.152 176.786 L
137.152 199.229 L
105.601 199.229 L
105.601 176.786 LE
104.905 177.429 LS
135.995 177.429 L
135.995 199.835 L
104.905 199.835 L
104.905 177.429 LE
104.223 178.073 LS
134.856 178.073 L
134.856 200.44 L
104.223 200.44 L
104.223 178.073 LE
103.557 178.717 LS
133.733 178.717 L
133.733 201.04 L
103.557 201.04 L
103.557 178.717 LE
102.906 179.359 LS
132.627 179.359 L
132.627 201.639 L
102.906 201.639 L
102.906 179.359 LE
102.269 180 LS
131.538 180 L
131.538 202.237 L
102.269 202.237 L
102.269 180 LE
101.648 180.638 LS
130.466 180.638 L
130.466 202.835 L
101.648 202.835 L
101.648 180.638 LE
101.041 181.273 LS
129.41 181.273 L
129.41 203.432 L
101.041 203.432 L
101.041 181.273 LE
100.449 181.905 LS
128.37 181.905 L
128.37 204.029 L
100.449 204.029 L
100.449 181.905 LE
99.8726 182.536 LS
127.347 182.536 L
127.347 204.625 L
99.8726 204.625 L
99.8726 182.536 LE
99.3109 183.165 LS
126.341 183.165 L
126.341 205.22 L
99.3109 205.22 L
99.3109 183.165 LE
98.6866 183.745 LS
125.427 183.745 L
125.427 205.859 L
98.6866 205.859 L
98.6866 183.745 LE
98.0775 184.351 LS
124.529 184.351 L
124.529 206.47 L
98.0775 206.47 L
98.0775 184.351 LE
97.4851 184.957 LS
123.646 184.957 L
123.646 207.078 L
97.4851 207.078 L
97.4851 184.957 LE
96.9095 185.562 LS
122.777 185.562 L
122.777 207.686 L
96.9095 207.686 L
96.9095 185.562 LE
96.3504 186.165 LS
121.922 186.165 L
121.922 208.292 L
96.3504 208.292 L
96.3504 186.165 LE
95.808 186.768 LS
121.082 186.768 L
121.082 208.898 L
95.808 208.898 L
95.808 186.768 LE
95.2821 187.37 LS
120.256 187.37 L
120.256 209.504 L
95.2821 209.504 L
95.2821 187.37 LE
94.7728 187.97 LS
119.444 187.97 L
119.444 210.108 L
94.7728 210.108 L
94.7728 187.97 LE
94.2799 188.57 LS
118.646 188.57 L
118.646 210.712 L
94.2799 210.712 L
94.2799 188.57 LE
93.8036 189.168 LS
117.863 189.168 L
117.863 211.315 L
93.8036 211.315 L
93.8036 189.168 LE
93.3438 189.766 LS
117.094 189.766 L
117.094 211.924 L
93.3438 211.924 L
93.3438 189.766 LE
92.9001 190.356 LS
116.339 190.356 L
116.339 212.528 L
92.9001 212.528 L
92.9001 190.356 LE
92.4727 190.946 LS
115.598 190.946 L
115.598 213.13 L
92.4727 213.13 L
92.4727 190.946 LE
92.0616 191.535 LS
114.871 191.535 L
114.871 213.731 L
92.0616 213.731 L
92.0616 191.535 LE
91.6668 192.124 LS
114.158 192.124 L
114.158 214.332 L
91.6668 214.332 L
91.6668 192.124 LE
91.2882 192.713 LS
113.459 192.713 L
113.459 214.933 L
91.2882 214.933 L
91.2882 192.713 LE
90.9258 193.301 LS
112.775 193.301 L
112.775 215.533 L
90.9258 215.533 L
90.9258 193.301 LE
90.5796 193.888 LS
112.105 193.888 L
112.105 216.133 L
90.5796 216.133 L
90.5796 193.888 LE
90.2497 194.475 LS
111.448 194.475 L
111.448 216.733 L
90.2497 216.733 L
90.2497 194.475 LE
89.936 195.062 LS
110.806 195.062 L
110.806 217.333 L
89.936 217.333 L
89.936 195.062 LE
89.6384 195.648 LS
110.178 195.648 L
110.178 217.92 L
89.6384 217.92 L
89.6384 195.648 LE
89.3572 196.237 LS
109.564 196.237 L
109.564 218.511 L
89.3572 218.511 L
89.3572 196.237 LE
89.0924 196.826 LS
108.963 196.826 L
108.963 219.102 L
89.0924 219.102 L
89.0924 196.826 LE
88.8438 197.414 LS
108.377 197.414 L
108.377 219.693 L
88.8438 219.693 L
88.8438 197.414 LE
88.6115 198.002 LS
107.804 198.002 L
107.804 220.285 L
88.6115 220.285 L
88.6115 198.002 LE
88.3955 198.59 LS
107.245 198.59 L
107.245 220.876 L
88.3955 220.876 L
88.3955 198.59 LE
88.1958 199.177 LS
106.699 199.177 L
106.699 221.468 L
88.1958 221.468 L
88.1958 199.177 LE
88.0123 199.764 LS
106.168 199.764 L
106.168 222.06 L
88.0123 222.06 L
88.0123 199.764 LE
87.8451 200.35 LS
105.65 200.35 L
105.65 222.652 L
87.8451 222.652 L
87.8451 200.35 LE
87.6941 200.936 LS
105.147 200.936 L
105.147 223.244 L
87.6941 223.244 L
87.6941 200.936 LE
87.5594 201.522 LS
104.657 201.522 L
104.657 223.832 L
87.5594 223.832 L
87.5594 201.522 LE
87.4408 202.104 LS
104.18 202.104 L
104.18 224.425 L
87.4408 224.425 L
87.4408 202.104 LE
87.3385 202.686 LS
103.719 202.686 L
103.719 225.018 L
87.3385 225.018 L
87.3385 202.686 LE
87.2524 203.268 LS
103.285 203.268 L
103.285 225.612 L
87.2524 225.612 L
87.2524 203.268 LE
87.1825 203.85 LS
102.866 203.85 L
102.866 226.205 L
87.1825 226.205 L
87.1825 203.85 LE
87.1288 204.432 LS
102.46 204.432 L
102.46 226.799 L
87.1288 226.799 L
87.1288 204.432 LE
87.0914 205.014 LS
102.067 205.014 L
102.067 227.393 L
87.0914 227.393 L
87.0914 205.014 LE
87.0702 205.596 LS
101.689 205.596 L
101.689 227.986 L
87.0702 227.986 L
87.0702 205.596 LE
87.0652 206.178 LS
101.324 206.178 L
101.324 228.58 L
87.0652 228.58 L
87.0652 206.178 LE
87.0764 206.76 LS
100.974 206.76 L
100.974 229.174 L
87.0764 229.174 L
87.0764 206.76 LE
87.1038 207.342 LS
100.637 207.342 L
100.637 229.766 L
87.1038 229.766 L
87.1038 207.342 LE
87.1474 207.922 LS
100.313 207.922 L
100.313 230.361 L
87.1474 230.361 L
87.1474 207.922 LE
87.2072 208.503 LS
100.004 208.503 L
100.004 230.956 L
87.2072 230.956 L
87.2072 208.503 LE
87.2833 209.083 LS
99.7084 209.083 L
99.7084 231.551 L
87.2833 231.551 L
87.2833 209.083 LE
87.3755 209.665 LS
99.4265 209.665 L
99.4265 232.146 L
87.3755 232.146 L
87.3755 209.665 LE
87.4841 210.246 LS
99.1584 210.246 L
99.1584 232.741 L
87.4841 232.741 L
87.4841 210.246 LE
87.6088 210.827 LS
98.9041 210.827 L
98.9041 233.335 L
87.6088 233.335 L
87.6088 210.827 LE
87.7497 211.409 LS
98.6637 211.409 L
98.6637 233.93 L
87.7497 233.93 L
87.7497 211.409 LE
87.9069 211.992 LS
98.437 211.992 L
98.437 234.524 L
87.9069 234.524 L
87.9069 211.992 LE
88.0803 212.574 LS
98.2241 212.574 L
98.2241 235.118 L
88.0803 235.118 L
88.0803 212.574 LE
88.2699 213.157 LS
98.0249 213.157 L
98.0249 235.71 L
88.2699 235.71 L
88.2699 213.157 LE
88.2394 213.741 LS
98.0761 213.741 L
98.0761 236.308 L
88.2394 236.308 L
88.2394 213.741 LE
88.0793 214.325 LS
98.287 214.325 L
98.287 236.915 L
88.0793 236.915 L
88.0793 214.325 LE
87.9356 214.91 LS
98.5115 214.91 L
98.5115 237.522 L
87.9356 237.522 L
87.9356 214.91 LE
87.8081 215.494 LS
98.7497 215.494 L
98.7497 238.129 L
87.8081 238.129 L
87.8081 215.494 LE
87.697 216.079 LS
99.0017 216.079 L
99.0017 238.735 L
87.697 238.735 L
87.697 216.079 LE
87.6022 216.664 LS
99.2674 216.664 L
99.2674 239.341 L
87.6022 239.341 L
87.6022 216.664 LE
87.5237 217.249 LS
99.5467 217.249 L
99.5467 239.946 L
87.5237 239.946 L
87.5237 217.249 LE
87.4615 217.835 LS
99.8397 217.835 L
99.8397 240.551 L
87.4615 240.551 L
87.4615 217.835 LE
87.4157 218.42 LS
100.146 218.42 L
100.146 241.155 L
87.4157 241.155 L
87.4157 218.42 LE
87.3861 219.006 LS
100.467 219.006 L
100.467 241.755 L
87.3861 241.755 L
87.3861 219.006 LE
87.3731 219.596 LS
100.8 219.596 L
100.8 242.354 L
87.3731 242.354 L
87.3731 219.596 LE
87.3764 220.185 LS
101.148 220.185 L
101.148 242.952 L
87.3764 242.952 L
87.3764 220.185 LE
87.3961 220.774 LS
101.509 220.774 L
101.509 243.549 L
87.3961 243.549 L
87.3961 220.774 LE
87.4322 221.363 LS
101.883 221.363 L
101.883 244.145 L
87.4322 244.145 L
87.4322 221.363 LE
87.4847 221.953 LS
102.271 221.953 L
102.271 244.74 L
87.4847 244.74 L
87.4847 221.953 LE
87.5536 222.543 LS
102.672 222.543 L
102.672 245.334 L
87.5536 245.334 L
87.5536 222.543 LE
87.639 223.134 LS
103.086 223.134 L
103.086 245.926 L
87.639 245.926 L
87.639 223.134 LE
87.7408 223.725 LS
103.514 223.725 L
103.514 246.516 L
87.7408 246.516 L
87.7408 223.725 LE
87.859 224.316 LS
103.956 224.316 L
103.956 247.106 L
87.859 247.106 L
87.859 224.316 LE
87.9849 224.907 LS
104.41 224.907 L
104.41 247.686 L
87.9849 247.686 L
87.9849 224.907 LE
88.121 225.493 LS
104.878 225.493 L
104.878 248.274 L
88.121 248.274 L
88.121 225.493 LE
88.2736 226.022 LS
105.36 226.022 L
105.36 248.916 L
88.2736 248.916 L
88.2736 226.022 LE
88.4427 226.55 LS
105.855 226.55 L
105.855 249.558 L
88.4427 249.558 L
88.4427 226.55 LE
88.6282 227.077 LS
106.363 227.077 L
106.363 250.199 L
88.6282 250.199 L
88.6282 227.077 LE
88.8302 227.603 LS
106.885 227.603 L
106.885 250.838 L
88.8302 250.838 L
88.8302 227.603 LE
89.0486 228.128 LS
107.419 228.128 L
107.419 251.477 L
89.0486 251.477 L
89.0486 228.128 LE
89.2834 228.652 LS
107.965 228.652 L
107.965 252.114 L
89.2834 252.114 L
89.2834 228.652 LE
89.5348 229.174 LS
108.525 229.174 L
108.525 252.75 L
89.5348 252.75 L
89.5348 229.174 LE
89.8025 229.693 LS
109.098 229.693 L
109.098 253.387 L
89.8025 253.387 L
89.8025 229.693 LE
90.0866 230.21 LS
109.682 230.21 L
109.682 254.009 L
90.0866 254.009 L
90.0866 230.21 LE
90.3872 230.731 LS
110.28 230.731 L
110.28 254.628 L
90.3872 254.628 L
90.3872 230.731 LE
90.704 231.248 LS
110.889 231.248 L
110.889 255.246 L
90.704 255.246 L
90.704 231.248 LE
91.0372 231.765 LS
111.511 231.765 L
111.511 255.861 L
91.0372 255.861 L
91.0372 231.765 LE
91.2979 232.28 LS
112.234 232.28 L
112.234 256.475 L
91.2979 256.475 L
91.2979 232.28 LE
91.5264 232.793 LS
113.017 232.793 L
113.017 257.087 L
91.5264 257.087 L
91.5264 232.793 LE
91.7699 233.305 LS
113.813 233.305 L
113.813 257.696 L
91.7699 257.696 L
91.7699 233.305 LE
92.0284 233.814 LS
114.623 233.814 L
114.623 258.303 L
92.0284 258.303 L
92.0284 233.814 LE
92.3019 234.322 LS
115.445 234.322 L
115.445 258.907 L
92.3019 258.907 L
92.3019 234.322 LE
92.5904 234.827 LS
116.281 234.827 L
116.281 259.508 L
92.5904 259.508 L
92.5904 234.827 LE
92.8939 235.33 LS
117.129 235.33 L
117.129 260.089 L
92.8939 260.089 L
92.8939 235.33 LE
93.2124 235.831 LS
117.989 235.831 L
117.989 260.666 L
93.2124 260.666 L
93.2124 235.831 LE
93.5458 236.33 LS
118.861 236.33 L
118.861 261.239 L
93.5458 261.239 L
93.5458 236.33 LE
93.8941 236.826 LS
119.745 236.826 L
119.745 261.807 L
93.8941 261.807 L
93.8941 236.826 LE
94.2572 237.318 LS
120.641 237.318 L
120.641 262.372 L
94.2572 262.372 L
94.2572 237.318 LE
94.6352 237.808 LS
121.549 237.808 L
121.549 262.932 L
94.6352 262.932 L
94.6352 237.808 LE
95.028 238.296 LS
122.468 238.296 L
122.468 263.488 L
95.028 263.488 L
95.028 238.296 LE
95.4355 238.78 LS
123.398 238.78 L
123.398 264.038 L
95.4355 264.038 L
95.4355 238.78 LE
95.8578 239.262 LS
124.339 239.262 L
124.339 264.583 L
95.8578 264.583 L
95.8578 239.262 LE
96.2949 239.741 LS
125.292 239.741 L
125.292 265.123 L
96.2949 265.123 L
96.2949 239.741 LE
96.7466 240.217 LS
126.255 240.217 L
126.255 265.633 L
96.7466 265.633 L
96.7466 240.217 LE
97.2129 240.686 LS
127.228 240.686 L
127.228 266.136 L
97.2129 266.136 L
97.2129 240.686 LE
97.6937 241.142 LS
128.21 241.142 L
128.21 266.631 L
97.6937 266.631 L
97.6937 241.142 LE
98.189 241.594 LS
129.203 241.594 L
129.203 267.12 L
98.189 267.12 L
98.189 241.594 LE
98.6987 242.044 LS
130.204 242.044 L
130.204 267.6 L
98.6987 267.6 L
98.6987 242.044 LE
99.2227 242.489 LS
131.215 242.489 L
131.215 268.073 L
99.2227 268.073 L
99.2227 242.489 LE
99.761 242.931 LS
132.235 242.931 L
132.235 268.537 L
99.761 268.537 L
99.761 242.931 LE
100.314 243.37 LS
133.264 243.37 L
133.264 268.992 L
100.314 268.992 L
100.314 243.37 LE
100.88 243.805 LS
134.301 243.805 L
134.301 269.44 L
100.88 269.44 L
100.88 243.805 LE
101.461 244.236 LS
135.346 244.236 L
135.346 269.878 L
101.461 269.878 L
101.461 244.236 LE
102.056 244.661 LS
136.398 244.661 L
136.398 270.279 L
102.056 270.279 L
102.056 244.661 LE
102.665 245.08 LS
137.458 245.08 L
137.458 270.672 L
102.665 270.672 L
102.665 245.08 LE
103.288 245.493 LS
138.525 245.493 L
138.525 271.055 L
103.288 271.055 L
103.288 245.493 LE
103.924 245.902 LS
139.598 245.902 L
139.598 271.427 L
103.924 271.427 L
103.924 245.902 LE
104.573 246.306 LS
140.677 246.306 L
140.677 271.788 L
104.573 271.788 L
104.573 246.306 LE
105.236 246.704 LS
141.762 246.704 L
141.762 272.138 L
105.236 272.138 L
105.236 246.704 LE
105.913 247.098 LS
142.853 247.098 L
142.853 272.476 L
105.913 272.476 L
105.913 247.098 LE
106.602 247.485 LS
143.949 247.485 L
143.949 272.803 L
106.602 272.803 L
106.602 247.485 LE
107.305 247.867 LS
145.05 247.867 L
145.05 273.118 L
107.305 273.118 L
107.305 247.867 LE
108.02 248.243 LS
146.156 248.243 L
146.156 273.42 L
108.02 273.42 L
108.02 248.243 LE
108.749 248.615 LS
147.266 248.615 L
147.266 273.679 L
108.749 273.679 L
108.749 248.615 LE
109.49 248.974 LS
148.379 248.974 L
148.379 273.929 L
109.49 273.929 L
109.49 248.974 LE
110.243 249.326 LS
149.495 249.326 L
149.495 274.167 L
110.243 274.167 L
110.243 249.326 LE
111.008 249.671 LS
150.614 249.671 L
150.614 274.39 L
111.008 274.39 L
111.008 249.671 LE
111.785 250.01 LS
151.735 250.01 L
151.735 274.598 L
111.785 274.598 L
111.785 250.01 LE
112.574 250.341 LS
152.859 250.341 L
152.859 274.792 L
112.574 274.792 L
112.574 250.341 LE
113.375 250.665 LS
153.983 250.665 L
153.983 274.97 L
113.375 274.97 L
113.375 250.665 LE
114.187 250.982 LS
155.109 250.982 L
155.109 275.132 L
114.187 275.132 L
114.187 250.982 LE
115.011 251.292 LS
156.236 251.292 L
156.236 275.278 L
115.011 275.278 L
115.011 251.292 LE
115.846 251.594 LS
157.363 251.594 L
157.363 275.408 L
115.846 275.408 L
115.846 251.594 LE
116.691 251.895 LS
158.49 251.895 L
158.49 275.492 L
116.691 275.492 L
116.691 251.895 LE
117.548 252.173 LS
159.615 252.173 L
159.615 275.572 L
117.548 275.572 L
117.548 252.173 LE
118.414 252.442 LS
160.74 252.442 L
160.74 275.635 L
118.414 275.635 L
118.414 252.442 LE
119.291 252.702 LS
161.863 252.702 L
161.863 275.681 L
119.291 275.681 L
119.291 252.702 LE
120.177 252.953 LS
162.983 252.953 L
162.983 275.708 L
120.177 275.708 L
120.177 252.953 LE
121.073 253.196 LS
164.101 253.196 L
164.101 275.716 L
121.073 275.716 L
121.073 253.196 LE
121.977 253.43 LS
165.217 253.43 L
165.217 275.704 L
121.977 275.704 L
121.977 253.43 LE
122.89 253.655 LS
166.329 253.655 L
166.329 275.674 L
122.89 275.674 L
122.89 253.655 LE
123.715 253.868 LS
167.535 253.868 L
167.535 275.625 L
123.715 275.625 L
123.715 253.868 LE
124.519 254.072 LS
168.765 254.072 L
168.765 275.556 L
124.519 275.556 L
124.519 254.072 LE
125.329 254.279 LS
169.993 254.279 L
169.993 275.443 L
125.329 275.443 L
125.329 254.279 LE
126.145 254.455 LS
171.217 254.455 L
171.217 275.33 L
126.145 275.33 L
126.145 254.455 LE
126.965 254.62 LS
172.438 254.62 L
172.438 275.196 L
126.965 275.196 L
126.965 254.62 LE
127.791 254.694 LS
173.657 254.694 L
173.657 275.121 L
127.791 275.121 L
127.791 254.694 LE
128.621 254.411 LS
174.88 254.411 L
174.88 275.371 L
128.621 275.371 L
128.621 254.411 LE
129.451 254.109 LS
176.101 254.109 L
176.101 275.607 L
129.451 275.607 L
129.451 254.109 LE
130.287 253.788 LS
177.316 253.788 L
177.316 275.828 L
130.287 275.828 L
130.287 253.788 LE
131.126 253.447 LS
178.525 253.447 L
178.525 276.035 L
131.126 276.035 L
131.126 253.447 LE
131.968 253.087 LS
179.728 253.087 L
179.728 276.227 L
131.968 276.227 L
131.968 253.087 LE
132.813 252.708 LS
180.923 252.708 L
180.923 276.403 L
132.813 276.403 L
132.813 252.708 LE
133.661 252.3 LS
182.11 252.3 L
182.11 276.576 L
133.661 276.576 L
133.661 252.3 LE
134.511 251.886 LS
183.289 251.886 L
183.289 276.719 L
134.511 276.719 L
134.511 251.886 LE
135.363 251.452 LS
184.459 251.452 L
184.459 276.845 L
135.363 276.845 L
135.363 251.452 LE
136.217 250.999 LS
185.62 250.999 L
185.62 276.954 L
136.217 276.954 L
136.217 250.999 LE
137.071 250.526 LS
186.772 250.526 L
186.772 277.046 L
137.071 277.046 L
137.071 250.526 LE
137.926 250.034 LS
187.913 250.034 L
187.913 277.121 L
137.926 277.121 L
137.926 250.034 LE
138.781 249.521 LS
189.044 249.521 L
189.044 277.177 L
138.781 277.177 L
138.781 249.521 LE
139.635 248.988 LS
190.164 248.988 L
190.164 277.216 L
139.635 277.216 L
139.635 248.988 LE
140.489 248.436 LS
191.272 248.436 L
191.272 277.235 L
140.489 277.235 L
140.489 248.436 LE
141.339 247.863 LS
192.37 247.863 L
192.37 277.236 L
141.339 277.236 L
141.339 247.863 LE
142.187 247.265 LS
193.456 247.265 L
193.456 277.236 L
142.187 277.236 L
142.187 247.265 LE
143.033 246.664 LS
194.528 246.664 L
194.528 277.2 L
143.033 277.2 L
143.033 246.664 LE
143.877 246.044 LS
195.586 246.044 L
195.586 277.144 L
143.877 277.144 L
143.877 246.044 LE
144.718 245.405 LS
196.63 245.405 L
196.63 277.066 L
144.718 277.066 L
144.718 245.405 LE
145.556 244.746 LS
197.659 244.746 L
197.659 276.968 L
145.556 276.968 L
145.556 244.746 LE
146.39 244.069 LS
198.673 244.069 L
198.673 276.848 L
146.39 276.848 L
146.39 244.069 LE
147.221 243.373 LS
199.669 243.373 L
199.669 276.707 L
147.221 276.707 L
147.221 243.373 LE
148.047 242.658 LS
200.65 242.658 L
200.65 276.543 L
148.047 276.543 L
148.047 242.658 LE
148.868 241.926 LS
201.612 241.926 L
201.612 276.358 L
148.868 276.358 L
148.868 241.926 LE
149.684 241.176 LS
202.556 241.176 L
202.556 276.149 L
149.684 276.149 L
149.684 241.176 LE
150.495 240.399 LS
203.482 240.399 L
203.482 275.944 L
150.495 275.944 L
150.495 240.399 LE
151.299 239.614 LS
204.389 239.614 L
204.389 275.706 L
151.299 275.706 L
151.299 239.614 LE
152.098 238.813 LS
205.276 238.813 L
205.276 275.443 L
152.098 275.443 L
152.098 238.813 LE
152.889 237.995 LS
206.143 237.995 L
206.143 275.155 L
152.889 275.155 L
152.889 237.995 LE
153.673 237.162 LS
206.99 237.162 L
206.99 274.844 L
153.673 274.844 L
153.673 237.162 LE
154.449 236.313 LS
207.814 236.313 L
207.814 274.508 L
154.449 274.508 L
154.449 236.313 LE
155.216 235.449 LS
208.618 235.449 L
208.618 274.146 L
155.216 274.146 L
155.216 235.449 LE
155.975 234.571 LS
209.398 234.571 L
209.398 273.759 L
155.975 273.759 L
155.975 234.571 LE
156.726 233.68 LS
210.155 233.68 L
210.155 273.347 L
156.726 273.347 L
156.726 233.68 LE
157.466 232.775 LS
210.889 232.775 L
210.889 272.908 L
157.466 272.908 L
157.466 232.775 LE
158.196 231.845 LS
211.599 231.845 L
211.599 272.472 L
158.196 272.472 L
158.196 231.845 LE
158.916 230.91 LS
212.285 230.91 L
212.285 272.002 L
158.916 272.002 L
158.916 230.91 LE
159.625 229.809 LS
212.949 229.809 L
212.949 271.659 L
159.625 271.659 L
159.625 229.809 LE
160.322 228.658 LS
213.59 228.658 L
213.59 271.33 L
160.322 271.33 L
160.322 228.658 LE
161.008 227.493 LS
214.204 227.493 L
214.204 270.977 L
161.008 270.977 L
161.008 227.493 LE
161.681 226.315 LS
214.792 226.315 L
214.792 270.601 L
161.681 270.601 L
161.681 226.315 LE
162.341 225.125 LS
215.354 225.125 L
215.354 270.202 L
162.341 270.202 L
162.341 225.125 LE
162.988 223.925 LS
215.889 223.925 L
215.889 269.779 L
162.988 269.779 L
162.988 223.925 LE
163.596 222.715 LS
216.396 222.715 L
216.396 269.344 L
163.596 269.344 L
163.596 222.715 LE
164.183 221.497 LS
216.875 221.497 L
216.875 268.892 L
164.183 268.892 L
164.183 221.497 LE
164.756 220.255 LS
217.327 220.255 L
217.327 268.416 L
164.756 268.416 L
164.756 220.255 LE
165.313 219.012 LS
217.75 219.012 L
217.75 267.935 L
165.313 267.935 L
165.313 219.012 LE
165.854 217.763 LS
218.145 217.763 L
218.145 267.43 L
165.854 267.43 L
165.854 217.763 LE
166.378 216.508 LS
218.511 216.508 L
218.511 266.903 L
166.378 266.903 L
166.378 216.508 LE
166.886 215.249 LS
218.848 215.249 L
218.848 266.352 L
166.886 266.352 L
166.886 215.249 LE
167.376 213.988 LS
219.156 213.988 L
219.156 265.777 L
167.376 265.777 L
167.376 213.988 LE
167.849 212.727 LS
219.434 212.727 L
219.434 265.177 L
167.849 265.177 L
167.849 212.727 LE
168.303 211.466 LS
219.682 211.466 L
219.682 264.552 L
168.303 264.552 L
168.303 211.466 LE
168.739 210.209 LS
219.9 210.209 L
219.9 263.903 L
168.739 263.903 L
168.739 210.209 LE
169.155 208.956 LS
220.088 208.956 L
220.088 263.228 L
169.155 263.228 L
169.155 208.956 LE
169.381 207.214 LS
220.417 207.214 L
220.417 262.974 L
169.381 262.974 L
169.381 207.214 LE
169.569 205.498 LS
220.733 205.498 L
220.733 262.716 L
169.569 262.716 L
169.569 205.498 LE
169.738 203.787 LS
221.019 203.787 L
221.019 262.437 L
169.738 262.437 L
169.738 203.787 LE
169.885 202.081 LS
221.275 202.081 L
221.275 262.137 L
169.885 262.137 L
169.885 202.081 LE
170.012 200.383 LS
221.5 200.383 L
221.5 261.816 L
170.012 261.816 L
170.012 200.383 LE
170.117 198.694 LS
221.696 198.694 L
221.696 261.475 L
170.117 261.475 L
170.117 198.694 LE
170.201 197.017 LS
221.861 197.017 L
221.861 261.113 L
170.201 261.113 L
170.201 197.017 LE
170.262 195.353 LS
221.996 195.353 L
221.996 260.731 L
170.262 260.731 L
170.262 195.353 LE
170.302 193.704 LS
222.101 193.704 L
222.101 260.327 L
170.302 260.327 L
170.302 193.704 LE
170.319 192.072 LS
222.176 192.072 L
222.176 259.902 L
170.319 259.902 L
170.319 192.072 LE
170.309 190.433 LS
222.226 190.433 L
222.226 259.456 L
170.309 259.456 L
170.309 190.433 LE
169.872 188.81 LS
222.65 188.81 L
222.65 259.013 L
169.872 259.013 L
169.872 188.81 LE
169.15 187.172 LS
223.307 187.172 L
223.307 258.548 L
169.15 258.548 L
169.15 187.172 LE
168.403 185.54 LS
223.935 185.54 L
223.935 258.067 L
168.403 258.067 L
168.403 185.54 LE
167.634 183.926 LS
224.534 183.926 L
224.534 257.572 L
167.634 257.572 L
167.634 183.926 LE
166.842 182.332 LS
225.103 182.332 L
225.103 257.063 L
166.842 257.063 L
166.842 182.332 LE
166.027 180.761 LS
225.643 180.761 L
225.643 256.539 L
166.027 256.539 L
166.027 180.761 LE
165.19 179.213 LS
226.154 179.213 L
226.154 256.049 L
165.19 256.049 L
165.19 179.213 LE
164.331 177.691 LS
226.636 177.691 L
226.636 255.552 L
164.331 255.552 L
164.331 177.691 LE
163.451 176.195 LS
227.088 176.195 L
227.088 255.041 L
163.451 255.041 L
163.451 176.195 LE
162.549 174.69 LS
227.512 174.69 L
227.512 254.559 L
162.549 254.559 L
162.549 174.69 LE
161.626 173.232 LS
227.906 173.232 L
227.906 254.047 L
161.626 254.047 L
161.626 173.232 LE
160.682 171.808 LS
228.271 171.808 L
228.271 253.522 L
160.682 253.522 L
160.682 171.808 LE
159.718 170.418 LS
228.607 170.418 L
228.607 252.984 L
159.718 252.984 L
159.718 170.418 LE
158.734 169.062 LS
228.915 169.062 L
228.915 252.435 L
158.734 252.435 L
158.734 169.062 LE
157.731 167.743 LS
229.193 167.743 L
229.193 251.874 L
157.731 251.874 L
157.731 167.743 LE
156.709 166.462 LS
229.444 166.462 L
229.444 251.301 L
156.709 251.301 L
156.709 166.462 LE
155.669 165.219 LS
229.666 165.219 L
229.666 250.716 L
155.669 250.716 L
155.669 165.219 LE
154.61 164.018 LS
229.86 164.018 L
229.86 250.12 L
154.61 250.12 L
154.61 164.018 LE
153.535 162.858 LS
230.026 162.858 L
230.026 249.513 L
153.535 249.513 L
153.535 162.858 LE
152.442 161.684 LS
230.164 161.684 L
230.164 248.959 L
152.442 248.959 L
152.442 161.684 LE
151.334 160.599 LS
230.276 160.599 L
230.276 248.349 L
151.334 248.349 L
151.334 160.599 LE
150.209 159.562 LS
230.36 159.562 L
230.36 247.727 L
150.209 247.727 L
150.209 159.562 LE
149.07 158.572 LS
230.418 158.572 L
230.418 247.093 L
149.07 247.093 L
149.07 158.572 LE
147.916 157.629 LS
230.45 157.629 L
230.45 246.448 L
147.916 246.448 L
147.916 157.629 LE
146.748 156.735 LS
230.456 156.735 L
230.456 245.792 L
146.748 245.792 L
146.748 156.735 LE
145.567 155.891 LS
230.436 155.891 L
230.436 245.124 L
145.567 245.124 L
145.567 155.891 LE
144.374 155.096 LS
230.391 155.096 L
230.391 244.445 L
144.374 244.445 L
144.374 155.096 LE
143.169 154.352 LS
230.32 154.352 L
230.32 243.755 L
143.169 243.755 L
143.169 154.352 LE
141.954 153.659 LS
230.224 153.659 L
230.224 243.054 L
141.954 243.054 L
141.954 153.659 LE
140.727 152.943 LS
230.105 152.943 L
230.105 242.435 L
140.727 242.435 L
140.727 152.943 LE
139.492 152.352 LS
229.961 152.352 L
229.961 241.732 L
139.492 241.732 L
139.492 152.352 LE
138.248 151.815 LS
229.793 151.815 L
229.793 241.017 L
138.248 241.017 L
138.248 151.815 LE
136.996 151.332 LS
229.602 151.332 L
229.602 240.291 L
136.996 240.291 L
136.996 151.332 LE
135.737 150.903 LS
229.389 150.903 L
229.389 239.553 L
135.737 239.553 L
135.737 150.903 LE
134.471 150.528 LS
229.152 150.528 L
229.152 238.804 L
134.471 238.804 L
134.471 150.528 LE
133.2 150.207 LS
228.893 150.207 L
228.893 238.044 L
133.2 238.044 L
133.2 150.207 LE
131.925 149.94 LS
228.612 149.94 L
228.612 237.273 L
131.925 237.273 L
131.925 149.94 LE
130.645 149.726 LS
228.309 149.726 L
228.309 236.49 L
130.645 236.49 L
130.645 149.726 LE
129.363 149.567 LS
227.983 149.567 L
227.983 235.696 L
129.363 235.696 L
129.363 149.567 LE
128.078 149.297 LS
227.639 149.297 L
227.639 235.08 L
128.078 235.08 L
128.078 149.297 LE
126.789 149.155 LS
227.274 149.155 L
227.274 234.378 L
126.789 234.378 L
126.789 149.155 LE
125.498 149.064 LS
226.892 149.064 L
226.892 233.667 L
125.498 233.667 L
125.498 149.064 LE
124.205 149.024 LS
226.492 149.024 L
226.492 232.947 L
124.205 232.947 L
124.205 149.024 LE
122.911 149.034 LS
226.074 149.034 L
226.074 232.219 L
122.911 232.219 L
122.911 149.034 LE
121.618 149.095 LS
225.638 149.095 L
225.638 231.481 L
121.618 231.481 L
121.618 149.095 LE
120.325 149.206 LS
225.184 149.206 L
225.184 230.734 L
120.325 230.734 L
120.325 149.206 LE
119.033 149.366 LS
224.714 149.366 L
224.714 229.979 L
119.033 229.979 L
119.033 149.366 LE
117.745 149.575 LS
224.226 149.575 L
224.226 229.215 L
117.745 229.215 L
117.745 149.575 LE
116.46 149.832 LS
223.72 149.832 L
223.72 228.442 L
116.46 228.442 L
116.46 149.832 LE
115.181 150.226 LS
223.197 150.226 L
223.197 227.598 L
115.181 227.598 L
115.181 150.226 LE
113.911 150.724 LS
222.654 150.724 L
222.654 226.688 L
113.911 226.688 L
113.911 150.724 LE
112.651 151.267 LS
222.091 151.267 L
222.091 225.771 L
112.651 225.771 L
112.651 151.267 LE
111.401 151.855 LS
221.53 151.855 L
221.53 224.846 L
111.401 224.846 L
111.401 151.855 LE
110.162 152.485 LS
220.953 152.485 L
220.953 223.915 L
110.162 223.915 L
110.162 152.485 LE
108.935 153.157 LS
220.356 153.157 L
220.356 222.977 L
108.935 222.977 L
108.935 153.157 LE
107.712 153.525 LS
219.74 153.525 L
219.74 222.379 L
107.712 222.379 L
107.712 153.525 LE
106.498 153.723 LS
219.105 153.723 L
219.105 221.985 L
106.498 221.985 L
106.498 153.723 LE
105.297 153.944 LS
218.452 153.944 L
218.452 221.6 L
105.297 221.6 L
105.297 153.944 LE
104.11 154.185 LS
217.781 154.185 L
217.781 221.228 L
104.11 221.228 L
104.11 154.185 LE
102.938 154.479 LS
217.092 154.479 L
217.092 220.861 L
102.938 220.861 L
102.938 154.479 LE
101.782 154.829 LS
216.387 154.829 L
216.387 220.469 L
101.782 220.469 L
101.782 154.829 LE
100.642 155.197 LS
215.664 155.197 L
215.664 220.089 L
100.642 220.089 L
100.642 155.197 LE
99.5131 155.347 LS
214.924 155.347 L
214.924 219.956 L
99.5131 219.956 L
99.5131 155.347 LE
98.3958 155.323 LS
214.169 155.323 L
214.169 220.025 L
98.3958 220.025 L
98.3958 155.323 LE
97.2949 155.317 LS
213.398 155.317 L
213.398 220.105 L
97.2949 220.105 L
97.2949 155.317 LE
96.2105 155.326 LS
212.613 155.326 L
212.613 220.198 L
96.2105 220.198 L
96.2105 155.326 LE
95.1431 155.349 LS
211.813 155.349 L
211.813 220.304 L
95.1431 220.304 L
95.1431 155.349 LE
94.0928 155.385 LS
210.999 155.385 L
210.999 220.421 L
94.0928 220.421 L
94.0928 155.385 LE
93.0595 155.433 LS
210.173 155.433 L
210.173 220.553 L
93.0595 220.553 L
93.0595 155.433 LE
92.0437 155.518 LS
209.333 155.518 L
209.333 220.688 L
92.0437 220.688 L
92.0437 155.518 LE
91.0461 155.636 LS
208.482 155.636 L
208.482 220.813 L
91.0461 220.813 L
91.0461 155.636 LE
90.0663 155.764 LS
207.619 155.764 L
207.619 220.952 L
90.0663 220.952 L
90.0663 155.764 LE
89.1039 155.896 LS
206.745 155.896 L
206.745 221.109 L
89.1039 221.109 L
89.1039 155.896 LE
88.159 156.031 LS
205.861 156.031 L
205.861 221.285 L
88.159 221.285 L
88.159 156.031 LE
87.2316 156.169 LS
204.967 156.169 L
204.967 221.479 L
87.2316 221.479 L
87.2316 156.169 LE
86.3215 156.309 LS
204.063 156.309 L
204.063 221.692 L
86.3215 221.692 L
86.3215 156.309 LE
85.4288 156.451 LS
203.152 156.451 L
203.152 221.922 L
85.4288 221.922 L
85.4288 156.451 LE
84.5532 156.594 LS
202.232 156.594 L
202.232 222.172 L
84.5532 222.172 L
84.5532 156.594 LE
83.6948 156.736 LS
201.305 156.736 L
201.305 222.44 L
83.6948 222.44 L
83.6948 156.736 LE
82.8536 156.895 LS
200.371 156.895 L
200.371 222.721 L
82.8536 222.721 L
82.8536 156.895 LE
82.0296 157.059 LS
199.431 157.059 L
199.431 223.014 L
82.0296 223.014 L
82.0296 157.059 LE
81.2224 157.222 LS
198.485 157.222 L
198.485 223.325 L
81.2224 223.325 L
81.2224 157.222 LE
80.4317 157.383 LS
197.535 157.383 L
197.535 223.654 L
80.4317 223.654 L
80.4317 157.383 LE
79.6575 157.54 LS
196.58 157.54 L
196.58 224.004 L
79.6575 224.004 L
79.6575 157.54 LE
78.8996 157.695 LS
195.622 157.695 L
195.622 224.372 L
78.8996 224.372 L
78.8996 157.695 LE
78.1581 157.846 LS
194.66 157.846 L
194.66 224.758 L
78.1581 224.758 L
78.1581 157.846 LE
77.4326 157.994 LS
193.696 157.994 L
193.696 225.162 L
77.4326 225.162 L
77.4326 157.994 LE
76.7233 158.14 LS
192.729 158.14 L
192.729 225.583 L
76.7233 225.583 L
76.7233 158.14 LE
76.0298 158.279 LS
191.766 158.279 L
191.766 226.023 L
76.0298 226.023 L
76.0298 158.279 LE
0 0 0 C
(Flowpipe for Ex. 2) 298.08 410.6 10 /Helvetica SBC
grestore
showpage
cleartomark
%%PageTrailer
%%Trailer
end
%%EOF
