%!PS-Adobe-3.0 EPSF-3.0
%%Title: glps_renderer figure
%%Creator: GL2PS 1.3.8, (C) 1999-2012 C. Geuzaine
%%For: Octave
%%CreationDate: Wed Mar 13 17:46:44 2019
%%LanguageLevel: 3
%%DocumentData: Clean7Bit
%%Pages: 1
%%BoundingBox: 0 0 576 433
%%EndComments
%%BeginProlog
/gl2psdict 64 dict def gl2psdict begin
0 setlinecap 0 setlinejoin
/tryPS3shading false def % set to false to force subdivision
/rThreshold 0.064 def % red component subdivision threshold
/gThreshold 0.034 def % green component subdivision threshold
/bThreshold 0.1 def % blue component subdivision threshold
/BD { bind def } bind def
/C  { setrgbcolor } BD
/G  { 0.082 mul exch 0.6094 mul add exch 0.3086 mul add neg 1.0 add setgray } BD
/W  { setlinewidth } BD
/FC { findfont exch /SH exch def SH scalefont setfont } BD
/SW { dup stringwidth pop } BD
/S  { FC moveto show } BD
/SBC{ FC moveto SW -2 div 0 rmoveto show } BD
/SBR{ FC moveto SW neg 0 rmoveto show } BD
/SCL{ FC moveto 0 SH -2 div rmoveto show } BD
/SCC{ FC moveto SW -2 div SH -2 div rmoveto show } BD
/SCR{ FC moveto SW neg SH -2 div rmoveto show } BD
/STL{ FC moveto 0 SH neg rmoveto show } BD
/STC{ FC moveto SW -2 div SH neg rmoveto show } BD
/STR{ FC moveto SW neg SH neg rmoveto show } BD
/FCT { FC translate 0 0 } BD
/SR  { gsave FCT moveto rotate show grestore } BD
/SBCR{ gsave FCT moveto rotate SW -2 div 0 rmoveto show grestore } BD
/SBRR{ gsave FCT moveto rotate SW neg 0 rmoveto show grestore } BD
/SCLR{ gsave FCT moveto rotate 0 SH -2 div rmoveto show grestore} BD
/SCCR{ gsave FCT moveto rotate SW -2 div SH -2 div rmoveto show grestore} BD
/SCRR{ gsave FCT moveto rotate SW neg SH -2 div rmoveto show grestore} BD
/STLR{ gsave FCT moveto rotate 0 SH neg rmoveto show grestore } BD
/STCR{ gsave FCT moveto rotate SW -2 div SH neg rmoveto show grestore } BD
/STRR{ gsave FCT moveto rotate SW neg SH neg rmoveto show grestore } BD
/P  { newpath 0.0 360.0 arc closepath fill } BD
/LS { newpath moveto } BD
/L  { lineto } BD
/LE { lineto stroke } BD
/T  { newpath moveto lineto lineto closepath fill } BD
/STshfill {
      /b1 exch def /g1 exch def /r1 exch def /y1 exch def /x1 exch def
      /b2 exch def /g2 exch def /r2 exch def /y2 exch def /x2 exch def
      /b3 exch def /g3 exch def /r3 exch def /y3 exch def /x3 exch def
      gsave << /ShadingType 4 /ColorSpace [/DeviceRGB]
      /DataSource [ 0 x1 y1 r1 g1 b1 0 x2 y2 r2 g2 b2 0 x3 y3 r3 g3 b3 ] >>
      shfill grestore } BD
/Tm { 3 -1 roll 8 -1 roll 13 -1 roll add add 3 div
      3 -1 roll 7 -1 roll 11 -1 roll add add 3 div
      3 -1 roll 6 -1 roll 9 -1 roll add add 3 div C T } BD
/STsplit {
      4 index 15 index add 0.5 mul
      4 index 15 index add 0.5 mul
      4 index 15 index add 0.5 mul
      4 index 15 index add 0.5 mul
      4 index 15 index add 0.5 mul
      5 copy 5 copy 25 15 roll
      9 index 30 index add 0.5 mul
      9 index 30 index add 0.5 mul
      9 index 30 index add 0.5 mul
      9 index 30 index add 0.5 mul
      9 index 30 index add 0.5 mul
      5 copy 5 copy 35 5 roll 25 5 roll 15 5 roll
      4 index 10 index add 0.5 mul
      4 index 10 index add 0.5 mul
      4 index 10 index add 0.5 mul
      4 index 10 index add 0.5 mul
      4 index 10 index add 0.5 mul
      5 copy 5 copy 40 5 roll 25 5 roll 15 5 roll 25 5 roll
      STnoshfill STnoshfill STnoshfill STnoshfill } BD
/STnoshfill {
      2 index 8 index sub abs rThreshold gt
      { STsplit }
      { 1 index 7 index sub abs gThreshold gt
        { STsplit }
        { dup 6 index sub abs bThreshold gt
          { STsplit }
          { 2 index 13 index sub abs rThreshold gt
            { STsplit }
            { 1 index 12 index sub abs gThreshold gt
              { STsplit }
              { dup 11 index sub abs bThreshold gt
                { STsplit }
                { 7 index 13 index sub abs rThreshold gt
                  { STsplit }
                  { 6 index 12 index sub abs gThreshold gt
                    { STsplit }
                    { 5 index 11 index sub abs bThreshold gt
                      { STsplit }
                      { Tm }
                      ifelse }
                    ifelse }
                  ifelse }
                ifelse }
              ifelse }
            ifelse }
          ifelse }
        ifelse }
      ifelse } BD
tryPS3shading
{ /shfill where
  { /ST { STshfill } BD }
  { /ST { STnoshfill } BD }
  ifelse }
{ /ST { STnoshfill } BD }
ifelse
end
%%EndProlog
%%BeginSetup
/DeviceRGB setcolorspace
gl2psdict begin
%%EndSetup
%%Page: 1 1
%%BeginPageSetup
%%EndPageSetup
mark
gsave
1.0 1.0 scale
1 1 1 C
74.88 400.6 521.28 48.52 74.88 48.52 T
74.88 400.6 521.28 400.6 521.28 48.52 T
0.5 W
[16 0] 0 setdash
0 0 0 C
74.88 48.52 LS
521.28 48.52 LE
74.88 400.6 LS
521.28 400.6 LE
74.88 48.52 LS
74.88 400.6 LE
521.28 48.52 LS
521.28 400.6 LE
74.88 48.52 LS
74.88 52.985 LE
74.88 400.6 LS
74.88 396.135 LE
164.16 48.52 LS
164.16 52.985 LE
164.16 400.6 LS
164.16 396.135 LE
253.44 48.52 LS
253.44 52.985 LE
253.44 400.6 LS
253.44 396.135 LE
342.72 48.52 LS
342.72 52.985 LE
342.72 400.6 LS
342.72 396.135 LE
432 48.52 LS
432 52.985 LE
432 400.6 LS
432 396.135 LE
521.28 48.52 LS
521.28 52.985 LE
521.28 400.6 LS
521.28 396.135 LE
(-1.5) 74.88 43.5189 10 /Helvetica STC
(-1) 164.16 43.5189 10 /Helvetica STC
(-0.5) 253.44 43.5189 10 /Helvetica STC
(0) 342.72 43.5189 10 /Helvetica STC
(0.5) 432 43.5189 10 /Helvetica STC
(1) 521.28 43.5189 10 /Helvetica STC
74.88 48.52 LS
79.348 48.52 LE
521.28 48.52 LS
516.812 48.52 LE
74.88 118.936 LS
79.348 118.936 LE
521.28 118.936 LS
516.812 118.936 LE
74.88 189.352 LS
79.348 189.352 LE
521.28 189.352 LS
516.812 189.352 LE
74.88 259.768 LS
79.348 259.768 LE
521.28 259.768 LS
516.812 259.768 LE
74.88 330.184 LS
79.348 330.184 LE
521.28 330.184 LS
516.812 330.184 LE
74.88 400.6 LS
79.348 400.6 LE
521.28 400.6 LS
516.812 400.6 LE
(-3) 69.8755 48.52 10 /Helvetica SCR
(-2) 69.8755 118.936 10 /Helvetica SCR
(-1) 69.8755 189.352 10 /Helvetica SCR
(0) 69.8755 259.768 10 /Helvetica SCR
(1) 69.8755 330.184 10 /Helvetica SCR
(2) 69.8755 400.6 10 /Helvetica SCR
[] 0 setdash
0.11 0.11 0.11 C
432 287.202 LS
451.999 287.202 L
451.999 302.019 L
432 302.019 L
432 287.202 LE
433.59 279.293 LS
453.654 279.293 L
453.654 295.599 L
433.59 295.599 L
433.59 279.293 LE
434.785 271.288 LS
454.967 271.288 L
454.967 288.971 L
434.785 288.971 L
434.785 271.288 LE
435.578 263.209 LS
455.931 263.209 L
455.931 282.178 L
435.578 282.178 L
435.578 263.209 LE
435.938 255.092 LS
456.54 255.092 L
456.54 275.249 L
435.938 275.249 L
435.938 255.092 LE
435.502 246.943 LS
456.792 246.943 L
456.792 268.246 L
435.502 268.246 L
435.502 246.943 LE
434.655 238.768 LS
456.683 238.768 L
456.683 261.231 L
434.655 261.231 L
434.655 238.768 LE
433.398 230.607 LS
456.495 230.607 L
456.495 254.192 L
433.398 254.192 L
433.398 230.607 LE
431.723 222.521 LS
456.032 222.521 L
456.032 247.163 L
431.723 247.163 L
431.723 222.521 LE
429.641 214.494 LS
455.214 214.494 L
455.214 240.22 L
429.641 240.22 L
429.641 214.494 LE
427.163 206.615 LS
454.042 206.615 L
454.042 233.351 L
427.163 233.351 L
427.163 206.615 LE
424.298 198.921 LS
452.52 198.921 L
452.52 226.583 L
424.298 226.583 L
424.298 198.921 LE
421.057 191.441 LS
450.652 191.441 L
450.652 219.941 L
421.057 219.941 L
421.057 191.441 LE
417.453 184.205 LS
448.446 184.205 L
448.446 213.452 L
417.453 213.452 L
417.453 184.205 LE
413.5 177.242 LS
445.909 177.242 L
445.909 207.139 L
413.5 207.139 L
413.5 177.242 LE
409.211 170.576 LS
443.05 170.576 L
443.05 201.029 L
409.211 201.029 L
409.211 170.576 LE
404.604 164.233 LS
439.88 164.233 L
439.88 195.144 L
404.604 195.144 L
404.604 164.233 LE
399.695 158.228 LS
436.411 158.228 L
436.411 189.504 L
399.695 189.504 L
399.695 158.228 LE
394.502 152.588 LS
432.655 152.588 L
432.655 184.13 L
394.502 184.13 L
394.502 152.588 LE
389.045 147.328 LS
428.627 147.328 L
428.627 179.042 L
389.045 179.042 L
389.045 147.328 LE
383.343 142.462 LS
424.342 142.462 L
424.342 174.257 L
383.343 174.257 L
383.343 142.462 LE
377.413 137.965 LS
419.815 137.965 L
419.815 169.777 L
377.413 169.777 L
377.413 137.965 LE
371.271 133.81 LS
415.062 133.81 L
415.062 165.586 L
371.271 165.586 L
371.271 133.81 LE
364.934 129.998 LS
410.097 129.998 L
410.097 161.693 L
364.934 161.693 L
364.934 129.998 LE
358.419 126.529 LS
404.937 126.529 L
404.937 158.105 L
358.419 158.105 L
358.419 126.529 LE
351.741 123.401 LS
399.598 123.401 L
399.598 154.826 L
351.741 154.826 L
351.741 123.401 LE
344.918 120.613 LS
394.096 120.613 L
394.096 151.861 L
344.918 151.861 L
344.918 120.613 LE
337.965 118.162 LS
388.447 118.162 L
388.447 149.213 L
337.965 149.213 L
337.965 118.162 LE
330.898 115.962 LS
382.668 115.962 L
382.668 146.887 L
330.898 146.887 L
330.898 115.962 LE
323.733 114.089 LS
376.777 114.089 L
376.777 144.883 L
323.733 144.883 L
323.733 114.089 LE
316.485 112.534 LS
370.791 112.534 L
370.791 143.205 L
316.485 143.205 L
316.485 112.534 LE
309.171 111.309 LS
364.727 111.309 L
364.727 142.046 L
309.171 142.046 L
309.171 111.309 LE
301.806 110.358 LS
358.599 110.358 L
358.599 141.388 L
301.806 141.388 L
301.806 110.358 LE
294.406 109.729 LS
352.424 109.729 L
352.424 141.035 L
294.406 141.035 L
294.406 109.729 LE
286.989 109.423 LS
346.217 109.423 L
346.217 140.989 L
286.989 140.989 L
286.989 109.423 LE
279.571 109.436 LS
339.994 109.436 L
339.994 141.251 L
279.571 141.251 L
279.571 109.436 LE
272.167 109.764 LS
333.77 109.764 L
333.77 141.825 L
272.167 141.825 L
272.167 109.764 LE
264.795 110.406 LS
327.561 110.406 L
327.561 142.712 L
264.795 142.712 L
264.795 110.406 LE
257.47 111.358 LS
321.381 111.358 L
321.381 143.913 L
257.47 143.913 L
257.47 111.358 LE
250.209 112.616 LS
315.246 112.616 L
315.246 145.431 L
250.209 145.431 L
250.209 112.616 LE
243.029 114.188 LS
309.172 114.188 L
309.172 147.333 L
243.029 147.333 L
243.029 114.188 LE
235.953 116.301 LS
303.175 116.301 L
303.175 149.506 L
235.953 149.506 L
235.953 116.301 LE
228.984 118.305 LS
297.27 118.305 L
297.27 152.224 L
228.984 152.224 L
228.984 118.305 LE
222.16 120.622 LS
291.476 120.622 L
291.476 155.372 L
222.16 155.372 L
222.16 120.622 LE
215.509 123.355 LS
285.808 123.355 L
285.808 158.88 L
215.509 158.88 L
215.509 123.355 LE
209.052 126.502 LS
280.283 126.502 L
280.283 162.738 L
209.052 162.738 L
209.052 126.502 LE
202.813 130.063 LS
274.918 130.063 L
274.918 166.931 L
202.813 166.931 L
202.813 130.063 LE
196.811 134.033 LS
269.731 134.033 L
269.731 171.45 L
196.811 171.45 L
196.811 134.033 LE
191.069 138.407 LS
264.737 138.407 L
264.737 176.283 L
191.069 176.283 L
191.069 138.407 LE
185.607 143.172 LS
259.951 143.172 L
259.951 181.42 L
185.607 181.42 L
185.607 143.172 LE
180.445 148.321 LS
255.389 148.321 L
255.389 186.891 L
180.445 186.891 L
180.445 148.321 LE
175.607 153.889 LS
251.066 153.889 L
251.066 192.616 L
175.607 192.616 L
175.607 153.889 LE
171.113 159.895 LS
246.997 159.895 L
246.997 198.613 L
171.113 198.613 L
171.113 159.895 LE
166.984 166.309 LS
243.197 166.309 L
243.197 204.856 L
166.984 204.856 L
166.984 166.309 LE
163.238 173.099 LS
239.681 173.099 L
239.681 211.311 L
163.238 211.311 L
163.238 173.099 LE
159.888 180.232 LS
236.461 180.232 L
236.461 217.945 L
159.888 217.945 L
159.888 180.232 LE
156.95 187.671 LS
233.549 187.671 L
233.549 224.724 L
156.95 224.724 L
156.95 187.671 LE
154.432 195.377 LS
230.954 195.377 L
230.954 231.613 L
154.432 231.613 L
154.432 195.377 LE
152.344 203.31 LS
228.686 203.31 L
228.686 238.577 L
152.344 238.577 L
152.344 203.31 LE
150.692 211.427 LS
226.75 211.427 L
226.75 245.577 L
150.692 245.577 L
150.692 211.427 LE
149.478 219.683 LS
225.153 219.683 L
225.153 252.583 L
149.478 252.583 L
149.478 219.683 LE
148.704 228.032 LS
223.899 228.032 L
223.899 259.554 L
148.704 259.554 L
148.704 228.032 LE
148.368 236.427 LS
223.11 236.427 L
223.11 266.514 L
148.368 266.514 L
148.368 236.427 LE
148.464 244.818 LS
222.895 244.818 L
222.895 273.379 L
148.464 273.379 L
148.464 244.818 LE
148.987 253.155 LS
223.017 253.155 L
223.017 280.12 L
148.987 280.12 L
148.987 253.155 LE
149.842 260.21 LS
223.534 260.21 L
223.534 287.872 L
149.842 287.872 L
149.842 260.21 LE
150.772 267.145 LS
224.378 267.145 L
224.378 295.388 L
150.772 295.388 L
150.772 267.145 LE
152.102 273.947 LS
225.538 273.947 L
225.538 302.612 L
152.102 302.612 L
152.102 273.947 LE
153.816 280.581 LS
227.005 280.581 L
227.005 309.486 L
153.816 309.486 L
153.816 280.581 LE
155.897 287.009 LS
228.767 287.009 L
228.767 315.977 L
155.897 315.977 L
155.897 287.009 LE
158.326 293.196 LS
230.811 293.196 L
230.811 322.045 L
158.326 322.045 L
158.326 293.196 LE
161.083 299.141 LS
233.127 299.141 L
233.127 327.755 L
161.083 327.755 L
161.083 299.141 LE
164.149 304.85 LS
235.706 304.85 L
235.706 333.136 L
164.149 333.136 L
164.149 304.85 LE
167.509 310.309 LS
238.535 310.309 L
238.535 338.171 L
167.509 338.171 L
167.509 310.309 LE
171.143 315.503 LS
241.602 315.503 L
241.602 342.854 L
171.143 342.854 L
171.143 315.503 LE
175.034 320.301 LS
244.9 320.301 L
244.9 347.292 L
175.034 347.292 L
175.034 320.301 LE
179.163 324.719 LS
248.412 324.719 L
248.412 351.447 L
179.163 351.447 L
179.163 324.719 LE
183.51 328.857 LS
252.12 328.857 L
252.12 355.199 L
183.51 355.199 L
183.51 328.857 LE
188.054 332.704 LS
256.008 332.704 L
256.008 358.54 L
188.054 358.54 L
188.054 332.704 LE
192.776 336.247 LS
260.062 336.247 L
260.062 361.464 L
192.776 361.464 L
192.776 336.247 LE
197.654 339.484 LS
264.265 339.484 L
264.265 363.959 L
197.654 363.959 L
197.654 339.484 LE
202.667 342.433 LS
268.606 342.433 L
268.606 366.134 L
202.667 366.134 L
202.667 342.433 LE
207.801 345.118 LS
273.076 345.118 L
273.076 368.029 L
207.801 368.029 L
207.801 345.118 LE
213.041 347.534 LS
277.66 347.534 L
277.66 369.646 L
213.041 369.646 L
213.041 347.534 LE
218.373 349.667 LS
282.347 349.667 L
282.347 371 L
218.373 371 L
218.373 349.667 LE
223.781 351.418 LS
287.121 351.418 L
287.121 372.077 L
223.781 372.077 L
223.781 351.418 LE
229.253 352.784 LS
291.97 352.784 L
291.97 372.875 L
229.253 372.875 L
229.253 352.784 LE
234.773 353.874 LS
296.88 353.874 L
296.88 373.395 L
234.773 373.395 L
234.773 353.874 LE
240.327 354.691 LS
301.838 354.691 L
301.838 373.637 L
240.327 373.637 L
240.327 354.691 LE
245.9 355.234 LS
306.83 355.234 L
306.83 373.598 L
245.9 373.598 L
245.9 355.234 LE
251.478 355.494 LS
311.843 355.494 L
311.843 373.294 L
251.478 373.294 L
251.478 355.494 LE
257.046 355.539 LS
316.864 355.539 L
316.864 372.732 L
257.046 372.732 L
257.046 355.539 LE
262.593 355.329 LS
321.881 355.329 L
321.881 371.932 L
262.593 371.932 L
262.593 355.329 LE
268.105 354.864 LS
326.882 354.864 L
326.882 370.894 L
268.105 370.894 L
268.105 354.864 LE
273.572 354.142 LS
331.852 354.142 L
331.852 369.625 L
273.572 369.625 L
273.572 354.142 LE
278.981 353.121 LS
336.788 353.121 L
336.788 368.373 L
278.981 368.373 L
278.981 353.121 LE
284.32 351.687 LS
341.678 351.687 L
341.678 367.14 L
284.32 367.14 L
284.32 351.687 LE
289.577 349.942 LS
346.504 349.942 L
346.504 365.735 L
289.577 365.735 L
289.577 349.942 LE
294.741 347.811 LS
351.256 347.811 L
351.256 364.239 L
294.741 364.239 L
294.741 347.811 LE
299.799 345.449 LS
355.915 345.449 L
355.915 362.5 L
299.799 362.5 L
299.799 345.449 LE
304.741 342.859 LS
360.468 342.859 L
360.468 360.518 L
304.741 360.518 L
304.741 342.859 LE
309.554 340.063 LS
364.904 340.063 L
364.904 358.301 L
309.554 358.301 L
309.554 340.063 LE
314.229 337.05 LS
369.21 337.05 L
369.21 355.861 L
314.229 355.861 L
314.229 337.05 LE
318.754 333.818 LS
373.375 333.818 L
373.375 353.209 L
318.754 353.209 L
318.754 333.818 LE
323.12 330.377 LS
377.388 330.377 L
377.388 350.342 L
323.12 350.342 L
323.12 330.377 LE
327.318 326.747 LS
381.238 326.747 L
381.238 347.266 L
327.318 347.266 L
327.318 326.747 LE
331.337 322.936 LS
384.914 322.936 L
384.914 343.987 L
331.337 343.987 L
331.337 322.936 LE
335.168 318.951 LS
388.406 318.951 L
388.406 340.512 L
335.168 340.512 L
335.168 318.951 LE
338.804 314.803 LS
391.705 314.803 L
391.705 336.851 L
338.804 336.851 L
338.804 314.803 LE
342.237 310.505 LS
394.801 310.505 L
394.801 333.011 L
342.237 333.011 L
342.237 310.505 LE
345.458 306.058 LS
397.686 306.058 L
397.686 329.01 L
345.458 329.01 L
345.458 306.058 LE
348.462 301.49 LS
400.35 301.49 L
400.35 324.846 L
348.462 324.846 L
348.462 301.49 LE
351.241 296.809 LS
402.787 296.809 L
402.787 320.53 L
351.241 320.53 L
351.241 296.809 LE
353.79 292.035 LS
404.988 292.035 L
404.988 316.073 L
353.79 316.073 L
353.79 292.035 LE
356.105 287.185 LS
406.948 287.185 L
406.948 311.491 L
356.105 311.491 L
356.105 287.185 LE
358.181 282.261 LS
408.661 282.261 L
408.661 306.803 L
358.181 306.803 L
358.181 282.261 LE
360.015 277.271 LS
410.123 277.271 L
410.123 302.037 L
360.015 302.037 L
360.015 277.271 LE
361.605 272.243 LS
411.33 272.243 L
411.33 297.198 L
361.605 297.198 L
361.605 272.243 LE
362.949 267.199 LS
412.278 267.199 L
412.278 292.294 L
362.949 292.294 L
362.949 267.199 LE
364.046 262.158 LS
412.966 262.158 L
412.966 287.342 L
364.046 287.342 L
364.046 262.158 LE
364.895 257.131 LS
413.392 257.131 L
413.392 282.357 L
364.895 282.357 L
364.895 257.131 LE
365.247 252.135 LS
413.556 252.135 L
413.556 277.362 L
365.247 277.362 L
365.247 252.135 LE
365.357 247.189 LS
413.459 247.189 L
413.459 272.377 L
365.357 272.377 L
365.357 247.189 LE
365.228 242.31 LS
413.102 242.31 L
413.102 267.413 L
365.228 267.413 L
365.228 242.31 LE
364.865 237.522 LS
412.488 237.522 L
412.488 262.484 L
364.865 262.484 L
364.865 237.522 LE
364.271 232.834 LS
411.73 232.834 L
411.73 257.612 L
364.271 257.612 L
364.271 232.834 LE
363.453 228.247 LS
410.857 228.247 L
410.857 252.827 L
363.453 252.827 L
363.453 228.247 LE
362.416 223.792 LS
409.735 223.792 L
409.735 248.135 L
362.416 248.135 L
362.416 223.792 LE
361.169 219.491 LS
408.37 219.491 L
408.37 243.543 L
361.169 243.543 L
361.169 219.491 LE
359.717 215.359 LS
406.767 215.359 L
406.767 239.069 L
359.717 239.069 L
359.717 215.359 LE
358.071 211.41 LS
404.935 211.41 L
404.935 234.726 L
358.071 234.726 L
358.071 211.41 LE
356.237 207.635 LS
402.88 207.635 L
402.88 230.545 L
356.237 230.545 L
356.237 207.635 LE
354.225 204.054 LS
400.61 204.054 L
400.61 226.518 L
354.225 226.518 L
354.225 204.054 LE
352.04 200.677 LS
398.139 200.677 L
398.139 222.653 L
352.04 222.653 L
352.04 200.677 LE
349.651 197.478 LS
395.516 197.478 L
395.516 218.992 L
349.651 218.992 L
349.651 197.478 LE
347.105 194.331 LS
392.705 194.331 L
392.705 215.68 L
347.105 215.68 L
347.105 194.331 LE
344.422 191.402 LS
389.716 191.402 L
389.716 212.567 L
344.422 212.567 L
344.422 191.402 LE
341.611 188.705 LS
386.561 188.705 L
386.561 209.654 L
341.611 209.654 L
341.611 188.705 LE
338.675 186.248 LS
383.259 186.248 L
383.259 206.949 L
338.675 206.949 L
338.675 186.248 LE
335.628 184.038 LS
379.82 184.038 L
379.82 204.458 L
335.628 204.458 L
335.628 184.038 LE
332.489 182.084 LS
376.249 182.084 L
376.249 202.189 L
332.489 202.189 L
332.489 182.084 LE
329.262 180.386 LS
372.564 180.386 L
372.564 200.147 L
329.262 200.147 L
329.262 180.386 LE
325.95 178.821 LS
368.782 178.821 L
368.782 198.446 L
325.95 198.446 L
325.95 178.821 LE
322.565 177.332 LS
364.911 177.332 L
364.911 197.148 L
322.565 197.148 L
322.565 177.332 LE
319.126 176.04 LS
360.963 176.04 L
360.963 196.135 L
319.126 196.135 L
319.126 176.04 LE
315.649 174.988 LS
356.949 174.988 L
356.949 195.362 L
315.649 195.362 L
315.649 174.988 LE
312.145 174.182 LS
352.882 174.182 L
352.882 195.038 L
312.145 195.038 L
312.145 174.182 LE
308.63 173.629 LS
348.77 173.629 L
348.77 194.992 L
308.63 194.992 L
308.63 173.629 LE
305.112 173.331 LS
344.631 173.331 L
344.631 195.182 L
305.112 195.182 L
305.112 173.331 LE
301.593 173.289 LS
340.489 173.289 L
340.489 195.612 L
301.593 195.612 L
301.593 173.289 LE
298.093 173.508 LS
336.348 173.508 L
336.348 196.288 L
298.093 196.288 L
298.093 173.508 LE
294.637 174.017 LS
332.209 174.017 L
332.209 197.194 L
294.637 197.194 L
294.637 174.017 LE
291.235 174.668 LS
328.086 174.668 L
328.086 198.344 L
291.235 198.344 L
291.235 174.668 LE
287.895 175.428 LS
323.993 175.428 L
323.993 199.732 L
287.895 199.732 L
287.895 175.428 LE
284.628 176.448 LS
319.952 176.448 L
319.952 201.351 L
284.628 201.351 L
284.628 176.448 LE
281.455 177.723 LS
315.964 177.723 L
315.964 203.194 L
281.455 203.194 L
281.455 177.723 LE
278.386 179.242 LS
312.044 179.242 L
312.044 205.261 L
278.386 205.261 L
278.386 179.242 LE
275.433 181.005 LS
308.202 181.005 L
308.202 207.544 L
275.433 207.544 L
275.433 181.005 LE
272.604 183.005 LS
304.456 183.005 L
304.456 210.037 L
272.604 210.037 L
272.604 183.005 LE
269.887 185.228 LS
300.838 185.228 L
300.838 212.742 L
269.887 212.742 L
269.887 185.228 LE
267.314 187.676 LS
297.338 187.676 L
297.338 215.658 L
267.314 215.658 L
267.314 187.676 LE
264.899 190.339 LS
293.964 190.339 L
293.964 218.771 L
264.899 218.771 L
264.899 190.339 LE
262.652 193.213 LS
290.728 193.213 L
290.728 222.085 L
262.652 222.085 L
262.652 193.213 LE
260.582 196.313 LS
287.642 196.313 L
287.642 225.572 L
260.582 225.572 L
260.582 196.313 LE
258.679 199.622 LS
284.735 199.622 L
284.735 229.207 L
258.679 229.207 L
258.679 199.622 LE
256.969 203.124 LS
281.997 203.124 L
281.997 232.972 L
256.969 232.972 L
256.969 203.124 LE
255.462 206.815 LS
279.437 206.815 L
279.437 236.852 L
255.462 236.852 L
255.462 206.815 LE
254.16 210.679 LS
277.064 210.679 L
277.064 240.823 L
254.16 240.823 L
254.16 210.679 LE
253.07 214.698 LS
274.885 214.698 L
274.885 244.868 L
253.07 244.868 L
253.07 214.698 LE
252.176 218.848 LS
272.926 218.848 L
272.926 248.978 L
252.176 248.978 L
252.176 218.848 LE
251.491 223.091 LS
271.184 223.091 L
271.184 253.161 L
251.491 253.161 L
251.491 223.091 LE
251.024 227.401 LS
269.653 227.401 L
269.653 257.415 L
251.024 257.415 L
251.024 227.401 LE
250.771 231.807 LS
268.348 231.807 L
268.348 261.668 L
250.771 261.668 L
250.771 231.807 LE
250.522 236.287 LS
267.671 236.287 L
267.671 265.901 L
250.522 265.901 L
250.522 236.287 LE
250.497 240.815 LS
267.237 240.815 L
267.237 270.102 L
250.497 270.102 L
250.497 240.815 LE
250.698 245.381 LS
267.02 245.381 L
267.02 274.259 L
250.698 274.259 L
250.698 245.381 LE
251.004 249.963 LS
267.136 249.963 L
267.136 278.334 L
251.004 278.334 L
251.004 249.963 LE
251.343 254.532 LS
267.652 254.532 L
267.652 282.326 L
251.343 282.326 L
251.343 254.532 LE
251.864 259.062 LS
268.412 259.062 L
268.412 286.216 L
251.864 286.216 L
251.864 259.062 LE
252.413 263.511 LS
269.37 263.511 L
269.37 290.004 L
252.413 290.004 L
252.413 263.511 LE
253.144 267.884 LS
270.521 267.884 L
270.521 293.649 L
253.144 293.649 L
253.144 267.884 LE
254.076 272.162 LS
271.869 272.162 L
271.869 297.157 L
254.076 297.157 L
254.076 272.162 LE
255.21 276.344 LS
273.402 276.344 L
273.402 300.518 L
255.21 300.518 L
255.21 276.344 LE
256.538 280.41 LS
275.117 280.41 L
275.117 303.735 L
256.538 303.735 L
256.538 280.41 LE
258.061 284.359 LS
276.997 284.359 L
276.997 306.788 L
258.061 306.788 L
258.061 284.359 LE
259.773 288.181 LS
279.034 288.181 L
279.034 309.672 L
259.773 309.672 L
259.773 288.181 LE
261.667 291.848 LS
281.22 291.848 L
281.22 312.396 L
261.667 312.396 L
261.667 291.848 LE
263.735 295.31 LS
283.551 295.31 L
283.551 314.993 L
263.735 314.993 L
263.735 295.31 LE
265.968 298.611 LS
286.013 298.611 L
286.013 317.409 L
265.968 317.409 L
265.968 298.611 LE
268.359 301.738 LS
288.6 301.738 L
288.6 319.637 L
268.359 319.637 L
268.359 301.738 LE
270.892 304.676 LS
291.305 304.676 L
291.305 321.675 L
270.892 321.675 L
270.892 304.676 LE
273.544 307.417 LS
294.135 307.417 L
294.135 323.551 L
273.544 323.551 L
273.544 307.417 LE
276.304 309.985 LS
297.082 309.985 L
297.082 325.244 L
276.304 325.244 L
276.304 309.985 LE
279.184 312.38 LS
300.115 312.38 L
300.115 326.753 L
279.184 326.753 L
279.184 312.38 LE
282.175 314.599 LS
303.226 314.599 L
303.226 328.079 L
282.175 328.079 L
282.175 314.599 LE
285.266 316.619 LS
306.409 316.619 L
306.409 329.241 L
285.266 329.241 L
285.266 316.619 LE
288.444 318.459 LS
309.657 318.459 L
309.657 330.222 L
288.444 330.222 L
288.444 318.459 LE
291.705 320.085 LS
312.958 320.085 L
312.958 331.05 L
291.705 331.05 L
291.705 320.085 LE
295.04 321.376 LS
316.307 321.376 L
316.307 331.844 L
295.04 331.844 L
295.04 321.376 LE
298.434 322.487 LS
319.694 322.487 L
319.694 332.449 L
298.434 332.449 L
298.434 322.487 LE
301.703 323.052 LS
323.299 323.052 L
323.299 333.187 L
301.703 333.187 L
301.703 323.052 LE
304.996 323.278 LS
326.941 323.278 L
326.941 333.765 L
304.996 333.765 L
304.996 323.278 LE
308.303 323.253 LS
330.613 323.253 L
330.613 334.235 L
308.303 334.235 L
308.303 323.253 LE
311.613 322.906 LS
334.312 322.906 L
334.312 334.67 L
311.613 334.67 L
311.613 322.906 LE
314.916 322.357 LS
338.023 322.357 L
338.023 334.953 L
314.916 334.953 L
314.916 322.357 LE
318.203 321.449 LS
341.748 321.449 L
341.748 335.243 L
318.203 335.243 L
318.203 321.449 LE
321.462 320.311 LS
345.471 320.311 L
345.471 335.415 L
321.462 335.415 L
321.462 320.311 LE
324.683 318.974 LS
349.184 318.974 L
349.184 335.439 L
324.683 335.439 L
324.683 318.974 LE
327.857 317.4 LS
352.882 317.4 L
352.882 335.356 L
327.857 335.356 L
327.857 317.4 LE
330.971 315.619 LS
356.56 315.619 L
356.56 335.256 L
330.971 335.256 L
330.971 315.619 LE
334.017 313.619 LS
360.208 313.619 L
360.208 335.047 L
334.017 335.047 L
334.017 313.619 LE
336.982 311.428 LS
363.82 311.428 L
363.82 334.702 L
336.982 334.702 L
336.982 311.428 LE
339.856 309.057 LS
367.388 309.057 L
367.388 334.218 L
339.856 334.218 L
339.856 309.057 LE
342.631 306.517 LS
370.906 306.517 L
370.906 333.593 L
342.631 333.593 L
342.631 306.517 LE
345.295 303.82 LS
374.368 303.82 L
374.368 332.823 L
345.295 332.823 L
345.295 303.82 LE
347.841 300.977 LS
377.765 300.977 L
377.765 331.906 L
347.841 331.906 L
347.841 300.977 LE
350.261 298.001 LS
381.091 298.001 L
381.091 330.84 L
350.261 330.84 L
350.261 298.001 LE
352.545 294.902 LS
384.34 294.902 L
384.34 329.622 L
352.545 329.622 L
352.545 294.902 LE
354.689 291.692 LS
387.502 291.692 L
387.502 328.249 L
354.689 328.249 L
354.689 291.692 LE
356.684 288.379 LS
390.573 288.379 L
390.573 326.72 L
356.684 326.72 L
356.684 288.379 LE
358.525 284.98 LS
393.543 284.98 L
393.543 325.032 L
358.525 325.032 L
358.525 284.98 LE
360.207 281.508 LS
396.405 281.508 L
396.405 323.179 L
360.207 323.179 L
360.207 281.508 LE
361.725 277.979 LS
399.153 277.979 L
399.153 321.162 L
361.725 321.162 L
361.725 277.979 LE
363.075 274.406 LS
401.778 274.406 L
401.778 318.985 L
363.075 318.985 L
363.075 274.406 LE
364.253 270.803 LS
404.273 270.803 L
404.273 316.654 L
364.253 316.654 L
364.253 270.803 LE
365.257 267.179 LS
406.633 267.179 L
406.633 314.171 L
365.257 314.171 L
365.257 267.179 LE
366.084 263.543 LS
408.851 263.543 L
408.851 311.541 L
366.084 311.541 L
366.084 263.543 LE
366.734 259.917 LS
410.921 259.917 L
410.921 308.768 L
366.734 308.768 L
366.734 259.917 LE
367.021 256.284 LS
412.95 256.284 L
412.95 305.893 L
367.021 305.893 L
367.021 256.284 LE
366.984 252.595 LS
414.855 252.595 L
414.855 302.969 L
366.984 302.969 L
366.984 252.595 LE
366.773 248.922 LS
416.594 248.922 L
416.594 299.927 L
366.773 299.927 L
366.773 248.922 LE
366.39 245.313 LS
418.16 245.313 L
418.16 296.771 L
366.39 296.771 L
366.39 245.313 LE
365.803 241.785 LS
419.586 241.785 L
419.586 293.504 L
365.803 293.504 L
365.803 241.785 LE
364.935 238.347 LS
420.947 238.347 L
420.947 290.136 L
364.935 290.136 L
364.935 238.347 LE
363.909 234.976 LS
422.121 234.976 L
422.121 286.684 L
363.909 286.684 L
363.909 234.976 LE
362.73 231.708 LS
423.104 231.708 L
423.104 283.166 L
362.73 283.166 L
362.73 231.708 LE
361.404 228.545 LS
423.894 228.545 L
423.894 279.594 L
361.404 279.594 L
361.404 228.545 LE
359.937 225.485 LS
424.49 225.485 L
424.49 275.98 L
359.937 275.98 L
359.937 225.485 LE
358.336 222.559 LS
424.888 222.559 L
424.888 272.337 L
358.336 272.337 L
358.336 222.559 LE
356.607 219.761 LS
425.09 219.761 L
425.09 268.677 L
356.607 268.677 L
356.607 219.761 LE
354.757 217.076 LS
425.095 217.076 L
425.095 265.015 L
354.757 265.015 L
354.757 217.076 LE
352.796 214.572 LS
424.904 214.572 L
424.904 261.364 L
352.796 261.364 L
352.796 214.572 LE
350.732 212.244 LS
424.622 212.244 L
424.622 257.725 L
350.732 257.725 L
350.732 212.244 LE
348.569 210.015 LS
424.225 210.015 L
424.225 254.19 L
348.569 254.19 L
348.569 210.015 LE
346.299 207.567 LS
423.636 207.567 L
423.636 251.092 L
346.299 251.092 L
346.299 207.567 LE
343.951 205.288 LS
422.856 205.288 L
422.856 248.057 L
343.951 248.057 L
343.951 205.288 LE
341.534 203.194 LS
421.889 203.194 L
421.889 245.089 L
341.534 245.089 L
341.534 203.194 LE
339.003 201.291 LS
420.792 201.291 L
420.792 242.196 L
339.003 242.196 L
339.003 201.291 LE
336.413 199.582 LS
419.525 199.582 L
419.525 239.39 L
336.413 239.39 L
336.413 199.582 LE
333.775 197.952 LS
418.083 197.952 L
418.083 236.805 L
333.775 236.805 L
333.775 197.952 LE
0 0 0 C
(Flowpipe for Ex. 8) 298.08 410.6 10 /Helvetica SBC
grestore
showpage
cleartomark
%%PageTrailer
%%Trailer
end
%%EOF
