%!PS-Adobe-3.0 EPSF-3.0
%%Title: glps_renderer figure
%%Creator: GL2PS 1.3.8, (C) 1999-2012 C. Geuzaine
%%For: Octave
%%CreationDate: Wed Mar 13 21:25:03 2019
%%LanguageLevel: 3
%%DocumentData: Clean7Bit
%%Pages: 1
%%BoundingBox: 0 0 576 433
%%EndComments
%%BeginProlog
/gl2psdict 64 dict def gl2psdict begin
0 setlinecap 0 setlinejoin
/tryPS3shading false def % set to false to force subdivision
/rThreshold 0.064 def % red component subdivision threshold
/gThreshold 0.034 def % green component subdivision threshold
/bThreshold 0.1 def % blue component subdivision threshold
/BD { bind def } bind def
/C  { setrgbcolor } BD
/G  { 0.082 mul exch 0.6094 mul add exch 0.3086 mul add neg 1.0 add setgray } BD
/W  { setlinewidth } BD
/FC { findfont exch /SH exch def SH scalefont setfont } BD
/SW { dup stringwidth pop } BD
/S  { FC moveto show } BD
/SBC{ FC moveto SW -2 div 0 rmoveto show } BD
/SBR{ FC moveto SW neg 0 rmoveto show } BD
/SCL{ FC moveto 0 SH -2 div rmoveto show } BD
/SCC{ FC moveto SW -2 div SH -2 div rmoveto show } BD
/SCR{ FC moveto SW neg SH -2 div rmoveto show } BD
/STL{ FC moveto 0 SH neg rmoveto show } BD
/STC{ FC moveto SW -2 div SH neg rmoveto show } BD
/STR{ FC moveto SW neg SH neg rmoveto show } BD
/FCT { FC translate 0 0 } BD
/SR  { gsave FCT moveto rotate show grestore } BD
/SBCR{ gsave FCT moveto rotate SW -2 div 0 rmoveto show grestore } BD
/SBRR{ gsave FCT moveto rotate SW neg 0 rmoveto show grestore } BD
/SCLR{ gsave FCT moveto rotate 0 SH -2 div rmoveto show grestore} BD
/SCCR{ gsave FCT moveto rotate SW -2 div SH -2 div rmoveto show grestore} BD
/SCRR{ gsave FCT moveto rotate SW neg SH -2 div rmoveto show grestore} BD
/STLR{ gsave FCT moveto rotate 0 SH neg rmoveto show grestore } BD
/STCR{ gsave FCT moveto rotate SW -2 div SH neg rmoveto show grestore } BD
/STRR{ gsave FCT moveto rotate SW neg SH neg rmoveto show grestore } BD
/P  { newpath 0.0 360.0 arc closepath fill } BD
/LS { newpath moveto } BD
/L  { lineto } BD
/LE { lineto stroke } BD
/T  { newpath moveto lineto lineto closepath fill } BD
/STshfill {
      /b1 exch def /g1 exch def /r1 exch def /y1 exch def /x1 exch def
      /b2 exch def /g2 exch def /r2 exch def /y2 exch def /x2 exch def
      /b3 exch def /g3 exch def /r3 exch def /y3 exch def /x3 exch def
      gsave << /ShadingType 4 /ColorSpace [/DeviceRGB]
      /DataSource [ 0 x1 y1 r1 g1 b1 0 x2 y2 r2 g2 b2 0 x3 y3 r3 g3 b3 ] >>
      shfill grestore } BD
/Tm { 3 -1 roll 8 -1 roll 13 -1 roll add add 3 div
      3 -1 roll 7 -1 roll 11 -1 roll add add 3 div
      3 -1 roll 6 -1 roll 9 -1 roll add add 3 div C T } BD
/STsplit {
      4 index 15 index add 0.5 mul
      4 index 15 index add 0.5 mul
      4 index 15 index add 0.5 mul
      4 index 15 index add 0.5 mul
      4 index 15 index add 0.5 mul
      5 copy 5 copy 25 15 roll
      9 index 30 index add 0.5 mul
      9 index 30 index add 0.5 mul
      9 index 30 index add 0.5 mul
      9 index 30 index add 0.5 mul
      9 index 30 index add 0.5 mul
      5 copy 5 copy 35 5 roll 25 5 roll 15 5 roll
      4 index 10 index add 0.5 mul
      4 index 10 index add 0.5 mul
      4 index 10 index add 0.5 mul
      4 index 10 index add 0.5 mul
      4 index 10 index add 0.5 mul
      5 copy 5 copy 40 5 roll 25 5 roll 15 5 roll 25 5 roll
      STnoshfill STnoshfill STnoshfill STnoshfill } BD
/STnoshfill {
      2 index 8 index sub abs rThreshold gt
      { STsplit }
      { 1 index 7 index sub abs gThreshold gt
        { STsplit }
        { dup 6 index sub abs bThreshold gt
          { STsplit }
          { 2 index 13 index sub abs rThreshold gt
            { STsplit }
            { 1 index 12 index sub abs gThreshold gt
              { STsplit }
              { dup 11 index sub abs bThreshold gt
                { STsplit }
                { 7 index 13 index sub abs rThreshold gt
                  { STsplit }
                  { 6 index 12 index sub abs gThreshold gt
                    { STsplit }
                    { 5 index 11 index sub abs bThreshold gt
                      { STsplit }
                      { Tm }
                      ifelse }
                    ifelse }
                  ifelse }
                ifelse }
              ifelse }
            ifelse }
          ifelse }
        ifelse }
      ifelse } BD
tryPS3shading
{ /shfill where
  { /ST { STshfill } BD }
  { /ST { STnoshfill } BD }
  ifelse }
{ /ST { STnoshfill } BD }
ifelse
end
%%EndProlog
%%BeginSetup
/DeviceRGB setcolorspace
gl2psdict begin
%%EndSetup
%%Page: 1 1
%%BeginPageSetup
%%EndPageSetup
mark
gsave
1.0 1.0 scale
1 1 1 C
74.88 400.6 521.28 48.52 74.88 48.52 T
74.88 400.6 521.28 400.6 521.28 48.52 T
0.5 W
[16 0] 0 setdash
0 0 0 C
74.88 48.52 LS
521.28 48.52 LE
74.88 400.6 LS
521.28 400.6 LE
74.88 48.52 LS
74.88 400.6 LE
521.28 48.52 LS
521.28 400.6 LE
74.88 48.52 LS
74.88 52.985 LE
74.88 400.6 LS
74.88 396.135 LE
164.16 48.52 LS
164.16 52.985 LE
164.16 400.6 LS
164.16 396.135 LE
253.44 48.52 LS
253.44 52.985 LE
253.44 400.6 LS
253.44 396.135 LE
342.72 48.52 LS
342.72 52.985 LE
342.72 400.6 LS
342.72 396.135 LE
432 48.52 LS
432 52.985 LE
432 400.6 LS
432 396.135 LE
521.28 48.52 LS
521.28 52.985 LE
521.28 400.6 LS
521.28 396.135 LE
(0) 74.88 43.5189 10 /Helvetica STC
(2) 164.16 43.5189 10 /Helvetica STC
(4) 253.44 43.5189 10 /Helvetica STC
(6) 342.72 43.5189 10 /Helvetica STC
(8) 432 43.5189 10 /Helvetica STC
(10) 521.28 43.5189 10 /Helvetica STC
74.88 48.52 LS
79.348 48.52 LE
521.28 48.52 LS
516.812 48.52 LE
74.88 136.54 LS
79.348 136.54 LE
521.28 136.54 LS
516.812 136.54 LE
74.88 224.56 LS
79.348 224.56 LE
521.28 224.56 LS
516.812 224.56 LE
74.88 312.58 LS
79.348 312.58 LE
521.28 312.58 LS
516.812 312.58 LE
74.88 400.6 LS
79.348 400.6 LE
521.28 400.6 LS
516.812 400.6 LE
(-10) 69.8755 48.52 10 /Helvetica SCR
(-5) 69.8755 136.54 10 /Helvetica SCR
(0) 69.8755 224.56 10 /Helvetica SCR
(5) 69.8755 312.58 10 /Helvetica SCR
(10) 69.8755 400.6 10 /Helvetica SCR
[] 0 setdash
0.11 0.11 0.11 C
74.88 382.812 LS
75.3264 382.812 L
75.3264 383.172 L
74.88 383.172 L
74.88 382.812 LE
75.3264 382.612 LS
75.7728 382.612 L
75.7728 382.99 L
75.3264 382.99 L
75.3264 382.612 LE
75.7728 382.396 LS
76.2192 382.396 L
76.2192 382.792 L
75.7728 382.792 L
75.7728 382.396 LE
76.2192 382.164 LS
76.6656 382.164 L
76.6656 382.578 L
76.2192 382.578 L
76.2192 382.164 LE
76.6656 381.916 LS
77.112 381.916 L
77.112 382.348 L
76.6656 382.348 L
76.6656 381.916 LE
77.112 381.653 LS
77.5584 381.653 L
77.5584 382.102 L
77.112 382.102 L
77.112 381.653 LE
77.5584 381.373 LS
78.0048 381.373 L
78.0048 381.84 L
77.5584 381.84 L
77.5584 381.373 LE
78.0048 381.078 LS
78.4512 381.078 L
78.4512 381.562 L
78.0048 381.562 L
78.0048 381.078 LE
78.4512 380.766 LS
78.8976 380.766 L
78.8976 381.269 L
78.4512 381.269 L
78.4512 380.766 LE
78.8976 380.439 LS
79.344 380.439 L
79.344 380.959 L
78.8976 380.959 L
78.8976 380.439 LE
79.344 380.096 LS
79.7904 380.096 L
79.7904 380.634 L
79.344 380.634 L
79.344 380.096 LE
79.7904 379.738 LS
80.2368 379.738 L
80.2368 380.293 L
79.7904 380.293 L
79.7904 379.738 LE
80.2368 379.364 LS
80.6832 379.364 L
80.6832 379.937 L
80.2368 379.937 L
80.2368 379.364 LE
80.6832 378.974 LS
81.1296 378.974 L
81.1296 379.565 L
80.6832 379.565 L
80.6832 378.974 LE
81.1296 378.568 LS
81.576 378.568 L
81.576 379.177 L
81.1296 379.177 L
81.1296 378.568 LE
81.576 378.147 LS
82.0224 378.147 L
82.0224 378.773 L
81.576 378.773 L
81.576 378.147 LE
82.0224 377.71 LS
82.4688 377.71 L
82.4688 378.354 L
82.0224 378.354 L
82.0224 377.71 LE
82.4688 377.257 LS
82.9152 377.257 L
82.9152 377.919 L
82.4688 377.919 L
82.4688 377.257 LE
82.9152 376.789 LS
83.3616 376.789 L
83.3616 377.468 L
82.9152 377.468 L
82.9152 376.789 LE
83.3616 376.305 LS
83.808 376.305 L
83.808 377.002 L
83.3616 377.002 L
83.3616 376.305 LE
83.808 375.806 LS
84.2544 375.806 L
84.2544 376.52 L
83.808 376.52 L
83.808 375.806 LE
84.2544 375.291 LS
84.7008 375.291 L
84.7008 376.023 L
84.2544 376.023 L
84.2544 375.291 LE
84.7008 374.76 LS
85.1472 374.76 L
85.1472 375.51 L
84.7008 375.51 L
84.7008 374.76 LE
85.1472 374.214 LS
85.5936 374.214 L
85.5936 374.981 L
85.1472 374.981 L
85.1472 374.214 LE
85.5936 373.652 LS
86.04 373.652 L
86.04 374.437 L
85.5936 374.437 L
85.5936 373.652 LE
86.04 373.075 LS
86.4864 373.075 L
86.4864 373.877 L
86.04 373.877 L
86.04 373.075 LE
86.4864 372.482 LS
86.9328 372.482 L
86.9328 373.302 L
86.4864 373.302 L
86.4864 372.482 LE
86.9328 371.873 LS
87.3792 371.873 L
87.3792 372.711 L
86.9328 372.711 L
86.9328 371.873 LE
87.3792 371.249 LS
87.8256 371.249 L
87.8256 372.104 L
87.3792 372.104 L
87.3792 371.249 LE
87.8256 370.609 LS
88.272 370.609 L
88.272 371.482 L
87.8256 371.482 L
87.8256 370.609 LE
88.272 369.953 LS
88.7184 369.953 L
88.7184 370.844 L
88.272 370.844 L
88.272 369.953 LE
88.7184 369.281 LS
89.1648 369.281 L
89.1648 370.191 L
88.7184 370.191 L
88.7184 369.281 LE
89.1648 368.594 LS
89.6112 368.594 L
89.6112 369.522 L
89.1648 369.522 L
89.1648 368.594 LE
89.6112 367.892 LS
90.0576 367.892 L
90.0576 368.837 L
89.6112 368.837 L
89.6112 367.892 LE
90.0576 367.173 LS
90.504 367.173 L
90.504 368.136 L
90.0576 368.136 L
90.0576 367.173 LE
90.504 366.439 LS
90.9504 366.439 L
90.9504 367.42 L
90.504 367.42 L
90.504 366.439 LE
90.9504 365.689 LS
91.3968 365.689 L
91.3968 366.688 L
90.9504 366.688 L
90.9504 365.689 LE
91.3968 364.923 LS
91.8432 364.923 L
91.8432 365.94 L
91.3968 365.94 L
91.3968 364.923 LE
91.8432 364.141 LS
92.2896 364.141 L
92.2896 365.176 L
91.8432 365.176 L
91.8432 364.141 LE
92.2896 363.343 LS
92.736 363.343 L
92.736 364.397 L
92.2896 364.397 L
92.2896 363.343 LE
92.736 362.53 LS
93.1824 362.53 L
93.1824 363.601 L
92.736 363.601 L
92.736 362.53 LE
93.1824 361.701 LS
93.6288 361.701 L
93.6288 362.79 L
93.1824 362.79 L
93.1824 361.701 LE
93.6288 360.855 LS
94.0752 360.855 L
94.0752 361.963 L
93.6288 361.963 L
93.6288 360.855 LE
94.0752 359.994 LS
94.5216 359.994 L
94.5216 361.12 L
94.0752 361.12 L
94.0752 359.994 LE
94.5216 359.117 LS
94.968 359.117 L
94.968 360.261 L
94.5216 360.261 L
94.5216 359.117 LE
94.968 358.224 LS
95.4144 358.224 L
95.4144 359.386 L
94.968 359.386 L
94.968 358.224 LE
95.4144 357.315 LS
95.8608 357.315 L
95.8608 358.496 L
95.4144 358.496 L
95.4144 357.315 LE
95.8608 356.39 LS
96.3072 356.39 L
96.3072 357.589 L
95.8608 357.589 L
95.8608 356.39 LE
96.3072 355.45 LS
96.7536 355.45 L
96.7536 356.667 L
96.3072 356.667 L
96.3072 355.45 LE
96.7536 354.493 LS
97.2 354.493 L
97.2 355.728 L
96.7536 355.728 L
96.7536 354.493 LE
97.2 353.52 LS
97.6464 353.52 L
97.6464 354.774 L
97.2 354.774 L
97.2 353.52 LE
97.6464 352.532 LS
98.0928 352.532 L
98.0928 353.804 L
97.6464 353.804 L
97.6464 352.532 LE
98.0928 351.527 LS
98.5392 351.527 L
98.5392 352.818 L
98.0928 352.818 L
98.0928 351.527 LE
98.5392 350.506 LS
98.9856 350.506 L
98.9856 351.815 L
98.5392 351.815 L
98.5392 350.506 LE
98.9856 349.47 LS
99.432 349.47 L
99.432 350.797 L
98.9856 350.797 L
98.9856 349.47 LE
99.432 348.418 LS
99.8784 348.418 L
99.8784 349.763 L
99.432 349.763 L
99.432 348.418 LE
99.8784 347.349 LS
100.325 347.349 L
100.325 348.713 L
99.8784 348.713 L
99.8784 347.349 LE
100.325 346.265 LS
100.771 346.265 L
100.771 347.648 L
100.325 347.648 L
100.325 346.265 LE
100.771 345.165 LS
101.218 345.165 L
101.218 346.566 L
100.771 346.566 L
100.771 345.165 LE
101.218 344.049 LS
101.664 344.049 L
101.664 345.468 L
101.218 345.468 L
101.218 344.049 LE
101.664 342.917 LS
102.11 342.917 L
102.11 344.354 L
101.664 344.354 L
101.664 342.917 LE
102.11 341.769 LS
102.557 341.769 L
102.557 343.225 L
102.11 343.225 L
102.11 341.769 LE
102.557 340.605 LS
103.003 340.605 L
103.003 342.08 L
102.557 342.08 L
102.557 340.605 LE
103.003 339.425 LS
103.45 339.425 L
103.45 340.918 L
103.003 340.918 L
103.003 339.425 LE
103.45 338.23 LS
103.896 338.23 L
103.896 339.741 L
103.45 339.741 L
103.45 338.23 LE
103.896 337.018 LS
104.342 337.018 L
104.342 338.548 L
103.896 338.548 L
103.896 337.018 LE
104.342 335.791 LS
104.789 335.791 L
104.789 337.339 L
104.342 337.339 L
104.342 335.791 LE
104.789 334.548 LS
105.235 334.548 L
105.235 336.115 L
104.789 336.115 L
104.789 334.548 LE
105.235 333.289 LS
105.682 333.289 L
105.682 334.874 L
105.235 334.874 L
105.235 333.289 LE
105.682 332.014 LS
106.128 332.014 L
106.128 333.618 L
105.682 333.618 L
105.682 332.014 LE
106.128 330.723 LS
106.574 330.723 L
106.574 332.345 L
106.128 332.345 L
106.128 330.723 LE
106.574 329.416 LS
107.021 329.416 L
107.021 331.057 L
106.574 331.057 L
106.574 329.416 LE
107.021 328.094 LS
107.467 328.094 L
107.467 329.753 L
107.021 329.753 L
107.021 328.094 LE
107.467 326.755 LS
107.914 326.755 L
107.914 328.433 L
107.467 328.433 L
107.467 326.755 LE
107.914 325.401 LS
108.36 325.401 L
108.36 327.097 L
107.914 327.097 L
107.914 325.401 LE
108.36 324.031 LS
108.806 324.031 L
108.806 325.746 L
108.36 325.746 L
108.36 324.031 LE
108.806 322.645 LS
109.253 322.645 L
109.253 324.378 L
108.806 324.378 L
108.806 322.645 LE
109.253 321.243 LS
109.699 321.243 L
109.699 322.995 L
109.253 322.995 L
109.253 321.243 LE
109.699 319.826 LS
110.146 319.826 L
110.146 321.596 L
109.699 321.596 L
109.699 319.826 LE
110.146 318.392 LS
110.592 318.392 L
110.592 320.181 L
110.146 320.181 L
110.146 318.392 LE
110.592 316.943 LS
111.038 316.943 L
111.038 318.75 L
110.592 318.75 L
110.592 316.943 LE
111.038 315.478 LS
111.485 315.478 L
111.485 317.303 L
111.038 317.303 L
111.038 315.478 LE
111.485 313.996 LS
111.931 313.996 L
111.931 315.841 L
111.485 315.841 L
111.485 313.996 LE
111.931 312.499 LS
112.378 312.499 L
112.378 314.362 L
111.931 314.362 L
111.931 312.499 LE
112.378 310.986 LS
112.824 310.986 L
112.824 312.868 L
112.378 312.868 L
112.378 310.986 LE
112.824 309.458 LS
113.27 309.458 L
113.27 311.358 L
112.824 311.358 L
112.824 309.458 LE
113.27 307.913 LS
113.717 307.913 L
113.717 309.832 L
113.27 309.832 L
113.27 307.913 LE
113.717 306.352 LS
114.163 306.352 L
114.163 308.29 L
113.717 308.29 L
113.717 306.352 LE
114.163 304.776 LS
114.61 304.776 L
114.61 306.732 L
114.163 306.732 L
114.163 304.776 LE
114.61 303.183 LS
115.056 303.183 L
115.056 305.158 L
114.61 305.158 L
114.61 303.183 LE
115.056 301.575 LS
115.502 301.575 L
115.502 303.568 L
115.056 303.568 L
115.056 301.575 LE
115.502 299.95 LS
115.949 299.95 L
115.949 301.963 L
115.502 301.963 L
115.502 299.95 LE
115.949 298.31 LS
116.395 298.31 L
116.395 300.341 L
115.949 300.341 L
115.949 298.31 LE
116.395 296.654 LS
116.842 296.654 L
116.842 298.704 L
116.395 298.704 L
116.395 296.654 LE
116.842 294.982 LS
117.288 294.982 L
117.288 297.05 L
116.842 297.05 L
116.842 294.982 LE
117.288 293.294 LS
117.734 293.294 L
117.734 295.381 L
117.288 295.381 L
117.288 293.294 LE
117.734 291.59 LS
118.181 291.59 L
118.181 293.696 L
117.734 293.696 L
117.734 291.59 LE
118.181 289.87 LS
118.627 289.87 L
118.627 291.995 L
118.181 291.995 L
118.181 289.87 LE
118.627 288.134 LS
119.074 288.134 L
119.074 290.278 L
118.627 290.278 L
118.627 288.134 LE
119.074 286.382 LS
119.52 286.382 L
119.52 288.545 L
119.074 288.545 L
119.074 286.382 LE
119.52 284.622 LS
119.966 284.622 L
119.966 286.796 L
119.52 286.796 L
119.52 284.622 LE
119.966 282.881 LS
120.413 282.881 L
120.413 285.045 L
119.966 285.045 L
119.966 282.881 LE
120.413 281.151 LS
120.859 281.151 L
120.859 283.306 L
120.413 283.306 L
120.413 281.151 LE
120.859 279.434 LS
121.306 279.434 L
121.306 281.579 L
120.859 281.579 L
120.859 279.434 LE
121.306 277.728 LS
121.752 277.728 L
121.752 279.864 L
121.306 279.864 L
121.306 277.728 LE
121.752 276.035 LS
122.198 276.035 L
122.198 278.161 L
121.752 278.161 L
121.752 276.035 LE
122.198 274.353 LS
122.645 274.353 L
122.645 276.47 L
122.198 276.47 L
122.198 274.353 LE
122.645 272.684 LS
123.091 272.684 L
123.091 274.791 L
122.645 274.791 L
122.645 272.684 LE
123.091 271.026 LS
123.538 271.026 L
123.538 273.124 L
123.091 273.124 L
123.091 271.026 LE
123.538 269.381 LS
123.984 269.381 L
123.984 271.469 L
123.538 271.469 L
123.538 269.381 LE
123.984 267.748 LS
124.43 267.748 L
124.43 269.826 L
123.984 269.826 L
123.984 267.748 LE
124.43 266.126 LS
124.877 266.126 L
124.877 268.195 L
124.43 268.195 L
124.43 266.126 LE
124.877 264.517 LS
125.323 264.517 L
125.323 266.576 L
124.877 266.576 L
124.877 264.517 LE
125.323 262.92 LS
125.77 262.92 L
125.77 264.968 L
125.323 264.968 L
125.323 262.92 LE
125.77 261.335 LS
126.216 261.335 L
126.216 263.373 L
125.77 263.373 L
125.77 261.335 LE
126.216 259.762 LS
126.662 259.762 L
126.662 261.79 L
126.216 261.79 L
126.216 259.762 LE
126.662 258.201 LS
127.109 258.201 L
127.109 260.219 L
126.662 260.219 L
126.662 258.201 LE
127.109 256.652 LS
127.555 256.652 L
127.555 258.66 L
127.109 258.66 L
127.109 256.652 LE
127.555 255.115 LS
128.002 255.115 L
128.002 257.112 L
127.555 257.112 L
127.555 255.115 LE
128.002 253.59 LS
128.448 253.59 L
128.448 255.577 L
128.002 255.577 L
128.002 253.59 LE
128.448 252.077 LS
128.894 252.077 L
128.894 254.054 L
128.448 254.054 L
128.448 252.077 LE
128.894 250.577 LS
129.341 250.577 L
129.341 252.543 L
128.894 252.543 L
128.894 250.577 LE
129.341 249.088 LS
129.787 249.088 L
129.787 251.043 L
129.341 251.043 L
129.341 249.088 LE
129.787 247.611 LS
130.234 247.611 L
130.234 249.556 L
129.787 249.556 L
129.787 247.611 LE
130.234 246.147 LS
130.68 246.147 L
130.68 248.081 L
130.234 248.081 L
130.234 246.147 LE
130.68 244.694 LS
131.126 244.694 L
131.126 246.617 L
130.68 246.617 L
130.68 244.694 LE
131.126 243.253 LS
131.573 243.253 L
131.573 245.166 L
131.126 245.166 L
131.126 243.253 LE
131.573 241.825 LS
132.019 241.825 L
132.019 243.726 L
131.573 243.726 L
131.573 241.825 LE
132.019 240.409 LS
132.466 240.409 L
132.466 242.299 L
132.019 242.299 L
132.019 240.409 LE
132.466 239.004 LS
132.912 239.004 L
132.912 240.883 L
132.466 240.883 L
132.466 239.004 LE
132.912 237.612 LS
133.358 237.612 L
133.358 239.48 L
132.912 239.48 L
132.912 237.612 LE
133.358 236.231 LS
133.805 236.231 L
133.805 238.089 L
133.358 238.089 L
133.358 236.231 LE
133.805 234.863 LS
134.251 234.863 L
134.251 236.709 L
133.805 236.709 L
133.805 234.863 LE
134.251 233.507 LS
134.698 233.507 L
134.698 235.341 L
134.251 235.341 L
134.251 233.507 LE
134.698 232.163 LS
135.144 232.163 L
135.144 233.986 L
134.698 233.986 L
134.698 232.163 LE
135.144 230.831 LS
135.59 230.831 L
135.59 232.642 L
135.144 232.642 L
135.144 230.831 LE
135.59 229.511 LS
136.037 229.511 L
136.037 231.311 L
135.59 231.311 L
135.59 229.511 LE
136.037 228.203 LS
136.483 228.203 L
136.483 229.991 L
136.037 229.991 L
136.037 228.203 LE
136.483 226.907 LS
136.93 226.907 L
136.93 228.684 L
136.483 228.684 L
136.483 226.907 LE
136.93 225.623 LS
137.376 225.623 L
137.376 227.388 L
136.93 227.388 L
136.93 225.623 LE
137.376 224.351 LS
137.822 224.351 L
137.822 226.104 L
137.376 226.104 L
137.376 224.351 LE
137.822 223.091 LS
138.269 223.091 L
138.269 224.833 L
137.822 224.833 L
137.822 223.091 LE
138.269 221.843 LS
138.715 221.843 L
138.715 223.573 L
138.269 223.573 L
138.269 221.843 LE
138.715 220.607 LS
139.162 220.607 L
139.162 222.325 L
138.715 222.325 L
138.715 220.607 LE
139.162 219.383 LS
139.608 219.383 L
139.608 221.089 L
139.162 221.089 L
139.162 219.383 LE
139.608 218.172 LS
140.054 218.172 L
140.054 219.866 L
139.608 219.866 L
139.608 218.172 LE
140.054 216.972 LS
140.501 216.972 L
140.501 218.654 L
140.054 218.654 L
140.054 216.972 LE
140.501 215.784 LS
140.947 215.784 L
140.947 217.455 L
140.501 217.455 L
140.501 215.784 LE
140.947 214.608 LS
141.394 214.608 L
141.394 216.267 L
140.947 216.267 L
140.947 214.608 LE
141.394 213.444 LS
141.84 213.444 L
141.84 215.092 L
141.394 215.092 L
141.394 213.444 LE
141.84 212.293 LS
142.286 212.293 L
142.286 213.928 L
141.84 213.928 L
141.84 212.293 LE
142.286 211.153 LS
142.733 211.153 L
142.733 212.776 L
142.286 212.776 L
142.286 211.153 LE
142.733 210.025 LS
143.179 210.025 L
143.179 211.637 L
142.733 211.637 L
142.733 210.025 LE
143.179 208.908 LS
143.626 208.908 L
143.626 210.51 L
143.179 210.51 L
143.179 208.908 LE
143.626 207.804 LS
144.072 207.804 L
144.072 209.395 L
143.626 209.395 L
143.626 207.804 LE
144.072 206.712 LS
144.518 206.712 L
144.518 208.292 L
144.072 208.292 L
144.072 206.712 LE
144.518 205.632 LS
144.965 205.632 L
144.965 207.201 L
144.518 207.201 L
144.518 205.632 LE
144.965 204.563 LS
145.411 204.563 L
145.411 206.122 L
144.965 206.122 L
144.965 204.563 LE
145.411 203.507 LS
145.858 203.507 L
145.858 205.055 L
145.411 205.055 L
145.411 203.507 LE
145.858 202.463 LS
146.304 202.463 L
146.304 204 L
145.858 204 L
145.858 202.463 LE
146.304 201.431 LS
146.75 201.431 L
146.75 202.957 L
146.304 202.957 L
146.304 201.431 LE
146.75 200.411 LS
147.197 200.411 L
147.197 201.926 L
146.75 201.926 L
146.75 200.411 LE
147.197 199.404 LS
147.643 199.404 L
147.643 200.906 L
147.197 200.906 L
147.197 199.404 LE
147.643 198.408 LS
148.09 198.408 L
148.09 199.899 L
147.643 199.899 L
147.643 198.408 LE
148.09 197.424 LS
148.536 197.424 L
148.536 198.904 L
148.09 198.904 L
148.09 197.424 LE
148.536 196.452 LS
148.982 196.452 L
148.982 197.921 L
148.536 197.921 L
148.536 196.452 LE
148.982 195.493 LS
149.429 195.493 L
149.429 196.95 L
148.982 196.95 L
148.982 195.493 LE
149.429 194.545 LS
149.875 194.545 L
149.875 195.99 L
149.429 195.99 L
149.429 194.545 LE
149.875 193.609 LS
150.322 193.609 L
150.322 195.043 L
149.875 195.043 L
149.875 193.609 LE
150.322 192.686 LS
150.768 192.686 L
150.768 194.108 L
150.322 194.108 L
150.322 192.686 LE
150.768 191.774 LS
151.214 191.774 L
151.214 193.184 L
150.768 193.184 L
150.768 191.774 LE
151.214 190.875 LS
151.661 190.875 L
151.661 192.273 L
151.214 192.273 L
151.214 190.875 LE
151.661 189.988 LS
152.107 189.988 L
152.107 191.373 L
151.661 191.373 L
151.661 189.988 LE
152.107 189.112 LS
152.554 189.112 L
152.554 190.486 L
152.107 190.486 L
152.107 189.112 LE
152.554 188.249 LS
153 188.249 L
153 189.61 L
152.554 189.61 L
152.554 188.249 LE
153 187.398 LS
153.446 187.398 L
153.446 188.747 L
153 188.747 L
153 187.398 LE
153.446 186.559 LS
153.893 186.559 L
153.893 187.895 L
153.446 187.895 L
153.446 186.559 LE
153.893 185.732 LS
154.339 185.732 L
154.339 187.055 L
153.893 187.055 L
153.893 185.732 LE
154.339 184.917 LS
154.786 184.917 L
154.786 186.228 L
154.339 186.228 L
154.339 184.917 LE
154.786 184.114 LS
155.232 184.114 L
155.232 185.412 L
154.786 185.412 L
154.786 184.114 LE
155.232 183.323 LS
155.678 183.323 L
155.678 184.608 L
155.232 184.608 L
155.232 183.323 LE
155.678 182.545 LS
156.125 182.545 L
156.125 183.816 L
155.678 183.816 L
155.678 182.545 LE
156.125 181.778 LS
156.571 181.778 L
156.571 183.037 L
156.125 183.037 L
156.125 181.778 LE
156.571 181.023 LS
157.018 181.023 L
157.018 182.269 L
156.571 182.269 L
156.571 181.023 LE
157.018 180.281 LS
157.464 180.281 L
157.464 181.513 L
157.018 181.513 L
157.018 180.281 LE
157.464 179.55 LS
157.91 179.55 L
157.91 180.769 L
157.464 180.769 L
157.464 179.55 LE
157.91 178.832 LS
158.357 178.832 L
158.357 180.037 L
157.91 180.037 L
157.91 178.832 LE
158.357 178.125 LS
158.803 178.125 L
158.803 179.317 L
158.357 179.317 L
158.357 178.125 LE
158.803 177.431 LS
159.25 177.431 L
159.25 178.609 L
158.803 178.609 L
158.803 177.431 LE
159.25 176.749 LS
159.696 176.749 L
159.696 177.913 L
159.25 177.913 L
159.25 176.749 LE
159.696 176.079 LS
160.142 176.079 L
160.142 177.229 L
159.696 177.229 L
159.696 176.079 LE
160.142 175.42 LS
160.589 175.42 L
160.589 176.557 L
160.142 176.557 L
160.142 175.42 LE
160.589 174.774 LS
161.035 174.774 L
161.035 175.897 L
160.589 175.897 L
160.589 174.774 LE
161.035 174.14 LS
161.482 174.14 L
161.482 175.248 L
161.035 175.248 L
161.035 174.14 LE
161.482 173.518 LS
161.928 173.518 L
161.928 174.612 L
161.482 174.612 L
161.482 173.518 LE
161.928 172.908 LS
162.374 172.908 L
162.374 173.988 L
161.928 173.988 L
161.928 172.908 LE
162.374 172.311 LS
162.821 172.311 L
162.821 173.376 L
162.374 173.376 L
162.374 172.311 LE
162.821 171.725 LS
163.267 171.725 L
163.267 172.775 L
162.821 172.775 L
162.821 171.725 LE
163.267 171.151 LS
163.714 171.151 L
163.714 172.187 L
163.267 172.187 L
163.267 171.151 LE
163.714 170.589 LS
164.16 170.589 L
164.16 171.61 L
163.714 171.61 L
163.714 170.589 LE
164.16 170.039 LS
164.606 170.039 L
164.606 171.046 L
164.16 171.046 L
164.16 170.039 LE
164.606 169.496 LS
165.053 169.496 L
165.053 170.492 L
164.606 170.492 L
164.606 169.496 LE
165.053 168.961 LS
165.499 168.961 L
165.499 169.946 L
165.053 169.946 L
165.053 168.961 LE
165.499 168.433 LS
165.946 168.433 L
165.946 169.409 L
165.499 169.409 L
165.499 168.433 LE
165.946 167.914 LS
166.392 167.914 L
166.392 168.879 L
165.946 168.879 L
165.946 167.914 LE
166.392 167.403 LS
166.838 167.403 L
166.838 168.358 L
166.392 168.358 L
166.392 167.403 LE
166.838 166.9 LS
167.285 166.9 L
167.285 167.845 L
166.838 167.845 L
166.838 166.9 LE
167.285 166.405 LS
167.731 166.405 L
167.731 167.34 L
167.285 167.34 L
167.285 166.405 LE
167.731 165.919 LS
168.178 165.919 L
168.178 166.843 L
167.731 166.843 L
167.731 165.919 LE
168.178 165.44 LS
168.624 165.44 L
168.624 166.355 L
168.178 166.355 L
168.178 165.44 LE
168.624 164.97 LS
169.07 164.97 L
169.07 165.874 L
168.624 165.874 L
168.624 164.97 LE
169.07 164.507 LS
169.517 164.507 L
169.517 165.402 L
169.07 165.402 L
169.07 164.507 LE
169.517 164.053 LS
169.963 164.053 L
169.963 164.938 L
169.517 164.938 L
169.517 164.053 LE
169.963 163.607 LS
170.41 163.607 L
170.41 164.482 L
169.963 164.482 L
169.963 163.607 LE
170.41 163.169 LS
170.856 163.169 L
170.856 164.035 L
170.41 164.035 L
170.41 163.169 LE
170.856 162.739 LS
171.302 162.739 L
171.302 163.596 L
170.856 163.596 L
170.856 162.739 LE
171.302 162.317 LS
171.749 162.317 L
171.749 163.165 L
171.302 163.165 L
171.302 162.317 LE
171.749 161.903 LS
172.195 161.903 L
172.195 162.742 L
171.749 162.742 L
171.749 161.903 LE
172.195 161.497 LS
172.642 161.497 L
172.642 162.328 L
172.195 162.328 L
172.195 161.497 LE
172.642 161.1 LS
173.088 161.1 L
173.088 161.922 L
172.642 161.922 L
172.642 161.1 LE
173.088 160.71 LS
173.534 160.71 L
173.534 161.524 L
173.088 161.524 L
173.088 160.71 LE
173.534 160.329 LS
173.981 160.329 L
173.981 161.134 L
173.534 161.134 L
173.534 160.329 LE
173.981 159.955 LS
174.427 159.955 L
174.427 160.752 L
173.981 160.752 L
173.981 159.955 LE
174.427 159.59 LS
174.874 159.59 L
174.874 160.379 L
174.427 160.379 L
174.427 159.59 LE
174.874 159.233 LS
175.32 159.233 L
175.32 160.013 L
174.874 160.013 L
174.874 159.233 LE
175.32 158.884 LS
175.766 158.884 L
175.766 159.656 L
175.32 159.656 L
175.32 158.884 LE
175.766 158.544 LS
176.213 158.544 L
176.213 159.307 L
175.766 159.307 L
175.766 158.544 LE
176.213 158.211 LS
176.659 158.211 L
176.659 158.967 L
176.213 158.967 L
176.213 158.211 LE
176.659 157.886 LS
177.106 157.886 L
177.106 158.634 L
176.659 158.634 L
176.659 157.886 LE
177.106 157.57 LS
177.552 157.57 L
177.552 158.31 L
177.106 158.31 L
177.106 157.57 LE
177.552 157.262 LS
177.998 157.262 L
177.998 157.994 L
177.552 157.994 L
177.552 157.262 LE
177.998 156.962 LS
178.445 156.962 L
178.445 157.686 L
177.998 157.686 L
177.998 156.962 LE
178.445 156.67 LS
178.891 156.67 L
178.891 157.386 L
178.445 157.386 L
178.445 156.67 LE
178.891 156.386 LS
179.338 156.386 L
179.338 157.094 L
178.891 157.094 L
178.891 156.386 LE
179.338 156.11 LS
179.784 156.11 L
179.784 156.811 L
179.338 156.811 L
179.338 156.11 LE
179.784 155.842 LS
180.23 155.842 L
180.23 156.536 L
179.784 156.536 L
179.784 155.842 LE
180.23 155.583 LS
180.677 155.583 L
180.677 156.269 L
180.23 156.269 L
180.23 155.583 LE
180.677 155.332 LS
181.123 155.332 L
181.123 156.01 L
180.677 156.01 L
180.677 155.332 LE
181.123 155.088 LS
181.57 155.088 L
181.57 155.759 L
181.123 155.759 L
181.123 155.088 LE
181.57 154.853 LS
182.016 154.853 L
182.016 155.517 L
181.57 155.517 L
181.57 154.853 LE
182.016 154.626 LS
182.462 154.626 L
182.462 155.283 L
182.016 155.283 L
182.016 154.626 LE
182.462 154.408 LS
182.909 154.408 L
182.909 155.056 L
182.462 155.056 L
182.462 154.408 LE
182.909 154.197 LS
183.355 154.197 L
183.355 154.839 L
182.909 154.839 L
182.909 154.197 LE
183.355 153.994 LS
183.802 153.994 L
183.802 154.629 L
183.355 154.629 L
183.355 153.994 LE
183.802 153.8 LS
184.248 153.8 L
184.248 154.427 L
183.802 154.427 L
183.802 153.8 LE
184.248 153.614 LS
184.694 153.614 L
184.694 154.234 L
184.248 154.234 L
184.248 153.614 LE
184.694 153.435 LS
185.141 153.435 L
185.141 154.049 L
184.694 154.049 L
184.694 153.435 LE
185.141 153.265 LS
185.587 153.265 L
185.587 153.872 L
185.141 153.872 L
185.141 153.265 LE
185.587 153.103 LS
186.034 153.103 L
186.034 153.703 L
185.587 153.703 L
185.587 153.103 LE
186.034 152.95 LS
186.48 152.95 L
186.48 153.543 L
186.034 153.543 L
186.034 152.95 LE
186.48 152.804 LS
186.926 152.804 L
186.926 153.39 L
186.48 153.39 L
186.48 152.804 LE
186.926 152.667 LS
187.373 152.667 L
187.373 153.246 L
186.926 153.246 L
186.926 152.667 LE
187.373 152.537 LS
187.819 152.537 L
187.819 153.11 L
187.373 153.11 L
187.373 152.537 LE
187.819 152.416 LS
188.266 152.416 L
188.266 152.982 L
187.819 152.982 L
187.819 152.416 LE
188.266 152.303 LS
188.712 152.303 L
188.712 152.862 L
188.266 152.862 L
188.266 152.303 LE
188.712 152.198 LS
189.158 152.198 L
189.158 152.751 L
188.712 152.751 L
188.712 152.198 LE
189.158 152.101 LS
189.605 152.101 L
189.605 152.648 L
189.158 152.648 L
189.158 152.101 LE
189.605 152.012 LS
190.051 152.012 L
190.051 152.553 L
189.605 152.553 L
189.605 152.012 LE
190.051 151.932 LS
190.498 151.932 L
190.498 152.466 L
190.051 152.466 L
190.051 151.932 LE
190.498 151.859 LS
190.944 151.859 L
190.944 152.387 L
190.498 152.387 L
190.498 151.859 LE
190.944 151.795 LS
191.39 151.795 L
191.39 152.316 L
190.944 152.316 L
190.944 151.795 LE
191.39 151.739 LS
191.837 151.739 L
191.837 152.254 L
191.39 152.254 L
191.39 151.739 LE
191.837 151.69 LS
192.283 151.69 L
192.283 152.2 L
191.837 152.2 L
191.837 151.69 LE
192.283 151.651 LS
192.73 151.651 L
192.73 152.154 L
192.283 152.154 L
192.283 151.651 LE
192.73 151.619 LS
193.176 151.619 L
193.176 152.116 L
192.73 152.116 L
192.73 151.619 LE
193.176 151.595 LS
193.622 151.595 L
193.622 152.087 L
193.176 152.087 L
193.176 151.595 LE
193.622 151.579 LS
194.069 151.579 L
194.069 152.065 L
193.622 152.065 L
193.622 151.579 LE
194.069 151.572 LS
194.515 151.572 L
194.515 152.052 L
194.069 152.052 L
194.069 151.572 LE
194.515 151.573 LS
194.962 151.573 L
194.962 152.052 L
194.515 152.052 L
194.515 151.573 LE
194.962 151.578 LS
195.408 151.578 L
195.408 152.063 L
194.962 152.063 L
194.962 151.578 LE
195.408 151.587 LS
195.854 151.587 L
195.854 152.083 L
195.408 152.083 L
195.408 151.587 LE
195.854 151.604 LS
196.301 151.604 L
196.301 152.11 L
195.854 152.11 L
195.854 151.604 LE
196.301 151.629 LS
196.747 151.629 L
196.747 152.146 L
196.301 152.146 L
196.301 151.629 LE
196.747 151.662 LS
197.194 151.662 L
197.194 152.19 L
196.747 152.19 L
196.747 151.662 LE
197.194 151.703 LS
197.64 151.703 L
197.64 152.242 L
197.194 152.242 L
197.194 151.703 LE
197.64 151.753 LS
198.086 151.753 L
198.086 152.303 L
197.64 152.303 L
197.64 151.753 LE
198.086 151.81 LS
198.533 151.81 L
198.533 152.372 L
198.086 152.372 L
198.086 151.81 LE
198.533 151.876 LS
198.979 151.876 L
198.979 152.448 L
198.533 152.448 L
198.533 151.876 LE
198.979 151.95 LS
199.426 151.95 L
199.426 152.533 L
198.979 152.533 L
198.979 151.95 LE
199.426 152.032 LS
199.872 152.032 L
199.872 152.627 L
199.426 152.627 L
199.426 152.032 LE
199.872 152.122 LS
200.318 152.122 L
200.318 152.728 L
199.872 152.728 L
199.872 152.122 LE
200.318 152.22 LS
200.765 152.22 L
200.765 152.838 L
200.318 152.838 L
200.318 152.22 LE
200.765 152.326 LS
201.211 152.326 L
201.211 152.955 L
200.765 152.955 L
200.765 152.326 LE
201.211 152.441 LS
201.658 152.441 L
201.658 153.081 L
201.211 153.081 L
201.211 152.441 LE
201.658 152.563 LS
202.104 152.563 L
202.104 153.215 L
201.658 153.215 L
201.658 152.563 LE
202.104 152.694 LS
202.55 152.694 L
202.55 153.358 L
202.104 153.358 L
202.104 152.694 LE
202.55 152.833 LS
202.997 152.833 L
202.997 153.508 L
202.55 153.508 L
202.55 152.833 LE
202.997 152.98 LS
203.443 152.98 L
203.443 153.667 L
202.997 153.667 L
202.997 152.98 LE
203.443 153.135 LS
203.89 153.135 L
203.89 153.834 L
203.443 153.834 L
203.443 153.135 LE
203.89 153.298 LS
204.336 153.298 L
204.336 154.009 L
203.89 154.009 L
203.89 153.298 LE
204.336 153.47 LS
204.782 153.47 L
204.782 154.192 L
204.336 154.192 L
204.336 153.47 LE
204.782 153.649 LS
205.229 153.649 L
205.229 154.384 L
204.782 154.384 L
204.782 153.649 LE
205.229 153.837 LS
205.675 153.837 L
205.675 154.583 L
205.229 154.583 L
205.229 153.837 LE
205.675 154.032 LS
206.122 154.032 L
206.122 154.791 L
205.675 154.791 L
205.675 154.032 LE
206.122 154.236 LS
206.568 154.236 L
206.568 155.007 L
206.122 155.007 L
206.122 154.236 LE
206.568 154.448 LS
207.014 154.448 L
207.014 155.232 L
206.568 155.232 L
206.568 154.448 LE
207.014 154.668 LS
207.461 154.668 L
207.461 155.464 L
207.014 155.464 L
207.014 154.668 LE
207.461 154.897 LS
207.907 154.897 L
207.907 155.705 L
207.461 155.705 L
207.461 154.897 LE
207.907 155.133 LS
208.354 155.133 L
208.354 155.953 L
207.907 155.953 L
207.907 155.133 LE
208.354 155.378 LS
208.8 155.378 L
208.8 156.21 L
208.354 156.21 L
208.354 155.378 LE
208.8 155.63 LS
209.246 155.63 L
209.246 156.472 L
208.8 156.472 L
208.8 155.63 LE
209.246 155.887 LS
209.693 155.887 L
209.693 156.733 L
209.246 156.733 L
209.246 155.887 LE
209.693 156.144 LS
210.139 156.144 L
210.139 156.994 L
209.693 156.994 L
209.693 156.144 LE
210.139 156.401 LS
210.586 156.401 L
210.586 157.255 L
210.139 157.255 L
210.139 156.401 LE
210.586 156.658 LS
211.032 156.658 L
211.032 157.516 L
210.586 157.516 L
210.586 156.658 LE
211.032 156.915 LS
211.478 156.915 L
211.478 157.778 L
211.032 157.778 L
211.032 156.915 LE
211.478 157.172 LS
211.925 157.172 L
211.925 158.039 L
211.478 158.039 L
211.478 157.172 LE
211.925 157.429 LS
212.371 157.429 L
212.371 158.3 L
211.925 158.3 L
211.925 157.429 LE
212.371 157.687 LS
212.818 157.687 L
212.818 158.562 L
212.371 158.562 L
212.371 157.687 LE
212.818 157.944 LS
213.264 157.944 L
213.264 158.823 L
212.818 158.823 L
212.818 157.944 LE
213.264 158.201 LS
213.71 158.201 L
213.71 159.084 L
213.264 159.084 L
213.264 158.201 LE
213.71 158.459 LS
214.157 158.459 L
214.157 159.346 L
213.71 159.346 L
213.71 158.459 LE
214.157 158.717 LS
214.603 158.717 L
214.603 159.607 L
214.157 159.607 L
214.157 158.717 LE
214.603 158.974 LS
215.05 158.974 L
215.05 159.869 L
214.603 159.869 L
214.603 158.974 LE
215.05 159.232 LS
215.496 159.232 L
215.496 160.13 L
215.05 160.13 L
215.05 159.232 LE
215.496 159.49 LS
215.942 159.49 L
215.942 160.392 L
215.496 160.392 L
215.496 159.49 LE
215.942 159.748 LS
216.389 159.748 L
216.389 160.653 L
215.942 160.653 L
215.942 159.748 LE
216.389 160.006 LS
216.835 160.006 L
216.835 160.915 L
216.389 160.915 L
216.389 160.006 LE
216.835 160.264 LS
217.282 160.264 L
217.282 161.176 L
216.835 161.176 L
216.835 160.264 LE
217.282 160.522 LS
217.728 160.522 L
217.728 161.438 L
217.282 161.438 L
217.282 160.522 LE
217.728 160.78 LS
218.174 160.78 L
218.174 161.699 L
217.728 161.699 L
217.728 160.78 LE
218.174 161.038 LS
218.621 161.038 L
218.621 161.961 L
218.174 161.961 L
218.174 161.038 LE
218.621 161.297 LS
219.067 161.297 L
219.067 162.223 L
218.621 162.223 L
218.621 161.297 LE
219.067 161.555 LS
219.514 161.555 L
219.514 162.485 L
219.067 162.485 L
219.067 161.555 LE
219.514 161.814 LS
219.96 161.814 L
219.96 162.746 L
219.514 162.746 L
219.514 161.814 LE
219.96 162.072 LS
220.406 162.072 L
220.406 163.008 L
219.96 163.008 L
219.96 162.072 LE
220.406 162.331 LS
220.853 162.331 L
220.853 163.27 L
220.406 163.27 L
220.406 162.331 LE
220.853 162.59 LS
221.299 162.59 L
221.299 163.532 L
220.853 163.532 L
220.853 162.59 LE
221.299 162.848 LS
221.746 162.848 L
221.746 163.794 L
221.299 163.794 L
221.299 162.848 LE
221.746 163.107 LS
222.192 163.107 L
222.192 164.055 L
221.746 164.055 L
221.746 163.107 LE
222.192 163.366 LS
222.638 163.366 L
222.638 164.317 L
222.192 164.317 L
222.192 163.366 LE
222.638 163.625 LS
223.085 163.625 L
223.085 164.579 L
222.638 164.579 L
222.638 163.625 LE
223.085 163.884 LS
223.531 163.884 L
223.531 164.841 L
223.085 164.841 L
223.085 163.884 LE
223.531 164.143 LS
223.978 164.143 L
223.978 165.103 L
223.531 165.103 L
223.531 164.143 LE
223.978 164.403 LS
224.424 164.403 L
224.424 165.365 L
223.978 165.365 L
223.978 164.403 LE
224.424 164.662 LS
224.87 164.662 L
224.87 165.627 L
224.424 165.627 L
224.424 164.662 LE
224.87 164.921 LS
225.317 164.921 L
225.317 165.889 L
224.87 165.889 L
224.87 164.921 LE
225.317 165.181 LS
225.763 165.181 L
225.763 166.151 L
225.317 166.151 L
225.317 165.181 LE
225.763 165.44 LS
226.21 165.44 L
226.21 166.414 L
225.763 166.414 L
225.763 165.44 LE
226.21 165.7 LS
226.656 165.7 L
226.656 166.676 L
226.21 166.676 L
226.21 165.7 LE
226.656 165.96 LS
227.102 165.96 L
227.102 166.938 L
226.656 166.938 L
226.656 165.96 LE
227.102 166.219 LS
227.549 166.219 L
227.549 167.2 L
227.102 167.2 L
227.102 166.219 LE
227.549 166.479 LS
227.995 166.479 L
227.995 167.462 L
227.549 167.462 L
227.549 166.479 LE
227.995 166.739 LS
228.442 166.739 L
228.442 167.725 L
227.995 167.725 L
227.995 166.739 LE
228.442 166.999 LS
228.888 166.999 L
228.888 167.987 L
228.442 167.987 L
228.442 166.999 LE
228.888 167.259 LS
229.334 167.259 L
229.334 168.249 L
228.888 168.249 L
228.888 167.259 LE
229.334 167.519 LS
229.781 167.519 L
229.781 168.511 L
229.334 168.511 L
229.334 167.519 LE
229.781 167.78 LS
230.227 167.78 L
230.227 168.774 L
229.781 168.774 L
229.781 167.78 LE
230.227 168.04 LS
230.674 168.04 L
230.674 169.036 L
230.227 169.036 L
230.227 168.04 LE
230.674 168.3 LS
231.12 168.3 L
231.12 169.299 L
230.674 169.299 L
230.674 168.3 LE
231.12 168.561 LS
231.566 168.561 L
231.566 169.561 L
231.12 169.561 L
231.12 168.561 LE
231.566 168.821 LS
232.013 168.821 L
232.013 169.823 L
231.566 169.823 L
231.566 168.821 LE
232.013 169.082 LS
232.459 169.082 L
232.459 170.086 L
232.013 170.086 L
232.013 169.082 LE
232.459 169.343 LS
232.906 169.343 L
232.906 170.349 L
232.459 170.349 L
232.459 169.343 LE
232.906 169.603 LS
233.352 169.603 L
233.352 170.611 L
232.906 170.611 L
232.906 169.603 LE
233.352 169.864 LS
233.798 169.864 L
233.798 170.874 L
233.352 170.874 L
233.352 169.864 LE
233.798 170.125 LS
234.245 170.125 L
234.245 171.136 L
233.798 171.136 L
233.798 170.125 LE
234.245 170.386 LS
234.691 170.386 L
234.691 171.399 L
234.245 171.399 L
234.245 170.386 LE
234.691 170.647 LS
235.138 170.647 L
235.138 171.661 L
234.691 171.661 L
234.691 170.647 LE
235.138 170.908 LS
235.584 170.908 L
235.584 171.924 L
235.138 171.924 L
235.138 170.908 LE
235.584 171.169 LS
236.03 171.169 L
236.03 172.187 L
235.584 172.187 L
235.584 171.169 LE
236.03 171.431 LS
236.477 171.431 L
236.477 172.45 L
236.03 172.45 L
236.03 171.431 LE
236.477 171.692 LS
236.923 171.692 L
236.923 172.712 L
236.477 172.712 L
236.477 171.692 LE
236.923 171.953 LS
237.37 171.953 L
237.37 172.975 L
236.923 172.975 L
236.923 171.953 LE
237.37 172.215 LS
237.816 172.215 L
237.816 173.238 L
237.37 173.238 L
237.37 172.215 LE
237.816 172.476 LS
238.262 172.476 L
238.262 173.501 L
237.816 173.501 L
237.816 172.476 LE
238.262 172.738 LS
238.709 172.738 L
238.709 173.764 L
238.262 173.764 L
238.262 172.738 LE
238.709 173 LS
239.155 173 L
239.155 174.026 L
238.709 174.026 L
238.709 173 LE
239.155 173.261 LS
239.602 173.261 L
239.602 174.289 L
239.155 174.289 L
239.155 173.261 LE
239.602 173.523 LS
240.048 173.523 L
240.048 174.552 L
239.602 174.552 L
239.602 173.523 LE
240.048 173.785 LS
240.494 173.785 L
240.494 174.815 L
240.048 174.815 L
240.048 173.785 LE
240.494 174.047 LS
240.941 174.047 L
240.941 175.078 L
240.494 175.078 L
240.494 174.047 LE
240.941 174.309 LS
241.387 174.309 L
241.387 175.341 L
240.941 175.341 L
240.941 174.309 LE
241.387 174.572 LS
241.834 174.572 L
241.834 175.604 L
241.387 175.604 L
241.387 174.572 LE
241.834 174.834 LS
242.28 174.834 L
242.28 175.867 L
241.834 175.867 L
241.834 174.834 LE
242.28 175.096 LS
242.726 175.096 L
242.726 176.13 L
242.28 176.13 L
242.28 175.096 LE
242.726 175.358 LS
243.173 175.358 L
243.173 176.394 L
242.726 176.394 L
242.726 175.358 LE
243.173 175.621 LS
243.619 175.621 L
243.619 176.657 L
243.173 176.657 L
243.173 175.621 LE
243.619 175.883 LS
244.066 175.883 L
244.066 176.92 L
243.619 176.92 L
243.619 175.883 LE
244.066 176.146 LS
244.512 176.146 L
244.512 177.183 L
244.066 177.183 L
244.066 176.146 LE
244.512 176.409 LS
244.958 176.409 L
244.958 177.446 L
244.512 177.446 L
244.512 176.409 LE
244.958 176.672 LS
245.405 176.672 L
245.405 177.71 L
244.958 177.71 L
244.958 176.672 LE
245.405 176.934 LS
245.851 176.934 L
245.851 177.973 L
245.405 177.973 L
245.405 176.934 LE
245.851 177.197 LS
246.298 177.197 L
246.298 178.236 L
245.851 178.236 L
245.851 177.197 LE
246.298 177.46 LS
246.744 177.46 L
246.744 178.499 L
246.298 178.499 L
246.298 177.46 LE
246.744 177.723 LS
247.19 177.723 L
247.19 178.763 L
246.744 178.763 L
246.744 177.723 LE
247.19 177.986 LS
247.637 177.986 L
247.637 179.026 L
247.19 179.026 L
247.19 177.986 LE
247.637 178.25 LS
248.083 178.25 L
248.083 179.29 L
247.637 179.29 L
247.637 178.25 LE
248.083 178.513 LS
248.53 178.513 L
248.53 179.553 L
248.083 179.553 L
248.083 178.513 LE
248.53 178.776 LS
248.976 178.776 L
248.976 179.817 L
248.53 179.817 L
248.53 178.776 LE
248.976 179.04 LS
249.422 179.04 L
249.422 180.08 L
248.976 180.08 L
248.976 179.04 LE
249.422 179.303 LS
249.869 179.303 L
249.869 180.344 L
249.422 180.344 L
249.422 179.303 LE
249.869 179.567 LS
250.315 179.567 L
250.315 180.607 L
249.869 180.607 L
249.869 179.567 LE
250.315 179.83 LS
250.762 179.83 L
250.762 180.871 L
250.315 180.871 L
250.315 179.83 LE
250.762 180.094 LS
251.208 180.094 L
251.208 181.134 L
250.762 181.134 L
250.762 180.094 LE
251.208 180.358 LS
251.654 180.358 L
251.654 181.398 L
251.208 181.398 L
251.208 180.358 LE
251.654 180.622 LS
252.101 180.622 L
252.101 181.662 L
251.654 181.662 L
251.654 180.622 LE
252.101 180.886 LS
252.547 180.886 L
252.547 181.925 L
252.101 181.925 L
252.101 180.886 LE
252.547 181.15 LS
252.994 181.15 L
252.994 182.189 L
252.547 182.189 L
252.547 181.15 LE
252.994 181.414 LS
253.44 181.414 L
253.44 182.453 L
252.994 182.453 L
252.994 181.414 LE
253.44 181.677 LS
253.886 181.677 L
253.886 182.717 L
253.44 182.717 L
253.44 181.677 LE
253.886 181.941 LS
254.333 181.941 L
254.333 182.98 L
253.886 182.98 L
253.886 181.941 LE
254.333 182.203 LS
254.779 182.203 L
254.779 183.242 L
254.333 183.242 L
254.333 182.203 LE
254.779 182.464 LS
255.226 182.464 L
255.226 183.503 L
254.779 183.503 L
254.779 182.464 LE
255.226 182.724 LS
255.672 182.724 L
255.672 183.763 L
255.226 183.763 L
255.226 182.724 LE
255.672 182.983 LS
256.118 182.983 L
256.118 184.023 L
255.672 184.023 L
255.672 182.983 LE
256.118 183.241 LS
256.565 183.241 L
256.565 184.281 L
256.118 184.281 L
256.118 183.241 LE
256.565 183.498 LS
257.011 183.498 L
257.011 184.538 L
256.565 184.538 L
256.565 183.498 LE
257.011 183.754 LS
257.458 183.754 L
257.458 184.794 L
257.011 184.794 L
257.011 183.754 LE
257.458 184.009 LS
257.904 184.009 L
257.904 185.049 L
257.458 185.049 L
257.458 184.009 LE
257.904 184.263 LS
258.35 184.263 L
258.35 185.304 L
257.904 185.304 L
257.904 184.263 LE
258.35 184.516 LS
258.797 184.516 L
258.797 185.557 L
258.35 185.557 L
258.35 184.516 LE
258.797 184.768 LS
259.243 184.768 L
259.243 185.809 L
258.797 185.809 L
258.797 184.768 LE
259.243 185.019 LS
259.69 185.019 L
259.69 186.061 L
259.243 186.061 L
259.243 185.019 LE
259.69 185.269 LS
260.136 185.269 L
260.136 186.311 L
259.69 186.311 L
259.69 185.269 LE
260.136 185.518 LS
260.582 185.518 L
260.582 186.561 L
260.136 186.561 L
260.136 185.518 LE
260.582 185.766 LS
261.029 185.766 L
261.029 186.809 L
260.582 186.809 L
260.582 185.766 LE
261.029 186.013 LS
261.475 186.013 L
261.475 187.057 L
261.029 187.057 L
261.029 186.013 LE
261.475 186.259 LS
261.922 186.259 L
261.922 187.303 L
261.475 187.303 L
261.475 186.259 LE
261.922 186.504 LS
262.368 186.504 L
262.368 187.549 L
261.922 187.549 L
261.922 186.504 LE
262.368 186.748 LS
262.814 186.748 L
262.814 187.794 L
262.368 187.794 L
262.368 186.748 LE
262.814 186.991 LS
263.261 186.991 L
263.261 188.037 L
262.814 188.037 L
262.814 186.991 LE
263.261 187.233 LS
263.707 187.233 L
263.707 188.28 L
263.261 188.28 L
263.261 187.233 LE
263.707 187.474 LS
264.154 187.474 L
264.154 188.522 L
263.707 188.522 L
263.707 187.474 LE
264.154 187.714 LS
264.6 187.714 L
264.6 188.763 L
264.154 188.763 L
264.154 187.714 LE
264.6 187.953 LS
265.046 187.953 L
265.046 189.003 L
264.6 189.003 L
264.6 187.953 LE
265.046 188.191 LS
265.493 188.191 L
265.493 189.242 L
265.046 189.242 L
265.046 188.191 LE
265.493 188.428 LS
265.939 188.428 L
265.939 189.48 L
265.493 189.48 L
265.493 188.428 LE
265.939 188.664 LS
266.386 188.664 L
266.386 189.717 L
265.939 189.717 L
265.939 188.664 LE
266.386 188.9 LS
266.832 188.9 L
266.832 189.953 L
266.386 189.953 L
266.386 188.9 LE
266.832 189.134 LS
267.278 189.134 L
267.278 190.188 L
266.832 190.188 L
266.832 189.134 LE
267.278 189.367 LS
267.725 189.367 L
267.725 190.422 L
267.278 190.422 L
267.278 189.367 LE
267.725 189.599 LS
268.171 189.599 L
268.171 190.655 L
267.725 190.655 L
267.725 189.599 LE
268.171 189.83 LS
268.618 189.83 L
268.618 190.887 L
268.171 190.887 L
268.171 189.83 LE
268.618 190.06 LS
269.064 190.06 L
269.064 191.118 L
268.618 191.118 L
268.618 190.06 LE
269.064 190.289 LS
269.51 190.289 L
269.51 191.348 L
269.064 191.348 L
269.064 190.289 LE
269.51 190.517 LS
269.957 190.517 L
269.957 191.578 L
269.51 191.578 L
269.51 190.517 LE
269.957 190.744 LS
270.403 190.744 L
270.403 191.806 L
269.957 191.806 L
269.957 190.744 LE
270.403 190.97 LS
270.85 190.97 L
270.85 192.033 L
270.403 192.033 L
270.403 190.97 LE
270.85 191.195 LS
271.296 191.195 L
271.296 192.26 L
270.85 192.26 L
270.85 191.195 LE
271.296 191.419 LS
271.742 191.419 L
271.742 192.485 L
271.296 192.485 L
271.296 191.419 LE
271.742 191.642 LS
272.189 191.642 L
272.189 192.71 L
271.742 192.71 L
271.742 191.642 LE
272.189 191.864 LS
272.635 191.864 L
272.635 192.933 L
272.189 192.933 L
272.189 191.864 LE
272.635 192.085 LS
273.082 192.085 L
273.082 193.156 L
272.635 193.156 L
272.635 192.085 LE
273.082 192.305 LS
273.528 192.305 L
273.528 193.377 L
273.082 193.377 L
273.082 192.305 LE
273.528 192.524 LS
273.974 192.524 L
273.974 193.598 L
273.528 193.598 L
273.528 192.524 LE
273.974 192.742 LS
274.421 192.742 L
274.421 193.818 L
273.974 193.818 L
273.974 192.742 LE
274.421 192.959 LS
274.867 192.959 L
274.867 194.036 L
274.421 194.036 L
274.421 192.959 LE
274.867 193.175 LS
275.314 193.175 L
275.314 194.254 L
274.867 194.254 L
274.867 193.175 LE
275.314 193.39 LS
275.76 193.39 L
275.76 194.471 L
275.314 194.471 L
275.314 193.39 LE
275.76 193.604 LS
276.206 193.604 L
276.206 194.687 L
275.76 194.687 L
275.76 193.604 LE
276.206 193.817 LS
276.653 193.817 L
276.653 194.901 L
276.206 194.901 L
276.206 193.817 LE
276.653 194.029 LS
277.099 194.029 L
277.099 195.115 L
276.653 195.115 L
276.653 194.029 LE
277.099 194.24 LS
277.546 194.24 L
277.546 195.328 L
277.099 195.328 L
277.099 194.24 LE
277.546 194.45 LS
277.992 194.45 L
277.992 195.54 L
277.546 195.54 L
277.546 194.45 LE
277.992 194.659 LS
278.438 194.659 L
278.438 195.751 L
277.992 195.751 L
277.992 194.659 LE
278.438 194.867 LS
278.885 194.867 L
278.885 195.961 L
278.438 195.961 L
278.438 194.867 LE
278.885 195.074 LS
279.331 195.074 L
279.331 196.17 L
278.885 196.17 L
278.885 195.074 LE
279.331 195.28 LS
279.778 195.28 L
279.778 196.378 L
279.331 196.378 L
279.331 195.28 LE
279.778 195.485 LS
280.224 195.485 L
280.224 196.586 L
279.778 196.586 L
279.778 195.485 LE
280.224 195.689 LS
280.67 195.689 L
280.67 196.792 L
280.224 196.792 L
280.224 195.689 LE
280.67 195.892 LS
281.117 195.892 L
281.117 196.997 L
280.67 196.997 L
280.67 195.892 LE
281.117 196.094 LS
281.563 196.094 L
281.563 197.201 L
281.117 197.201 L
281.117 196.094 LE
281.563 196.295 LS
282.01 196.295 L
282.01 197.405 L
281.563 197.405 L
281.563 196.295 LE
282.01 196.495 LS
282.456 196.495 L
282.456 197.607 L
282.01 197.607 L
282.01 196.495 LE
282.456 196.694 LS
282.902 196.694 L
282.902 197.808 L
282.456 197.808 L
282.456 196.694 LE
282.902 196.892 LS
283.349 196.892 L
283.349 198.009 L
282.902 198.009 L
282.902 196.892 LE
283.349 197.089 LS
283.795 197.089 L
283.795 198.208 L
283.349 198.208 L
283.349 197.089 LE
283.795 197.285 LS
284.242 197.285 L
284.242 198.407 L
283.795 198.407 L
283.795 197.285 LE
284.242 197.48 LS
284.688 197.48 L
284.688 198.604 L
284.242 198.604 L
284.242 197.48 LE
284.688 197.674 LS
285.134 197.674 L
285.134 198.801 L
284.688 198.801 L
284.688 197.674 LE
285.134 197.867 LS
285.581 197.867 L
285.581 198.996 L
285.134 198.996 L
285.134 197.867 LE
285.581 198.059 LS
286.027 198.059 L
286.027 199.191 L
285.581 199.191 L
285.581 198.059 LE
286.027 198.25 LS
286.474 198.25 L
286.474 199.385 L
286.027 199.385 L
286.027 198.25 LE
286.474 198.44 LS
286.92 198.44 L
286.92 199.577 L
286.474 199.577 L
286.474 198.44 LE
286.92 198.629 LS
287.366 198.629 L
287.366 199.769 L
286.92 199.769 L
286.92 198.629 LE
287.366 198.817 LS
287.813 198.817 L
287.813 199.96 L
287.366 199.96 L
287.366 198.817 LE
287.813 199.004 LS
288.259 199.004 L
288.259 200.15 L
287.813 200.15 L
287.813 199.004 LE
288.259 199.19 LS
288.706 199.19 L
288.706 200.339 L
288.259 200.339 L
288.259 199.19 LE
288.706 199.375 LS
289.152 199.375 L
289.152 200.527 L
288.706 200.527 L
288.706 199.375 LE
289.152 199.559 LS
289.598 199.559 L
289.598 200.714 L
289.152 200.714 L
289.152 199.559 LE
289.598 199.742 LS
290.045 199.742 L
290.045 200.9 L
289.598 200.9 L
289.598 199.742 LE
290.045 199.924 LS
290.491 199.924 L
290.491 201.085 L
290.045 201.085 L
290.045 199.924 LE
290.491 200.105 LS
290.938 200.105 L
290.938 201.269 L
290.491 201.269 L
290.491 200.105 LE
290.938 200.285 LS
291.384 200.285 L
291.384 201.452 L
290.938 201.452 L
290.938 200.285 LE
291.384 200.464 LS
291.83 200.464 L
291.83 201.634 L
291.384 201.634 L
291.384 200.464 LE
291.83 200.642 LS
292.277 200.642 L
292.277 201.815 L
291.83 201.815 L
291.83 200.642 LE
292.277 200.819 LS
292.723 200.819 L
292.723 201.995 L
292.277 201.995 L
292.277 200.819 LE
292.723 200.995 LS
293.17 200.995 L
293.17 202.175 L
292.723 202.175 L
292.723 200.995 LE
293.17 201.17 LS
293.616 201.17 L
293.616 202.353 L
293.17 202.353 L
293.17 201.17 LE
293.616 201.344 LS
294.062 201.344 L
294.062 202.53 L
293.616 202.53 L
293.616 201.344 LE
294.062 201.517 LS
294.509 201.517 L
294.509 202.706 L
294.062 202.706 L
294.062 201.517 LE
294.509 201.689 LS
294.955 201.689 L
294.955 202.882 L
294.509 202.882 L
294.509 201.689 LE
294.955 201.86 LS
295.402 201.86 L
295.402 203.056 L
294.955 203.056 L
294.955 201.86 LE
295.402 202.03 LS
295.848 202.03 L
295.848 203.23 L
295.402 203.23 L
295.402 202.03 LE
295.848 202.199 LS
296.294 202.199 L
296.294 203.402 L
295.848 203.402 L
295.848 202.199 LE
296.294 202.367 LS
296.741 202.367 L
296.741 203.574 L
296.294 203.574 L
296.294 202.367 LE
296.741 202.534 LS
297.187 202.534 L
297.187 203.744 L
296.741 203.744 L
296.741 202.534 LE
297.187 202.7 LS
297.634 202.7 L
297.634 203.914 L
297.187 203.914 L
297.187 202.7 LE
297.634 202.865 LS
298.08 202.865 L
298.08 204.083 L
297.634 204.083 L
297.634 202.865 LE
298.08 203.029 LS
298.526 203.029 L
298.526 204.25 L
298.08 204.25 L
298.08 203.029 LE
298.526 203.192 LS
298.973 203.192 L
298.973 204.417 L
298.526 204.417 L
298.526 203.192 LE
298.973 203.354 LS
299.419 203.354 L
299.419 204.583 L
298.973 204.583 L
298.973 203.354 LE
299.419 203.516 LS
299.866 203.516 L
299.866 204.748 L
299.419 204.748 L
299.419 203.516 LE
299.866 203.676 LS
300.312 203.676 L
300.312 204.912 L
299.866 204.912 L
299.866 203.676 LE
300.312 203.836 LS
300.758 203.836 L
300.758 205.075 L
300.312 205.075 L
300.312 203.836 LE
300.758 203.995 LS
301.205 203.995 L
301.205 205.237 L
300.758 205.237 L
300.758 203.995 LE
301.205 204.153 LS
301.651 204.153 L
301.651 205.399 L
301.205 205.399 L
301.205 204.153 LE
301.651 204.31 LS
302.098 204.31 L
302.098 205.559 L
301.651 205.559 L
301.651 204.31 LE
302.098 204.466 LS
302.544 204.466 L
302.544 205.718 L
302.098 205.718 L
302.098 204.466 LE
302.544 204.621 LS
302.99 204.621 L
302.99 205.877 L
302.544 205.877 L
302.544 204.621 LE
302.99 204.776 LS
303.437 204.776 L
303.437 206.035 L
302.99 206.035 L
302.99 204.776 LE
303.437 204.929 LS
303.883 204.929 L
303.883 206.191 L
303.437 206.191 L
303.437 204.929 LE
303.883 205.082 LS
304.33 205.082 L
304.33 206.347 L
303.883 206.347 L
303.883 205.082 LE
304.33 205.234 LS
304.776 205.234 L
304.776 206.502 L
304.33 206.502 L
304.33 205.234 LE
304.776 205.385 LS
305.222 205.385 L
305.222 206.656 L
304.776 206.656 L
304.776 205.385 LE
305.222 205.535 LS
305.669 205.535 L
305.669 206.809 L
305.222 206.809 L
305.222 205.535 LE
305.669 205.685 LS
306.115 205.685 L
306.115 206.961 L
305.669 206.961 L
305.669 205.685 LE
306.115 205.833 LS
306.562 205.833 L
306.562 207.112 L
306.115 207.112 L
306.115 205.833 LE
306.562 205.981 LS
307.008 205.981 L
307.008 207.262 L
306.562 207.262 L
306.562 205.981 LE
307.008 206.127 LS
307.454 206.127 L
307.454 207.412 L
307.008 207.412 L
307.008 206.127 LE
307.454 206.273 LS
307.901 206.273 L
307.901 207.56 L
307.454 207.56 L
307.454 206.273 LE
307.901 206.418 LS
308.347 206.418 L
308.347 207.707 L
307.901 207.707 L
307.901 206.418 LE
308.347 206.563 LS
308.794 206.563 L
308.794 207.854 L
308.347 207.854 L
308.347 206.563 LE
308.794 206.706 LS
309.24 206.706 L
309.24 208 L
308.794 208 L
308.794 206.706 LE
309.24 206.848 LS
309.686 206.848 L
309.686 208.144 L
309.24 208.144 L
309.24 206.848 LE
309.686 206.99 LS
310.133 206.99 L
310.133 208.288 L
309.686 208.288 L
309.686 206.99 LE
310.133 207.131 LS
310.579 207.131 L
310.579 208.431 L
310.133 208.431 L
310.133 207.131 LE
310.579 207.271 LS
311.026 207.271 L
311.026 208.573 L
310.579 208.573 L
310.579 207.271 LE
311.026 207.41 LS
311.472 207.41 L
311.472 208.714 L
311.026 208.714 L
311.026 207.41 LE
311.472 207.548 LS
311.918 207.548 L
311.918 208.854 L
311.472 208.854 L
311.472 207.548 LE
311.918 207.685 LS
312.365 207.685 L
312.365 208.993 L
311.918 208.993 L
311.918 207.685 LE
312.365 207.822 LS
312.811 207.822 L
312.811 209.132 L
312.365 209.132 L
312.365 207.822 LE
312.811 207.957 LS
313.258 207.957 L
313.258 209.269 L
312.811 209.269 L
312.811 207.957 LE
313.258 208.092 LS
313.704 208.092 L
313.704 209.405 L
313.258 209.405 L
313.258 208.092 LE
313.704 208.226 LS
314.15 208.226 L
314.15 209.541 L
313.704 209.541 L
313.704 208.226 LE
314.15 208.359 LS
314.597 208.359 L
314.597 209.675 L
314.15 209.675 L
314.15 208.359 LE
314.597 208.491 LS
315.043 208.491 L
315.043 209.809 L
314.597 209.809 L
314.597 208.491 LE
315.043 208.622 LS
315.49 208.622 L
315.49 209.942 L
315.043 209.942 L
315.043 208.622 LE
315.49 208.753 LS
315.936 208.753 L
315.936 210.074 L
315.49 210.074 L
315.49 208.753 LE
315.936 208.883 LS
316.382 208.883 L
316.382 210.205 L
315.936 210.205 L
315.936 208.883 LE
316.382 209.011 LS
316.829 209.011 L
316.829 210.335 L
316.382 210.335 L
316.382 209.011 LE
316.829 209.139 LS
317.275 209.139 L
317.275 210.464 L
316.829 210.464 L
316.829 209.139 LE
317.275 209.266 LS
317.722 209.266 L
317.722 210.592 L
317.275 210.592 L
317.275 209.266 LE
317.722 209.392 LS
318.168 209.392 L
318.168 210.719 L
317.722 210.719 L
317.722 209.392 LE
318.168 209.518 LS
318.614 209.518 L
318.614 210.845 L
318.168 210.845 L
318.168 209.518 LE
318.614 209.642 LS
319.061 209.642 L
319.061 210.971 L
318.614 210.971 L
318.614 209.642 LE
319.061 209.766 LS
319.507 209.766 L
319.507 211.095 L
319.061 211.095 L
319.061 209.766 LE
319.507 209.888 LS
319.954 209.888 L
319.954 211.219 L
319.507 211.219 L
319.507 209.888 LE
319.954 210.01 LS
320.4 210.01 L
320.4 211.341 L
319.954 211.341 L
319.954 210.01 LE
320.4 210.131 LS
320.846 210.131 L
320.846 211.463 L
320.4 211.463 L
320.4 210.131 LE
320.846 210.252 LS
321.293 210.252 L
321.293 211.584 L
320.846 211.584 L
320.846 210.252 LE
321.293 210.371 LS
321.739 210.371 L
321.739 211.704 L
321.293 211.704 L
321.293 210.371 LE
321.739 210.489 LS
322.186 210.489 L
322.186 211.823 L
321.739 211.823 L
321.739 210.489 LE
322.186 210.607 LS
322.632 210.607 L
322.632 211.941 L
322.186 211.941 L
322.186 210.607 LE
322.632 210.724 LS
323.078 210.724 L
323.078 212.058 L
322.632 212.058 L
322.632 210.724 LE
323.078 210.84 LS
323.525 210.84 L
323.525 212.174 L
323.078 212.174 L
323.078 210.84 LE
323.525 210.955 LS
323.971 210.955 L
323.971 212.289 L
323.525 212.289 L
323.525 210.955 LE
323.971 211.069 LS
324.418 211.069 L
324.418 212.404 L
323.971 212.404 L
323.971 211.069 LE
324.418 211.182 LS
324.864 211.182 L
324.864 212.517 L
324.418 212.517 L
324.418 211.182 LE
324.864 211.294 LS
325.31 211.294 L
325.31 212.63 L
324.864 212.63 L
324.864 211.294 LE
325.31 211.406 LS
325.757 211.406 L
325.757 212.741 L
325.31 212.741 L
325.31 211.406 LE
325.757 211.517 LS
326.203 211.517 L
326.203 212.852 L
325.757 212.852 L
325.757 211.517 LE
326.203 211.627 LS
326.65 211.627 L
326.65 212.962 L
326.203 212.962 L
326.203 211.627 LE
326.65 211.736 LS
327.096 211.736 L
327.096 213.07 L
326.65 213.07 L
326.65 211.736 LE
327.096 211.844 LS
327.542 211.844 L
327.542 213.178 L
327.096 213.178 L
327.096 211.844 LE
327.542 211.951 LS
327.989 211.951 L
327.989 213.285 L
327.542 213.285 L
327.542 211.951 LE
327.989 212.057 LS
328.435 212.057 L
328.435 213.391 L
327.989 213.391 L
327.989 212.057 LE
328.435 212.163 LS
328.882 212.163 L
328.882 213.497 L
328.435 213.497 L
328.435 212.163 LE
328.882 212.268 LS
329.328 212.268 L
329.328 213.601 L
328.882 213.601 L
328.882 212.268 LE
329.328 212.372 LS
329.774 212.372 L
329.774 213.704 L
329.328 213.704 L
329.328 212.372 LE
329.774 212.475 LS
330.221 212.475 L
330.221 213.806 L
329.774 213.806 L
329.774 212.475 LE
330.221 212.577 LS
330.667 212.577 L
330.667 213.908 L
330.221 213.908 L
330.221 212.577 LE
330.667 212.678 LS
331.114 212.678 L
331.114 214.008 L
330.667 214.008 L
330.667 212.678 LE
331.114 212.779 LS
331.56 212.779 L
331.56 214.108 L
331.114 214.108 L
331.114 212.779 LE
331.56 212.878 LS
332.006 212.878 L
332.006 214.207 L
331.56 214.207 L
331.56 212.878 LE
332.006 212.977 LS
332.453 212.977 L
332.453 214.304 L
332.006 214.304 L
332.006 212.977 LE
332.453 213.075 LS
332.899 213.075 L
332.899 214.401 L
332.453 214.401 L
332.453 213.075 LE
332.899 213.172 LS
333.346 213.172 L
333.346 214.497 L
332.899 214.497 L
332.899 213.172 LE
333.346 213.268 LS
333.792 213.268 L
333.792 214.592 L
333.346 214.592 L
333.346 213.268 LE
333.792 213.363 LS
334.238 213.363 L
334.238 214.686 L
333.792 214.686 L
333.792 213.363 LE
334.238 213.458 LS
334.685 213.458 L
334.685 214.78 L
334.238 214.78 L
334.238 213.458 LE
334.685 213.551 LS
335.131 213.551 L
335.131 214.872 L
334.685 214.872 L
334.685 213.551 LE
335.131 213.644 LS
335.578 213.644 L
335.578 214.963 L
335.131 214.963 L
335.131 213.644 LE
335.578 213.736 LS
336.024 213.736 L
336.024 215.054 L
335.578 215.054 L
335.578 213.736 LE
336.024 213.827 LS
336.47 213.827 L
336.47 215.143 L
336.024 215.143 L
336.024 213.827 LE
336.47 213.917 LS
336.917 213.917 L
336.917 215.232 L
336.47 215.232 L
336.47 213.917 LE
336.917 214.006 LS
337.363 214.006 L
337.363 215.319 L
336.917 215.319 L
336.917 214.006 LE
337.363 214.094 LS
337.81 214.094 L
337.81 215.406 L
337.363 215.406 L
337.363 214.094 LE
337.81 214.182 LS
338.256 214.182 L
338.256 215.492 L
337.81 215.492 L
337.81 214.182 LE
338.256 214.269 LS
338.702 214.269 L
338.702 215.577 L
338.256 215.577 L
338.256 214.269 LE
338.702 214.355 LS
339.149 214.355 L
339.149 215.661 L
338.702 215.661 L
338.702 214.355 LE
339.149 214.44 LS
339.595 214.44 L
339.595 215.744 L
339.149 215.744 L
339.149 214.44 LE
339.595 214.524 LS
340.042 214.524 L
340.042 215.826 L
339.595 215.826 L
339.595 214.524 LE
340.042 214.607 LS
340.488 214.607 L
340.488 215.907 L
340.042 215.907 L
340.042 214.607 LE
340.488 214.689 LS
340.934 214.689 L
340.934 215.988 L
340.488 215.988 L
340.488 214.689 LE
340.934 214.771 LS
341.381 214.771 L
341.381 216.067 L
340.934 216.067 L
340.934 214.771 LE
341.381 214.852 LS
341.827 214.852 L
341.827 216.145 L
341.381 216.145 L
341.381 214.852 LE
341.827 214.931 LS
342.274 214.931 L
342.274 216.223 L
341.827 216.223 L
341.827 214.931 LE
342.274 215.01 LS
342.72 215.01 L
342.72 216.3 L
342.274 216.3 L
342.274 215.01 LE
342.72 215.086 LS
343.166 215.086 L
343.166 216.378 L
342.72 216.378 L
342.72 215.086 LE
343.166 215.162 LS
343.613 215.162 L
343.613 216.455 L
343.166 216.455 L
343.166 215.162 LE
343.613 215.236 LS
344.059 215.236 L
344.059 216.532 L
343.613 216.532 L
343.613 215.236 LE
344.059 215.311 LS
344.506 215.311 L
344.506 216.609 L
344.059 216.609 L
344.059 215.311 LE
344.506 215.384 LS
344.952 215.384 L
344.952 216.685 L
344.506 216.685 L
344.506 215.384 LE
344.952 215.457 LS
345.398 215.457 L
345.398 216.76 L
344.952 216.76 L
344.952 215.457 LE
345.398 215.53 LS
345.845 215.53 L
345.845 216.835 L
345.398 216.835 L
345.398 215.53 LE
345.845 215.601 LS
346.291 215.601 L
346.291 216.91 L
345.845 216.91 L
345.845 215.601 LE
346.291 215.673 LS
346.738 215.673 L
346.738 216.984 L
346.291 216.984 L
346.291 215.673 LE
346.738 215.743 LS
347.184 215.743 L
347.184 217.057 L
346.738 217.057 L
346.738 215.743 LE
347.184 215.814 LS
347.63 215.814 L
347.63 217.13 L
347.184 217.13 L
347.184 215.814 LE
347.63 215.883 LS
348.077 215.883 L
348.077 217.203 L
347.63 217.203 L
347.63 215.883 LE
348.077 215.952 LS
348.523 215.952 L
348.523 217.275 L
348.077 217.275 L
348.077 215.952 LE
348.523 216.021 LS
348.97 216.021 L
348.97 217.346 L
348.523 217.346 L
348.523 216.021 LE
348.97 216.089 LS
349.416 216.089 L
349.416 217.417 L
348.97 217.417 L
348.97 216.089 LE
349.416 216.156 LS
349.862 216.156 L
349.862 217.488 L
349.416 217.488 L
349.416 216.156 LE
349.862 216.223 LS
350.309 216.223 L
350.309 217.558 L
349.862 217.558 L
349.862 216.223 LE
350.309 216.289 LS
350.755 216.289 L
350.755 217.628 L
350.309 217.628 L
350.309 216.289 LE
350.755 216.354 LS
351.202 216.354 L
351.202 217.697 L
350.755 217.697 L
350.755 216.354 LE
351.202 216.419 LS
351.648 216.419 L
351.648 217.765 L
351.202 217.765 L
351.202 216.419 LE
351.648 216.484 LS
352.094 216.484 L
352.094 217.833 L
351.648 217.833 L
351.648 216.484 LE
352.094 216.548 LS
352.541 216.548 L
352.541 217.901 L
352.094 217.901 L
352.094 216.548 LE
352.541 216.611 LS
352.987 216.611 L
352.987 217.968 L
352.541 217.968 L
352.541 216.611 LE
352.987 216.674 LS
353.434 216.674 L
353.434 218.035 L
352.987 218.035 L
352.987 216.674 LE
353.434 216.736 LS
353.88 216.736 L
353.88 218.101 L
353.434 218.101 L
353.434 216.736 LE
353.88 216.798 LS
354.326 216.798 L
354.326 218.166 L
353.88 218.166 L
353.88 216.798 LE
354.326 216.859 LS
354.773 216.859 L
354.773 218.231 L
354.326 218.231 L
354.326 216.859 LE
354.773 216.919 LS
355.219 216.919 L
355.219 218.296 L
354.773 218.296 L
354.773 216.919 LE
355.219 216.979 LS
355.666 216.979 L
355.666 218.36 L
355.219 218.36 L
355.219 216.979 LE
355.666 217.038 LS
356.112 217.038 L
356.112 218.424 L
355.666 218.424 L
355.666 217.038 LE
356.112 217.097 LS
356.558 217.097 L
356.558 218.487 L
356.112 218.487 L
356.112 217.097 LE
356.558 217.155 LS
357.005 217.155 L
357.005 218.549 L
356.558 218.549 L
356.558 217.155 LE
357.005 217.213 LS
357.451 217.213 L
357.451 218.611 L
357.005 218.611 L
357.005 217.213 LE
357.451 217.27 LS
357.898 217.27 L
357.898 218.673 L
357.451 218.673 L
357.451 217.27 LE
357.898 217.326 LS
358.344 217.326 L
358.344 218.734 L
357.898 218.734 L
357.898 217.326 LE
358.344 217.382 LS
358.79 217.382 L
358.79 218.795 L
358.344 218.795 L
358.344 217.382 LE
358.79 217.438 LS
359.237 217.438 L
359.237 218.855 L
358.79 218.855 L
358.79 217.438 LE
359.237 217.492 LS
359.683 217.492 L
359.683 218.915 L
359.237 218.915 L
359.237 217.492 LE
359.683 217.547 LS
360.13 217.547 L
360.13 218.974 L
359.683 218.974 L
359.683 217.547 LE
360.13 217.6 LS
360.576 217.6 L
360.576 219.032 L
360.13 219.032 L
360.13 217.6 LE
360.576 217.653 LS
361.022 217.653 L
361.022 219.09 L
360.576 219.09 L
360.576 217.653 LE
361.022 217.706 LS
361.469 217.706 L
361.469 219.148 L
361.022 219.148 L
361.022 217.706 LE
361.469 217.758 LS
361.915 217.758 L
361.915 219.205 L
361.469 219.205 L
361.469 217.758 LE
361.915 217.809 LS
362.362 217.809 L
362.362 219.262 L
361.915 219.262 L
361.915 217.809 LE
362.362 217.86 LS
362.808 217.86 L
362.808 219.318 L
362.362 219.318 L
362.362 217.86 LE
362.808 217.91 LS
363.254 217.91 L
363.254 219.374 L
362.808 219.374 L
362.808 217.91 LE
363.254 217.96 LS
363.701 217.96 L
363.701 219.429 L
363.254 219.429 L
363.254 217.96 LE
363.701 218.009 LS
364.147 218.009 L
364.147 219.484 L
363.701 219.484 L
363.701 218.009 LE
364.147 218.057 LS
364.594 218.057 L
364.594 219.538 L
364.147 219.538 L
364.147 218.057 LE
364.594 218.105 LS
365.04 218.105 L
365.04 219.591 L
364.594 219.591 L
364.594 218.105 LE
365.04 218.153 LS
365.486 218.153 L
365.486 219.645 L
365.04 219.645 L
365.04 218.153 LE
365.486 218.199 LS
365.933 218.199 L
365.933 219.697 L
365.486 219.697 L
365.486 218.199 LE
365.933 218.245 LS
366.379 218.245 L
366.379 219.749 L
365.933 219.749 L
365.933 218.245 LE
366.379 218.291 LS
366.826 218.291 L
366.826 219.801 L
366.379 219.801 L
366.379 218.291 LE
366.826 218.336 LS
367.272 218.336 L
367.272 219.852 L
366.826 219.852 L
366.826 218.336 LE
367.272 218.381 LS
367.718 218.381 L
367.718 219.903 L
367.272 219.903 L
367.272 218.381 LE
367.718 218.425 LS
368.165 218.425 L
368.165 219.953 L
367.718 219.953 L
367.718 218.425 LE
368.165 218.468 LS
368.611 218.468 L
368.611 220.003 L
368.165 220.003 L
368.165 218.468 LE
368.611 218.511 LS
369.058 218.511 L
369.058 220.052 L
368.611 220.052 L
368.611 218.511 LE
369.058 218.553 LS
369.504 218.553 L
369.504 220.101 L
369.058 220.101 L
369.058 218.553 LE
369.504 218.595 LS
369.95 218.595 L
369.95 220.149 L
369.504 220.149 L
369.504 218.595 LE
369.95 218.636 LS
370.397 218.636 L
370.397 220.197 L
369.95 220.197 L
369.95 218.636 LE
370.397 218.676 LS
370.843 218.676 L
370.843 220.244 L
370.397 220.244 L
370.397 218.676 LE
370.843 218.716 LS
371.29 218.716 L
371.29 220.291 L
370.843 220.291 L
370.843 218.716 LE
371.29 218.756 LS
371.736 218.756 L
371.736 220.337 L
371.29 220.337 L
371.29 218.756 LE
371.736 218.794 LS
372.182 218.794 L
372.182 220.383 L
371.736 220.383 L
371.736 218.794 LE
372.182 218.833 LS
372.629 218.833 L
372.629 220.428 L
372.182 220.428 L
372.182 218.833 LE
372.629 218.87 LS
373.075 218.87 L
373.075 220.473 L
372.629 220.473 L
372.629 218.87 LE
373.075 218.907 LS
373.522 218.907 L
373.522 220.517 L
373.075 220.517 L
373.075 218.907 LE
373.522 218.944 LS
373.968 218.944 L
373.968 220.561 L
373.522 220.561 L
373.522 218.944 LE
373.968 218.98 LS
374.414 218.98 L
374.414 220.604 L
373.968 220.604 L
373.968 218.98 LE
374.414 219.015 LS
374.861 219.015 L
374.861 220.647 L
374.414 220.647 L
374.414 219.015 LE
374.861 219.05 LS
375.307 219.05 L
375.307 220.689 L
374.861 220.689 L
374.861 219.05 LE
375.307 219.084 LS
375.754 219.084 L
375.754 220.731 L
375.307 220.731 L
375.307 219.084 LE
375.754 219.118 LS
376.2 219.118 L
376.2 220.772 L
375.754 220.772 L
375.754 219.118 LE
376.2 219.151 LS
376.646 219.151 L
376.646 220.813 L
376.2 220.813 L
376.2 219.151 LE
376.646 219.184 LS
377.093 219.184 L
377.093 220.853 L
376.646 220.853 L
376.646 219.184 LE
377.093 219.215 LS
377.539 219.215 L
377.539 220.893 L
377.093 220.893 L
377.093 219.215 LE
377.539 219.247 LS
377.986 219.247 L
377.986 220.932 L
377.539 220.932 L
377.539 219.247 LE
377.986 219.278 LS
378.432 219.278 L
378.432 220.971 L
377.986 220.971 L
377.986 219.278 LE
378.432 219.308 LS
378.878 219.308 L
378.878 221.009 L
378.432 221.009 L
378.432 219.308 LE
378.878 219.338 LS
379.325 219.338 L
379.325 221.047 L
378.878 221.047 L
378.878 219.338 LE
379.325 219.367 LS
379.771 219.367 L
379.771 221.084 L
379.325 221.084 L
379.325 219.367 LE
379.771 219.395 LS
380.218 219.395 L
380.218 221.121 L
379.771 221.121 L
379.771 219.395 LE
380.218 219.423 LS
380.664 219.423 L
380.664 221.157 L
380.218 221.157 L
380.218 219.423 LE
380.664 219.451 LS
381.11 219.451 L
381.11 221.193 L
380.664 221.193 L
380.664 219.451 LE
381.11 219.477 LS
381.557 219.477 L
381.557 221.228 L
381.11 221.228 L
381.11 219.477 LE
381.557 219.504 LS
382.003 219.504 L
382.003 221.263 L
381.557 221.263 L
381.557 219.504 LE
382.003 219.529 LS
382.45 219.529 L
382.45 221.298 L
382.003 221.298 L
382.003 219.529 LE
382.45 219.554 LS
382.896 219.554 L
382.896 221.331 L
382.45 221.331 L
382.45 219.554 LE
382.896 219.579 LS
383.342 219.579 L
383.342 221.365 L
382.896 221.365 L
382.896 219.579 LE
383.342 219.603 LS
383.789 219.603 L
383.789 221.398 L
383.342 221.398 L
383.342 219.603 LE
383.789 219.626 LS
384.235 219.626 L
384.235 221.43 L
383.789 221.43 L
383.789 219.626 LE
384.235 219.649 LS
384.682 219.649 L
384.682 221.462 L
384.235 221.462 L
384.235 219.649 LE
384.682 219.671 LS
385.128 219.671 L
385.128 221.493 L
384.682 221.493 L
384.682 219.671 LE
385.128 219.693 LS
385.574 219.693 L
385.574 221.524 L
385.128 221.524 L
385.128 219.693 LE
385.574 219.714 LS
386.021 219.714 L
386.021 221.554 L
385.574 221.554 L
385.574 219.714 LE
386.021 219.735 LS
386.467 219.735 L
386.467 221.584 L
386.021 221.584 L
386.021 219.735 LE
386.467 219.755 LS
386.914 219.755 L
386.914 221.613 L
386.467 221.613 L
386.467 219.755 LE
386.914 219.774 LS
387.36 219.774 L
387.36 221.642 L
386.914 221.642 L
386.914 219.774 LE
387.36 219.793 LS
387.806 219.793 L
387.806 221.671 L
387.36 221.671 L
387.36 219.793 LE
387.806 219.812 LS
388.253 219.812 L
388.253 221.699 L
387.806 221.699 L
387.806 219.812 LE
388.253 219.83 LS
388.699 219.83 L
388.699 221.727 L
388.253 221.727 L
388.253 219.83 LE
388.699 219.848 LS
389.146 219.848 L
389.146 221.754 L
388.699 221.754 L
388.699 219.848 LE
389.146 219.866 LS
389.592 219.866 L
389.592 221.782 L
389.146 221.782 L
389.146 219.866 LE
389.592 219.884 LS
390.038 219.884 L
390.038 221.809 L
389.592 221.809 L
389.592 219.884 LE
390.038 219.901 LS
390.485 219.901 L
390.485 221.835 L
390.038 221.835 L
390.038 219.901 LE
390.485 219.919 LS
390.931 219.919 L
390.931 221.862 L
390.485 221.862 L
390.485 219.919 LE
390.931 219.936 LS
391.378 219.936 L
391.378 221.888 L
390.931 221.888 L
390.931 219.936 LE
391.378 219.953 LS
391.824 219.953 L
391.824 221.913 L
391.378 221.913 L
391.378 219.953 LE
391.824 219.97 LS
392.27 219.97 L
392.27 221.939 L
391.824 221.939 L
391.824 219.97 LE
392.27 219.986 LS
392.717 219.986 L
392.717 221.964 L
392.27 221.964 L
392.27 219.986 LE
392.717 220.003 LS
393.163 220.003 L
393.163 221.989 L
392.717 221.989 L
392.717 220.003 LE
393.163 220.019 LS
393.61 220.019 L
393.61 222.013 L
393.163 222.013 L
393.163 220.019 LE
393.61 220.036 LS
394.056 220.036 L
394.056 222.038 L
393.61 222.038 L
393.61 220.036 LE
394.056 220.052 LS
394.502 220.052 L
394.502 222.061 L
394.056 222.061 L
394.056 220.052 LE
394.502 220.067 LS
394.949 220.067 L
394.949 222.085 L
394.502 222.085 L
394.502 220.067 LE
394.949 220.083 LS
395.395 220.083 L
395.395 222.108 L
394.949 222.108 L
394.949 220.083 LE
395.395 220.099 LS
395.842 220.099 L
395.842 222.131 L
395.395 222.131 L
395.395 220.099 LE
395.842 220.114 LS
396.288 220.114 L
396.288 222.154 L
395.842 222.154 L
395.842 220.114 LE
396.288 220.129 LS
396.734 220.129 L
396.734 222.177 L
396.288 222.177 L
396.288 220.129 LE
396.734 220.144 LS
397.181 220.144 L
397.181 222.199 L
396.734 222.199 L
396.734 220.144 LE
397.181 220.159 LS
397.627 220.159 L
397.627 222.22 L
397.181 222.22 L
397.181 220.159 LE
397.627 220.173 LS
398.074 220.173 L
398.074 222.242 L
397.627 222.242 L
397.627 220.173 LE
398.074 220.188 LS
398.52 220.188 L
398.52 222.263 L
398.074 222.263 L
398.074 220.188 LE
398.52 220.202 LS
398.966 220.202 L
398.966 222.284 L
398.52 222.284 L
398.52 220.202 LE
398.966 220.216 LS
399.413 220.216 L
399.413 222.305 L
398.966 222.305 L
398.966 220.216 LE
399.413 220.23 LS
399.859 220.23 L
399.859 222.325 L
399.413 222.325 L
399.413 220.23 LE
399.859 220.244 LS
400.306 220.244 L
400.306 222.345 L
399.859 222.345 L
399.859 220.244 LE
400.306 220.257 LS
400.752 220.257 L
400.752 222.364 L
400.306 222.364 L
400.306 220.257 LE
400.752 220.27 LS
401.198 220.27 L
401.198 222.384 L
400.752 222.384 L
400.752 220.27 LE
401.198 220.284 LS
401.645 220.284 L
401.645 222.403 L
401.198 222.403 L
401.198 220.284 LE
401.645 220.297 LS
402.091 220.297 L
402.091 222.422 L
401.645 222.422 L
401.645 220.297 LE
402.091 220.309 LS
402.538 220.309 L
402.538 222.44 L
402.091 222.44 L
402.091 220.309 LE
402.538 220.322 LS
402.984 220.322 L
402.984 222.458 L
402.538 222.458 L
402.538 220.322 LE
402.984 220.335 LS
403.43 220.335 L
403.43 222.476 L
402.984 222.476 L
402.984 220.335 LE
403.43 220.347 LS
403.877 220.347 L
403.877 222.494 L
403.43 222.494 L
403.43 220.347 LE
403.877 220.359 LS
404.323 220.359 L
404.323 222.511 L
403.877 222.511 L
403.877 220.359 LE
404.323 220.371 LS
404.77 220.371 L
404.77 222.528 L
404.323 222.528 L
404.323 220.371 LE
404.77 220.383 LS
405.216 220.383 L
405.216 222.544 L
404.77 222.544 L
404.77 220.383 LE
405.216 220.394 LS
405.662 220.394 L
405.662 222.561 L
405.216 222.561 L
405.216 220.394 LE
405.662 220.406 LS
406.109 220.406 L
406.109 222.577 L
405.662 222.577 L
405.662 220.406 LE
406.109 220.417 LS
406.555 220.417 L
406.555 222.592 L
406.109 222.592 L
406.109 220.417 LE
406.555 220.428 LS
407.002 220.428 L
407.002 222.608 L
406.555 222.608 L
406.555 220.428 LE
407.002 220.439 LS
407.448 220.439 L
407.448 222.623 L
407.002 222.623 L
407.002 220.439 LE
407.448 220.45 LS
407.894 220.45 L
407.894 222.638 L
407.448 222.638 L
407.448 220.45 LE
407.894 220.46 LS
408.341 220.46 L
408.341 222.652 L
407.894 222.652 L
407.894 220.46 LE
408.341 220.471 LS
408.787 220.471 L
408.787 222.666 L
408.341 222.666 L
408.341 220.471 LE
408.787 220.481 LS
409.234 220.481 L
409.234 222.68 L
408.787 222.68 L
408.787 220.481 LE
409.234 220.491 LS
409.68 220.491 L
409.68 222.694 L
409.234 222.694 L
409.234 220.491 LE
409.68 220.501 LS
410.126 220.501 L
410.126 222.707 L
409.68 222.707 L
409.68 220.501 LE
410.126 220.51 LS
410.573 220.51 L
410.573 222.72 L
410.126 222.72 L
410.126 220.51 LE
410.573 220.52 LS
411.019 220.52 L
411.019 222.733 L
410.573 222.733 L
410.573 220.52 LE
411.019 220.529 LS
411.466 220.529 L
411.466 222.745 L
411.019 222.745 L
411.019 220.529 LE
411.466 220.538 LS
411.912 220.538 L
411.912 222.757 L
411.466 222.757 L
411.466 220.538 LE
411.912 220.547 LS
412.358 220.547 L
412.358 222.769 L
411.912 222.769 L
411.912 220.547 LE
412.358 220.556 LS
412.805 220.556 L
412.805 222.78 L
412.358 222.78 L
412.358 220.556 LE
412.805 220.564 LS
413.251 220.564 L
413.251 222.792 L
412.805 222.792 L
412.805 220.564 LE
413.251 220.573 LS
413.698 220.573 L
413.698 222.802 L
413.251 222.802 L
413.251 220.573 LE
413.698 220.581 LS
414.144 220.581 L
414.144 222.813 L
413.698 222.813 L
413.698 220.581 LE
414.144 220.589 LS
414.59 220.589 L
414.59 222.823 L
414.144 222.823 L
414.144 220.589 LE
414.59 220.597 LS
415.037 220.597 L
415.037 222.833 L
414.59 222.833 L
414.59 220.597 LE
415.037 220.605 LS
415.483 220.605 L
415.483 222.843 L
415.037 222.843 L
415.037 220.605 LE
415.483 220.612 LS
415.93 220.612 L
415.93 222.852 L
415.483 222.852 L
415.483 220.612 LE
415.93 220.62 LS
416.376 220.62 L
416.376 222.861 L
415.93 222.861 L
415.93 220.62 LE
416.376 220.627 LS
416.822 220.627 L
416.822 222.87 L
416.376 222.87 L
416.376 220.627 LE
416.822 220.634 LS
417.269 220.634 L
417.269 222.878 L
416.822 222.878 L
416.822 220.634 LE
417.269 220.641 LS
417.715 220.641 L
417.715 222.886 L
417.269 222.886 L
417.269 220.641 LE
417.715 220.647 LS
418.162 220.647 L
418.162 222.894 L
417.715 222.894 L
417.715 220.647 LE
418.162 220.654 LS
418.608 220.654 L
418.608 222.902 L
418.162 222.902 L
418.162 220.654 LE
418.608 220.66 LS
419.054 220.66 L
419.054 222.909 L
418.608 222.909 L
418.608 220.66 LE
419.054 220.666 LS
419.501 220.666 L
419.501 222.916 L
419.054 222.916 L
419.054 220.666 LE
419.501 220.672 LS
419.947 220.672 L
419.947 222.922 L
419.501 222.922 L
419.501 220.672 LE
419.947 220.678 LS
420.394 220.678 L
420.394 222.929 L
419.947 222.929 L
419.947 220.678 LE
420.394 220.684 LS
420.84 220.684 L
420.84 222.935 L
420.394 222.935 L
420.394 220.684 LE
420.84 220.689 LS
421.286 220.689 L
421.286 222.94 L
420.84 222.94 L
420.84 220.689 LE
421.286 220.694 LS
421.733 220.694 L
421.733 222.946 L
421.286 222.946 L
421.286 220.694 LE
421.733 220.699 LS
422.179 220.699 L
422.179 222.951 L
421.733 222.951 L
421.733 220.699 LE
422.179 220.704 LS
422.626 220.704 L
422.626 222.955 L
422.179 222.955 L
422.179 220.704 LE
422.626 220.709 LS
423.072 220.709 L
423.072 222.96 L
422.626 222.96 L
422.626 220.709 LE
423.072 220.714 LS
423.518 220.714 L
423.518 222.964 L
423.072 222.964 L
423.072 220.714 LE
423.518 220.718 LS
423.965 220.718 L
423.965 222.968 L
423.518 222.968 L
423.518 220.718 LE
423.965 220.722 LS
424.411 220.722 L
424.411 222.971 L
423.965 222.971 L
423.965 220.722 LE
424.411 220.726 LS
424.858 220.726 L
424.858 222.975 L
424.411 222.975 L
424.411 220.726 LE
424.858 220.73 LS
425.304 220.73 L
425.304 222.978 L
424.858 222.978 L
424.858 220.73 LE
425.304 220.734 LS
425.75 220.734 L
425.75 222.98 L
425.304 222.98 L
425.304 220.734 LE
425.75 220.737 LS
426.197 220.737 L
426.197 222.983 L
425.75 222.983 L
425.75 220.737 LE
426.197 220.74 LS
426.643 220.74 L
426.643 222.985 L
426.197 222.985 L
426.197 220.74 LE
426.643 220.743 LS
427.09 220.743 L
427.09 222.986 L
426.643 222.986 L
426.643 220.743 LE
427.09 220.746 LS
427.536 220.746 L
427.536 222.988 L
427.09 222.988 L
427.09 220.746 LE
427.536 220.749 LS
427.982 220.749 L
427.982 222.989 L
427.536 222.989 L
427.536 220.749 LE
427.982 220.751 LS
428.429 220.751 L
428.429 222.99 L
427.982 222.99 L
427.982 220.751 LE
428.429 220.753 LS
428.875 220.753 L
428.875 222.99 L
428.429 222.99 L
428.429 220.753 LE
428.875 220.755 LS
429.322 220.755 L
429.322 222.991 L
428.875 222.991 L
428.875 220.755 LE
429.322 220.757 LS
429.768 220.757 L
429.768 222.991 L
429.322 222.991 L
429.322 220.757 LE
429.768 220.759 LS
430.214 220.759 L
430.214 222.99 L
429.768 222.99 L
429.768 220.759 LE
430.214 220.76 LS
430.661 220.76 L
430.661 222.99 L
430.214 222.99 L
430.214 220.76 LE
430.661 220.761 LS
431.107 220.761 L
431.107 222.989 L
430.661 222.989 L
430.661 220.761 LE
431.107 220.762 LS
431.554 220.762 L
431.554 222.987 L
431.107 222.987 L
431.107 220.762 LE
431.554 220.763 LS
432 220.763 L
432 222.986 L
431.554 222.986 L
431.554 220.763 LE
432 220.76 LS
432.446 220.76 L
432.446 222.988 L
432 222.988 L
432 220.76 LE
432.446 220.757 LS
432.893 220.757 L
432.893 222.99 L
432.446 222.99 L
432.446 220.757 LE
432.893 220.753 LS
433.339 220.753 L
433.339 222.992 L
432.893 222.992 L
432.893 220.753 LE
433.339 220.75 LS
433.786 220.75 L
433.786 222.995 L
433.339 222.995 L
433.339 220.75 LE
433.786 220.746 LS
434.232 220.746 L
434.232 222.997 L
433.786 222.997 L
433.786 220.746 LE
434.232 220.742 LS
434.678 220.742 L
434.678 222.999 L
434.232 222.999 L
434.232 220.742 LE
434.678 220.738 LS
435.125 220.738 L
435.125 223.001 L
434.678 223.001 L
434.678 220.738 LE
435.125 220.734 LS
435.571 220.734 L
435.571 223.004 L
435.125 223.004 L
435.125 220.734 LE
435.571 220.73 LS
436.018 220.73 L
436.018 223.006 L
435.571 223.006 L
435.571 220.73 LE
436.018 220.725 LS
436.464 220.725 L
436.464 223.008 L
436.018 223.008 L
436.018 220.725 LE
436.464 220.721 LS
436.91 220.721 L
436.91 223.01 L
436.464 223.01 L
436.464 220.721 LE
436.91 220.716 LS
437.357 220.716 L
437.357 223.012 L
436.91 223.012 L
436.91 220.716 LE
437.357 220.711 LS
437.803 220.711 L
437.803 223.014 L
437.357 223.014 L
437.357 220.711 LE
437.803 220.706 LS
438.25 220.706 L
438.25 223.017 L
437.803 223.017 L
437.803 220.706 LE
438.25 220.701 LS
438.696 220.701 L
438.696 223.019 L
438.25 223.019 L
438.25 220.701 LE
438.696 220.695 LS
439.142 220.695 L
439.142 223.021 L
438.696 223.021 L
438.696 220.695 LE
439.142 220.69 LS
439.589 220.69 L
439.589 223.023 L
439.142 223.023 L
439.142 220.69 LE
439.589 220.684 LS
440.035 220.684 L
440.035 223.025 L
439.589 223.025 L
439.589 220.684 LE
440.035 220.679 LS
440.482 220.679 L
440.482 223.027 L
440.035 223.027 L
440.035 220.679 LE
440.482 220.673 LS
440.928 220.673 L
440.928 223.029 L
440.482 223.029 L
440.482 220.673 LE
440.928 220.667 LS
441.374 220.667 L
441.374 223.032 L
440.928 223.032 L
440.928 220.667 LE
441.374 220.661 LS
441.821 220.661 L
441.821 223.034 L
441.374 223.034 L
441.374 220.661 LE
441.821 220.654 LS
442.267 220.654 L
442.267 223.036 L
441.821 223.036 L
441.821 220.654 LE
442.267 220.648 LS
442.714 220.648 L
442.714 223.038 L
442.267 223.038 L
442.267 220.648 LE
442.714 220.641 LS
443.16 220.641 L
443.16 223.04 L
442.714 223.04 L
442.714 220.641 LE
443.16 220.635 LS
443.606 220.635 L
443.606 223.042 L
443.16 223.042 L
443.16 220.635 LE
443.606 220.628 LS
444.053 220.628 L
444.053 223.044 L
443.606 223.044 L
443.606 220.628 LE
444.053 220.621 LS
444.499 220.621 L
444.499 223.046 L
444.053 223.046 L
444.053 220.621 LE
444.499 220.614 LS
444.946 220.614 L
444.946 223.048 L
444.499 223.048 L
444.499 220.614 LE
444.946 220.606 LS
445.392 220.606 L
445.392 223.05 L
444.946 223.05 L
444.946 220.606 LE
445.392 220.599 LS
445.838 220.599 L
445.838 223.052 L
445.392 223.052 L
445.392 220.599 LE
445.838 220.591 LS
446.285 220.591 L
446.285 223.055 L
445.838 223.055 L
445.838 220.591 LE
446.285 220.584 LS
446.731 220.584 L
446.731 223.057 L
446.285 223.057 L
446.285 220.584 LE
446.731 220.576 LS
447.178 220.576 L
447.178 223.059 L
446.731 223.059 L
446.731 220.576 LE
447.178 220.568 LS
447.624 220.568 L
447.624 223.061 L
447.178 223.061 L
447.178 220.568 LE
447.624 220.56 LS
448.07 220.56 L
448.07 223.063 L
447.624 223.063 L
447.624 220.56 LE
448.07 220.551 LS
448.517 220.551 L
448.517 223.065 L
448.07 223.065 L
448.07 220.551 LE
448.517 220.543 LS
448.963 220.543 L
448.963 223.067 L
448.517 223.067 L
448.517 220.543 LE
448.963 220.534 LS
449.41 220.534 L
449.41 223.069 L
448.963 223.069 L
448.963 220.534 LE
449.41 220.526 LS
449.856 220.526 L
449.856 223.071 L
449.41 223.071 L
449.41 220.526 LE
449.856 220.517 LS
450.302 220.517 L
450.302 223.073 L
449.856 223.073 L
449.856 220.517 LE
450.302 220.508 LS
450.749 220.508 L
450.749 223.075 L
450.302 223.075 L
450.302 220.508 LE
450.749 220.499 LS
451.195 220.499 L
451.195 223.077 L
450.749 223.077 L
450.749 220.499 LE
451.195 220.49 LS
451.642 220.49 L
451.642 223.079 L
451.195 223.079 L
451.195 220.49 LE
451.642 220.48 LS
452.088 220.48 L
452.088 223.081 L
451.642 223.081 L
451.642 220.48 LE
452.088 220.471 LS
452.534 220.471 L
452.534 223.083 L
452.088 223.083 L
452.088 220.471 LE
452.534 220.461 LS
452.981 220.461 L
452.981 223.085 L
452.534 223.085 L
452.534 220.461 LE
452.981 220.451 LS
453.427 220.451 L
453.427 223.087 L
452.981 223.087 L
452.981 220.451 LE
453.427 220.441 LS
453.874 220.441 L
453.874 223.089 L
453.427 223.089 L
453.427 220.441 LE
453.874 220.431 LS
454.32 220.431 L
454.32 223.091 L
453.874 223.091 L
453.874 220.431 LE
454.32 220.421 LS
454.766 220.421 L
454.766 223.093 L
454.32 223.093 L
454.32 220.421 LE
454.766 220.41 LS
455.213 220.41 L
455.213 223.095 L
454.766 223.095 L
454.766 220.41 LE
455.213 220.4 LS
455.659 220.4 L
455.659 223.097 L
455.213 223.097 L
455.213 220.4 LE
455.659 220.389 LS
456.106 220.389 L
456.106 223.099 L
455.659 223.099 L
455.659 220.389 LE
456.106 220.378 LS
456.552 220.378 L
456.552 223.101 L
456.106 223.101 L
456.106 220.378 LE
456.552 220.367 LS
456.998 220.367 L
456.998 223.103 L
456.552 223.103 L
456.552 220.367 LE
456.998 220.356 LS
457.445 220.356 L
457.445 223.104 L
456.998 223.104 L
456.998 220.356 LE
457.445 220.345 LS
457.891 220.345 L
457.891 223.106 L
457.445 223.106 L
457.445 220.345 LE
457.891 220.334 LS
458.338 220.334 L
458.338 223.108 L
457.891 223.108 L
457.891 220.334 LE
458.338 220.322 LS
458.784 220.322 L
458.784 223.11 L
458.338 223.11 L
458.338 220.322 LE
458.784 220.31 LS
459.23 220.31 L
459.23 223.112 L
458.784 223.112 L
458.784 220.31 LE
459.23 220.299 LS
459.677 220.299 L
459.677 223.114 L
459.23 223.114 L
459.23 220.299 LE
459.677 220.287 LS
460.123 220.287 L
460.123 223.116 L
459.677 223.116 L
459.677 220.287 LE
460.123 220.275 LS
460.57 220.275 L
460.57 223.118 L
460.123 223.118 L
460.123 220.275 LE
460.57 220.262 LS
461.016 220.262 L
461.016 223.12 L
460.57 223.12 L
460.57 220.262 LE
461.016 220.25 LS
461.462 220.25 L
461.462 223.122 L
461.016 223.122 L
461.016 220.25 LE
461.462 220.237 LS
461.909 220.237 L
461.909 223.124 L
461.462 223.124 L
461.462 220.237 LE
461.909 220.225 LS
462.355 220.225 L
462.355 223.125 L
461.909 223.125 L
461.909 220.225 LE
462.355 220.212 LS
462.802 220.212 L
462.802 223.127 L
462.355 223.127 L
462.355 220.212 LE
462.802 220.199 LS
463.248 220.199 L
463.248 223.129 L
462.802 223.129 L
462.802 220.199 LE
463.248 220.186 LS
463.694 220.186 L
463.694 223.131 L
463.248 223.131 L
463.248 220.186 LE
463.694 220.173 LS
464.141 220.173 L
464.141 223.133 L
463.694 223.133 L
463.694 220.173 LE
464.141 220.159 LS
464.587 220.159 L
464.587 223.135 L
464.141 223.135 L
464.141 220.159 LE
464.587 220.146 LS
465.034 220.146 L
465.034 223.137 L
464.587 223.137 L
464.587 220.146 LE
465.034 220.132 LS
465.48 220.132 L
465.48 223.138 L
465.034 223.138 L
465.034 220.132 LE
465.48 220.118 LS
465.926 220.118 L
465.926 223.14 L
465.48 223.14 L
465.48 220.118 LE
465.926 220.105 LS
466.373 220.105 L
466.373 223.142 L
465.926 223.142 L
465.926 220.105 LE
466.373 220.09 LS
466.819 220.09 L
466.819 223.144 L
466.373 223.144 L
466.373 220.09 LE
466.819 220.076 LS
467.266 220.076 L
467.266 223.146 L
466.819 223.146 L
466.819 220.076 LE
467.266 220.062 LS
467.712 220.062 L
467.712 223.148 L
467.266 223.148 L
467.266 220.062 LE
467.712 220.047 LS
468.158 220.047 L
468.158 223.149 L
467.712 223.149 L
467.712 220.047 LE
468.158 220.033 LS
468.605 220.033 L
468.605 223.151 L
468.158 223.151 L
468.158 220.033 LE
468.605 220.018 LS
469.051 220.018 L
469.051 223.153 L
468.605 223.153 L
468.605 220.018 LE
469.051 220.003 LS
469.498 220.003 L
469.498 223.155 L
469.051 223.155 L
469.051 220.003 LE
469.498 219.988 LS
469.944 219.988 L
469.944 223.156 L
469.498 223.156 L
469.498 219.988 LE
469.944 219.973 LS
470.39 219.973 L
470.39 223.158 L
469.944 223.158 L
469.944 219.973 LE
470.39 219.957 LS
470.837 219.957 L
470.837 223.16 L
470.39 223.16 L
470.39 219.957 LE
470.837 219.942 LS
471.283 219.942 L
471.283 223.162 L
470.837 223.162 L
470.837 219.942 LE
471.283 219.926 LS
471.73 219.926 L
471.73 223.164 L
471.283 223.164 L
471.283 219.926 LE
471.73 219.911 LS
472.176 219.911 L
472.176 223.165 L
471.73 223.165 L
471.73 219.911 LE
472.176 219.895 LS
472.622 219.895 L
472.622 223.167 L
472.176 223.167 L
472.176 219.895 LE
472.622 219.879 LS
473.069 219.879 L
473.069 223.169 L
472.622 223.169 L
472.622 219.879 LE
473.069 219.862 LS
473.515 219.862 L
473.515 223.171 L
473.069 223.171 L
473.069 219.862 LE
473.515 219.846 LS
473.962 219.846 L
473.962 223.172 L
473.515 223.172 L
473.515 219.846 LE
473.962 219.83 LS
474.408 219.83 L
474.408 223.174 L
473.962 223.174 L
473.962 219.83 LE
474.408 219.813 LS
474.854 219.813 L
474.854 223.176 L
474.408 223.176 L
474.408 219.813 LE
474.854 219.796 LS
475.301 219.796 L
475.301 223.178 L
474.854 223.178 L
474.854 219.796 LE
475.301 219.779 LS
475.747 219.779 L
475.747 223.179 L
475.301 223.179 L
475.301 219.779 LE
475.747 219.762 LS
476.194 219.762 L
476.194 223.181 L
475.747 223.181 L
475.747 219.762 LE
476.194 219.745 LS
476.64 219.745 L
476.64 223.183 L
476.194 223.183 L
476.194 219.745 LE
476.64 219.728 LS
477.086 219.728 L
477.086 223.184 L
476.64 223.184 L
476.64 219.728 LE
477.086 219.711 LS
477.533 219.711 L
477.533 223.186 L
477.086 223.186 L
477.086 219.711 LE
477.533 219.694 LS
477.979 219.694 L
477.979 223.188 L
477.533 223.188 L
477.533 219.694 LE
477.979 219.677 LS
478.426 219.677 L
478.426 223.189 L
477.979 223.189 L
477.979 219.677 LE
478.426 219.66 LS
478.872 219.66 L
478.872 223.19 L
478.426 223.19 L
478.426 219.66 LE
478.872 219.643 LS
479.318 219.643 L
479.318 223.191 L
478.872 223.191 L
478.872 219.643 LE
479.318 219.627 LS
479.765 219.627 L
479.765 223.192 L
479.318 223.192 L
479.318 219.627 LE
479.765 219.61 LS
480.211 219.61 L
480.211 223.193 L
479.765 223.193 L
479.765 219.61 LE
480.211 219.594 LS
480.658 219.594 L
480.658 223.194 L
480.211 223.194 L
480.211 219.594 LE
480.658 219.578 LS
481.104 219.578 L
481.104 223.194 L
480.658 223.194 L
480.658 219.578 LE
481.104 219.562 LS
481.55 219.562 L
481.55 223.195 L
481.104 223.195 L
481.104 219.562 LE
481.55 219.546 LS
481.997 219.546 L
481.997 223.195 L
481.55 223.195 L
481.55 219.546 LE
481.997 219.53 LS
482.443 219.53 L
482.443 223.195 L
481.997 223.195 L
481.997 219.53 LE
482.443 219.514 LS
482.89 219.514 L
482.89 223.195 L
482.443 223.195 L
482.443 219.514 LE
482.89 219.499 LS
483.336 219.499 L
483.336 223.195 L
482.89 223.195 L
482.89 219.499 LE
483.336 219.483 LS
483.782 219.483 L
483.782 223.195 L
483.336 223.195 L
483.336 219.483 LE
483.782 219.468 LS
484.229 219.468 L
484.229 223.195 L
483.782 223.195 L
483.782 219.468 LE
484.229 219.453 LS
484.675 219.453 L
484.675 223.194 L
484.229 223.194 L
484.229 219.453 LE
484.675 219.438 LS
485.122 219.438 L
485.122 223.194 L
484.675 223.194 L
484.675 219.438 LE
485.122 219.423 LS
485.568 219.423 L
485.568 223.193 L
485.122 223.193 L
485.122 219.423 LE
485.568 219.408 LS
486.014 219.408 L
486.014 223.192 L
485.568 223.192 L
485.568 219.408 LE
486.014 219.393 LS
486.461 219.393 L
486.461 223.192 L
486.014 223.192 L
486.014 219.393 LE
486.461 219.379 LS
486.907 219.379 L
486.907 223.191 L
486.461 223.191 L
486.461 219.379 LE
486.907 219.364 LS
487.354 219.364 L
487.354 223.189 L
486.907 223.189 L
486.907 219.364 LE
487.354 219.35 LS
487.8 219.35 L
487.8 223.188 L
487.354 223.188 L
487.354 219.35 LE
487.8 219.335 LS
488.246 219.335 L
488.246 223.187 L
487.8 223.187 L
487.8 219.335 LE
488.246 219.321 LS
488.693 219.321 L
488.693 223.185 L
488.246 223.185 L
488.246 219.321 LE
488.693 219.307 LS
489.139 219.307 L
489.139 223.183 L
488.693 223.183 L
488.693 219.307 LE
489.139 219.293 LS
489.586 219.293 L
489.586 223.182 L
489.139 223.182 L
489.139 219.293 LE
489.586 219.28 LS
490.032 219.28 L
490.032 223.18 L
489.586 223.18 L
489.586 219.28 LE
490.032 219.266 LS
490.478 219.266 L
490.478 223.178 L
490.032 223.178 L
490.032 219.266 LE
490.478 219.252 LS
490.925 219.252 L
490.925 223.176 L
490.478 223.176 L
490.478 219.252 LE
490.925 219.239 LS
491.371 219.239 L
491.371 223.174 L
490.925 223.174 L
490.925 219.239 LE
491.371 219.226 LS
491.818 219.226 L
491.818 223.171 L
491.371 223.171 L
491.371 219.226 LE
491.818 219.213 LS
492.264 219.213 L
492.264 223.169 L
491.818 223.169 L
491.818 219.213 LE
492.264 219.199 LS
492.71 219.199 L
492.71 223.166 L
492.264 223.166 L
492.264 219.199 LE
492.71 219.187 LS
493.157 219.187 L
493.157 223.163 L
492.71 223.163 L
492.71 219.187 LE
493.157 219.174 LS
493.603 219.174 L
493.603 223.161 L
493.157 223.161 L
493.157 219.174 LE
493.603 219.161 LS
494.05 219.161 L
494.05 223.158 L
493.603 223.158 L
493.603 219.161 LE
494.05 219.148 LS
494.496 219.148 L
494.496 223.154 L
494.05 223.154 L
494.05 219.148 LE
494.496 219.136 LS
494.942 219.136 L
494.942 223.151 L
494.496 223.151 L
494.496 219.136 LE
494.942 219.124 LS
495.389 219.124 L
495.389 223.148 L
494.942 223.148 L
494.942 219.124 LE
495.389 219.111 LS
495.835 219.111 L
495.835 223.144 L
495.389 223.144 L
495.389 219.111 LE
495.835 219.099 LS
496.282 219.099 L
496.282 223.141 L
495.835 223.141 L
495.835 219.099 LE
496.282 219.087 LS
496.728 219.087 L
496.728 223.137 L
496.282 223.137 L
496.282 219.087 LE
496.728 219.075 LS
497.174 219.075 L
497.174 223.133 L
496.728 223.133 L
496.728 219.075 LE
497.174 219.064 LS
497.621 219.064 L
497.621 223.129 L
497.174 223.129 L
497.174 219.064 LE
497.621 219.052 LS
498.067 219.052 L
498.067 223.125 L
497.621 223.125 L
497.621 219.052 LE
498.067 219.041 LS
498.514 219.041 L
498.514 223.121 L
498.067 223.121 L
498.067 219.041 LE
498.514 219.029 LS
498.96 219.029 L
498.96 223.117 L
498.514 223.117 L
498.514 219.029 LE
498.96 219.018 LS
499.406 219.018 L
499.406 223.112 L
498.96 223.112 L
498.96 219.018 LE
499.406 219.007 LS
499.853 219.007 L
499.853 223.108 L
499.406 223.108 L
499.406 219.007 LE
499.853 218.996 LS
500.299 218.996 L
500.299 223.103 L
499.853 223.103 L
499.853 218.996 LE
500.299 218.985 LS
500.746 218.985 L
500.746 223.098 L
500.299 223.098 L
500.299 218.985 LE
500.746 218.974 LS
501.192 218.974 L
501.192 223.093 L
500.746 223.093 L
500.746 218.974 LE
501.192 218.963 LS
501.638 218.963 L
501.638 223.088 L
501.192 223.088 L
501.192 218.963 LE
501.638 218.953 LS
502.085 218.953 L
502.085 223.083 L
501.638 223.083 L
501.638 218.953 LE
502.085 218.943 LS
502.531 218.943 L
502.531 223.078 L
502.085 223.078 L
502.085 218.943 LE
502.531 218.932 LS
502.978 218.932 L
502.978 223.072 L
502.531 223.072 L
502.531 218.932 LE
502.978 218.922 LS
503.424 218.922 L
503.424 223.067 L
502.978 223.067 L
502.978 218.922 LE
503.424 218.912 LS
503.87 218.912 L
503.87 223.061 L
503.424 223.061 L
503.424 218.912 LE
503.87 218.902 LS
504.317 218.902 L
504.317 223.055 L
503.87 223.055 L
503.87 218.902 LE
504.317 218.892 LS
504.763 218.892 L
504.763 223.049 L
504.317 223.049 L
504.317 218.892 LE
504.763 218.883 LS
505.21 218.883 L
505.21 223.043 L
504.763 223.043 L
504.763 218.883 LE
505.21 218.873 LS
505.656 218.873 L
505.656 223.037 L
505.21 223.037 L
505.21 218.873 LE
505.656 218.863 LS
506.102 218.863 L
506.102 223.03 L
505.656 223.03 L
505.656 218.863 LE
506.102 218.854 LS
506.549 218.854 L
506.549 223.024 L
506.102 223.024 L
506.102 218.854 LE
506.549 218.845 LS
506.995 218.845 L
506.995 223.017 L
506.549 223.017 L
506.549 218.845 LE
506.995 218.836 LS
507.442 218.836 L
507.442 223.011 L
506.995 223.011 L
506.995 218.836 LE
507.442 218.827 LS
507.888 218.827 L
507.888 223.004 L
507.442 223.004 L
507.442 218.827 LE
507.888 218.818 LS
508.334 218.818 L
508.334 222.997 L
507.888 222.997 L
507.888 218.818 LE
508.334 218.809 LS
508.781 218.809 L
508.781 222.99 L
508.334 222.99 L
508.334 218.809 LE
508.781 218.801 LS
509.227 218.801 L
509.227 222.983 L
508.781 222.983 L
508.781 218.801 LE
509.227 218.792 LS
509.674 218.792 L
509.674 222.975 L
509.227 222.975 L
509.227 218.792 LE
509.674 218.784 LS
510.12 218.784 L
510.12 222.968 L
509.674 222.968 L
509.674 218.784 LE
510.12 218.775 LS
510.566 218.775 L
510.566 222.96 L
510.12 222.96 L
510.12 218.775 LE
510.566 218.767 LS
511.013 218.767 L
511.013 222.953 L
510.566 222.953 L
510.566 218.767 LE
511.013 218.759 LS
511.459 218.759 L
511.459 222.945 L
511.013 222.945 L
511.013 218.759 LE
511.459 218.751 LS
511.906 218.751 L
511.906 222.937 L
511.459 222.937 L
511.459 218.751 LE
511.906 218.744 LS
512.352 218.744 L
512.352 222.929 L
511.906 222.929 L
511.906 218.744 LE
512.352 218.736 LS
512.798 218.736 L
512.798 222.921 L
512.352 222.921 L
512.352 218.736 LE
512.798 218.728 LS
513.245 218.728 L
513.245 222.912 L
512.798 222.912 L
512.798 218.728 LE
513.245 218.721 LS
513.691 218.721 L
513.691 222.904 L
513.245 222.904 L
513.245 218.721 LE
513.691 218.714 LS
514.138 218.714 L
514.138 222.895 L
513.691 222.895 L
513.691 218.714 LE
514.138 218.706 LS
514.584 218.706 L
514.584 222.887 L
514.138 222.887 L
514.138 218.706 LE
514.584 218.699 LS
515.03 218.699 L
515.03 222.878 L
514.584 222.878 L
514.584 218.699 LE
515.03 218.692 LS
515.477 218.692 L
515.477 222.869 L
515.03 222.869 L
515.03 218.692 LE
515.477 218.685 LS
515.923 218.685 L
515.923 222.86 L
515.477 222.86 L
515.477 218.685 LE
515.923 218.679 LS
516.37 218.679 L
516.37 222.85 L
515.923 222.85 L
515.923 218.679 LE
516.37 218.672 LS
516.816 218.672 L
516.816 222.841 L
516.37 222.841 L
516.37 218.672 LE
516.816 218.666 LS
517.262 218.666 L
517.262 222.832 L
516.816 222.832 L
516.816 218.666 LE
517.262 218.659 LS
517.709 218.659 L
517.709 222.822 L
517.262 222.822 L
517.262 218.659 LE
517.709 218.653 LS
518.155 218.653 L
518.155 222.812 L
517.709 222.812 L
517.709 218.653 LE
518.155 218.647 LS
518.602 218.647 L
518.602 222.803 L
518.155 222.803 L
518.155 218.647 LE
518.602 218.641 LS
519.048 218.641 L
519.048 222.793 L
518.602 222.793 L
518.602 218.641 LE
519.048 218.635 LS
519.494 218.635 L
519.494 222.783 L
519.048 222.783 L
519.048 218.635 LE
519.494 218.629 LS
519.941 218.629 L
519.941 222.772 L
519.494 222.772 L
519.494 218.629 LE
519.941 218.623 LS
520.387 218.623 L
520.387 222.762 L
519.941 222.762 L
519.941 218.623 LE
520.387 218.617 LS
520.834 218.617 L
520.834 222.752 L
520.387 222.752 L
520.387 218.617 LE
520.834 218.612 LS
521.28 218.612 L
521.28 222.741 L
520.834 222.741 L
520.834 218.612 LE
0 0 0 C
(Flowpipe for Ex. Quadrotor) 298.08 410.6 10 /Helvetica SBC
grestore
showpage
cleartomark
%%PageTrailer
%%Trailer
end
%%EOF
