%!PS-Adobe-3.0 EPSF-3.0
%%Title: glps_renderer figure
%%Creator: GL2PS 1.3.8, (C) 1999-2012 C. Geuzaine
%%For: Octave
%%CreationDate: Wed Mar 13 14:19:43 2019
%%LanguageLevel: 3
%%DocumentData: Clean7Bit
%%Pages: 1
%%BoundingBox: 0 0 576 433
%%EndComments
%%BeginProlog
/gl2psdict 64 dict def gl2psdict begin
0 setlinecap 0 setlinejoin
/tryPS3shading false def % set to false to force subdivision
/rThreshold 0.064 def % red component subdivision threshold
/gThreshold 0.034 def % green component subdivision threshold
/bThreshold 0.1 def % blue component subdivision threshold
/BD { bind def } bind def
/C  { setrgbcolor } BD
/G  { 0.082 mul exch 0.6094 mul add exch 0.3086 mul add neg 1.0 add setgray } BD
/W  { setlinewidth } BD
/FC { findfont exch /SH exch def SH scalefont setfont } BD
/SW { dup stringwidth pop } BD
/S  { FC moveto show } BD
/SBC{ FC moveto SW -2 div 0 rmoveto show } BD
/SBR{ FC moveto SW neg 0 rmoveto show } BD
/SCL{ FC moveto 0 SH -2 div rmoveto show } BD
/SCC{ FC moveto SW -2 div SH -2 div rmoveto show } BD
/SCR{ FC moveto SW neg SH -2 div rmoveto show } BD
/STL{ FC moveto 0 SH neg rmoveto show } BD
/STC{ FC moveto SW -2 div SH neg rmoveto show } BD
/STR{ FC moveto SW neg SH neg rmoveto show } BD
/FCT { FC translate 0 0 } BD
/SR  { gsave FCT moveto rotate show grestore } BD
/SBCR{ gsave FCT moveto rotate SW -2 div 0 rmoveto show grestore } BD
/SBRR{ gsave FCT moveto rotate SW neg 0 rmoveto show grestore } BD
/SCLR{ gsave FCT moveto rotate 0 SH -2 div rmoveto show grestore} BD
/SCCR{ gsave FCT moveto rotate SW -2 div SH -2 div rmoveto show grestore} BD
/SCRR{ gsave FCT moveto rotate SW neg SH -2 div rmoveto show grestore} BD
/STLR{ gsave FCT moveto rotate 0 SH neg rmoveto show grestore } BD
/STCR{ gsave FCT moveto rotate SW -2 div SH neg rmoveto show grestore } BD
/STRR{ gsave FCT moveto rotate SW neg SH neg rmoveto show grestore } BD
/P  { newpath 0.0 360.0 arc closepath fill } BD
/LS { newpath moveto } BD
/L  { lineto } BD
/LE { lineto stroke } BD
/T  { newpath moveto lineto lineto closepath fill } BD
/STshfill {
      /b1 exch def /g1 exch def /r1 exch def /y1 exch def /x1 exch def
      /b2 exch def /g2 exch def /r2 exch def /y2 exch def /x2 exch def
      /b3 exch def /g3 exch def /r3 exch def /y3 exch def /x3 exch def
      gsave << /ShadingType 4 /ColorSpace [/DeviceRGB]
      /DataSource [ 0 x1 y1 r1 g1 b1 0 x2 y2 r2 g2 b2 0 x3 y3 r3 g3 b3 ] >>
      shfill grestore } BD
/Tm { 3 -1 roll 8 -1 roll 13 -1 roll add add 3 div
      3 -1 roll 7 -1 roll 11 -1 roll add add 3 div
      3 -1 roll 6 -1 roll 9 -1 roll add add 3 div C T } BD
/STsplit {
      4 index 15 index add 0.5 mul
      4 index 15 index add 0.5 mul
      4 index 15 index add 0.5 mul
      4 index 15 index add 0.5 mul
      4 index 15 index add 0.5 mul
      5 copy 5 copy 25 15 roll
      9 index 30 index add 0.5 mul
      9 index 30 index add 0.5 mul
      9 index 30 index add 0.5 mul
      9 index 30 index add 0.5 mul
      9 index 30 index add 0.5 mul
      5 copy 5 copy 35 5 roll 25 5 roll 15 5 roll
      4 index 10 index add 0.5 mul
      4 index 10 index add 0.5 mul
      4 index 10 index add 0.5 mul
      4 index 10 index add 0.5 mul
      4 index 10 index add 0.5 mul
      5 copy 5 copy 40 5 roll 25 5 roll 15 5 roll 25 5 roll
      STnoshfill STnoshfill STnoshfill STnoshfill } BD
/STnoshfill {
      2 index 8 index sub abs rThreshold gt
      { STsplit }
      { 1 index 7 index sub abs gThreshold gt
        { STsplit }
        { dup 6 index sub abs bThreshold gt
          { STsplit }
          { 2 index 13 index sub abs rThreshold gt
            { STsplit }
            { 1 index 12 index sub abs gThreshold gt
              { STsplit }
              { dup 11 index sub abs bThreshold gt
                { STsplit }
                { 7 index 13 index sub abs rThreshold gt
                  { STsplit }
                  { 6 index 12 index sub abs gThreshold gt
                    { STsplit }
                    { 5 index 11 index sub abs bThreshold gt
                      { STsplit }
                      { Tm }
                      ifelse }
                    ifelse }
                  ifelse }
                ifelse }
              ifelse }
            ifelse }
          ifelse }
        ifelse }
      ifelse } BD
tryPS3shading
{ /shfill where
  { /ST { STshfill } BD }
  { /ST { STnoshfill } BD }
  ifelse }
{ /ST { STnoshfill } BD }
ifelse
end
%%EndProlog
%%BeginSetup
/DeviceRGB setcolorspace
gl2psdict begin
%%EndSetup
%%Page: 1 1
%%BeginPageSetup
%%EndPageSetup
mark
gsave
1.0 1.0 scale
1 1 1 C
74.88 400.6 521.28 48.52 74.88 48.52 T
74.88 400.6 521.28 400.6 521.28 48.52 T
0.5 W
[16 0] 0 setdash
0 0 0 C
74.88 48.52 LS
521.28 48.52 LE
74.88 400.6 LS
521.28 400.6 LE
74.88 48.52 LS
74.88 400.6 LE
521.28 48.52 LS
521.28 400.6 LE
74.88 48.52 LS
74.88 52.985 LE
74.88 400.6 LS
74.88 396.135 LE
164.16 48.52 LS
164.16 52.985 LE
164.16 400.6 LS
164.16 396.135 LE
253.44 48.52 LS
253.44 52.985 LE
253.44 400.6 LS
253.44 396.135 LE
342.72 48.52 LS
342.72 52.985 LE
342.72 400.6 LS
342.72 396.135 LE
432 48.52 LS
432 52.985 LE
432 400.6 LS
432 396.135 LE
521.28 48.52 LS
521.28 52.985 LE
521.28 400.6 LS
521.28 396.135 LE
(0) 74.88 43.5189 10 /Helvetica STC
(0.2) 164.16 43.5189 10 /Helvetica STC
(0.4) 253.44 43.5189 10 /Helvetica STC
(0.6) 342.72 43.5189 10 /Helvetica STC
(0.8) 432 43.5189 10 /Helvetica STC
(1) 521.28 43.5189 10 /Helvetica STC
74.88 48.52 LS
79.348 48.52 LE
521.28 48.52 LS
516.812 48.52 LE
74.88 118.936 LS
79.348 118.936 LE
521.28 118.936 LS
516.812 118.936 LE
74.88 189.352 LS
79.348 189.352 LE
521.28 189.352 LS
516.812 189.352 LE
74.88 259.768 LS
79.348 259.768 LE
521.28 259.768 LS
516.812 259.768 LE
74.88 330.184 LS
79.348 330.184 LE
521.28 330.184 LS
516.812 330.184 LE
74.88 400.6 LS
79.348 400.6 LE
521.28 400.6 LS
516.812 400.6 LE
(-0.2) 69.8755 48.52 10 /Helvetica SCR
(0) 69.8755 118.936 10 /Helvetica SCR
(0.2) 69.8755 189.352 10 /Helvetica SCR
(0.4) 69.8755 259.768 10 /Helvetica SCR
(0.6) 69.8755 330.184 10 /Helvetica SCR
(0.8) 69.8755 400.6 10 /Helvetica SCR
[] 0 setdash
0.11 0.11 0.11 C
415.402 243.541 LS
476.679 243.541 L
476.679 295.18 L
415.402 295.18 L
415.402 243.541 LE
405.289 231.063 LS
463.431 231.063 L
463.431 280.867 L
405.289 280.867 L
405.289 231.063 LE
396.504 219.53 LS
451.635 219.53 L
451.635 267.56 L
396.504 267.56 L
396.504 219.53 LE
388.638 208.784 LS
441.218 208.784 L
441.218 255.22 L
388.638 255.22 L
388.638 208.784 LE
381.559 198.759 LS
431.949 198.759 L
431.949 243.747 L
381.559 243.747 L
381.559 198.759 LE
375.154 189.387 LS
423.65 189.387 L
423.65 233.058 L
375.154 233.058 L
375.154 189.387 LE
369.332 180.609 LS
416.174 180.609 L
416.174 223.077 L
369.332 223.077 L
369.332 180.609 LE
364.016 172.369 LS
409.405 172.369 L
409.405 213.738 L
364.016 213.738 L
364.016 172.369 LE
359.144 164.621 LS
403.246 164.621 L
403.246 204.981 L
359.144 204.981 L
359.144 164.621 LE
354.661 157.321 LS
397.618 157.321 L
397.618 196.753 L
354.661 196.753 L
354.661 157.321 LE
350.522 150.43 LS
392.453 150.43 L
392.453 189.009 L
350.522 189.009 L
350.522 150.43 LE
346.688 143.915 LS
387.696 143.915 L
387.696 181.705 L
346.688 181.705 L
346.688 143.915 LE
343.126 137.745 LS
383.3 137.745 L
383.3 174.804 L
343.126 174.804 L
343.126 137.745 LE
339.809 131.891 LS
379.224 131.891 L
379.224 168.273 L
339.809 168.273 L
339.809 131.891 LE
336.71 126.33 LS
375.433 126.33 L
375.433 162.082 L
336.71 162.082 L
336.71 126.33 LE
333.806 120.675 LS
371.9 120.675 L
371.9 156.208 L
333.806 156.208 L
333.806 120.675 LE
331.068 116.008 LS
368.591 116.008 L
368.591 150.979 L
331.068 150.979 L
331.068 116.008 LE
328.489 111.569 LS
365.483 111.569 L
365.483 145.958 L
328.489 145.958 L
328.489 111.569 LE
326.053 107.312 LS
362.557 107.312 L
362.557 141.161 L
326.053 141.161 L
326.053 107.312 LE
323.747 103.227 LS
359.796 103.227 L
359.796 136.571 L
323.747 136.571 L
323.747 103.227 LE
321.563 101.118 LS
357.186 101.118 L
357.186 132.171 L
321.563 132.171 L
321.563 101.118 LE
319.458 98.7014 LS
354.701 98.7014 L
354.701 129.056 L
319.458 129.056 L
319.458 98.7014 LE
317.442 96.3389 LS
352.319 96.3389 L
352.319 126.042 L
317.442 126.042 L
317.442 96.3389 LE
315.51 94.0355 LS
350.033 94.0355 L
350.033 123.118 L
315.51 123.118 L
315.51 94.0355 LE
313.656 91.7888 LS
347.837 91.7888 L
347.837 120.279 L
313.656 120.279 L
313.656 91.7888 LE
311.876 90.5867 LS
345.725 90.5867 L
345.725 117.522 L
311.876 117.522 L
311.876 90.5867 LE
310.146 89.0971 LS
343.688 89.0971 L
343.688 115.586 L
310.146 115.586 L
310.146 89.0971 LE
308.472 87.629 LS
341.715 87.629 L
341.715 113.693 L
308.472 113.693 L
308.472 87.629 LE
306.852 86.1848 LS
339.804 86.1848 L
339.804 111.838 L
306.852 111.838 L
306.852 86.1848 LE
305.282 84.7638 LS
337.95 84.7638 L
337.95 110.021 L
305.282 110.021 L
305.282 84.7638 LE
303.761 83.951 LS
336.153 83.951 L
336.153 108.239 L
303.761 108.239 L
303.761 83.951 LE
302.275 82.9798 LS
334.405 82.9798 L
334.405 106.945 L
302.275 106.945 L
302.275 82.9798 LE
300.828 82.0172 LS
332.703 82.0172 L
332.703 105.671 L
300.828 105.671 L
300.828 82.0172 LE
299.419 81.0641 LS
331.043 81.0641 L
331.043 104.414 L
299.419 104.414 L
299.419 81.0641 LE
298.046 80.1206 LS
329.425 80.1206 L
329.425 103.175 L
298.046 103.175 L
298.046 80.1206 LE
296.707 79.5684 LS
327.847 79.5684 L
327.847 101.953 L
296.707 101.953 L
296.707 79.5684 LE
295.394 78.9192 LS
326.304 78.9192 L
326.304 101.052 L
295.394 101.052 L
295.394 78.9192 LE
294.111 78.2725 LS
324.795 78.2725 L
324.795 100.159 L
294.111 100.159 L
294.111 78.2725 LE
292.855 77.6289 LS
323.319 77.6289 L
323.319 99.2746 L
292.855 99.2746 L
292.855 77.6289 LE
291.627 76.9885 LS
321.873 76.9885 L
321.873 98.3984 L
291.627 98.3984 L
291.627 76.9885 LE
290.424 76.5902 LS
320.457 76.5902 L
320.457 97.5303 L
290.424 97.5303 L
290.424 76.5902 LE
289.242 76.1568 LS
319.069 76.1568 L
319.069 96.8874 L
289.242 96.8874 L
289.242 76.1568 LE
288.083 75.7229 LS
317.707 75.7229 L
317.707 96.2482 L
288.083 96.2482 L
288.083 75.7229 LE
286.944 75.2887 LS
316.37 75.2887 L
316.37 95.6125 L
286.944 95.6125 L
286.944 75.2887 LE
285.827 74.8544 LS
315.057 74.8544 L
315.057 94.9802 L
285.827 94.9802 L
285.827 74.8544 LE
284.731 74.5836 LS
313.767 74.5836 L
313.767 94.3513 L
284.731 94.3513 L
284.731 74.5836 LE
283.651 74.2995 LS
312.5 74.2995 L
312.5 93.8883 L
283.651 93.8883 L
283.651 74.2995 LE
282.589 74.0131 LS
311.253 74.0131 L
311.253 93.4263 L
282.589 93.4263 L
282.589 74.0131 LE
281.544 73.7248 LS
310.027 73.7248 L
310.027 92.9652 L
281.544 92.9652 L
281.544 73.7248 LE
280.516 73.4348 LS
308.82 73.4348 L
308.82 92.505 L
280.516 92.505 L
280.516 73.4348 LE
279.504 73.2694 LS
307.632 73.2694 L
307.632 92.0457 L
279.504 92.0457 L
279.504 73.2694 LE
278.507 73.093 LS
306.463 73.093 L
306.463 91.7127 L
278.507 91.7127 L
278.507 73.093 LE
277.524 72.9135 LS
305.31 72.9135 L
305.31 91.3794 L
277.524 91.3794 L
277.524 72.9135 LE
276.555 72.7313 LS
304.174 72.7313 L
304.174 91.0456 L
276.555 91.0456 L
276.555 72.7313 LE
275.601 72.5465 LS
303.054 72.5465 L
303.054 90.7112 L
275.601 90.7112 L
275.601 72.5465 LE
274.659 72.4594 LS
301.95 72.4594 L
301.95 90.3764 L
274.659 90.3764 L
274.659 72.4594 LE
273.73 72.3629 LS
300.861 72.3629 L
300.861 90.1405 L
273.73 90.1405 L
273.73 72.3629 LE
272.813 72.2628 LS
299.786 72.2628 L
299.786 89.9035 L
272.813 89.9035 L
272.813 72.2628 LE
271.908 72.1596 LS
298.726 72.1596 L
298.726 89.6652 L
271.908 89.6652 L
271.908 72.1596 LE
271.014 72.0534 LS
297.679 72.0534 L
297.679 89.4255 L
271.014 89.4255 L
271.014 72.0534 LE
270.133 72.0256 LS
296.645 72.0256 L
296.645 89.1972 L
270.133 89.1972 L
270.133 72.0256 LE
269.261 71.9894 LS
295.625 71.9894 L
295.625 89.0315 L
269.261 89.0315 L
269.261 71.9894 LE
268.399 71.9497 LS
294.616 71.9497 L
294.616 88.8644 L
268.399 88.8644 L
268.399 71.9497 LE
267.548 71.9066 LS
293.62 71.9066 L
293.62 88.6955 L
267.548 88.6955 L
267.548 71.9066 LE
266.707 71.8603 LS
292.635 71.8603 L
292.635 88.5275 L
266.707 88.5275 L
266.707 71.8603 LE
265.876 71.8781 LS
291.662 71.8781 L
291.662 88.4155 L
265.876 88.4155 L
265.876 71.8781 LE
265.053 71.8883 LS
290.7 71.8883 L
290.7 88.3076 L
265.053 88.3076 L
265.053 71.8883 LE
264.24 71.895 LS
289.748 71.895 L
289.748 88.198 L
264.24 88.198 L
264.24 71.895 LE
263.436 71.8983 LS
288.807 71.8983 L
288.807 88.0864 L
263.436 88.0864 L
263.436 71.8983 LE
262.64 71.8985 LS
287.877 71.8985 L
287.877 87.9729 L
262.64 87.9729 L
262.64 71.8985 LE
261.852 71.9516 LS
286.956 71.9516 L
286.956 87.9099 L
261.852 87.9099 L
261.852 71.9516 LE
261.073 71.998 LS
286.045 71.998 L
286.045 87.8477 L
261.073 87.8477 L
261.073 71.998 LE
260.301 72.0409 LS
285.143 72.0409 L
285.143 87.7837 L
260.301 87.7837 L
260.301 72.0409 LE
259.538 72.0805 LS
284.251 72.0805 L
284.251 87.7176 L
259.538 87.7176 L
259.538 72.0805 LE
258.782 72.1169 LS
283.367 72.1169 L
283.367 87.6494 L
258.782 87.6494 L
258.782 72.1169 LE
258.033 72.1937 LS
282.493 72.1937 L
282.493 87.6275 L
258.033 87.6275 L
258.033 72.1937 LE
257.291 72.2689 LS
281.626 72.2689 L
281.626 87.6017 L
257.291 87.6017 L
257.291 72.2689 LE
256.557 72.3407 LS
280.769 72.3407 L
280.769 87.5738 L
256.557 87.5738 L
256.557 72.3407 LE
255.829 72.4093 LS
279.919 72.4093 L
279.919 87.5438 L
255.829 87.5438 L
255.829 72.4093 LE
255.108 72.4748 LS
279.078 72.4748 L
279.078 87.5117 L
255.108 87.5117 L
255.108 72.4748 LE
254.394 72.5725 LS
278.244 72.5725 L
278.244 87.5208 L
254.394 87.5208 L
254.394 72.5725 LE
253.686 72.67 LS
277.418 72.67 L
277.418 87.5246 L
253.686 87.5246 L
253.686 72.67 LE
252.984 72.7644 LS
276.599 72.7644 L
276.599 87.5262 L
252.984 87.5262 L
252.984 72.7644 LE
252.288 72.8557 LS
275.788 72.8557 L
275.788 87.5259 L
252.288 87.5259 L
252.288 72.8557 LE
251.599 72.9439 LS
274.984 72.9439 L
274.984 87.5234 L
251.599 87.5234 L
251.599 72.9439 LE
250.915 73.0598 LS
274.187 73.0598 L
274.187 87.556 L
250.915 87.556 L
250.915 73.0598 LE
250.237 73.1752 LS
273.397 73.1752 L
273.397 87.5839 L
250.237 87.5839 L
250.237 73.1752 LE
249.565 73.2875 LS
272.613 73.2875 L
272.613 87.6097 L
249.565 87.6097 L
249.565 73.2875 LE
248.898 73.3968 LS
271.836 73.3968 L
271.836 87.6335 L
248.898 87.6335 L
248.898 73.3968 LE
248.237 73.5032 LS
271.066 73.5032 L
271.066 87.6552 L
248.237 87.6552 L
248.237 73.5032 LE
247.582 73.6284 LS
270.302 73.6284 L
270.302 87.7071 L
247.582 87.7071 L
247.582 73.6284 LE
246.931 73.7594 LS
269.544 73.7594 L
269.544 87.7547 L
246.931 87.7547 L
246.931 73.7594 LE
246.285 73.8875 LS
268.793 73.8875 L
268.793 87.8004 L
246.285 87.8004 L
246.285 73.8875 LE
245.645 74.0127 LS
268.047 74.0127 L
268.047 87.844 L
245.645 87.844 L
245.645 74.0127 LE
245.009 74.1342 LS
267.308 74.1342 L
267.308 87.8856 L
245.009 87.8856 L
245.009 74.1342 LE
244.379 74.2548 LS
266.574 74.2548 L
266.574 87.9533 L
244.379 87.9533 L
244.379 74.2548 LE
243.753 74.3969 LS
265.846 74.3969 L
265.846 88.0173 L
243.753 88.0173 L
243.753 74.3969 LE
243.132 74.5363 LS
265.123 74.5363 L
265.123 88.0792 L
243.132 88.0792 L
243.132 74.5363 LE
242.515 74.673 LS
264.406 74.673 L
264.406 88.1392 L
242.515 88.1392 L
242.515 74.673 LE
241.903 74.807 LS
263.695 74.807 L
263.695 88.1973 L
241.903 88.1973 L
241.903 74.807 LE
241.296 74.9383 LS
262.989 74.9383 L
262.989 88.278 L
241.296 88.278 L
241.296 74.9383 LE
240.693 75.0893 LS
262.288 75.0893 L
262.288 88.3554 L
240.693 88.3554 L
240.693 75.0893 LE
240.094 75.2377 LS
261.592 75.2377 L
261.592 88.4308 L
240.094 88.4308 L
240.094 75.2377 LE
239.499 75.3835 LS
260.901 75.3835 L
260.901 88.5044 L
239.499 88.5044 L
239.499 75.3835 LE
238.909 75.5266 LS
260.215 75.5266 L
260.215 88.576 L
238.909 88.576 L
238.909 75.5266 LE
238.323 75.6673 LS
259.534 75.6673 L
259.534 88.6679 L
238.323 88.6679 L
238.323 75.6673 LE
237.741 75.8253 LS
258.858 75.8253 L
258.858 88.7564 L
237.741 88.7564 L
237.741 75.8253 LE
237.162 75.9807 LS
258.187 75.9807 L
258.187 88.843 L
237.162 88.843 L
237.162 75.9807 LE
236.588 76.1337 LS
257.52 76.1337 L
257.52 88.9277 L
236.588 88.9277 L
236.588 76.1337 LE
236.018 76.2841 LS
256.858 76.2841 L
256.858 89.0106 L
236.018 89.0106 L
236.018 76.2841 LE
235.451 76.4322 LS
256.201 76.4322 L
256.201 89.1116 L
235.451 89.1116 L
235.451 76.4322 LE
234.888 76.5956 LS
255.548 76.5956 L
255.548 89.2092 L
234.888 89.2092 L
234.888 76.5956 LE
234.329 76.7565 LS
254.899 76.7565 L
254.899 89.305 L
234.329 89.305 L
234.329 76.7565 LE
233.773 76.915 LS
254.255 76.915 L
254.255 89.399 L
233.773 89.399 L
233.773 76.915 LE
233.221 77.0712 LS
253.615 77.0712 L
253.615 89.4913 L
233.221 89.4913 L
233.221 77.0712 LE
232.673 77.2251 LS
252.979 77.2251 L
252.979 89.5996 L
232.673 89.5996 L
232.673 77.2251 LE
232.128 77.3926 LS
252.347 77.3926 L
252.347 89.7047 L
232.128 89.7047 L
232.128 77.3926 LE
231.586 77.5577 LS
251.72 77.5577 L
251.72 89.8081 L
231.586 89.8081 L
231.586 77.5577 LE
231.048 77.7206 LS
251.097 77.7206 L
251.097 89.9098 L
231.048 89.9098 L
231.048 77.7206 LE
230.513 77.8812 LS
250.477 77.8812 L
250.477 90.0099 L
230.513 90.0099 L
230.513 77.8812 LE
229.982 78.0397 LS
249.862 78.0397 L
249.862 90.1241 L
229.982 90.1241 L
229.982 78.0397 LE
229.454 78.2101 LS
249.25 78.2101 L
249.25 90.2355 L
229.454 90.2355 L
229.454 78.2101 LE
228.929 78.3784 LS
248.642 78.3784 L
248.642 90.3452 L
228.929 90.3452 L
228.929 78.3784 LE
228.407 78.5445 LS
248.038 78.5445 L
248.038 90.4532 L
228.407 90.4532 L
228.407 78.5445 LE
227.888 78.7085 LS
247.438 78.7085 L
247.438 90.5596 L
227.888 90.5596 L
227.888 78.7085 LE
227.373 78.8704 LS
246.842 78.8704 L
246.842 90.6787 L
227.373 90.6787 L
227.373 78.8704 LE
226.86 79.043 LS
246.249 79.043 L
246.249 90.7952 L
226.86 90.7952 L
226.86 79.043 LE
226.35 79.2135 LS
245.659 79.2135 L
245.659 90.91 L
226.35 90.91 L
226.35 79.2135 LE
225.844 79.382 LS
245.074 79.382 L
245.074 91.0232 L
225.844 91.0232 L
225.844 79.382 LE
225.34 79.5484 LS
244.491 79.5484 L
244.491 91.1349 L
225.34 91.1349 L
225.34 79.5484 LE
224.839 79.7128 LS
243.913 79.7128 L
243.913 91.258 L
224.839 91.258 L
224.839 79.7128 LE
224.342 79.8869 LS
243.337 79.8869 L
243.337 91.3785 L
224.342 91.3785 L
224.342 79.8869 LE
223.847 80.0589 LS
242.765 80.0589 L
242.765 91.4976 L
223.847 91.4976 L
223.847 80.0589 LE
223.354 80.229 LS
242.197 80.229 L
242.197 91.615 L
223.354 91.615 L
223.354 80.229 LE
222.865 80.3972 LS
241.631 80.3972 L
241.631 91.731 L
222.865 91.731 L
222.865 80.3972 LE
222.378 80.5634 LS
241.069 80.5634 L
241.069 91.8572 L
222.378 91.8572 L
222.378 80.5634 LE
221.894 80.7383 LS
240.511 80.7383 L
240.511 91.9811 L
221.894 91.9811 L
221.894 80.7383 LE
221.413 80.9112 LS
239.955 80.9112 L
239.955 92.1035 L
221.413 92.1035 L
221.413 80.9112 LE
220.934 81.0823 LS
239.402 81.0823 L
239.402 92.2244 L
220.934 92.2244 L
220.934 81.0823 LE
220.458 81.2515 LS
238.853 81.2515 L
238.853 92.3438 L
220.458 92.3438 L
220.458 81.2515 LE
219.985 81.4188 LS
238.307 81.4188 L
238.307 92.4725 L
219.985 92.4725 L
219.985 81.4188 LE
219.514 81.594 LS
237.764 81.594 L
237.764 92.599 L
219.514 92.599 L
219.514 81.594 LE
219.045 81.7674 LS
237.223 81.7674 L
237.223 92.7241 L
219.045 92.7241 L
219.045 81.7674 LE
218.579 81.9389 LS
236.686 81.9389 L
236.686 92.8477 L
218.579 92.8477 L
218.579 81.9389 LE
218.116 82.1086 LS
236.152 82.1086 L
236.152 92.9699 L
218.116 92.9699 L
218.116 82.1086 LE
217.655 82.2766 LS
235.621 82.2766 L
235.621 93.1005 L
217.655 93.1005 L
217.655 82.2766 LE
217.196 82.4517 LS
235.092 82.4517 L
235.092 93.2291 L
217.196 93.2291 L
217.196 82.4517 LE
216.74 82.625 LS
234.567 82.625 L
234.567 93.3562 L
216.74 93.3562 L
216.74 82.625 LE
216.286 82.7966 LS
234.044 82.7966 L
234.044 93.482 L
216.286 93.482 L
216.286 82.7966 LE
215.835 82.9663 LS
233.524 82.9663 L
233.524 93.6064 L
215.835 93.6064 L
215.835 82.9663 LE
215.386 83.1345 LS
233.007 83.1345 L
233.007 93.7384 L
215.386 93.7384 L
215.386 83.1345 LE
214.939 83.3091 LS
232.492 83.3091 L
232.492 93.8685 L
214.939 93.8685 L
214.939 83.3091 LE
214.495 83.482 LS
231.98 83.482 L
231.98 93.9972 L
214.495 93.9972 L
214.495 83.482 LE
214.052 83.6532 LS
231.471 83.6532 L
231.471 94.1246 L
214.052 94.1246 L
214.052 83.6532 LE
213.612 83.8228 LS
230.965 83.8228 L
230.965 94.2507 L
213.612 94.2507 L
213.612 83.8228 LE
213.174 83.9907 LS
230.461 83.9907 L
230.461 94.3836 L
213.174 94.3836 L
213.174 83.9907 LE
212.739 84.1646 LS
229.96 84.1646 L
229.96 94.5148 L
212.739 94.5148 L
212.739 84.1646 LE
212.305 84.3367 LS
229.461 84.3367 L
229.461 94.6446 L
212.305 94.6446 L
212.305 84.3367 LE
211.874 84.5073 LS
228.965 84.5073 L
228.965 94.7732 L
211.874 94.7732 L
211.874 84.5073 LE
211.445 84.6763 LS
228.472 84.6763 L
228.472 94.9005 L
211.445 94.9005 L
211.445 84.6763 LE
211.018 84.8437 LS
227.981 84.8437 L
227.981 95.0342 L
211.018 95.0342 L
211.018 84.8437 LE
210.593 85.0163 LS
227.492 85.0163 L
227.492 95.1662 L
210.593 95.1662 L
210.593 85.0163 LE
210.17 85.1873 LS
227.006 85.1873 L
227.006 95.297 L
210.17 95.297 L
210.17 85.1873 LE
209.749 85.3568 LS
226.523 85.3568 L
226.523 95.4265 L
209.749 95.4265 L
209.749 85.3568 LE
209.33 85.5247 LS
226.042 85.5247 L
226.042 95.5548 L
209.33 95.5548 L
209.33 85.5247 LE
208.913 85.6911 LS
225.563 85.6911 L
225.563 95.6891 L
208.913 95.6891 L
208.913 85.6911 LE
208.498 85.8621 LS
225.086 85.8621 L
225.086 95.8218 L
208.498 95.8218 L
208.498 85.8621 LE
208.085 86.0316 LS
224.612 86.0316 L
224.612 95.9532 L
208.085 95.9532 L
208.085 86.0316 LE
207.674 86.1996 LS
224.141 86.1996 L
224.141 96.0835 L
207.674 96.0835 L
207.674 86.1996 LE
207.265 86.3661 LS
223.671 86.3661 L
223.671 96.2125 L
207.265 96.2125 L
207.265 86.3661 LE
206.858 86.5311 LS
223.204 86.5311 L
223.204 96.3473 L
206.858 96.3473 L
206.858 86.5311 LE
206.453 86.7002 LS
222.739 86.7002 L
222.739 96.4804 L
206.453 96.4804 L
206.453 86.7002 LE
206.05 86.8678 LS
222.276 86.8678 L
222.276 96.6123 L
206.05 96.6123 L
206.05 86.8678 LE
205.649 87.034 LS
221.816 87.034 L
221.816 96.7431 L
205.649 96.7431 L
205.649 87.034 LE
205.249 87.1987 LS
221.358 87.1987 L
221.358 96.8727 L
205.249 96.8727 L
205.249 87.1987 LE
204.851 87.3621 LS
220.902 87.3621 L
220.902 97.0078 L
204.851 97.0078 L
204.851 87.3621 LE
204.455 87.529 LS
220.448 87.529 L
220.448 97.1411 L
204.455 97.1411 L
204.455 87.529 LE
204.061 87.6946 LS
219.996 87.6946 L
219.996 97.2733 L
204.061 97.2733 L
204.061 87.6946 LE
203.669 87.8587 LS
219.547 87.8587 L
219.547 97.4044 L
203.669 97.4044 L
203.669 87.8587 LE
203.278 88.0215 LS
219.099 88.0215 L
219.099 97.5343 L
203.278 97.5343 L
203.278 88.0215 LE
202.89 88.1829 LS
218.654 88.1829 L
218.654 97.6695 L
202.89 97.6695 L
202.89 88.1829 LE
202.503 88.3475 LS
218.211 88.3475 L
218.211 97.8029 L
202.503 97.8029 L
202.503 88.3475 LE
202.117 88.5107 LS
217.77 88.5107 L
217.77 97.9352 L
202.117 97.9352 L
202.117 88.5107 LE
201.734 88.6726 LS
217.331 88.6726 L
217.331 98.0664 L
201.734 98.0664 L
201.734 88.6726 LE
201.352 88.8331 LS
216.894 88.8331 L
216.894 98.1965 L
201.352 98.1965 L
201.352 88.8331 LE
200.972 88.9923 LS
216.458 88.9923 L
216.458 98.3315 L
200.972 98.3315 L
200.972 88.9923 LE
200.593 89.1544 LS
216.025 89.1544 L
216.025 98.4647 L
200.593 98.4647 L
200.593 89.1544 LE
200.216 89.3152 LS
215.594 89.3152 L
215.594 98.5969 L
200.216 98.5969 L
200.216 89.3152 LE
199.841 89.4747 LS
215.165 89.4747 L
215.165 98.728 L
199.841 98.728 L
199.841 89.4747 LE
199.467 89.6328 LS
214.738 89.6328 L
214.738 98.8581 L
199.467 98.8581 L
199.467 89.6328 LE
199.096 89.7898 LS
214.313 89.7898 L
214.313 98.9926 L
199.096 98.9926 L
199.096 89.7898 LE
198.725 89.9493 LS
213.89 89.9493 L
213.89 99.1255 L
198.725 99.1255 L
198.725 89.9493 LE
198.357 90.1077 LS
213.468 90.1077 L
213.468 99.2573 L
198.357 99.2573 L
198.357 90.1077 LE
197.989 90.2647 LS
213.049 90.2647 L
213.049 99.3881 L
197.989 99.3881 L
197.989 90.2647 LE
197.624 90.4206 LS
212.631 90.4206 L
212.631 99.5178 L
197.624 99.5178 L
197.624 90.4206 LE
197.26 90.5751 LS
212.215 90.5751 L
212.215 99.6517 L
197.26 99.6517 L
197.26 90.5751 LE
196.897 90.7322 LS
211.802 90.7322 L
211.802 99.7838 L
196.897 99.7838 L
196.897 90.7322 LE
196.536 90.8881 LS
211.39 90.8881 L
211.39 99.9149 L
196.536 99.9149 L
196.536 90.8881 LE
196.177 91.0428 LS
210.979 91.0428 L
210.979 100.045 L
196.177 100.045 L
196.177 91.0428 LE
195.819 91.1962 LS
210.571 91.1962 L
210.571 100.174 L
195.819 100.174 L
195.819 91.1962 LE
195.462 91.3122 LS
210.165 91.3122 L
210.165 100.362 L
195.462 100.362 L
195.462 91.3122 LE
195.107 91.4114 LS
209.76 91.4114 L
209.76 100.549 L
195.107 100.549 L
195.107 91.4114 LE
194.753 91.5095 LS
209.358 91.5095 L
209.358 100.734 L
194.753 100.734 L
194.753 91.5095 LE
194.4 91.6065 LS
208.957 91.6065 L
208.957 100.919 L
194.4 100.919 L
194.4 91.6065 LE
194.049 91.7024 LS
208.558 91.7024 L
208.558 101.102 L
194.049 101.102 L
194.049 91.7024 LE
193.698 91.7972 LS
208.161 91.7972 L
208.161 101.293 L
193.698 101.293 L
193.698 91.7972 LE
193.35 91.9613 LS
207.766 91.9613 L
207.766 101.41 L
193.35 101.41 L
193.35 91.9613 LE
193.003 92.1244 LS
207.373 92.1244 L
207.373 101.527 L
193.003 101.527 L
193.003 92.1244 LE
192.657 92.2864 LS
206.981 92.2864 L
206.981 101.643 L
192.657 101.643 L
192.657 92.2864 LE
192.313 92.4471 LS
206.591 92.4471 L
206.591 101.758 L
192.313 101.758 L
192.313 92.4471 LE
191.97 92.5965 LS
206.203 92.5965 L
206.203 101.885 L
191.97 101.885 L
191.97 92.5965 LE
191.629 92.7482 LS
205.816 92.7482 L
205.816 102.011 L
191.629 102.011 L
191.629 92.7482 LE
191.288 92.8989 LS
205.431 92.8989 L
205.431 102.137 L
191.288 102.137 L
191.288 92.8989 LE
190.95 93.0484 LS
205.048 93.0484 L
205.048 102.261 L
190.95 102.261 L
190.95 93.0484 LE
190.613 93.1969 LS
204.666 93.1969 L
204.666 102.385 L
190.613 102.385 L
190.613 93.1969 LE
190.277 93.3443 LS
204.286 93.3443 L
204.286 102.506 L
190.277 102.506 L
190.277 93.3443 LE
189.942 93.4975 LS
203.907 93.4975 L
203.907 102.627 L
189.942 102.627 L
189.942 93.4975 LE
189.609 93.6495 LS
203.53 93.6495 L
203.53 102.747 L
189.609 102.747 L
189.609 93.6495 LE
189.277 93.8006 LS
203.155 93.8006 L
203.155 102.867 L
189.277 102.867 L
189.277 93.8006 LE
188.947 93.9506 LS
202.781 93.9506 L
202.781 102.985 L
188.947 102.985 L
188.947 93.9506 LE
188.618 94.0995 LS
202.408 94.0995 L
202.408 103.104 L
188.618 103.104 L
188.618 94.0995 LE
188.29 94.2506 LS
202.037 94.2506 L
202.037 103.223 L
188.29 103.223 L
188.29 94.2506 LE
187.963 94.4007 LS
201.668 94.4007 L
201.668 103.341 L
187.963 103.341 L
187.963 94.4007 LE
187.638 94.5497 LS
201.3 94.5497 L
201.3 103.458 L
187.638 103.458 L
187.638 94.5497 LE
187.314 94.6978 LS
200.934 94.6978 L
200.934 103.574 L
187.314 103.574 L
187.314 94.6978 LE
186.992 94.8448 LS
200.569 94.8448 L
200.569 103.691 L
186.992 103.691 L
186.992 94.8448 LE
186.671 94.9937 LS
200.205 94.9937 L
200.205 103.808 L
186.671 103.808 L
186.671 94.9937 LE
186.351 95.1416 LS
199.843 95.1416 L
199.843 103.924 L
186.351 103.924 L
186.351 95.1416 LE
186.032 95.2884 LS
199.483 95.2884 L
199.483 104.039 L
186.032 104.039 L
186.032 95.2884 LE
185.715 95.4343 LS
199.124 95.4343 L
199.124 104.153 L
185.715 104.153 L
185.715 95.4343 LE
185.398 95.5792 LS
198.766 95.5792 L
198.766 104.268 L
185.398 104.268 L
185.398 95.5792 LE
185.084 95.7258 LS
198.41 95.7258 L
198.41 104.382 L
185.084 104.382 L
185.084 95.7258 LE
184.77 95.8714 LS
198.055 95.8714 L
198.055 104.496 L
184.77 104.496 L
184.77 95.8714 LE
184.457 96.016 LS
197.701 96.016 L
197.701 104.61 L
184.457 104.61 L
184.457 96.016 LE
184.146 96.1597 LS
197.349 96.1597 L
197.349 104.722 L
184.146 104.722 L
184.146 96.1597 LE
183.836 96.3024 LS
196.999 96.3024 L
196.999 104.834 L
183.836 104.834 L
183.836 96.3024 LE
183.527 96.4464 LS
196.65 96.4464 L
196.65 104.947 L
183.527 104.947 L
183.527 96.4464 LE
183.22 96.5895 LS
196.302 96.5895 L
196.302 105.059 L
183.22 105.059 L
183.22 96.5895 LE
182.914 96.7316 LS
195.955 96.7316 L
195.955 105.171 L
182.914 105.171 L
182.914 96.7316 LE
182.608 96.8729 LS
195.61 96.8729 L
195.61 105.281 L
182.608 105.281 L
182.608 96.8729 LE
182.304 97.0131 LS
195.266 97.0131 L
195.266 105.393 L
182.304 105.393 L
182.304 97.0131 LE
182.002 97.1538 LS
194.924 97.1538 L
194.924 105.504 L
182.002 105.504 L
182.002 97.1538 LE
181.7 97.2936 LS
194.583 97.2936 L
194.583 105.615 L
181.7 105.615 L
181.7 97.2936 LE
181.399 97.4324 LS
194.243 97.4324 L
194.243 105.726 L
181.399 105.726 L
181.399 97.4324 LE
181.1 97.5703 LS
193.905 97.5703 L
193.905 105.835 L
181.1 105.835 L
181.1 97.5703 LE
180.802 97.7074 LS
193.568 97.7074 L
193.568 105.946 L
180.802 105.946 L
180.802 97.7074 LE
180.505 97.8438 LS
193.232 97.8438 L
193.232 106.058 L
180.505 106.058 L
180.505 97.8438 LE
180.209 97.9794 LS
192.897 97.9794 L
192.897 106.168 L
180.209 106.168 L
180.209 97.9794 LE
179.914 98.114 LS
192.564 98.114 L
192.564 106.278 L
179.914 106.278 L
179.914 98.114 LE
179.62 98.2478 LS
192.232 98.2478 L
192.232 106.387 L
179.62 106.387 L
179.62 98.2478 LE
179.328 98.3807 LS
191.901 98.3807 L
191.901 106.499 L
179.328 106.499 L
179.328 98.3807 LE
179.036 98.5119 LS
191.572 98.5119 L
191.572 106.611 L
179.036 106.611 L
179.036 98.5119 LE
178.746 98.6423 LS
191.244 98.6423 L
191.244 106.722 L
178.746 106.722 L
178.746 98.6423 LE
178.457 98.7718 LS
190.917 98.7718 L
190.917 106.833 L
178.457 106.833 L
178.457 98.7718 LE
178.168 98.9004 LS
190.591 98.9004 L
190.591 106.943 L
178.168 106.943 L
178.168 98.9004 LE
177.881 99.0281 LS
190.267 99.0281 L
190.267 107.053 L
177.881 107.053 L
177.881 99.0281 LE
177.595 99.1567 LS
189.944 99.1567 L
189.944 107.163 L
177.595 107.163 L
177.595 99.1567 LE
177.31 99.2845 LS
189.622 99.2845 L
189.622 107.272 L
177.31 107.272 L
177.31 99.2845 LE
177.026 99.4114 LS
189.301 99.4114 L
189.301 107.381 L
177.026 107.381 L
177.026 99.4114 LE
176.743 99.5374 LS
188.982 99.5374 L
188.982 107.489 L
176.743 107.489 L
176.743 99.5374 LE
176.461 99.6627 LS
188.664 99.6627 L
188.664 107.597 L
176.461 107.597 L
176.461 99.6627 LE
176.181 99.7887 LS
188.347 99.7887 L
188.347 107.705 L
176.181 107.705 L
176.181 99.7887 LE
175.901 99.9139 LS
188.031 99.9139 L
188.031 107.812 L
175.901 107.812 L
175.901 99.9139 LE
175.622 100.038 LS
187.716 100.038 L
187.716 107.918 L
175.622 107.918 L
175.622 100.038 LE
175.344 100.162 LS
187.403 100.162 L
187.403 108.024 L
175.344 108.024 L
175.344 100.162 LE
175.067 100.284 LS
187.09 100.284 L
187.09 108.131 L
175.067 108.131 L
175.067 100.284 LE
174.792 100.407 LS
186.779 100.407 L
186.779 108.238 L
174.792 108.238 L
174.792 100.407 LE
174.517 100.529 LS
186.469 100.529 L
186.469 108.344 L
174.517 108.344 L
174.517 100.529 LE
174.243 100.65 LS
186.161 100.65 L
186.161 108.449 L
174.243 108.449 L
174.243 100.65 LE
173.97 100.77 LS
185.853 100.77 L
185.853 108.554 L
173.97 108.554 L
173.97 100.77 LE
173.699 100.889 LS
185.547 100.889 L
185.547 108.66 L
173.699 108.66 L
173.699 100.889 LE
173.428 101.009 LS
185.241 101.009 L
185.241 108.765 L
173.428 108.765 L
173.428 101.009 LE
173.158 101.127 LS
184.937 101.127 L
184.937 108.87 L
173.158 108.87 L
173.158 101.127 LE
172.889 101.245 LS
184.634 101.245 L
184.634 108.974 L
172.889 108.974 L
172.889 101.245 LE
172.621 101.362 LS
184.332 101.362 L
184.332 109.077 L
172.621 109.077 L
172.621 101.362 LE
172.354 101.478 LS
184.031 101.478 L
184.031 109.181 L
172.354 109.181 L
172.354 101.478 LE
172.088 101.594 LS
183.732 101.594 L
183.732 109.285 L
172.088 109.285 L
172.088 101.594 LE
171.823 101.71 LS
183.433 101.71 L
183.433 109.388 L
171.823 109.388 L
171.823 101.71 LE
171.559 101.824 LS
183.136 101.824 L
183.136 109.49 L
171.559 109.49 L
171.559 101.824 LE
171.296 101.938 LS
182.839 101.938 L
182.839 109.592 L
171.296 109.592 L
171.296 101.938 LE
171.034 102.052 LS
182.544 102.052 L
182.544 109.689 L
171.034 109.689 L
171.034 102.052 LE
170.772 102.17 LS
182.25 102.17 L
182.25 109.785 L
170.772 109.785 L
170.772 102.17 LE
170.512 102.288 LS
181.957 102.288 L
181.957 109.881 L
170.512 109.881 L
170.512 102.288 LE
170.253 102.406 LS
181.665 102.406 L
181.665 109.976 L
170.253 109.976 L
170.253 102.406 LE
169.994 102.522 LS
181.374 102.522 L
181.374 110.07 L
169.994 110.07 L
169.994 102.522 LE
169.736 102.638 LS
181.084 102.638 L
181.084 110.164 L
169.736 110.164 L
169.736 102.638 LE
169.48 102.755 LS
180.795 102.755 L
180.795 110.258 L
169.48 110.258 L
169.48 102.755 LE
169.224 102.87 LS
180.507 102.87 L
180.507 110.352 L
169.224 110.352 L
169.224 102.87 LE
168.969 102.985 LS
180.22 102.985 L
180.22 110.444 L
168.969 110.444 L
168.969 102.985 LE
168.715 103.1 LS
179.934 103.1 L
179.934 110.536 L
168.715 110.536 L
168.715 103.1 LE
168.462 103.213 LS
179.65 103.213 L
179.65 110.628 L
168.462 110.628 L
168.462 103.213 LE
168.21 103.328 LS
179.366 103.328 L
179.366 110.719 L
168.21 110.719 L
168.21 103.328 LE
167.959 103.441 LS
179.083 103.441 L
179.083 110.809 L
167.959 110.809 L
167.959 103.441 LE
167.709 103.554 LS
178.801 103.554 L
178.801 110.899 L
167.709 110.899 L
167.709 103.554 LE
167.459 103.667 LS
178.521 103.667 L
178.521 110.989 L
167.459 110.989 L
167.459 103.667 LE
167.211 103.778 LS
178.241 103.778 L
178.241 111.077 L
167.211 111.077 L
167.211 103.778 LE
166.963 103.891 LS
177.962 103.891 L
177.962 111.165 L
166.963 111.165 L
166.963 103.891 LE
166.716 104.003 LS
177.684 104.003 L
177.684 111.253 L
166.716 111.253 L
166.716 104.003 LE
166.47 104.114 LS
177.408 104.114 L
177.408 111.34 L
166.47 111.34 L
166.47 104.114 LE
166.225 104.224 LS
177.132 104.224 L
177.132 111.426 L
166.225 111.426 L
166.225 104.224 LE
165.981 104.334 LS
176.857 104.334 L
176.857 111.512 L
165.981 111.512 L
165.981 104.334 LE
165.737 104.444 LS
176.583 104.444 L
176.583 111.598 L
165.737 111.598 L
165.737 104.444 LE
165.495 104.554 LS
176.31 104.554 L
176.31 111.683 L
165.495 111.683 L
165.495 104.554 LE
165.253 104.663 LS
176.038 104.663 L
176.038 111.767 L
165.253 111.767 L
165.253 104.663 LE
165.012 104.772 LS
175.767 104.772 L
175.767 111.851 L
165.012 111.851 L
165.012 104.772 LE
164.772 104.879 LS
175.497 104.879 L
175.497 111.935 L
164.772 111.935 L
164.772 104.879 LE
164.533 104.987 LS
175.228 104.987 L
175.228 112.019 L
164.533 112.019 L
164.533 104.987 LE
164.295 105.093 LS
174.96 105.093 L
174.96 112.102 L
164.295 112.102 L
164.295 105.093 LE
164.057 105.199 LS
174.693 105.199 L
174.693 112.184 L
164.057 112.184 L
164.057 105.199 LE
163.821 105.305 LS
174.426 105.305 L
174.426 112.267 L
163.821 112.267 L
163.821 105.305 LE
163.585 105.409 LS
174.161 105.409 L
174.161 112.348 L
163.585 112.348 L
163.585 105.409 LE
163.35 105.514 LS
173.896 105.514 L
173.896 112.43 L
163.35 112.43 L
163.35 105.514 LE
163.116 105.619 LS
173.633 105.619 L
173.633 112.51 L
163.116 112.51 L
163.116 105.619 LE
162.882 105.722 LS
173.37 105.722 L
173.37 112.591 L
162.882 112.591 L
162.882 105.722 LE
162.65 105.825 LS
173.108 105.825 L
173.108 112.671 L
162.65 112.671 L
162.65 105.825 LE
162.418 105.927 LS
172.848 105.927 L
172.848 112.75 L
162.418 112.75 L
162.418 105.927 LE
162.187 106.03 LS
172.588 106.03 L
172.588 112.829 L
162.187 112.829 L
162.187 106.03 LE
161.956 106.131 LS
172.329 106.131 L
172.329 112.908 L
161.956 112.908 L
161.956 106.131 LE
161.727 106.232 LS
172.071 106.232 L
172.071 112.987 L
161.727 112.987 L
161.727 106.232 LE
161.498 106.332 LS
171.813 106.332 L
171.813 113.064 L
161.498 113.064 L
161.498 106.332 LE
161.27 106.432 LS
171.557 106.432 L
171.557 113.14 L
161.27 113.14 L
161.27 106.432 LE
161.043 106.533 LS
171.301 106.533 L
171.301 113.216 L
161.043 113.216 L
161.043 106.533 LE
160.817 106.633 LS
171.047 106.633 L
171.047 113.291 L
160.817 113.291 L
160.817 106.633 LE
160.592 106.733 LS
170.793 106.733 L
170.793 113.366 L
160.592 113.366 L
160.592 106.733 LE
160.367 106.832 LS
170.54 106.832 L
170.54 113.44 L
160.367 113.44 L
160.367 106.832 LE
160.143 106.931 LS
170.288 106.931 L
170.288 113.514 L
160.143 113.514 L
160.143 106.931 LE
159.92 107.029 LS
170.037 107.029 L
170.037 113.588 L
159.92 113.588 L
159.92 107.029 LE
159.697 107.126 LS
169.786 107.126 L
169.786 113.662 L
159.697 113.662 L
159.697 107.126 LE
159.475 107.223 LS
169.537 107.223 L
169.537 113.735 L
159.475 113.735 L
159.475 107.223 LE
159.254 107.319 LS
169.288 107.319 L
169.288 113.807 L
159.254 113.807 L
159.254 107.319 LE
159.034 107.415 LS
169.041 107.415 L
169.041 113.88 L
159.034 113.88 L
159.034 107.415 LE
158.815 107.51 LS
168.794 107.51 L
168.794 113.952 L
158.815 113.952 L
158.815 107.51 LE
158.596 107.605 LS
168.547 107.605 L
168.547 114.024 L
158.596 114.024 L
158.596 107.605 LE
158.378 107.699 LS
168.302 107.699 L
168.302 114.096 L
158.378 114.096 L
158.378 107.699 LE
158.161 107.792 LS
168.058 107.792 L
168.058 114.166 L
158.161 114.166 L
158.161 107.792 LE
157.944 107.885 LS
167.814 107.885 L
167.814 114.237 L
157.944 114.237 L
157.944 107.885 LE
157.728 107.977 LS
167.571 107.977 L
167.571 114.308 L
157.728 114.308 L
157.728 107.977 LE
157.513 108.069 LS
167.329 108.069 L
167.329 114.379 L
157.513 114.379 L
157.513 108.069 LE
157.299 108.16 LS
167.088 108.16 L
167.088 114.448 L
157.299 114.448 L
157.299 108.16 LE
157.085 108.25 LS
166.848 108.25 L
166.848 114.518 L
157.085 114.518 L
157.085 108.25 LE
156.872 108.34 LS
166.608 108.34 L
166.608 114.587 L
156.872 114.587 L
156.872 108.34 LE
156.66 108.43 LS
166.369 108.43 L
166.369 114.657 L
156.66 114.657 L
156.66 108.43 LE
156.449 108.519 LS
166.131 108.519 L
166.131 114.726 L
156.449 114.726 L
156.449 108.519 LE
156.238 108.607 LS
165.894 108.607 L
165.894 114.794 L
156.238 114.794 L
156.238 108.607 LE
156.028 108.695 LS
165.658 108.695 L
165.658 114.862 L
156.028 114.862 L
156.028 108.695 LE
155.818 108.782 LS
165.422 108.782 L
165.422 114.93 L
155.818 114.93 L
155.818 108.782 LE
155.61 108.869 LS
165.187 108.869 L
165.187 114.998 L
155.61 114.998 L
155.61 108.869 LE
155.401 108.955 LS
164.953 108.955 L
164.953 115.065 L
155.401 115.065 L
155.401 108.955 LE
155.194 109.041 LS
164.72 109.041 L
164.72 115.132 L
155.194 115.132 L
155.194 109.041 LE
154.987 109.126 LS
164.487 109.126 L
164.487 115.199 L
154.987 115.199 L
154.987 109.126 LE
154.781 109.21 LS
164.256 109.21 L
164.256 115.266 L
154.781 115.266 L
154.781 109.21 LE
154.576 109.295 LS
164.025 109.295 L
164.025 115.332 L
154.576 115.332 L
154.576 109.295 LE
154.372 109.378 LS
163.795 109.378 L
163.795 115.398 L
154.372 115.398 L
154.372 109.378 LE
154.168 109.461 LS
163.565 109.461 L
163.565 115.464 L
154.168 115.464 L
154.168 109.461 LE
153.964 109.544 LS
163.336 109.544 L
163.336 115.529 L
153.964 115.529 L
153.964 109.544 LE
153.762 109.626 LS
163.109 109.626 L
163.109 115.594 L
153.762 115.594 L
153.762 109.626 LE
153.56 109.708 LS
162.881 109.708 L
162.881 115.66 L
153.56 115.66 L
153.56 109.708 LE
153.358 109.789 LS
162.655 109.789 L
162.655 115.724 L
153.358 115.724 L
153.358 109.789 LE
153.158 109.869 LS
162.429 109.869 L
162.429 115.788 L
153.158 115.788 L
153.158 109.869 LE
152.958 109.95 LS
162.204 109.95 L
162.204 115.852 L
152.958 115.852 L
152.958 109.95 LE
152.758 110.029 LS
161.98 110.029 L
161.98 115.916 L
152.758 115.916 L
152.758 110.029 LE
152.56 110.108 LS
161.757 110.108 L
161.757 115.98 L
152.56 115.98 L
152.56 110.108 LE
152.362 110.187 LS
161.534 110.187 L
161.534 116.044 L
152.362 116.044 L
152.362 110.187 LE
152.164 110.265 LS
161.312 110.265 L
161.312 116.106 L
152.164 116.106 L
152.164 110.265 LE
151.967 110.342 LS
161.091 110.342 L
161.091 116.169 L
151.967 116.169 L
151.967 110.342 LE
151.771 110.42 LS
160.87 110.42 L
160.87 116.232 L
151.771 116.232 L
151.771 110.42 LE
151.576 110.496 LS
160.651 110.496 L
160.651 116.294 L
151.576 116.294 L
151.576 110.496 LE
151.381 110.572 LS
160.431 110.572 L
160.431 116.356 L
151.381 116.356 L
151.381 110.572 LE
151.187 110.648 LS
160.213 110.648 L
160.213 116.418 L
151.187 116.418 L
151.187 110.648 LE
150.993 110.723 LS
159.995 110.723 L
159.995 116.479 L
150.993 116.479 L
150.993 110.723 LE
150.8 110.798 LS
159.778 110.798 L
159.778 116.541 L
150.8 116.541 L
150.8 110.798 LE
150.608 110.872 LS
159.562 110.872 L
159.562 116.602 L
150.608 116.602 L
150.608 110.872 LE
150.416 110.946 LS
159.347 110.946 L
159.347 116.663 L
150.416 116.663 L
150.416 110.946 LE
150.225 111.019 LS
159.132 111.019 L
159.132 116.723 L
150.225 116.723 L
150.225 111.019 LE
150.034 111.092 LS
158.918 111.092 L
158.918 116.783 L
150.034 116.783 L
150.034 111.092 LE
149.844 111.164 LS
158.704 111.164 L
158.704 116.841 L
149.844 116.841 L
149.844 111.164 LE
149.655 111.238 LS
158.491 111.238 L
158.491 116.898 L
149.655 116.898 L
149.655 111.238 LE
149.466 111.312 LS
158.279 111.312 L
158.279 116.955 L
149.466 116.955 L
149.466 111.312 LE
149.278 111.385 LS
158.068 111.385 L
158.068 117.012 L
149.278 117.012 L
149.278 111.385 LE
149.09 111.458 LS
157.857 111.458 L
157.857 117.068 L
149.09 117.068 L
149.09 111.458 LE
148.903 111.531 LS
157.647 111.531 L
157.647 117.124 L
148.903 117.124 L
148.903 111.531 LE
148.717 111.603 LS
157.438 111.603 L
157.438 117.181 L
148.717 117.181 L
148.717 111.603 LE
148.531 111.674 LS
157.229 111.674 L
157.229 117.236 L
148.531 117.236 L
148.531 111.674 LE
148.346 111.745 LS
157.021 111.745 L
157.021 117.292 L
148.346 117.292 L
148.346 111.745 LE
148.161 111.816 LS
156.814 111.816 L
156.814 117.347 L
148.161 117.347 L
148.161 111.816 LE
147.977 111.886 LS
156.607 111.886 L
156.607 117.401 L
147.977 117.401 L
147.977 111.886 LE
147.794 111.956 LS
156.401 111.956 L
156.401 117.456 L
147.794 117.456 L
147.794 111.956 LE
147.611 112.025 LS
156.196 112.025 L
156.196 117.511 L
147.611 117.511 L
147.611 112.025 LE
147.429 112.094 LS
155.991 112.094 L
155.991 117.564 L
147.429 117.564 L
147.429 112.094 LE
147.247 112.162 LS
155.787 112.162 L
155.787 117.618 L
147.247 117.618 L
147.247 112.162 LE
147.066 112.23 LS
155.583 112.23 L
155.583 117.672 L
147.066 117.672 L
147.066 112.23 LE
146.886 112.297 LS
155.381 112.297 L
155.381 117.726 L
146.886 117.726 L
146.886 112.297 LE
146.706 112.364 LS
155.179 112.364 L
155.179 117.779 L
146.706 117.779 L
146.706 112.364 LE
146.526 112.43 LS
154.977 112.43 L
154.977 117.832 L
146.526 117.832 L
146.526 112.43 LE
146.347 112.495 LS
154.776 112.495 L
154.776 117.885 L
146.347 117.885 L
146.347 112.495 LE
146.169 112.561 LS
154.576 112.561 L
154.576 117.937 L
146.169 117.937 L
146.169 112.561 LE
145.991 112.626 LS
154.376 112.626 L
154.376 117.99 L
145.991 117.99 L
145.991 112.626 LE
145.814 112.69 LS
154.178 112.69 L
154.178 118.042 L
145.814 118.042 L
145.814 112.69 LE
145.638 112.754 LS
153.979 112.754 L
153.979 118.094 L
145.638 118.094 L
145.638 112.754 LE
145.461 112.818 LS
153.781 112.818 L
153.781 118.145 L
145.461 118.145 L
145.461 112.818 LE
145.286 112.853 LS
153.585 112.853 L
153.585 118.229 L
145.286 118.229 L
145.286 112.853 LE
145.111 112.884 LS
153.388 112.884 L
153.388 118.312 L
145.111 118.312 L
145.111 112.884 LE
144.936 112.914 LS
153.192 112.914 L
153.192 118.395 L
144.936 118.395 L
144.936 112.914 LE
144.762 112.944 LS
152.997 112.944 L
152.997 118.477 L
144.762 118.477 L
144.762 112.944 LE
144.588 112.973 LS
152.803 112.973 L
152.803 118.559 L
144.588 118.559 L
144.588 112.973 LE
144.415 113.002 LS
152.609 113.002 L
152.609 118.642 L
144.415 118.642 L
144.415 113.002 LE
144.243 113.065 LS
152.416 113.065 L
152.416 118.689 L
144.243 118.689 L
144.243 113.065 LE
144.071 113.127 LS
152.224 113.127 L
152.224 118.736 L
144.071 118.736 L
144.071 113.127 LE
143.899 113.189 LS
152.032 113.189 L
152.032 118.783 L
143.899 118.783 L
143.899 113.189 LE
143.728 113.25 LS
151.84 113.25 L
151.84 118.829 L
143.728 118.829 L
143.728 113.25 LE
143.558 113.311 LS
151.65 113.311 L
151.65 118.878 L
143.558 118.878 L
143.558 113.311 LE
143.388 113.369 LS
151.459 113.369 L
151.459 118.927 L
143.388 118.927 L
143.388 113.369 LE
143.219 113.426 LS
151.27 113.426 L
151.27 118.975 L
143.219 118.975 L
143.219 113.426 LE
143.05 113.483 LS
151.081 113.483 L
151.081 119.023 L
143.05 119.023 L
143.05 113.483 LE
142.881 113.54 LS
150.893 113.54 L
150.893 119.071 L
142.881 119.071 L
142.881 113.54 LE
142.714 113.596 LS
150.705 113.596 L
150.705 119.114 L
142.714 119.114 L
142.714 113.596 LE
142.546 113.656 LS
150.518 113.656 L
150.518 119.157 L
142.546 119.157 L
142.546 113.656 LE
142.38 113.715 LS
150.331 113.715 L
150.331 119.2 L
142.38 119.2 L
142.38 113.715 LE
142.213 113.774 LS
150.145 113.774 L
150.145 119.243 L
142.213 119.243 L
142.213 113.774 LE
142.048 113.832 LS
149.96 113.832 L
149.96 119.285 L
142.048 119.285 L
142.048 113.832 LE
141.882 113.891 LS
149.775 113.891 L
149.775 119.326 L
141.882 119.326 L
141.882 113.891 LE
141.718 113.949 LS
149.59 113.949 L
149.59 119.368 L
141.718 119.368 L
141.718 113.949 LE
141.553 114.006 LS
149.407 114.006 L
149.407 119.409 L
141.553 119.409 L
141.553 114.006 LE
141.39 114.064 LS
149.223 114.064 L
149.223 119.449 L
141.39 119.449 L
141.39 114.064 LE
141.226 114.12 LS
149.041 114.12 L
149.041 119.49 L
141.226 119.49 L
141.226 114.12 LE
141.064 114.177 LS
148.859 114.177 L
148.859 119.529 L
141.064 119.529 L
141.064 114.177 LE
140.902 114.233 LS
148.677 114.233 L
148.677 119.569 L
140.902 119.569 L
140.902 114.233 LE
140.74 114.289 LS
148.496 114.289 L
148.496 119.608 L
140.74 119.608 L
140.74 114.289 LE
140.579 114.345 LS
148.316 114.345 L
148.316 119.647 L
140.579 119.647 L
140.579 114.345 LE
140.418 114.4 LS
148.136 114.4 L
148.136 119.685 L
140.418 119.685 L
140.418 114.4 LE
140.258 114.455 LS
147.957 114.455 L
147.957 119.723 L
140.258 119.723 L
140.258 114.455 LE
140.098 114.509 LS
147.778 114.509 L
147.778 119.761 L
140.098 119.761 L
140.098 114.509 LE
139.939 114.563 LS
147.6 114.563 L
147.6 119.798 L
139.939 119.798 L
139.939 114.563 LE
139.78 114.617 LS
147.422 114.617 L
147.422 119.836 L
139.78 119.836 L
139.78 114.617 LE
139.622 114.671 LS
147.245 114.671 L
147.245 119.872 L
139.622 119.872 L
139.622 114.671 LE
139.464 114.724 LS
147.068 114.724 L
147.068 119.908 L
139.464 119.908 L
139.464 114.724 LE
139.307 114.776 LS
146.892 114.776 L
146.892 119.945 L
139.307 119.945 L
139.307 114.776 LE
139.15 114.829 LS
146.717 114.829 L
146.717 119.98 L
139.15 119.98 L
139.15 114.829 LE
138.993 114.881 LS
146.542 114.881 L
146.542 120.016 L
138.993 120.016 L
138.993 114.881 LE
138.837 114.932 LS
146.367 114.932 L
146.367 120.051 L
138.837 120.051 L
138.837 114.932 LE
138.682 114.984 LS
146.193 114.984 L
146.193 120.085 L
138.682 120.085 L
138.682 114.984 LE
138.527 115.035 LS
146.02 115.035 L
146.02 120.12 L
138.527 120.12 L
138.527 115.035 LE
138.373 115.085 LS
145.847 115.085 L
145.847 120.154 L
138.373 120.154 L
138.373 115.085 LE
138.219 115.136 LS
145.675 115.136 L
145.675 120.188 L
138.219 120.188 L
138.219 115.136 LE
138.065 115.186 LS
145.503 115.186 L
145.503 120.222 L
138.065 120.222 L
138.065 115.186 LE
137.912 115.236 LS
145.331 115.236 L
145.331 120.254 L
137.912 120.254 L
137.912 115.236 LE
137.759 115.285 LS
145.161 115.285 L
145.161 120.288 L
137.759 120.288 L
137.759 115.285 LE
137.607 115.334 LS
144.99 115.334 L
144.99 120.32 L
137.607 120.32 L
137.607 115.334 LE
137.455 115.382 LS
144.821 115.382 L
144.821 120.353 L
137.455 120.353 L
137.455 115.382 LE
137.304 115.43 LS
144.651 115.43 L
144.651 120.385 L
137.304 120.385 L
137.304 115.43 LE
137.154 115.478 LS
144.482 115.478 L
144.482 120.416 L
137.154 120.416 L
137.154 115.478 LE
137.003 115.526 LS
144.314 115.526 L
144.314 120.448 L
137.003 120.448 L
137.003 115.526 LE
136.853 115.573 LS
144.146 115.573 L
144.146 120.479 L
136.853 120.479 L
136.853 115.573 LE
136.704 115.619 LS
143.979 115.619 L
143.979 120.51 L
136.704 120.51 L
136.704 115.619 LE
136.555 115.665 LS
143.812 115.665 L
143.812 120.541 L
136.555 120.541 L
136.555 115.665 LE
136.406 115.711 LS
143.646 115.711 L
143.646 120.571 L
136.406 120.571 L
136.406 115.711 LE
136.258 115.757 LS
143.48 115.757 L
143.48 120.602 L
136.258 120.602 L
136.258 115.757 LE
136.111 115.802 LS
143.315 115.802 L
143.315 120.632 L
136.111 120.632 L
136.111 115.802 LE
135.964 115.847 LS
143.15 115.847 L
143.15 120.662 L
135.964 120.662 L
135.964 115.847 LE
135.817 115.891 LS
142.986 115.891 L
142.986 120.691 L
135.817 120.691 L
135.817 115.891 LE
135.67 115.936 LS
142.822 115.936 L
142.822 120.72 L
135.67 120.72 L
135.67 115.936 LE
135.525 115.979 LS
142.659 115.979 L
142.659 120.749 L
135.525 120.749 L
135.525 115.979 LE
135.379 116.023 LS
142.496 116.023 L
142.496 120.778 L
135.379 120.778 L
135.379 116.023 LE
135.234 116.066 LS
142.333 116.066 L
142.333 120.807 L
135.234 120.807 L
135.234 116.066 LE
135.089 116.109 LS
142.172 116.109 L
142.172 120.835 L
135.089 120.835 L
135.089 116.109 LE
134.945 116.151 LS
142.01 116.151 L
142.01 120.863 L
134.945 120.863 L
134.945 116.151 LE
134.802 116.193 LS
141.849 116.193 L
141.849 120.891 L
134.802 120.891 L
134.802 116.193 LE
134.658 116.235 LS
141.689 116.235 L
141.689 120.919 L
134.658 120.919 L
134.658 116.235 LE
134.515 116.276 LS
141.529 116.276 L
141.529 120.946 L
134.515 120.946 L
134.515 116.276 LE
134.373 116.318 LS
141.369 116.318 L
141.369 120.973 L
134.373 120.973 L
134.373 116.318 LE
134.231 116.358 LS
141.21 116.358 L
141.21 121 L
134.231 121 L
134.231 116.358 LE
134.089 116.399 LS
141.052 116.399 L
141.052 121.027 L
134.089 121.027 L
134.089 116.399 LE
133.948 116.439 LS
140.894 116.439 L
140.894 121.053 L
133.948 121.053 L
133.948 116.439 LE
133.807 116.479 LS
140.736 116.479 L
140.736 121.079 L
133.807 121.079 L
133.807 116.479 LE
133.667 116.518 LS
140.579 116.518 L
140.579 121.105 L
133.667 121.105 L
133.667 116.518 LE
133.527 116.558 LS
140.422 116.558 L
140.422 121.131 L
133.527 121.131 L
133.527 116.558 LE
133.388 116.597 LS
140.266 116.597 L
140.266 121.157 L
133.388 121.157 L
133.388 116.597 LE
133.248 116.635 LS
140.11 116.635 L
140.11 121.182 L
133.248 121.182 L
133.248 116.635 LE
133.11 116.673 LS
139.955 116.673 L
139.955 121.207 L
133.11 121.207 L
133.11 116.673 LE
132.971 116.712 LS
139.8 116.712 L
139.8 121.232 L
132.971 121.232 L
132.971 116.712 LE
132.834 116.749 LS
139.645 116.749 L
139.645 121.257 L
132.834 121.257 L
132.834 116.749 LE
132.696 116.787 LS
139.491 116.787 L
139.491 121.281 L
132.696 121.281 L
132.696 116.787 LE
132.559 116.824 LS
139.338 116.824 L
139.338 121.306 L
132.559 121.306 L
132.559 116.824 LE
132.422 116.861 LS
139.185 116.861 L
139.185 121.33 L
132.422 121.33 L
132.422 116.861 LE
132.286 116.897 LS
139.032 116.897 L
139.032 121.354 L
132.286 121.354 L
132.286 116.897 LE
132.15 116.933 LS
138.88 116.933 L
138.88 121.377 L
132.15 121.377 L
132.15 116.933 LE
132.014 116.97 LS
138.728 116.97 L
138.728 121.401 L
132.014 121.401 L
132.014 116.97 LE
131.879 117.005 LS
138.577 117.005 L
138.577 121.424 L
131.879 121.424 L
131.879 117.005 LE
131.745 117.041 LS
138.426 117.041 L
138.426 121.447 L
131.745 121.447 L
131.745 117.041 LE
131.61 117.076 LS
138.276 117.076 L
138.276 121.47 L
131.61 121.47 L
131.61 117.076 LE
131.476 117.111 LS
138.126 117.111 L
138.126 121.493 L
131.476 121.493 L
131.476 117.111 LE
131.343 117.145 LS
137.976 117.145 L
137.976 121.516 L
131.343 121.516 L
131.343 117.145 LE
131.21 117.18 LS
137.827 117.18 L
137.827 121.538 L
131.21 121.538 L
131.21 117.18 LE
131.077 117.214 LS
137.678 117.214 L
137.678 121.56 L
131.077 121.56 L
131.077 117.214 LE
130.945 117.248 LS
137.53 117.248 L
137.53 121.582 L
130.945 121.582 L
130.945 117.248 LE
130.812 117.281 LS
137.382 117.281 L
137.382 121.604 L
130.812 121.604 L
130.812 117.281 LE
130.681 117.315 LS
137.235 117.315 L
137.235 121.626 L
130.681 121.626 L
130.681 117.315 LE
130.55 117.348 LS
137.088 117.348 L
137.088 121.647 L
130.55 121.647 L
130.55 117.348 LE
130.419 117.38 LS
136.941 117.38 L
136.941 121.668 L
130.419 121.668 L
130.419 117.38 LE
130.288 117.413 LS
136.795 117.413 L
136.795 121.689 L
130.288 121.689 L
130.288 117.413 LE
0 0 0 C
(Flowpipe for Ex. 3) 298.08 410.6 10 /Helvetica SBC
grestore
showpage
cleartomark
%%PageTrailer
%%Trailer
end
%%EOF
