%!PS-Adobe-3.0 EPSF-3.0
%%Title: glps_renderer figure
%%Creator: GL2PS 1.3.8, (C) 1999-2012 C. Geuzaine
%%For: Octave
%%CreationDate: Wed Mar 13 17:22:58 2019
%%LanguageLevel: 3
%%DocumentData: Clean7Bit
%%Pages: 1
%%BoundingBox: 0 0 576 433
%%EndComments
%%BeginProlog
/gl2psdict 64 dict def gl2psdict begin
0 setlinecap 0 setlinejoin
/tryPS3shading false def % set to false to force subdivision
/rThreshold 0.064 def % red component subdivision threshold
/gThreshold 0.034 def % green component subdivision threshold
/bThreshold 0.1 def % blue component subdivision threshold
/BD { bind def } bind def
/C  { setrgbcolor } BD
/G  { 0.082 mul exch 0.6094 mul add exch 0.3086 mul add neg 1.0 add setgray } BD
/W  { setlinewidth } BD
/FC { findfont exch /SH exch def SH scalefont setfont } BD
/SW { dup stringwidth pop } BD
/S  { FC moveto show } BD
/SBC{ FC moveto SW -2 div 0 rmoveto show } BD
/SBR{ FC moveto SW neg 0 rmoveto show } BD
/SCL{ FC moveto 0 SH -2 div rmoveto show } BD
/SCC{ FC moveto SW -2 div SH -2 div rmoveto show } BD
/SCR{ FC moveto SW neg SH -2 div rmoveto show } BD
/STL{ FC moveto 0 SH neg rmoveto show } BD
/STC{ FC moveto SW -2 div SH neg rmoveto show } BD
/STR{ FC moveto SW neg SH neg rmoveto show } BD
/FCT { FC translate 0 0 } BD
/SR  { gsave FCT moveto rotate show grestore } BD
/SBCR{ gsave FCT moveto rotate SW -2 div 0 rmoveto show grestore } BD
/SBRR{ gsave FCT moveto rotate SW neg 0 rmoveto show grestore } BD
/SCLR{ gsave FCT moveto rotate 0 SH -2 div rmoveto show grestore} BD
/SCCR{ gsave FCT moveto rotate SW -2 div SH -2 div rmoveto show grestore} BD
/SCRR{ gsave FCT moveto rotate SW neg SH -2 div rmoveto show grestore} BD
/STLR{ gsave FCT moveto rotate 0 SH neg rmoveto show grestore } BD
/STCR{ gsave FCT moveto rotate SW -2 div SH neg rmoveto show grestore } BD
/STRR{ gsave FCT moveto rotate SW neg SH neg rmoveto show grestore } BD
/P  { newpath 0.0 360.0 arc closepath fill } BD
/LS { newpath moveto } BD
/L  { lineto } BD
/LE { lineto stroke } BD
/T  { newpath moveto lineto lineto closepath fill } BD
/STshfill {
      /b1 exch def /g1 exch def /r1 exch def /y1 exch def /x1 exch def
      /b2 exch def /g2 exch def /r2 exch def /y2 exch def /x2 exch def
      /b3 exch def /g3 exch def /r3 exch def /y3 exch def /x3 exch def
      gsave << /ShadingType 4 /ColorSpace [/DeviceRGB]
      /DataSource [ 0 x1 y1 r1 g1 b1 0 x2 y2 r2 g2 b2 0 x3 y3 r3 g3 b3 ] >>
      shfill grestore } BD
/Tm { 3 -1 roll 8 -1 roll 13 -1 roll add add 3 div
      3 -1 roll 7 -1 roll 11 -1 roll add add 3 div
      3 -1 roll 6 -1 roll 9 -1 roll add add 3 div C T } BD
/STsplit {
      4 index 15 index add 0.5 mul
      4 index 15 index add 0.5 mul
      4 index 15 index add 0.5 mul
      4 index 15 index add 0.5 mul
      4 index 15 index add 0.5 mul
      5 copy 5 copy 25 15 roll
      9 index 30 index add 0.5 mul
      9 index 30 index add 0.5 mul
      9 index 30 index add 0.5 mul
      9 index 30 index add 0.5 mul
      9 index 30 index add 0.5 mul
      5 copy 5 copy 35 5 roll 25 5 roll 15 5 roll
      4 index 10 index add 0.5 mul
      4 index 10 index add 0.5 mul
      4 index 10 index add 0.5 mul
      4 index 10 index add 0.5 mul
      4 index 10 index add 0.5 mul
      5 copy 5 copy 40 5 roll 25 5 roll 15 5 roll 25 5 roll
      STnoshfill STnoshfill STnoshfill STnoshfill } BD
/STnoshfill {
      2 index 8 index sub abs rThreshold gt
      { STsplit }
      { 1 index 7 index sub abs gThreshold gt
        { STsplit }
        { dup 6 index sub abs bThreshold gt
          { STsplit }
          { 2 index 13 index sub abs rThreshold gt
            { STsplit }
            { 1 index 12 index sub abs gThreshold gt
              { STsplit }
              { dup 11 index sub abs bThreshold gt
                { STsplit }
                { 7 index 13 index sub abs rThreshold gt
                  { STsplit }
                  { 6 index 12 index sub abs gThreshold gt
                    { STsplit }
                    { 5 index 11 index sub abs bThreshold gt
                      { STsplit }
                      { Tm }
                      ifelse }
                    ifelse }
                  ifelse }
                ifelse }
              ifelse }
            ifelse }
          ifelse }
        ifelse }
      ifelse } BD
tryPS3shading
{ /shfill where
  { /ST { STshfill } BD }
  { /ST { STnoshfill } BD }
  ifelse }
{ /ST { STnoshfill } BD }
ifelse
end
%%EndProlog
%%BeginSetup
/DeviceRGB setcolorspace
gl2psdict begin
%%EndSetup
%%Page: 1 1
%%BeginPageSetup
%%EndPageSetup
mark
gsave
1.0 1.0 scale
1 1 1 C
74.88 400.6 521.28 48.52 74.88 48.52 T
74.88 400.6 521.28 400.6 521.28 48.52 T
0.5 W
[16 0] 0 setdash
0 0 0 C
74.88 48.52 LS
521.28 48.52 LE
74.88 400.6 LS
521.28 400.6 LE
74.88 48.52 LS
74.88 400.6 LE
521.28 48.52 LS
521.28 400.6 LE
74.88 48.52 LS
74.88 52.985 LE
74.88 400.6 LS
74.88 396.135 LE
164.16 48.52 LS
164.16 52.985 LE
164.16 400.6 LS
164.16 396.135 LE
253.44 48.52 LS
253.44 52.985 LE
253.44 400.6 LS
253.44 396.135 LE
342.72 48.52 LS
342.72 52.985 LE
342.72 400.6 LS
342.72 396.135 LE
432 48.52 LS
432 52.985 LE
432 400.6 LS
432 396.135 LE
521.28 48.52 LS
521.28 52.985 LE
521.28 400.6 LS
521.28 396.135 LE
(0) 74.88 43.5189 10 /Helvetica STC
(0.1) 164.16 43.5189 10 /Helvetica STC
(0.2) 253.44 43.5189 10 /Helvetica STC
(0.3) 342.72 43.5189 10 /Helvetica STC
(0.4) 432 43.5189 10 /Helvetica STC
(0.5) 521.28 43.5189 10 /Helvetica STC
74.88 48.52 LS
79.348 48.52 LE
521.28 48.52 LS
516.812 48.52 LE
74.88 118.936 LS
79.348 118.936 LE
521.28 118.936 LS
516.812 118.936 LE
74.88 189.352 LS
79.348 189.352 LE
521.28 189.352 LS
516.812 189.352 LE
74.88 259.768 LS
79.348 259.768 LE
521.28 259.768 LS
516.812 259.768 LE
74.88 330.184 LS
79.348 330.184 LE
521.28 330.184 LS
516.812 330.184 LE
74.88 400.6 LS
79.348 400.6 LE
521.28 400.6 LS
516.812 400.6 LE
(-0.4) 69.8755 48.52 10 /Helvetica SCR
(-0.3) 69.8755 118.936 10 /Helvetica SCR
(-0.2) 69.8755 189.352 10 /Helvetica SCR
(-0.1) 69.8755 259.768 10 /Helvetica SCR
(0) 69.8755 330.184 10 /Helvetica SCR
(0.1) 69.8755 400.6 10 /Helvetica SCR
[] 0 setdash
0.11 0.11 0.11 C
379.968 83.7279 LS
432 83.7279 L
432 124.206 L
379.968 124.206 L
379.968 83.7279 LE
373.199 87.9599 LS
425.622 87.9599 L
425.622 129.17 L
373.199 129.17 L
373.199 87.9599 LE
366.589 92.0129 LS
419.416 92.0129 L
419.416 133.87 L
366.589 133.87 L
366.589 92.0129 LE
360.119 95.8761 LS
413.382 95.8761 L
413.382 138.314 L
360.119 138.314 L
360.119 95.8761 LE
353.782 99.5472 LS
407.51 99.5472 L
407.51 142.497 L
353.782 142.497 L
353.782 99.5472 LE
347.573 103.024 LS
401.79 103.024 L
401.79 146.42 L
347.573 146.42 L
347.573 103.024 LE
341.485 106.305 LS
396.209 106.305 L
396.209 150.079 L
341.485 150.079 L
341.485 106.305 LE
335.512 109.388 LS
390.758 109.388 L
390.758 153.474 L
335.512 153.474 L
335.512 109.388 LE
329.649 112.271 LS
385.426 112.271 L
385.426 156.603 L
329.649 156.603 L
329.649 112.271 LE
323.89 114.953 LS
380.204 114.953 L
380.204 159.464 L
323.89 159.464 L
323.89 114.953 LE
318.23 117.432 LS
375.081 117.432 L
375.081 162.056 L
318.23 162.056 L
318.23 117.432 LE
312.664 119.781 LS
370.047 119.781 L
370.047 164.584 L
312.664 164.584 L
312.664 119.781 LE
307.193 122.072 LS
365.099 122.072 L
365.099 167.008 L
307.193 167.008 L
307.193 122.072 LE
301.813 124.305 LS
360.23 124.305 L
360.23 169.326 L
301.813 169.326 L
301.813 124.305 LE
296.521 126.479 LS
355.436 126.479 L
355.436 171.538 L
296.521 171.538 L
296.521 126.479 LE
291.315 128.594 LS
350.714 128.594 L
350.714 173.644 L
291.315 173.644 L
291.315 128.594 LE
286.193 130.65 LS
346.059 130.65 L
346.059 175.643 L
286.193 175.643 L
286.193 130.65 LE
281.152 132.644 LS
341.467 132.644 L
341.467 177.534 L
281.152 177.534 L
281.152 132.644 LE
276.19 134.579 LS
336.933 134.579 L
336.933 179.318 L
276.19 179.318 L
276.19 134.579 LE
271.304 136.451 LS
332.454 136.451 L
332.454 180.994 L
271.304 180.994 L
271.304 136.451 LE
266.492 138.262 LS
328.025 138.262 L
328.025 182.598 L
266.492 182.598 L
266.492 138.262 LE
261.754 140.048 LS
323.642 140.048 L
323.642 184.17 L
261.754 184.17 L
261.754 140.048 LE
257.088 141.844 LS
319.306 141.844 L
319.306 185.721 L
257.088 185.721 L
257.088 141.844 LE
252.494 143.651 LS
315.013 143.651 L
315.013 187.252 L
252.494 187.252 L
252.494 143.651 LE
247.971 145.469 LS
310.763 145.469 L
310.763 188.762 L
247.971 188.762 L
247.971 145.469 LE
243.518 147.297 LS
306.556 147.297 L
306.556 190.252 L
243.518 190.252 L
243.518 147.297 LE
239.135 149.135 LS
302.39 149.135 L
302.39 191.722 L
239.135 191.722 L
239.135 149.135 LE
234.82 150.984 LS
298.263 150.984 L
298.263 193.171 L
234.82 193.171 L
234.82 150.984 LE
230.574 152.842 LS
294.176 152.842 L
294.176 194.6 L
230.574 194.6 L
230.574 152.842 LE
226.395 154.711 LS
290.128 154.711 L
290.128 196.007 L
226.395 196.007 L
226.395 154.711 LE
222.283 156.59 LS
286.116 156.59 L
286.116 197.407 L
222.283 197.407 L
222.283 156.59 LE
218.237 158.484 LS
282.142 158.484 L
282.142 198.805 L
218.237 198.805 L
218.237 158.484 LE
214.258 160.402 LS
278.204 160.402 L
278.204 200.217 L
214.258 200.217 L
214.258 160.402 LE
210.344 162.342 LS
274.303 162.342 L
274.303 201.642 L
210.344 201.642 L
210.344 162.342 LE
206.496 164.304 LS
270.44 164.304 L
270.44 203.08 L
206.496 203.08 L
206.496 164.304 LE
202.713 166.289 LS
266.614 166.289 L
266.614 204.531 L
202.713 204.531 L
202.713 166.289 LE
198.995 168.296 LS
262.825 168.296 L
262.825 205.997 L
198.995 205.997 L
198.995 168.296 LE
195.341 170.325 LS
259.074 170.325 L
259.074 207.477 L
195.341 207.477 L
195.341 170.325 LE
191.752 172.376 LS
255.362 172.376 L
255.362 208.97 L
191.752 208.97 L
191.752 172.376 LE
188.227 174.45 LS
251.688 174.45 L
251.688 210.476 L
188.227 210.476 L
188.227 174.45 LE
184.767 176.545 LS
248.053 176.545 L
248.053 211.994 L
184.767 211.994 L
184.767 176.545 LE
181.37 178.663 LS
244.457 178.663 L
244.457 213.513 L
181.37 213.513 L
181.37 178.663 LE
178.036 180.803 LS
240.901 180.803 L
240.901 215.043 L
178.036 215.043 L
178.036 180.803 LE
174.767 182.966 LS
237.384 182.966 L
237.384 216.584 L
174.767 216.584 L
174.767 182.966 LE
171.561 185.152 LS
233.908 185.152 L
233.908 218.135 L
171.561 218.135 L
171.561 185.152 LE
168.418 187.361 LS
230.472 187.361 L
230.472 219.697 L
168.418 219.697 L
168.418 187.361 LE
165.339 189.591 LS
227.077 189.591 L
227.077 221.269 L
165.339 221.269 L
165.339 189.591 LE
162.324 191.845 LS
223.723 191.845 L
223.723 222.852 L
162.324 222.852 L
162.324 191.845 LE
159.371 194.12 LS
220.411 194.12 L
220.411 224.446 L
159.371 224.446 L
159.371 194.12 LE
156.482 196.418 LS
217.141 196.418 L
217.141 226.05 L
156.482 226.05 L
156.482 196.418 LE
153.657 198.737 LS
213.914 198.737 L
213.914 227.661 L
153.657 227.661 L
153.657 198.737 LE
150.894 201.069 LS
210.729 201.069 L
210.729 229.284 L
150.894 229.284 L
150.894 201.069 LE
148.193 203.403 LS
207.587 203.403 L
207.587 230.919 L
148.193 230.919 L
148.193 203.403 LE
145.555 205.739 LS
204.489 205.739 L
204.489 232.567 L
145.555 232.567 L
145.555 205.739 LE
142.978 208.077 LS
201.436 208.077 L
201.436 234.226 L
142.978 234.226 L
142.978 208.077 LE
140.45 209.955 LS
198.426 209.955 L
198.426 236.36 L
140.45 236.36 L
140.45 209.955 LE
137.981 211.743 LS
195.462 211.743 L
195.462 238.606 L
137.981 238.606 L
137.981 211.743 LE
135.572 213.548 LS
192.543 213.548 L
192.543 240.857 L
135.572 240.857 L
135.572 213.548 LE
133.224 215.37 LS
189.671 215.37 L
189.671 243.104 L
133.224 243.104 L
133.224 215.37 LE
130.936 217.208 LS
186.844 217.208 L
186.844 245.347 L
130.936 245.347 L
130.936 217.208 LE
128.707 219.062 LS
184.065 219.062 L
184.065 247.58 L
128.707 247.58 L
128.707 219.062 LE
126.537 220.931 LS
181.332 220.931 L
181.332 249.783 L
126.537 249.783 L
126.537 220.931 LE
124.426 222.812 LS
178.648 222.812 L
178.648 251.966 L
124.426 251.966 L
124.426 222.812 LE
122.373 224.706 LS
176.01 224.706 L
176.01 254.129 L
122.373 254.129 L
122.373 224.706 LE
120.379 226.612 LS
173.42 226.612 L
173.42 256.271 L
120.379 256.271 L
120.379 226.612 LE
118.441 228.53 LS
170.877 228.53 L
170.877 258.392 L
118.441 258.392 L
118.441 228.53 LE
116.562 230.461 LS
168.382 230.461 L
168.382 260.492 L
116.562 260.492 L
116.562 230.461 LE
114.737 232.327 LS
165.933 232.327 L
165.933 262.648 L
114.737 262.648 L
114.737 232.327 LE
112.967 234.156 LS
163.532 234.156 L
163.532 264.832 L
112.967 264.832 L
112.967 234.156 LE
111.254 236 LS
161.178 236 L
161.178 266.991 L
111.254 266.991 L
111.254 236 LE
109.596 237.859 LS
158.872 237.859 L
158.872 269.121 L
109.596 269.121 L
109.596 237.859 LE
107.994 239.725 LS
156.613 239.725 L
156.613 271.226 L
107.994 271.226 L
107.994 239.725 LE
106.447 241.584 LS
154.401 241.584 L
154.401 273.31 L
106.447 273.31 L
106.447 241.584 LE
104.952 243.433 LS
152.236 243.433 L
152.236 275.376 L
104.952 275.376 L
104.952 243.433 LE
103.511 245.28 LS
150.118 245.28 L
150.118 277.417 L
103.511 277.417 L
103.511 245.28 LE
102.123 247.125 LS
148.047 247.125 L
148.047 279.432 L
102.123 279.432 L
102.123 247.125 LE
100.786 248.967 LS
146.023 248.967 L
146.023 281.425 L
100.786 281.425 L
100.786 248.967 LE
99.5007 250.806 LS
144.045 250.806 L
144.045 283.394 L
99.5007 283.394 L
99.5007 250.806 LE
98.2657 252.642 LS
142.114 252.642 L
142.114 285.338 L
98.2657 285.338 L
98.2657 252.642 LE
97.0804 254.475 LS
140.229 254.475 L
140.229 287.256 L
97.0804 287.256 L
97.0804 254.475 LE
95.9442 256.305 LS
138.391 256.305 L
138.391 289.146 L
95.9442 289.146 L
95.9442 256.305 LE
94.8563 258.127 LS
136.599 258.127 L
136.599 291.001 L
94.8563 291.001 L
94.8563 258.127 LE
93.8155 259.919 LS
134.852 259.919 L
134.852 292.844 L
93.8155 292.844 L
93.8155 259.919 LE
92.8212 261.696 LS
133.152 261.696 L
133.152 294.661 L
92.8212 294.661 L
92.8212 261.696 LE
91.8728 263.46 LS
131.496 263.46 L
131.496 296.448 L
91.8728 296.448 L
91.8728 263.46 LE
90.9694 265.211 LS
129.886 265.211 L
129.886 298.205 L
90.9694 298.205 L
90.9694 265.211 LE
90.1103 266.95 LS
128.32 266.95 L
128.32 299.933 L
90.1103 299.933 L
90.1103 266.95 LE
89.2947 268.676 LS
126.799 268.676 L
126.799 301.632 L
89.2947 301.632 L
89.2947 268.676 LE
88.5218 270.388 LS
125.322 270.388 L
125.322 303.3 L
88.5218 303.3 L
88.5218 270.388 LE
87.7908 272.088 LS
123.888 272.088 L
123.888 304.939 L
87.7908 304.939 L
87.7908 272.088 LE
87.1009 273.775 LS
122.498 273.775 L
122.498 306.549 L
87.1009 306.549 L
87.1009 273.775 LE
86.4512 275.442 LS
121.151 275.442 L
121.151 308.125 L
86.4512 308.125 L
86.4512 275.442 LE
85.8406 277.086 LS
119.847 277.086 L
119.847 309.673 L
85.8406 309.673 L
85.8406 277.086 LE
85.2685 278.711 LS
118.585 278.711 L
118.585 311.188 L
85.2685 311.188 L
85.2685 278.711 LE
84.734 280.317 LS
117.365 280.317 L
117.365 312.672 L
84.734 312.672 L
84.734 280.317 LE
84.2362 281.903 LS
116.186 281.903 L
116.186 314.125 L
84.2362 314.125 L
84.2362 281.903 LE
83.7743 283.47 LS
115.048 283.47 L
115.048 315.546 L
83.7743 315.546 L
83.7743 283.47 LE
83.3474 285.017 LS
113.95 285.017 L
113.95 316.936 L
83.3474 316.936 L
83.3474 285.017 LE
82.9545 286.545 LS
112.893 286.545 L
112.893 318.294 L
82.9545 318.294 L
82.9545 286.545 LE
82.595 288.053 LS
111.875 288.053 L
111.875 319.62 L
82.595 319.62 L
82.595 288.053 LE
82.2675 289.532 LS
110.896 289.532 L
110.896 320.923 L
82.2675 320.923 L
82.2675 289.532 LE
81.9713 290.977 LS
109.955 290.977 L
109.955 322.202 L
81.9713 322.202 L
81.9713 290.977 LE
81.7057 292.401 LS
109.053 292.401 L
109.053 323.455 L
81.7057 323.455 L
81.7057 292.401 LE
81.4699 293.803 LS
108.188 293.803 L
108.188 324.673 L
81.4699 324.673 L
81.4699 293.803 LE
81.2631 295.184 LS
107.36 295.184 L
107.36 325.858 L
81.2631 325.858 L
81.2631 295.184 LE
81.0844 296.543 LS
106.568 296.543 L
106.568 327.012 L
81.0844 327.012 L
81.0844 296.543 LE
80.9329 297.881 LS
105.813 297.881 L
105.813 328.132 L
80.9329 328.132 L
80.9329 297.881 LE
80.8078 299.198 LS
105.092 299.198 L
105.092 329.218 L
80.8078 329.218 L
80.8078 299.198 LE
80.7083 300.492 LS
104.406 300.492 L
104.406 330.27 L
80.7083 330.27 L
80.7083 300.492 LE
80.6335 301.764 LS
103.765 301.764 L
103.765 331.29 L
80.6335 331.29 L
80.6335 301.764 LE
80.5825 303.013 LS
103.172 303.013 L
103.172 332.277 L
80.5825 332.277 L
80.5825 303.013 LE
80.5546 304.24 LS
102.611 304.24 L
102.611 333.225 L
80.5546 333.225 L
80.5546 304.24 LE
80.5489 305.445 LS
102.082 305.445 L
102.082 334.138 L
80.5489 334.138 L
80.5489 305.445 LE
80.4991 306.627 LS
101.649 306.627 L
101.649 335.018 L
80.4991 335.018 L
80.4991 306.627 LE
80.335 307.787 LS
101.382 307.787 L
101.382 335.87 L
80.335 335.87 L
80.335 307.787 LE
80.1977 308.925 LS
101.137 308.925 L
101.137 336.688 L
80.1977 336.688 L
80.1977 308.925 LE
80.0864 310.04 LS
100.914 310.04 L
100.914 337.473 L
80.0864 337.473 L
80.0864 310.04 LE
80.0002 311.127 LS
100.712 311.127 L
100.712 338.229 L
80.0002 338.229 L
80.0002 311.127 LE
79.9376 312.163 LS
100.532 312.163 L
100.532 338.98 L
79.9376 338.98 L
79.9376 312.163 LE
79.8987 313.177 LS
100.373 313.177 L
100.373 339.697 L
79.8987 339.697 L
79.8987 313.177 LE
79.8826 314.169 LS
100.232 314.169 L
100.232 340.38 L
79.8826 340.38 L
79.8826 314.169 LE
79.8886 315.141 LS
100.111 315.141 L
100.111 341.018 L
79.8886 341.018 L
79.8886 315.141 LE
79.9159 316.094 LS
100.007 316.094 L
100.007 341.618 L
79.9159 341.618 L
79.9159 316.094 LE
79.964 317.028 LS
99.9209 317.028 L
99.9209 342.183 L
79.964 342.183 L
79.964 317.028 LE
80.0319 317.944 LS
99.8515 317.944 L
99.8515 342.713 L
80.0319 342.713 L
80.0319 317.944 LE
80.119 318.841 LS
99.7979 318.841 L
99.7979 343.206 L
80.119 343.206 L
80.119 318.841 LE
80.2247 319.718 LS
99.7596 319.718 L
99.7596 343.663 L
80.2247 343.663 L
80.2247 319.718 LE
80.3481 320.576 LS
99.7359 320.576 L
99.7359 344.082 L
80.3481 344.082 L
80.3481 320.576 LE
80.4885 321.415 LS
99.726 321.415 L
99.726 344.464 L
80.4885 344.464 L
80.4885 321.415 LE
80.6452 322.236 LS
99.7291 322.236 L
99.7291 344.807 L
80.6452 344.807 L
80.6452 322.236 LE
80.8176 323.038 LS
99.7447 323.038 L
99.7447 345.113 L
80.8176 345.113 L
80.8176 323.038 LE
81.0048 323.821 LS
99.7719 323.821 L
99.7719 345.375 L
81.0048 345.375 L
81.0048 323.821 LE
81.2063 324.585 LS
99.8102 324.585 L
99.8102 345.603 L
81.2063 345.603 L
81.2063 324.585 LE
81.4211 325.313 LS
99.8594 325.313 L
99.8594 345.82 L
81.4211 345.82 L
81.4211 325.313 LE
81.6487 326.021 LS
99.9183 326.021 L
99.9183 346.005 L
81.6487 346.005 L
81.6487 326.021 LE
81.8889 326.709 LS
99.9862 326.709 L
99.9862 346.158 L
81.8889 346.158 L
81.8889 326.709 LE
82.1408 327.38 LS
100.062 327.38 L
100.062 346.277 L
82.1408 346.277 L
82.1408 327.38 LE
82.4039 328.031 LS
100.146 328.031 L
100.146 346.362 L
82.4039 346.362 L
82.4039 328.031 LE
82.6774 328.646 LS
100.237 328.646 L
100.237 346.414 L
82.6774 346.414 L
82.6774 328.646 LE
82.9606 329.237 LS
100.333 329.237 L
100.333 346.432 L
82.9606 346.432 L
82.9606 329.237 LE
83.2528 329.792 LS
100.436 329.792 L
100.436 346.437 L
83.2528 346.437 L
83.2528 329.792 LE
83.5493 330.328 LS
100.544 330.328 L
100.544 346.422 L
83.5493 346.422 L
83.5493 330.328 LE
83.8449 330.841 LS
100.656 330.841 L
100.656 346.387 L
83.8449 346.387 L
83.8449 330.841 LE
84.1485 331.329 LS
100.773 331.329 L
100.773 346.336 L
84.1485 346.336 L
84.1485 331.329 LE
84.4595 331.795 LS
100.893 331.795 L
100.893 346.265 L
84.4595 346.265 L
84.4595 331.795 LE
84.7773 332.24 LS
101.016 332.24 L
101.016 346.174 L
84.7773 346.174 L
84.7773 332.24 LE
85.1013 332.662 LS
101.143 332.662 L
101.143 346.064 L
85.1013 346.064 L
85.1013 332.662 LE
85.4309 333.048 LS
101.272 333.048 L
101.272 345.949 L
85.4309 345.949 L
85.4309 333.048 LE
85.7656 333.272 LS
101.406 333.272 L
101.406 345.954 L
85.7656 345.954 L
85.7656 333.272 LE
86.1047 333.447 LS
101.542 333.447 L
101.542 345.965 L
86.1047 345.965 L
86.1047 333.447 LE
86.4476 333.613 LS
101.68 333.613 L
101.68 345.949 L
86.4476 345.949 L
86.4476 333.613 LE
86.7938 333.772 LS
101.817 333.772 L
101.817 345.914 L
86.7938 345.914 L
86.7938 333.772 LE
87.1427 333.919 LS
101.955 333.919 L
101.955 345.863 L
87.1427 345.863 L
87.1427 333.919 LE
87.494 334.054 LS
102.093 334.054 L
102.093 345.796 L
87.494 345.796 L
87.494 334.054 LE
87.8471 334.178 LS
102.231 334.178 L
102.231 345.714 L
87.8471 345.714 L
87.8471 334.178 LE
88.2015 334.282 LS
102.369 334.282 L
102.369 345.622 L
88.2015 345.622 L
88.2015 334.282 LE
88.5569 334.339 LS
102.506 334.339 L
102.506 345.55 L
88.5569 345.55 L
88.5569 334.339 LE
88.9127 334.385 LS
102.643 334.385 L
102.643 345.46 L
88.9127 345.46 L
88.9127 334.385 LE
89.2685 334.42 LS
102.779 334.42 L
102.779 345.354 L
89.2685 345.354 L
89.2685 334.42 LE
89.6238 334.445 LS
102.913 334.445 L
102.913 345.23 L
89.6238 345.23 L
89.6238 334.445 LE
89.9782 334.463 LS
103.046 334.463 L
103.046 345.089 L
89.9782 345.089 L
89.9782 334.463 LE
90.3311 334.478 LS
103.177 334.478 L
103.177 344.938 L
90.3311 344.938 L
90.3311 334.478 LE
90.6824 334.487 LS
103.306 334.487 L
103.306 344.778 L
90.6824 344.778 L
90.6824 334.487 LE
91.0317 334.49 LS
103.433 334.49 L
103.433 344.608 L
91.0317 344.608 L
91.0317 334.49 LE
91.3788 334.487 LS
103.558 334.487 L
103.558 344.429 L
91.3788 344.429 L
91.3788 334.487 LE
91.7235 334.439 LS
103.682 334.439 L
103.682 344.279 L
91.7235 344.279 L
91.7235 334.439 LE
92.0653 334.383 LS
103.804 334.383 L
103.804 344.124 L
92.0653 344.124 L
92.0653 334.383 LE
92.4042 334.322 LS
103.923 334.322 L
103.923 343.957 L
92.4042 343.957 L
92.4042 334.322 LE
92.7397 334.257 LS
104.04 334.257 L
104.04 343.779 L
92.7397 343.779 L
92.7397 334.257 LE
93.0717 334.187 LS
104.154 334.187 L
104.154 343.59 L
93.0717 343.59 L
93.0717 334.187 LE
93.3999 334.117 LS
104.265 334.117 L
104.265 343.392 L
93.3999 343.392 L
93.3999 334.117 LE
93.724 334.044 LS
104.373 334.044 L
104.373 343.19 L
93.724 343.19 L
93.724 334.044 LE
94.0439 333.971 LS
104.478 333.971 L
104.478 342.985 L
94.0439 342.985 L
94.0439 333.971 LE
94.3595 333.895 LS
104.581 333.895 L
104.581 342.784 L
94.3595 342.784 L
94.3595 333.895 LE
94.6706 333.818 LS
104.681 333.818 L
104.681 342.578 L
94.6706 342.578 L
94.6706 333.818 LE
94.9771 333.713 LS
104.779 333.713 L
104.779 342.395 L
94.9771 342.395 L
94.9771 333.713 LE
95.279 333.608 LS
104.873 333.608 L
104.873 342.207 L
95.279 342.207 L
95.279 333.608 LE
95.5761 333.502 LS
104.965 333.502 L
104.965 342.013 L
95.5761 342.013 L
95.5761 333.502 LE
95.8682 333.393 LS
105.054 333.393 L
105.054 341.814 L
95.8682 341.814 L
95.8682 333.393 LE
96.1552 333.284 LS
105.14 333.284 L
105.14 341.61 L
96.1552 341.61 L
96.1552 333.284 LE
96.4371 333.177 LS
105.223 333.177 L
105.223 341.4 L
96.4371 341.4 L
96.4371 333.177 LE
96.7138 333.071 LS
105.303 333.071 L
105.303 341.187 L
96.7138 341.187 L
96.7138 333.071 LE
96.9851 332.968 LS
105.38 332.968 L
105.38 340.974 L
96.9851 340.974 L
96.9851 332.968 LE
97.2511 332.866 LS
105.455 332.866 L
105.455 340.759 L
97.2511 340.759 L
97.2511 332.866 LE
97.5118 332.765 LS
105.526 332.765 L
105.526 340.544 L
97.5118 340.544 L
97.5118 332.765 LE
97.7672 332.665 LS
105.595 332.665 L
105.595 340.329 L
97.7672 340.329 L
97.7672 332.665 LE
98.0172 332.567 LS
105.661 332.567 L
105.661 340.114 L
98.0172 340.114 L
98.0172 332.567 LE
98.2618 332.47 LS
105.725 332.47 L
105.725 339.897 L
98.2618 339.897 L
98.2618 332.47 LE
98.501 332.375 LS
105.785 332.375 L
105.785 339.68 L
98.501 339.68 L
98.501 332.375 LE
98.7349 332.281 LS
105.843 332.281 L
105.843 339.462 L
98.7349 339.462 L
98.7349 332.281 LE
98.9633 332.19 LS
105.899 332.19 L
105.899 339.243 L
98.9633 339.243 L
98.9633 332.19 LE
99.1864 332.102 LS
105.952 332.102 L
105.952 339.024 L
99.1864 339.024 L
99.1864 332.102 LE
99.4041 332.016 LS
106.003 332.016 L
106.003 338.808 L
99.4041 338.808 L
99.4041 332.016 LE
99.6165 331.933 LS
106.051 331.933 L
106.051 338.594 L
99.6165 338.594 L
99.6165 331.933 LE
99.8236 331.852 LS
106.097 331.852 L
106.097 338.382 L
99.8236 338.382 L
99.8236 331.852 LE
100.025 331.772 LS
106.141 331.772 L
106.141 338.172 L
100.025 338.172 L
100.025 331.772 LE
100.222 331.695 LS
106.182 331.695 L
106.182 337.965 L
100.222 337.965 L
100.222 331.695 LE
100.414 331.619 LS
106.222 331.619 L
106.222 337.76 L
100.414 337.76 L
100.414 331.619 LE
100.601 331.546 LS
106.259 331.546 L
106.259 337.557 L
100.601 337.557 L
100.601 331.546 LE
100.782 331.475 LS
106.295 331.475 L
106.295 337.356 L
100.782 337.356 L
100.782 331.475 LE
100.875 331.339 LS
106.414 331.339 L
106.414 337.219 L
100.875 337.219 L
100.875 331.339 LE
100.962 331.193 LS
106.532 331.193 L
106.532 337.092 L
100.962 337.092 L
100.962 331.193 LE
101.044 331.039 LS
106.649 331.039 L
106.649 336.979 L
101.044 336.979 L
101.044 331.039 LE
101.121 330.876 LS
106.765 330.876 L
106.765 336.881 L
101.121 336.881 L
101.121 330.876 LE
101.191 330.705 LS
106.881 330.705 L
106.881 336.797 L
101.191 336.797 L
101.191 330.705 LE
101.256 330.525 LS
106.997 330.525 L
106.997 336.734 L
101.256 336.734 L
101.256 330.525 LE
101.315 330.337 LS
107.113 330.337 L
107.113 336.691 L
101.315 336.691 L
101.315 330.337 LE
101.367 330.139 LS
107.231 330.139 L
107.231 336.663 L
101.367 336.663 L
101.367 330.139 LE
101.41 329.934 LS
107.349 329.934 L
107.349 336.649 L
101.41 336.649 L
101.41 329.934 LE
101.444 329.719 LS
107.468 329.719 L
107.468 336.649 L
101.444 336.649 L
101.444 329.719 LE
101.471 329.491 LS
107.589 329.491 L
107.589 336.669 L
101.471 336.669 L
101.471 329.491 LE
101.492 329.287 LS
107.712 329.287 L
107.712 336.67 L
101.492 336.67 L
101.492 329.287 LE
101.506 329.102 LS
107.835 329.102 L
107.835 336.658 L
101.506 336.658 L
101.506 329.102 LE
101.516 328.935 LS
107.958 328.935 L
107.958 336.634 L
101.516 336.634 L
101.516 328.935 LE
101.521 328.785 LS
108.081 328.785 L
108.081 336.597 L
101.521 336.597 L
101.521 328.785 LE
101.522 328.654 LS
108.203 328.654 L
108.203 336.547 L
101.522 336.547 L
101.522 328.654 LE
101.52 328.541 LS
108.325 328.541 L
108.325 336.485 L
101.52 336.485 L
101.52 328.541 LE
101.515 328.446 LS
108.444 328.446 L
108.444 336.411 L
101.515 336.411 L
101.515 328.446 LE
101.508 328.369 LS
108.561 328.369 L
108.561 336.324 L
101.508 336.324 L
101.508 328.369 LE
101.5 328.31 LS
108.676 328.31 L
108.676 336.225 L
101.5 336.225 L
101.5 328.31 LE
101.491 328.272 LS
108.787 328.272 L
108.787 336.11 L
101.491 336.11 L
101.491 328.272 LE
101.482 328.241 LS
108.895 328.241 L
108.895 335.993 L
101.482 335.993 L
101.482 328.241 LE
101.472 328.219 LS
108.999 328.219 L
108.999 335.871 L
101.472 335.871 L
101.472 328.219 LE
101.463 328.2 LS
109.1 328.2 L
109.1 335.751 L
101.463 335.751 L
101.463 328.2 LE
101.454 328.187 LS
109.197 328.187 L
109.197 335.63 L
101.454 335.63 L
101.454 328.187 LE
101.445 328.184 LS
109.289 328.184 L
109.289 335.504 L
101.445 335.504 L
101.445 328.184 LE
101.438 328.189 LS
109.378 328.189 L
109.378 335.375 L
101.438 335.375 L
101.438 328.189 LE
101.432 328.203 LS
109.462 328.203 L
109.462 335.241 L
101.432 335.241 L
101.432 328.203 LE
101.428 328.226 LS
109.541 328.226 L
109.541 335.103 L
101.428 335.103 L
101.428 328.226 LE
101.425 328.259 LS
109.616 328.259 L
109.616 334.96 L
101.425 334.96 L
101.425 328.259 LE
101.425 328.302 LS
109.686 328.302 L
109.686 334.811 L
101.425 334.811 L
101.425 328.302 LE
101.426 328.356 LS
109.751 328.356 L
109.751 334.655 L
101.426 334.655 L
101.426 328.356 LE
101.43 328.413 LS
109.812 328.413 L
109.812 334.5 L
101.43 334.5 L
101.43 328.413 LE
101.437 328.472 LS
109.867 328.472 L
109.867 334.346 L
101.437 334.346 L
101.437 328.472 LE
101.445 328.534 LS
109.918 328.534 L
109.918 334.193 L
101.445 334.193 L
101.445 328.534 LE
101.456 328.599 LS
109.964 328.599 L
109.964 334.041 L
101.456 334.041 L
101.456 328.599 LE
101.47 328.666 LS
110.006 328.666 L
110.006 333.89 L
101.47 333.89 L
101.47 328.666 LE
101.486 328.736 LS
110.043 328.736 L
110.043 333.74 L
101.486 333.74 L
101.486 328.736 LE
101.504 328.808 LS
110.076 328.808 L
110.076 333.591 L
101.504 333.591 L
101.504 328.808 LE
101.525 328.883 LS
110.104 328.883 L
110.104 333.444 L
101.525 333.444 L
101.525 328.883 LE
101.548 328.959 LS
110.128 328.959 L
110.128 333.297 L
101.548 333.297 L
101.548 328.959 LE
101.574 329.041 LS
110.147 329.041 L
110.147 333.149 L
101.574 333.149 L
101.574 329.041 LE
101.603 329.122 LS
110.162 329.122 L
110.162 333.003 L
101.603 333.003 L
101.603 329.122 LE
101.634 329.197 LS
110.174 329.197 L
110.174 332.866 L
101.634 332.866 L
101.634 329.197 LE
101.665 329.173 LS
110.184 329.173 L
110.184 332.832 L
101.665 332.832 L
101.665 329.173 LE
101.698 329.152 LS
110.19 329.152 L
110.19 332.796 L
101.698 332.796 L
101.698 329.152 LE
101.733 329.134 LS
110.192 329.134 L
110.192 332.76 L
101.733 332.76 L
101.733 329.134 LE
101.771 329.119 LS
110.191 329.119 L
110.191 332.723 L
101.771 332.723 L
101.771 329.119 LE
101.811 329.108 LS
110.187 329.108 L
110.187 332.686 L
101.811 332.686 L
101.811 329.108 LE
101.853 329.1 LS
110.179 329.1 L
110.179 332.647 L
101.853 332.647 L
101.853 329.1 LE
101.897 329.095 LS
110.167 329.095 L
110.167 332.608 L
101.897 332.608 L
101.897 329.095 LE
101.943 329.094 LS
110.153 329.094 L
110.153 332.567 L
101.943 332.567 L
101.943 329.094 LE
101.991 329.083 LS
110.136 329.083 L
110.136 332.538 L
101.991 332.538 L
101.991 329.083 LE
102.04 329.053 LS
110.117 329.053 L
110.117 332.529 L
102.04 332.529 L
102.04 329.053 LE
102.091 329.027 LS
110.095 329.027 L
110.095 332.518 L
102.091 332.518 L
102.091 329.027 LE
102.142 328.952 LS
110.071 328.952 L
110.071 332.558 L
102.142 332.558 L
102.142 328.952 LE
102.195 328.866 LS
110.046 328.866 L
110.046 332.611 L
102.195 332.611 L
102.195 328.866 LE
102.249 328.785 LS
110.018 328.785 L
110.018 332.66 L
102.249 332.66 L
102.249 328.785 LE
102.304 328.711 LS
109.988 328.711 L
109.988 332.704 L
102.304 332.704 L
102.304 328.711 LE
102.361 328.642 LS
109.956 328.642 L
109.956 332.745 L
102.361 332.745 L
102.361 328.642 LE
102.419 328.577 LS
109.922 328.577 L
109.922 332.783 L
102.419 332.783 L
102.419 328.577 LE
102.478 328.517 LS
109.886 328.517 L
109.886 332.817 L
102.478 332.817 L
102.478 328.517 LE
102.539 328.461 LS
109.848 328.461 L
109.848 332.848 L
102.539 332.848 L
102.539 328.461 LE
102.6 328.41 LS
109.809 328.41 L
109.809 332.875 L
102.6 332.875 L
102.6 328.41 LE
102.662 328.363 LS
109.768 328.363 L
109.768 332.899 L
102.662 332.899 L
102.662 328.363 LE
102.725 328.32 LS
109.726 328.32 L
109.726 332.921 L
102.725 332.921 L
102.725 328.32 LE
102.789 328.281 LS
109.682 328.281 L
109.682 332.939 L
102.789 332.939 L
102.789 328.281 LE
102.853 328.247 LS
109.638 328.247 L
109.638 332.954 L
102.853 332.954 L
102.853 328.247 LE
102.918 328.217 LS
109.592 328.217 L
109.592 332.965 L
102.918 332.965 L
102.918 328.217 LE
102.983 328.193 LS
109.546 328.193 L
109.546 332.973 L
102.983 332.973 L
102.983 328.193 LE
103.049 328.173 LS
109.498 328.173 L
109.498 332.976 L
103.049 332.976 L
103.049 328.173 LE
103.115 328.156 LS
109.45 328.156 L
109.45 332.977 L
103.115 332.977 L
103.115 328.156 LE
103.181 328.143 LS
109.402 328.143 L
109.402 332.975 L
103.181 332.975 L
103.181 328.143 LE
103.248 328.133 LS
109.353 328.133 L
109.353 332.971 L
103.248 332.971 L
103.248 328.133 LE
103.314 328.125 LS
109.303 328.125 L
109.303 332.964 L
103.314 332.964 L
103.314 328.125 LE
103.381 328.12 LS
109.254 328.12 L
109.254 332.956 L
103.381 332.956 L
103.381 328.12 LE
103.447 328.117 LS
109.203 328.117 L
109.203 332.946 L
103.447 332.946 L
103.447 328.117 LE
103.513 328.117 LS
109.153 328.117 L
109.153 332.933 L
103.513 332.933 L
103.513 328.117 LE
103.579 328.121 LS
109.103 328.121 L
109.103 332.918 L
103.579 332.918 L
103.579 328.121 LE
103.645 328.128 LS
109.052 328.128 L
109.052 332.9 L
103.645 332.9 L
103.645 328.128 LE
103.71 328.139 LS
109.002 328.139 L
109.002 332.878 L
103.71 332.878 L
103.71 328.139 LE
103.775 328.152 LS
108.952 328.152 L
108.952 332.855 L
103.775 332.855 L
103.775 328.152 LE
103.84 328.166 LS
108.902 328.166 L
108.902 332.83 L
103.84 332.83 L
103.84 328.166 LE
103.904 328.183 LS
108.852 328.183 L
108.852 332.804 L
103.904 332.804 L
103.904 328.183 LE
103.967 328.2 LS
108.802 328.2 L
108.802 332.777 L
103.967 332.777 L
103.967 328.2 LE
104.03 328.218 LS
108.753 328.218 L
108.753 332.75 L
104.03 332.75 L
104.03 328.218 LE
104.092 328.236 LS
108.704 328.236 L
108.704 332.722 L
104.092 332.722 L
104.092 328.236 LE
104.154 328.256 LS
108.656 328.256 L
108.656 332.694 L
104.154 332.694 L
104.154 328.256 LE
104.215 328.277 LS
108.608 328.277 L
108.608 332.664 L
104.215 332.664 L
104.215 328.277 LE
104.275 328.301 LS
108.561 328.301 L
108.561 332.633 L
104.275 332.633 L
104.275 328.301 LE
104.335 328.326 LS
108.514 328.326 L
108.514 332.599 L
104.335 332.599 L
104.335 328.326 LE
104.393 328.354 LS
108.468 328.354 L
108.468 332.564 L
104.393 332.564 L
104.393 328.354 LE
104.451 328.382 LS
108.422 328.382 L
108.422 332.528 L
104.451 332.528 L
104.451 328.382 LE
104.508 328.41 LS
108.377 328.41 L
108.377 332.492 L
104.508 332.492 L
104.508 328.41 LE
104.564 328.44 LS
108.333 328.44 L
108.333 332.455 L
104.564 332.455 L
104.564 328.44 LE
104.62 328.469 LS
108.29 328.469 L
108.29 332.419 L
104.62 332.419 L
104.62 328.469 LE
104.674 328.498 LS
108.247 328.498 L
108.247 332.383 L
104.674 332.383 L
104.674 328.498 LE
104.727 328.528 LS
108.205 328.528 L
108.205 332.346 L
104.727 332.346 L
104.727 328.528 LE
104.78 328.559 LS
108.163 328.559 L
108.163 332.308 L
104.78 332.308 L
104.78 328.559 LE
104.831 328.59 LS
108.123 328.59 L
108.123 332.27 L
104.831 332.27 L
104.831 328.59 LE
104.882 328.623 LS
108.083 328.623 L
108.083 332.231 L
104.882 332.231 L
104.882 328.623 LE
104.931 328.656 LS
108.044 328.656 L
108.044 332.191 L
104.931 332.191 L
104.931 328.656 LE
104.98 328.689 LS
108.006 328.689 L
108.006 332.151 L
104.98 332.151 L
104.98 328.689 LE
105.028 328.723 LS
107.969 328.723 L
107.969 332.111 L
105.028 332.111 L
105.028 328.723 LE
105.074 328.756 LS
107.932 328.756 L
107.932 332.071 L
105.074 332.071 L
105.074 328.756 LE
105.12 328.789 LS
107.896 328.789 L
107.896 332.032 L
105.12 332.032 L
105.12 328.789 LE
105.165 328.822 LS
107.862 328.822 L
107.862 331.993 L
105.165 331.993 L
105.165 328.822 LE
105.208 328.855 LS
107.827 328.855 L
107.827 331.953 L
105.208 331.953 L
105.208 328.855 LE
105.251 328.888 LS
107.794 328.888 L
107.794 331.914 L
105.251 331.914 L
105.251 328.888 LE
105.293 328.921 LS
107.762 328.921 L
107.762 331.875 L
105.293 331.875 L
105.293 328.921 LE
105.334 328.954 LS
107.73 328.954 L
107.73 331.836 L
105.334 331.836 L
105.334 328.954 LE
105.373 328.988 LS
107.699 328.988 L
107.699 331.796 L
105.373 331.796 L
105.373 328.988 LE
105.412 329.021 LS
107.67 329.021 L
107.67 331.758 L
105.412 331.758 L
105.412 329.021 LE
105.45 329.053 LS
107.64 329.053 L
107.64 331.719 L
105.45 331.719 L
105.45 329.053 LE
105.487 329.085 LS
107.612 329.085 L
107.612 331.681 L
105.487 331.681 L
105.487 329.085 LE
105.523 329.116 LS
107.585 329.116 L
107.585 331.644 L
105.523 331.644 L
105.523 329.116 LE
105.558 329.147 LS
107.558 329.147 L
107.558 331.608 L
105.558 331.608 L
105.558 329.147 LE
105.592 329.177 LS
107.532 329.177 L
107.532 331.572 L
105.592 331.572 L
105.592 329.177 LE
105.625 329.206 LS
107.507 329.206 L
107.507 331.537 L
105.625 331.537 L
105.625 329.206 LE
105.658 329.236 LS
107.482 329.236 L
107.482 331.502 L
105.658 331.502 L
105.658 329.236 LE
105.689 329.265 LS
107.458 329.265 L
107.458 331.467 L
105.689 331.467 L
105.689 329.265 LE
105.72 329.293 LS
107.435 329.293 L
107.435 331.433 L
105.72 331.433 L
105.72 329.293 LE
105.75 329.322 LS
107.413 329.322 L
107.413 331.399 L
105.75 331.399 L
105.75 329.322 LE
105.778 329.349 LS
107.391 329.349 L
107.391 331.366 L
105.778 331.366 L
105.778 329.349 LE
105.806 329.376 LS
107.37 329.376 L
107.37 331.334 L
105.806 331.334 L
105.806 329.376 LE
105.834 329.402 LS
107.35 329.402 L
107.35 331.302 L
105.834 331.302 L
105.834 329.402 LE
105.86 329.428 LS
107.331 329.428 L
107.331 331.271 L
105.86 331.271 L
105.86 329.428 LE
105.886 329.453 LS
107.312 329.453 L
107.312 331.241 L
105.886 331.241 L
105.886 329.453 LE
105.911 329.478 LS
107.293 329.478 L
107.293 331.211 L
105.911 331.211 L
105.911 329.478 LE
105.935 329.502 LS
107.276 329.502 L
107.276 331.182 L
105.935 331.182 L
105.935 329.502 LE
105.958 329.525 LS
107.259 329.525 L
107.259 331.153 L
105.958 331.153 L
105.958 329.525 LE
105.981 329.548 LS
107.242 329.548 L
107.242 331.125 L
105.981 331.125 L
105.981 329.548 LE
106.003 329.571 LS
107.226 329.571 L
107.226 331.098 L
106.003 331.098 L
106.003 329.571 LE
106.024 329.593 LS
107.211 329.593 L
107.211 331.071 L
106.024 331.071 L
106.024 329.593 LE
106.045 329.614 LS
107.196 329.614 L
107.196 331.045 L
106.045 331.045 L
106.045 329.614 LE
106.065 329.634 LS
107.182 329.634 L
107.182 331.019 L
106.065 331.019 L
106.065 329.634 LE
106.085 329.654 LS
107.168 329.654 L
107.168 330.995 L
106.085 330.995 L
106.085 329.654 LE
106.103 329.674 LS
107.154 329.674 L
107.154 330.971 L
106.103 330.971 L
106.103 329.674 LE
106.121 329.692 LS
107.142 329.692 L
107.142 330.947 L
106.121 330.947 L
106.121 329.692 LE
106.139 329.711 LS
107.129 329.711 L
107.129 330.925 L
106.139 330.925 L
106.139 329.711 LE
106.156 329.728 LS
107.117 329.728 L
107.117 330.902 L
106.156 330.902 L
106.156 329.728 LE
106.173 329.746 LS
107.106 329.746 L
107.106 330.881 L
106.173 330.881 L
106.173 329.746 LE
106.188 329.762 LS
107.095 329.762 L
107.095 330.86 L
106.188 330.86 L
106.188 329.762 LE
106.204 329.778 LS
107.084 329.778 L
107.084 330.839 L
106.204 330.839 L
106.204 329.778 LE
106.219 329.794 LS
107.074 329.794 L
107.074 330.82 L
106.219 330.82 L
106.219 329.794 LE
106.233 329.809 LS
107.064 329.809 L
107.064 330.8 L
106.233 330.8 L
106.233 329.809 LE
106.247 329.823 LS
107.055 329.823 L
107.055 330.782 L
106.247 330.782 L
106.247 329.823 LE
106.261 329.837 LS
107.046 329.837 L
107.046 330.764 L
106.261 330.764 L
106.261 329.837 LE
106.274 329.851 LS
107.037 329.851 L
107.037 330.746 L
106.274 330.746 L
106.274 329.851 LE
106.286 329.864 LS
107.028 329.864 L
107.028 330.729 L
106.286 330.729 L
106.286 329.864 LE
106.298 329.877 LS
107.02 329.877 L
107.02 330.713 L
106.298 330.713 L
106.298 329.877 LE
106.31 329.889 LS
107.013 329.889 L
107.013 330.697 L
106.31 330.697 L
106.31 329.889 LE
106.321 329.9 LS
107.005 329.9 L
107.005 330.682 L
106.321 330.682 L
106.321 329.9 LE
106.332 329.912 LS
106.998 329.912 L
106.998 330.667 L
106.332 330.667 L
106.332 329.912 LE
106.343 329.922 LS
106.991 329.922 L
106.991 330.652 L
106.343 330.652 L
106.343 329.922 LE
106.353 329.933 LS
106.984 329.933 L
106.984 330.639 L
106.353 330.639 L
106.353 329.933 LE
106.363 329.943 LS
106.978 329.943 L
106.978 330.625 L
106.363 330.625 L
106.363 329.943 LE
106.373 329.952 LS
106.972 329.952 L
106.972 330.612 L
106.373 330.612 L
106.373 329.952 LE
106.382 329.961 LS
106.966 329.961 L
106.966 330.6 L
106.382 330.6 L
106.382 329.961 LE
106.391 329.97 LS
106.96 329.97 L
106.96 330.588 L
106.391 330.588 L
106.391 329.97 LE
106.4 329.979 LS
106.954 329.979 L
106.954 330.576 L
106.4 330.576 L
106.4 329.979 LE
106.408 329.987 LS
106.949 329.987 L
106.949 330.565 L
106.408 330.565 L
106.408 329.987 LE
106.416 329.995 LS
106.944 329.995 L
106.944 330.554 L
106.416 330.554 L
106.416 329.995 LE
106.424 330.002 LS
106.939 330.002 L
106.939 330.544 L
106.424 330.544 L
106.424 330.002 LE
106.432 330.009 LS
106.934 330.009 L
106.934 330.534 L
106.432 330.534 L
106.432 330.009 LE
106.439 330.016 LS
106.93 330.016 L
106.93 330.524 L
106.439 330.524 L
106.439 330.016 LE
106.446 330.022 LS
106.926 330.022 L
106.926 330.515 L
106.446 330.515 L
106.446 330.022 LE
106.453 330.029 LS
106.921 330.029 L
106.921 330.506 L
106.453 330.506 L
106.453 330.029 LE
106.46 330.035 LS
106.917 330.035 L
106.917 330.498 L
106.46 330.498 L
106.46 330.035 LE
106.466 330.04 LS
106.913 330.04 L
106.913 330.489 L
106.466 330.489 L
106.466 330.04 LE
106.472 330.046 LS
106.91 330.046 L
106.91 330.481 L
106.472 330.481 L
106.472 330.046 LE
106.478 330.051 LS
106.906 330.051 L
106.906 330.474 L
106.478 330.474 L
106.478 330.051 LE
106.484 330.056 LS
106.902 330.056 L
106.902 330.466 L
106.484 330.466 L
106.484 330.056 LE
106.49 330.061 LS
106.899 330.061 L
106.899 330.459 L
106.49 330.459 L
106.49 330.061 LE
106.495 330.065 LS
106.896 330.065 L
106.896 330.452 L
106.495 330.452 L
106.495 330.065 LE
106.501 330.07 LS
106.893 330.07 L
106.893 330.446 L
106.501 330.446 L
106.501 330.07 LE
106.506 330.074 LS
106.89 330.074 L
106.89 330.439 L
106.506 330.439 L
106.506 330.074 LE
106.511 330.078 LS
106.887 330.078 L
106.887 330.433 L
106.511 330.433 L
106.511 330.078 LE
106.516 330.081 LS
106.884 330.081 L
106.884 330.428 L
106.516 330.428 L
106.516 330.081 LE
106.52 330.085 LS
106.881 330.085 L
106.881 330.422 L
106.52 330.422 L
106.52 330.085 LE
106.525 330.088 LS
106.878 330.088 L
106.878 330.417 L
106.525 330.417 L
106.525 330.088 LE
106.529 330.092 LS
106.876 330.092 L
106.876 330.411 L
106.529 330.411 L
106.529 330.092 LE
106.534 330.095 LS
106.873 330.095 L
106.873 330.406 L
106.534 330.406 L
106.534 330.095 LE
106.538 330.098 LS
106.871 330.098 L
106.871 330.402 L
106.538 330.402 L
106.538 330.098 LE
106.542 330.1 LS
106.868 330.1 L
106.868 330.397 L
106.542 330.397 L
106.542 330.1 LE
106.546 330.103 LS
106.866 330.103 L
106.866 330.393 L
106.546 330.393 L
106.546 330.103 LE
106.55 330.106 LS
106.864 330.106 L
106.864 330.388 L
106.55 330.388 L
106.55 330.106 LE
106.553 330.108 LS
106.862 330.108 L
106.862 330.384 L
106.553 330.384 L
106.553 330.108 LE
106.557 330.11 LS
106.859 330.11 L
106.859 330.381 L
106.557 330.381 L
106.557 330.11 LE
106.561 330.113 LS
106.857 330.113 L
106.857 330.377 L
106.561 330.377 L
106.561 330.113 LE
106.564 330.115 LS
106.855 330.115 L
106.855 330.373 L
106.564 330.373 L
106.564 330.115 LE
106.567 330.117 LS
106.853 330.117 L
106.853 330.37 L
106.567 330.37 L
106.567 330.117 LE
106.571 330.119 LS
106.851 330.119 L
106.851 330.366 L
106.571 330.366 L
106.571 330.119 LE
106.574 330.121 LS
106.85 330.121 L
106.85 330.363 L
106.574 330.363 L
106.574 330.121 LE
106.577 330.122 LS
106.848 330.122 L
106.848 330.36 L
106.577 330.36 L
106.577 330.122 LE
106.58 330.124 LS
106.846 330.124 L
106.846 330.357 L
106.58 330.357 L
106.58 330.124 LE
106.583 330.125 LS
106.844 330.125 L
106.844 330.354 L
106.583 330.354 L
106.583 330.125 LE
106.586 330.127 LS
106.842 330.127 L
106.842 330.351 L
106.586 330.351 L
106.586 330.127 LE
106.589 330.128 LS
106.841 330.128 L
106.841 330.349 L
106.589 330.349 L
106.589 330.128 LE
106.592 330.13 LS
106.839 330.13 L
106.839 330.346 L
106.592 330.346 L
106.592 330.13 LE
106.59 330.126 LS
106.842 330.126 L
106.842 330.349 L
106.59 330.349 L
106.59 330.126 LE
106.588 330.122 LS
106.845 330.122 L
106.845 330.352 L
106.588 330.352 L
106.588 330.122 LE
106.586 330.116 LS
106.848 330.116 L
106.848 330.356 L
106.586 330.356 L
106.586 330.116 LE
106.583 330.111 LS
106.852 330.111 L
106.852 330.361 L
106.583 330.361 L
106.583 330.111 LE
106.581 330.104 LS
106.855 330.104 L
106.855 330.366 L
106.581 330.366 L
106.581 330.104 LE
106.578 330.097 LS
106.859 330.097 L
106.859 330.373 L
106.578 330.373 L
106.578 330.097 LE
106.575 330.089 LS
106.862 330.089 L
106.862 330.38 L
106.575 330.38 L
106.575 330.089 LE
106.572 330.08 LS
106.866 330.08 L
106.866 330.388 L
106.572 330.388 L
106.572 330.08 LE
106.569 330.07 LS
106.871 330.07 L
106.871 330.396 L
106.569 330.396 L
106.569 330.07 LE
106.566 330.06 LS
106.875 330.06 L
106.875 330.406 L
106.566 330.406 L
106.566 330.06 LE
106.562 330.049 LS
106.88 330.049 L
106.88 330.416 L
106.562 330.416 L
106.562 330.049 LE
106.558 330.039 LS
106.885 330.039 L
106.885 330.425 L
106.558 330.425 L
106.558 330.039 LE
106.553 330.03 LS
106.89 330.03 L
106.89 330.433 L
106.553 330.433 L
106.553 330.03 LE
106.549 330.023 LS
106.895 330.023 L
106.895 330.439 L
106.549 330.439 L
106.549 330.023 LE
106.544 330.017 LS
106.9 330.017 L
106.9 330.445 L
106.544 330.445 L
106.544 330.017 LE
106.54 330.012 LS
106.906 330.012 L
106.906 330.449 L
106.54 330.449 L
106.54 330.012 LE
106.535 330.008 LS
106.911 330.008 L
106.911 330.452 L
106.535 330.452 L
106.535 330.008 LE
106.53 330.005 LS
106.916 330.005 L
106.916 330.455 L
106.53 330.455 L
106.53 330.005 LE
106.526 330.003 LS
106.922 330.003 L
106.922 330.456 L
106.526 330.456 L
106.526 330.003 LE
106.521 330.002 LS
106.927 330.002 L
106.927 330.456 L
106.521 330.456 L
106.521 330.002 LE
106.516 330.002 LS
106.933 330.002 L
106.933 330.455 L
106.516 330.455 L
106.516 330.002 LE
106.512 330.003 LS
106.938 330.003 L
106.938 330.454 L
106.512 330.454 L
106.512 330.003 LE
106.507 330.004 LS
106.943 330.004 L
106.943 330.452 L
106.507 330.452 L
106.507 330.004 LE
106.503 330.006 LS
106.947 330.006 L
106.947 330.45 L
106.503 330.45 L
106.503 330.006 LE
106.499 330.007 LS
106.952 330.007 L
106.952 330.447 L
106.499 330.447 L
106.499 330.007 LE
106.495 330.01 LS
106.957 330.01 L
106.957 330.445 L
106.495 330.445 L
106.495 330.01 LE
106.491 330.012 LS
106.961 330.012 L
106.961 330.441 L
106.491 330.441 L
106.491 330.012 LE
106.488 330.015 LS
106.965 330.015 L
106.965 330.438 L
106.488 330.438 L
106.488 330.015 LE
106.485 330.019 LS
106.969 330.019 L
106.969 330.434 L
106.485 330.434 L
106.485 330.019 LE
106.481 330.023 LS
106.972 330.023 L
106.972 330.429 L
106.481 330.429 L
106.481 330.023 LE
106.479 330.028 LS
106.976 330.028 L
106.976 330.424 L
106.479 330.424 L
106.479 330.028 LE
106.476 330.034 LS
106.979 330.034 L
106.979 330.418 L
106.476 330.418 L
106.476 330.034 LE
106.474 330.039 LS
106.982 330.039 L
106.982 330.411 L
106.474 330.411 L
106.474 330.039 LE
106.471 330.045 LS
106.984 330.045 L
106.984 330.405 L
106.471 330.405 L
106.471 330.045 LE
106.47 330.051 LS
106.987 330.051 L
106.987 330.399 L
106.47 330.399 L
106.47 330.051 LE
106.468 330.057 LS
106.989 330.057 L
106.989 330.392 L
106.468 330.392 L
106.468 330.057 LE
106.466 330.063 LS
106.991 330.063 L
106.991 330.386 L
106.466 330.386 L
106.466 330.063 LE
106.465 330.069 LS
106.992 330.069 L
106.992 330.379 L
106.465 330.379 L
106.465 330.069 LE
106.464 330.075 LS
106.994 330.075 L
106.994 330.373 L
106.464 330.373 L
106.464 330.075 LE
106.464 330.082 LS
106.995 330.082 L
106.995 330.366 L
106.464 330.366 L
106.464 330.082 LE
106.463 330.088 LS
106.996 330.088 L
106.996 330.359 L
106.463 330.359 L
106.463 330.088 LE
106.463 330.095 LS
106.996 330.095 L
106.996 330.352 L
106.463 330.352 L
106.463 330.095 LE
106.463 330.102 LS
106.997 330.102 L
106.997 330.345 L
106.463 330.345 L
106.463 330.102 LE
106.463 330.108 LS
106.997 330.108 L
106.997 330.338 L
106.463 330.338 L
106.463 330.108 LE
106.463 330.108 LS
106.997 330.108 L
106.997 330.337 L
106.463 330.337 L
106.463 330.108 LE
106.464 330.109 LS
106.997 330.109 L
106.997 330.336 L
106.464 330.336 L
106.464 330.109 LE
106.465 330.11 LS
106.996 330.11 L
106.996 330.335 L
106.465 330.335 L
106.465 330.11 LE
106.465 330.111 LS
106.996 330.111 L
106.996 330.334 L
106.465 330.334 L
106.465 330.111 LE
106.466 330.112 LS
106.995 330.112 L
106.995 330.333 L
106.466 330.333 L
106.466 330.112 LE
106.468 330.113 LS
106.994 330.113 L
106.994 330.331 L
106.468 330.331 L
106.468 330.113 LE
106.469 330.114 LS
106.993 330.114 L
106.993 330.33 L
106.469 330.33 L
106.469 330.114 LE
106.471 330.115 LS
106.992 330.115 L
106.992 330.328 L
106.471 330.328 L
106.471 330.115 LE
106.473 330.116 LS
106.99 330.116 L
106.99 330.328 L
106.473 330.328 L
106.473 330.116 LE
106.475 330.115 LS
106.989 330.115 L
106.989 330.328 L
106.475 330.328 L
106.475 330.115 LE
106.477 330.114 LS
106.987 330.114 L
106.987 330.329 L
106.477 330.329 L
106.477 330.114 LE
106.479 330.109 LS
106.985 330.109 L
106.985 330.334 L
106.479 330.334 L
106.479 330.109 LE
106.481 330.104 LS
106.983 330.104 L
106.983 330.339 L
106.481 330.339 L
106.481 330.104 LE
106.483 330.099 LS
106.981 330.099 L
106.981 330.343 L
106.483 330.343 L
106.483 330.099 LE
106.486 330.094 LS
106.979 330.094 L
106.979 330.347 L
106.486 330.347 L
106.486 330.094 LE
106.488 330.09 LS
106.976 330.09 L
106.976 330.351 L
106.488 330.351 L
106.488 330.09 LE
106.491 330.086 LS
106.974 330.086 L
106.974 330.355 L
106.491 330.355 L
106.491 330.086 LE
106.494 330.082 LS
106.971 330.082 L
106.971 330.359 L
106.494 330.359 L
106.494 330.082 LE
106.497 330.079 LS
106.969 330.079 L
106.969 330.362 L
106.497 330.362 L
106.497 330.079 LE
106.5 330.076 LS
106.966 330.076 L
106.966 330.365 L
106.5 330.365 L
106.5 330.076 LE
106.503 330.073 LS
106.963 330.073 L
106.963 330.367 L
106.503 330.367 L
106.503 330.073 LE
106.506 330.07 LS
106.96 330.07 L
106.96 330.37 L
106.506 330.37 L
106.506 330.07 LE
106.509 330.068 LS
106.957 330.068 L
106.957 330.372 L
106.509 330.372 L
106.509 330.068 LE
106.513 330.066 LS
106.954 330.066 L
106.954 330.374 L
106.513 330.374 L
106.513 330.066 LE
106.516 330.064 LS
106.951 330.064 L
106.951 330.376 L
106.516 330.376 L
106.516 330.064 LE
106.519 330.063 LS
106.947 330.063 L
106.947 330.377 L
106.519 330.377 L
106.519 330.063 LE
106.523 330.061 LS
106.944 330.061 L
106.944 330.378 L
106.523 330.378 L
106.523 330.061 LE
106.526 330.06 LS
106.941 330.06 L
106.941 330.379 L
106.526 330.379 L
106.526 330.06 LE
106.53 330.06 LS
106.938 330.06 L
106.938 330.379 L
106.53 330.379 L
106.53 330.06 LE
106.533 330.059 LS
106.934 330.059 L
106.934 330.38 L
106.533 330.38 L
106.533 330.059 LE
106.537 330.058 LS
106.931 330.058 L
106.931 330.38 L
106.537 330.38 L
106.537 330.058 LE
106.54 330.058 LS
106.927 330.058 L
106.927 330.381 L
106.54 330.381 L
106.54 330.058 LE
106.544 330.058 LS
106.924 330.058 L
106.924 330.381 L
106.544 330.381 L
106.544 330.058 LE
106.548 330.058 LS
106.921 330.058 L
106.921 330.381 L
106.548 330.381 L
106.548 330.058 LE
106.551 330.058 LS
106.917 330.058 L
106.917 330.38 L
106.551 330.38 L
106.551 330.058 LE
106.555 330.058 LS
106.914 330.058 L
106.914 330.38 L
106.555 330.38 L
106.555 330.058 LE
106.558 330.059 LS
106.91 330.059 L
106.91 330.379 L
106.558 330.379 L
106.558 330.059 LE
106.562 330.06 LS
106.907 330.06 L
106.907 330.378 L
106.562 330.378 L
106.562 330.06 LE
106.565 330.06 LS
106.904 330.06 L
106.904 330.377 L
106.565 330.377 L
106.565 330.06 LE
106.569 330.061 LS
106.9 330.061 L
106.9 330.376 L
106.569 330.376 L
106.569 330.061 LE
106.572 330.062 LS
106.897 330.062 L
106.897 330.375 L
106.572 330.375 L
106.572 330.062 LE
106.576 330.064 LS
106.894 330.064 L
106.894 330.374 L
106.576 330.374 L
106.576 330.064 LE
106.579 330.065 LS
106.89 330.065 L
106.89 330.372 L
106.579 330.372 L
106.579 330.065 LE
106.583 330.066 LS
106.887 330.066 L
106.887 330.371 L
106.583 330.371 L
106.583 330.066 LE
106.586 330.067 LS
106.884 330.067 L
106.884 330.37 L
106.586 330.37 L
106.586 330.067 LE
106.589 330.069 LS
106.881 330.069 L
106.881 330.368 L
106.589 330.368 L
106.589 330.069 LE
106.592 330.07 LS
106.878 330.07 L
106.878 330.366 L
106.592 330.366 L
106.592 330.07 LE
106.596 330.072 LS
106.874 330.072 L
106.874 330.365 L
106.596 330.365 L
106.596 330.072 LE
106.599 330.074 LS
106.871 330.074 L
106.871 330.363 L
106.599 330.363 L
106.599 330.074 LE
106.602 330.076 LS
106.868 330.076 L
106.868 330.361 L
106.602 330.361 L
106.602 330.076 LE
106.605 330.078 LS
106.865 330.078 L
106.865 330.359 L
106.605 330.359 L
106.605 330.078 LE
106.608 330.079 LS
106.862 330.079 L
106.862 330.357 L
106.608 330.357 L
106.608 330.079 LE
106.611 330.081 LS
106.86 330.081 L
106.86 330.355 L
106.611 330.355 L
106.611 330.081 LE
106.614 330.083 LS
106.857 330.083 L
106.857 330.353 L
106.614 330.353 L
106.614 330.083 LE
106.617 330.085 LS
106.854 330.085 L
106.854 330.351 L
106.617 330.351 L
106.617 330.085 LE
106.62 330.087 LS
106.851 330.087 L
106.851 330.349 L
106.62 330.349 L
106.62 330.087 LE
0 0 0 C
(Flowpipe for Ex. 6) 298.08 410.6 10 /Helvetica SBC
grestore
showpage
cleartomark
%%PageTrailer
%%Trailer
end
%%EOF
