%!PS-Adobe-3.0 EPSF-3.0
%%Title: glps_renderer figure
%%Creator: GL2PS 1.3.8, (C) 1999-2012 C. Geuzaine
%%For: Octave
%%CreationDate: Wed Mar 13 17:39:23 2019
%%LanguageLevel: 3
%%DocumentData: Clean7Bit
%%Pages: 1
%%BoundingBox: 0 0 576 433
%%EndComments
%%BeginProlog
/gl2psdict 64 dict def gl2psdict begin
0 setlinecap 0 setlinejoin
/tryPS3shading false def % set to false to force subdivision
/rThreshold 0.064 def % red component subdivision threshold
/gThreshold 0.034 def % green component subdivision threshold
/bThreshold 0.1 def % blue component subdivision threshold
/BD { bind def } bind def
/C  { setrgbcolor } BD
/G  { 0.082 mul exch 0.6094 mul add exch 0.3086 mul add neg 1.0 add setgray } BD
/W  { setlinewidth } BD
/FC { findfont exch /SH exch def SH scalefont setfont } BD
/SW { dup stringwidth pop } BD
/S  { FC moveto show } BD
/SBC{ FC moveto SW -2 div 0 rmoveto show } BD
/SBR{ FC moveto SW neg 0 rmoveto show } BD
/SCL{ FC moveto 0 SH -2 div rmoveto show } BD
/SCC{ FC moveto SW -2 div SH -2 div rmoveto show } BD
/SCR{ FC moveto SW neg SH -2 div rmoveto show } BD
/STL{ FC moveto 0 SH neg rmoveto show } BD
/STC{ FC moveto SW -2 div SH neg rmoveto show } BD
/STR{ FC moveto SW neg SH neg rmoveto show } BD
/FCT { FC translate 0 0 } BD
/SR  { gsave FCT moveto rotate show grestore } BD
/SBCR{ gsave FCT moveto rotate SW -2 div 0 rmoveto show grestore } BD
/SBRR{ gsave FCT moveto rotate SW neg 0 rmoveto show grestore } BD
/SCLR{ gsave FCT moveto rotate 0 SH -2 div rmoveto show grestore} BD
/SCCR{ gsave FCT moveto rotate SW -2 div SH -2 div rmoveto show grestore} BD
/SCRR{ gsave FCT moveto rotate SW neg SH -2 div rmoveto show grestore} BD
/STLR{ gsave FCT moveto rotate 0 SH neg rmoveto show grestore } BD
/STCR{ gsave FCT moveto rotate SW -2 div SH neg rmoveto show grestore } BD
/STRR{ gsave FCT moveto rotate SW neg SH neg rmoveto show grestore } BD
/P  { newpath 0.0 360.0 arc closepath fill } BD
/LS { newpath moveto } BD
/L  { lineto } BD
/LE { lineto stroke } BD
/T  { newpath moveto lineto lineto closepath fill } BD
/STshfill {
      /b1 exch def /g1 exch def /r1 exch def /y1 exch def /x1 exch def
      /b2 exch def /g2 exch def /r2 exch def /y2 exch def /x2 exch def
      /b3 exch def /g3 exch def /r3 exch def /y3 exch def /x3 exch def
      gsave << /ShadingType 4 /ColorSpace [/DeviceRGB]
      /DataSource [ 0 x1 y1 r1 g1 b1 0 x2 y2 r2 g2 b2 0 x3 y3 r3 g3 b3 ] >>
      shfill grestore } BD
/Tm { 3 -1 roll 8 -1 roll 13 -1 roll add add 3 div
      3 -1 roll 7 -1 roll 11 -1 roll add add 3 div
      3 -1 roll 6 -1 roll 9 -1 roll add add 3 div C T } BD
/STsplit {
      4 index 15 index add 0.5 mul
      4 index 15 index add 0.5 mul
      4 index 15 index add 0.5 mul
      4 index 15 index add 0.5 mul
      4 index 15 index add 0.5 mul
      5 copy 5 copy 25 15 roll
      9 index 30 index add 0.5 mul
      9 index 30 index add 0.5 mul
      9 index 30 index add 0.5 mul
      9 index 30 index add 0.5 mul
      9 index 30 index add 0.5 mul
      5 copy 5 copy 35 5 roll 25 5 roll 15 5 roll
      4 index 10 index add 0.5 mul
      4 index 10 index add 0.5 mul
      4 index 10 index add 0.5 mul
      4 index 10 index add 0.5 mul
      4 index 10 index add 0.5 mul
      5 copy 5 copy 40 5 roll 25 5 roll 15 5 roll 25 5 roll
      STnoshfill STnoshfill STnoshfill STnoshfill } BD
/STnoshfill {
      2 index 8 index sub abs rThreshold gt
      { STsplit }
      { 1 index 7 index sub abs gThreshold gt
        { STsplit }
        { dup 6 index sub abs bThreshold gt
          { STsplit }
          { 2 index 13 index sub abs rThreshold gt
            { STsplit }
            { 1 index 12 index sub abs gThreshold gt
              { STsplit }
              { dup 11 index sub abs bThreshold gt
                { STsplit }
                { 7 index 13 index sub abs rThreshold gt
                  { STsplit }
                  { 6 index 12 index sub abs gThreshold gt
                    { STsplit }
                    { 5 index 11 index sub abs bThreshold gt
                      { STsplit }
                      { Tm }
                      ifelse }
                    ifelse }
                  ifelse }
                ifelse }
              ifelse }
            ifelse }
          ifelse }
        ifelse }
      ifelse } BD
tryPS3shading
{ /shfill where
  { /ST { STshfill } BD }
  { /ST { STnoshfill } BD }
  ifelse }
{ /ST { STnoshfill } BD }
ifelse
end
%%EndProlog
%%BeginSetup
/DeviceRGB setcolorspace
gl2psdict begin
%%EndSetup
%%Page: 1 1
%%BeginPageSetup
%%EndPageSetup
mark
gsave
1.0 1.0 scale
1 1 1 C
74.88 400.6 521.28 48.52 74.88 48.52 T
74.88 400.6 521.28 400.6 521.28 48.52 T
0.5 W
[16 0] 0 setdash
0 0 0 C
74.88 48.52 LS
521.28 48.52 LE
74.88 400.6 LS
521.28 400.6 LE
74.88 48.52 LS
74.88 400.6 LE
521.28 48.52 LS
521.28 400.6 LE
74.88 48.52 LS
74.88 52.985 LE
74.88 400.6 LS
74.88 396.135 LE
149.28 48.52 LS
149.28 52.985 LE
149.28 400.6 LS
149.28 396.135 LE
223.68 48.52 LS
223.68 52.985 LE
223.68 400.6 LS
223.68 396.135 LE
298.08 48.52 LS
298.08 52.985 LE
298.08 400.6 LS
298.08 396.135 LE
372.48 48.52 LS
372.48 52.985 LE
372.48 400.6 LS
372.48 396.135 LE
446.88 48.52 LS
446.88 52.985 LE
446.88 400.6 LS
446.88 396.135 LE
521.28 48.52 LS
521.28 52.985 LE
521.28 400.6 LS
521.28 396.135 LE
(-0.4) 74.88 43.5189 10 /Helvetica STC
(-0.2) 149.28 43.5189 10 /Helvetica STC
(0) 223.68 43.5189 10 /Helvetica STC
(0.2) 298.08 43.5189 10 /Helvetica STC
(0.4) 372.48 43.5189 10 /Helvetica STC
(0.6) 446.88 43.5189 10 /Helvetica STC
(0.8) 521.28 43.5189 10 /Helvetica STC
74.88 48.52 LS
79.348 48.52 LE
521.28 48.52 LS
516.812 48.52 LE
74.88 118.936 LS
79.348 118.936 LE
521.28 118.936 LS
516.812 118.936 LE
74.88 189.352 LS
79.348 189.352 LE
521.28 189.352 LS
516.812 189.352 LE
74.88 259.768 LS
79.348 259.768 LE
521.28 259.768 LS
516.812 259.768 LE
74.88 330.184 LS
79.348 330.184 LE
521.28 330.184 LS
516.812 330.184 LE
74.88 400.6 LS
79.348 400.6 LE
521.28 400.6 LS
516.812 400.6 LE
(-0.2) 69.8755 48.52 10 /Helvetica SCR
(0) 69.8755 118.936 10 /Helvetica SCR
(0.2) 69.8755 189.352 10 /Helvetica SCR
(0.4) 69.8755 259.768 10 /Helvetica SCR
(0.6) 69.8755 330.184 10 /Helvetica SCR
(0.8) 69.8755 400.6 10 /Helvetica SCR
[] 0 setdash
0.11 0.11 0.11 C
343.174 277.372 LS
391.267 277.372 L
391.267 318.741 L
343.174 318.741 L
343.174 277.372 LE
332.442 281.088 LS
383.501 281.088 L
383.501 322.788 L
332.442 322.788 L
332.442 281.088 LE
321.658 283.436 LS
375.118 283.436 L
375.118 325.354 L
321.658 325.354 L
321.658 283.436 LE
310.889 283.533 LS
366.396 283.533 L
366.396 326.44 L
310.889 326.44 L
310.889 283.533 LE
300.078 281.666 LS
357.601 281.666 L
357.601 326.045 L
300.078 326.045 L
300.078 281.666 LE
289.012 278.431 LS
349.033 278.431 L
349.033 324.88 L
289.012 324.88 L
289.012 278.431 LE
277.826 273.826 LS
340.531 273.826 L
340.531 322.899 L
277.826 322.899 L
277.826 273.826 LE
266.441 267.852 LS
332.094 267.852 L
332.094 319.436 L
266.441 319.436 L
266.441 267.852 LE
254.545 260.376 LS
323.699 260.376 L
323.699 314.494 L
254.545 314.494 L
254.545 260.376 LE
241.563 251.427 LS
315.464 251.427 L
315.464 308.071 L
241.563 308.071 L
241.563 251.427 LE
227.924 241.947 LS
307.349 241.947 L
307.349 300.167 L
227.924 300.167 L
227.924 241.947 LE
215.683 233.05 LS
299.4 233.05 L
299.4 291.561 L
215.683 291.561 L
215.683 233.05 LE
204.341 224.406 LS
291.725 224.406 L
291.725 283.033 L
204.341 283.033 L
204.341 224.406 LE
193.803 216.016 LS
284.391 216.016 L
284.391 274.582 L
193.803 274.582 L
193.803 216.016 LE
184.043 207.879 LS
277.398 207.879 L
277.398 266.209 L
184.043 266.209 L
184.043 207.879 LE
175.033 199.995 LS
270.747 199.995 L
270.747 257.912 L
175.033 257.912 L
175.033 199.995 LE
166.748 192.365 LS
264.437 192.365 L
264.437 249.693 L
166.748 249.693 L
166.748 192.365 LE
159.107 184.924 LS
258.47 184.924 L
258.47 241.551 L
159.107 241.551 L
159.107 184.924 LE
151.963 177.681 LS
252.978 177.681 L
252.978 233.487 L
151.963 233.487 L
151.963 177.681 LE
145.105 170.69 LS
248.198 170.69 L
248.198 225.499 L
145.105 225.499 L
145.105 170.69 LE
138.811 163.964 LS
243.826 163.964 L
243.826 217.589 L
138.811 217.589 L
138.811 163.964 LE
133.002 157.393 LS
239.881 157.393 L
239.881 209.806 L
133.002 209.806 L
133.002 157.393 LE
127.706 151.001 LS
236.349 151.001 L
236.349 202.198 L
127.706 202.198 L
127.706 151.001 LE
122.925 144.787 LS
233.203 144.787 L
233.203 194.766 L
122.925 194.766 L
122.925 144.787 LE
118.653 138.752 LS
230.42 138.752 L
230.42 187.509 L
118.653 187.509 L
118.653 138.752 LE
114.883 132.895 LS
227.981 132.895 L
227.981 180.428 L
114.883 180.428 L
114.883 132.895 LE
111.607 127.217 LS
225.866 127.217 L
225.866 173.522 L
111.607 173.522 L
111.607 127.217 LE
108.78 121.656 LS
224.096 121.656 L
224.096 166.793 L
108.78 166.793 L
108.78 121.656 LE
106.404 116.255 LS
222.988 116.255 L
222.988 160.239 L
106.404 160.239 L
106.404 116.255 LE
104.48 111.033 LS
222.151 111.033 L
222.151 153.86 L
104.48 153.86 L
104.48 111.033 LE
102.753 105.614 LS
221.871 105.614 L
221.871 148.039 L
102.753 148.039 L
102.753 105.614 LE
101.731 98.9529 LS
221.607 98.9529 L
221.607 144.494 L
101.731 144.494 L
101.731 98.9529 LE
101.359 92.8197 LS
221.374 92.8197 L
221.374 141.121 L
101.359 141.121 L
101.359 92.8197 LE
101.53 87.1634 LS
221.215 87.1634 L
221.215 137.923 L
101.53 137.923 L
101.53 87.1634 LE
102.212 82.0327 LS
221.107 82.0327 L
221.107 134.897 L
102.212 134.897 L
102.212 82.0327 LE
103.283 77.4293 LS
221.113 77.4293 L
221.113 132.045 L
103.283 132.045 L
103.283 77.4293 LE
104.164 73.2569 LS
221.765 73.2569 L
221.765 129.366 L
104.164 129.366 L
104.164 73.2569 LE
105.304 69.4343 LS
222.548 69.4343 L
222.548 126.86 L
105.304 126.86 L
105.304 69.4343 LE
106.712 65.9336 LS
223.406 65.9336 L
223.406 124.733 L
106.712 124.733 L
106.712 65.9336 LE
108.361 62.8616 LS
224.318 62.8616 L
224.318 122.915 L
108.361 122.915 L
108.361 62.8616 LE
110.255 60.3142 LS
225.227 60.3142 L
225.227 121.667 L
110.255 121.667 L
110.255 60.3142 LE
112.409 58.3882 LS
226.084 58.3882 L
226.084 120.241 L
112.409 120.241 L
112.409 58.3882 LE
114.774 56.7987 LS
226.906 56.7987 L
226.906 118.965 L
114.774 118.965 L
114.774 56.7987 LE
117.318 55.5456 LS
227.695 55.5456 L
227.695 117.839 L
117.318 117.839 L
117.318 55.5456 LE
119.967 54.6241 LS
228.452 54.6241 L
228.452 116.868 L
119.967 116.868 L
119.967 54.6241 LE
122.709 53.9357 LS
229.182 53.9357 L
229.182 116.15 L
122.709 116.15 L
122.709 53.9357 LE
125.565 53.5291 LS
229.881 53.5291 L
229.881 115.637 L
125.565 115.637 L
125.565 53.5291 LE
128.508 53.4628 LS
230.544 53.4628 L
230.544 115.27 L
128.508 115.27 L
128.508 53.4628 LE
131.511 53.7385 LS
231.167 53.7385 L
231.167 115.047 L
131.511 115.047 L
131.511 53.7385 LE
134.552 54.3604 LS
231.754 54.3604 L
231.754 114.965 L
134.552 114.965 L
134.552 54.3604 LE
137.602 55.1925 LS
232.305 55.1925 L
232.305 115.002 L
137.602 115.002 L
137.602 55.1925 LE
140.642 55.9227 LS
232.829 55.9227 L
232.829 115.26 L
140.642 115.26 L
140.642 55.9227 LE
143.66 56.2839 LS
233.345 56.2839 L
233.345 116.024 L
143.66 116.024 L
143.66 56.2839 LE
146.646 56.7506 LS
233.835 56.7506 L
233.835 116.819 L
146.646 116.819 L
146.646 56.7506 LE
149.587 57.3139 LS
234.301 57.3139 L
234.301 117.655 L
149.587 117.655 L
149.587 57.3139 LE
152.473 57.9694 LS
234.749 57.9694 L
234.749 118.535 L
152.473 118.535 L
152.473 57.9694 LE
155.29 58.7147 LS
235.185 58.7147 L
235.185 119.463 L
155.29 119.463 L
155.29 58.7147 LE
157.975 59.5574 LS
235.612 59.5574 L
235.612 120.43 L
157.975 120.43 L
157.975 59.5574 LE
160.566 60.5057 LS
236.035 60.5057 L
236.035 121.428 L
160.566 121.428 L
160.566 60.5057 LE
163.05 61.5475 LS
236.459 61.5475 L
236.459 122.47 L
163.05 122.47 L
163.05 61.5475 LE
165.412 62.5838 LS
236.894 62.5838 L
236.894 123.568 L
165.412 123.568 L
165.412 62.5838 LE
167.682 63.8728 LS
237.308 63.8728 L
237.308 124.376 L
167.682 124.376 L
167.682 63.8728 LE
169.844 65.2091 LS
237.72 65.2091 L
237.72 125.1 L
169.844 125.1 L
169.844 65.2091 LE
171.902 66.5925 LS
238.129 66.5925 L
238.129 125.74 L
171.902 125.74 L
171.902 66.5925 LE
173.858 68.0114 LS
238.533 68.0114 L
238.533 126.309 L
173.858 126.309 L
173.858 68.0114 LE
175.715 69.4701 LS
238.931 69.4701 L
238.931 126.801 L
175.715 126.801 L
175.715 69.4701 LE
177.466 70.8355 LS
239.333 70.8355 L
239.333 127.35 L
177.466 127.35 L
177.466 70.8355 LE
179.113 72.1497 LS
239.738 72.1497 L
239.738 127.913 L
179.113 127.913 L
179.113 72.1497 LE
180.662 73.5111 LS
240.143 73.5111 L
240.143 128.393 L
180.662 128.393 L
180.662 73.5111 LE
182.117 74.9038 LS
240.546 74.9038 L
240.546 128.804 L
182.117 128.804 L
182.117 74.9038 LE
183.48 76.3332 LS
240.945 76.3332 L
240.945 129.128 L
183.48 129.128 L
183.48 76.3332 LE
184.791 78.0492 LS
241.306 78.0492 L
241.306 129.098 L
184.791 129.098 L
184.791 78.0492 LE
186.04 79.7691 LS
241.641 79.7691 L
241.641 128.997 L
186.04 128.997 L
186.04 79.7691 LE
187.231 81.4917 LS
241.949 81.4917 L
241.949 128.828 L
187.231 128.828 L
187.231 81.4917 LE
188.371 83.2157 LS
242.228 83.2157 L
242.228 128.59 L
188.371 128.59 L
188.371 83.2157 LE
189.464 84.9365 LS
242.477 84.9365 L
242.477 128.288 L
189.464 128.288 L
189.464 84.9365 LE
190.508 86.5609 LS
242.701 86.5609 L
242.701 128.017 L
190.508 128.017 L
190.508 86.5609 LE
191.51 88.1192 LS
242.897 88.1192 L
242.897 127.744 L
191.51 127.744 L
191.51 88.1192 LE
192.478 89.6816 LS
243.061 89.6816 L
243.061 127.402 L
192.478 127.402 L
192.478 89.6816 LE
193.407 91.0428 LS
243.2 91.0428 L
243.2 127.193 L
193.407 127.193 L
193.407 91.0428 LE
194.298 92.0802 LS
243.319 92.0802 L
243.319 127.251 L
194.298 127.251 L
194.298 92.0802 LE
195.177 93.1987 LS
243.393 93.1987 L
243.393 127.177 L
195.177 127.177 L
195.177 93.1987 LE
196.041 94.2822 LS
243.427 94.2822 L
243.427 127.09 L
196.041 127.09 L
196.041 94.2822 LE
196.89 95.3303 LS
243.425 95.3303 L
243.425 126.988 L
196.89 126.988 L
196.89 95.3303 LE
197.723 96.3397 LS
243.391 96.3397 L
243.391 126.876 L
197.723 126.876 L
197.723 96.3397 LE
198.539 97.3084 LS
243.327 97.3084 L
243.327 126.755 L
198.539 126.755 L
198.539 97.3084 LE
199.338 98.2396 LS
243.236 98.2396 L
243.236 126.623 L
199.338 126.623 L
199.338 98.2396 LE
200.12 99.1341 LS
243.122 99.1341 L
243.122 126.477 L
200.12 126.477 L
200.12 99.1341 LE
200.883 99.9936 LS
242.988 99.9936 L
242.988 126.317 L
200.883 126.317 L
200.883 99.9936 LE
201.618 100.602 LS
242.847 100.602 L
242.847 126.359 L
201.618 126.359 L
201.618 100.602 LE
202.323 100.979 LS
242.703 100.979 L
242.703 126.593 L
202.323 126.593 L
202.323 100.979 LE
203.009 101.354 LS
242.545 101.354 L
242.545 126.801 L
203.009 126.801 L
203.009 101.354 LE
203.678 101.734 LS
242.375 101.734 L
242.375 126.974 L
203.678 126.974 L
203.678 101.734 LE
204.329 102.12 LS
242.194 102.12 L
242.194 127.112 L
204.329 127.112 L
204.329 102.12 LE
204.961 102.491 LS
242.005 102.491 L
242.005 127.238 L
204.961 127.238 L
204.961 102.491 LE
205.575 102.865 LS
241.809 102.865 L
241.809 127.331 L
205.575 127.331 L
205.575 102.865 LE
206.17 103.237 LS
241.608 103.237 L
241.608 127.397 L
206.17 127.397 L
206.17 103.237 LE
206.747 103.611 LS
241.403 103.611 L
241.403 127.433 L
206.747 127.433 L
206.747 103.611 LE
207.306 103.991 LS
241.195 103.991 L
241.195 127.434 L
207.306 127.434 L
207.306 103.991 LE
207.846 104.372 LS
240.986 104.372 L
240.986 127.405 L
207.846 127.405 L
207.846 104.372 LE
208.367 104.772 LS
240.777 104.772 L
240.777 127.335 L
208.367 127.335 L
208.367 104.772 LE
208.87 105.176 LS
240.571 105.176 L
240.571 127.246 L
208.87 127.246 L
208.87 105.176 LE
209.354 105.575 LS
240.367 105.575 L
240.367 127.146 L
209.354 127.146 L
209.354 105.575 LE
209.819 105.964 LS
240.166 105.964 L
240.166 127.041 L
209.819 127.041 L
209.819 105.964 LE
210.266 106.335 LS
239.969 106.335 L
239.969 126.939 L
210.266 126.939 L
210.266 106.335 LE
210.695 106.698 LS
239.776 106.698 L
239.776 126.831 L
210.695 126.831 L
210.695 106.698 LE
211.107 107.049 LS
239.588 107.049 L
239.588 126.718 L
211.107 126.718 L
211.107 107.049 LE
211.502 107.392 LS
239.403 107.392 L
239.403 126.598 L
211.502 126.598 L
211.502 107.392 LE
211.881 107.73 LS
239.224 107.73 L
239.224 126.468 L
211.881 126.468 L
211.881 107.73 LE
212.244 108.046 LS
239.05 108.046 L
239.05 126.345 L
212.244 126.345 L
212.244 108.046 LE
212.591 108.35 LS
238.882 108.35 L
238.882 126.223 L
212.591 126.223 L
212.591 108.35 LE
212.924 108.665 LS
238.718 108.665 L
238.718 126.081 L
212.924 126.081 L
212.924 108.665 LE
213.242 108.971 LS
238.561 108.971 L
238.561 125.941 L
213.242 125.941 L
213.242 108.971 LE
213.547 109.267 LS
238.409 109.267 L
238.409 125.802 L
213.547 125.802 L
213.547 109.267 LE
213.837 109.548 LS
238.263 109.548 L
238.263 125.67 L
213.837 125.67 L
213.837 109.548 LE
214.114 109.817 LS
238.122 109.817 L
238.122 125.542 L
214.114 125.542 L
214.114 109.817 LE
214.379 110.075 LS
237.987 110.075 L
237.987 125.417 L
214.379 125.417 L
214.379 110.075 LE
214.631 110.323 LS
237.857 110.323 L
237.857 125.295 L
214.631 125.295 L
214.631 110.323 LE
214.871 110.561 LS
237.733 110.561 L
237.733 125.175 L
214.871 125.175 L
214.871 110.561 LE
215.099 110.777 LS
237.614 110.777 L
237.614 125.068 L
215.099 125.068 L
215.099 110.777 LE
215.316 110.975 LS
237.502 110.975 L
237.502 124.973 L
215.316 124.973 L
215.316 110.975 LE
215.523 111.176 LS
237.394 111.176 L
237.394 124.871 L
215.523 124.871 L
215.523 111.176 LE
215.72 111.37 LS
237.291 111.37 L
237.291 124.771 L
215.72 124.771 L
215.72 111.37 LE
215.907 111.558 LS
237.193 111.558 L
237.193 124.673 L
215.907 124.673 L
215.907 111.558 LE
216.085 111.734 LS
237.099 111.734 L
237.099 124.583 L
216.085 124.583 L
216.085 111.734 LE
216.254 111.9 LS
237.011 111.9 L
237.011 124.498 L
216.254 124.498 L
216.254 111.9 LE
216.414 112.058 LS
236.926 112.058 L
236.926 124.417 L
216.414 124.417 L
216.414 112.058 LE
216.566 112.209 LS
236.846 112.209 L
236.846 124.339 L
216.566 124.339 L
216.566 112.209 LE
216.71 112.353 LS
236.77 112.353 L
236.77 124.263 L
216.71 124.263 L
216.71 112.353 LE
216.847 112.486 LS
236.698 112.486 L
236.698 124.194 L
216.847 124.194 L
216.847 112.486 LE
216.977 112.611 LS
236.629 112.611 L
236.629 124.13 L
216.977 124.13 L
216.977 112.611 LE
217.1 112.738 LS
236.564 112.738 L
236.564 124.06 L
217.1 124.06 L
217.1 112.738 LE
217.217 112.861 LS
236.503 112.861 L
236.503 123.992 L
217.217 123.992 L
217.217 112.861 LE
217.328 112.98 LS
236.444 112.98 L
236.444 123.926 L
217.328 123.926 L
217.328 112.98 LE
217.433 113.089 LS
236.389 113.089 L
236.389 123.867 L
217.433 123.867 L
217.433 113.089 LE
217.532 113.192 LS
236.336 113.192 L
236.336 123.813 L
217.532 123.813 L
217.532 113.192 LE
217.626 113.288 LS
236.287 113.288 L
236.287 123.762 L
217.626 123.762 L
217.626 113.288 LE
217.716 113.379 LS
236.24 113.379 L
236.24 123.714 L
217.716 123.714 L
217.716 113.379 LE
217.8 113.465 LS
236.196 113.465 L
236.196 123.667 L
217.8 123.667 L
217.8 113.465 LE
217.88 113.543 LS
236.154 113.543 L
236.154 123.627 L
217.88 123.627 L
217.88 113.543 LE
217.955 113.614 LS
236.115 113.614 L
236.115 123.592 L
217.955 123.592 L
217.955 113.614 LE
218.027 113.691 LS
236.077 113.691 L
236.077 123.549 L
218.027 123.549 L
218.027 113.691 LE
218.095 113.766 LS
236.042 113.766 L
236.042 123.507 L
218.095 123.507 L
218.095 113.766 LE
218.159 113.838 LS
236.008 113.838 L
236.008 123.466 L
218.159 123.466 L
218.159 113.838 LE
218.22 113.903 LS
235.977 113.903 L
235.977 123.43 L
218.22 123.43 L
218.22 113.903 LE
218.278 113.963 LS
235.947 113.963 L
235.947 123.398 L
218.278 123.398 L
218.278 113.963 LE
218.332 114.019 LS
235.918 114.019 L
235.918 123.369 L
218.332 123.369 L
218.332 114.019 LE
218.384 114.071 LS
235.892 114.071 L
235.892 123.342 L
218.384 123.342 L
218.384 114.071 LE
218.433 114.121 LS
235.867 114.121 L
235.867 123.316 L
218.433 123.316 L
218.433 114.121 LE
218.479 114.165 LS
235.843 114.165 L
235.843 123.295 L
218.479 123.295 L
218.479 114.165 LE
218.522 114.203 LS
235.821 114.203 L
235.821 123.278 L
218.522 123.278 L
218.522 114.203 LE
218.564 114.249 LS
235.799 114.249 L
235.799 123.252 L
218.564 123.252 L
218.564 114.249 LE
218.603 114.294 LS
235.779 114.294 L
235.779 123.226 L
218.603 123.226 L
218.603 114.294 LE
218.64 114.338 LS
235.76 114.338 L
235.76 123.2 L
218.64 123.2 L
218.64 114.338 LE
218.676 114.377 LS
235.742 114.377 L
235.742 123.18 L
218.676 123.18 L
218.676 114.377 LE
218.709 114.411 LS
235.725 114.411 L
235.725 123.162 L
218.709 123.162 L
218.709 114.411 LE
218.74 114.443 LS
235.708 114.443 L
235.708 123.146 L
218.74 123.146 L
218.74 114.443 LE
218.77 114.472 LS
235.693 114.472 L
235.693 123.132 L
218.77 123.132 L
218.77 114.472 LE
218.798 114.5 LS
235.679 114.5 L
235.679 123.117 L
218.798 123.117 L
218.798 114.5 LE
218.825 114.523 LS
235.665 114.523 L
235.665 123.108 L
218.825 123.108 L
218.825 114.523 LE
218.85 114.542 LS
235.653 114.542 L
235.653 123.101 L
218.85 123.101 L
218.85 114.542 LE
218.874 114.57 LS
235.64 114.57 L
235.64 123.085 L
218.874 123.085 L
218.874 114.57 LE
218.897 114.598 LS
235.629 114.598 L
235.629 123.068 L
218.897 123.068 L
218.897 114.598 LE
218.919 114.626 LS
235.618 114.626 L
235.618 123.051 L
218.919 123.051 L
218.919 114.626 LE
218.939 114.649 LS
235.607 114.649 L
235.607 123.039 L
218.939 123.039 L
218.939 114.649 LE
218.959 114.668 LS
235.597 114.668 L
235.597 123.029 L
218.959 123.029 L
218.959 114.668 LE
218.977 114.686 LS
235.588 114.686 L
235.588 123.021 L
218.977 123.021 L
218.977 114.686 LE
218.994 114.702 LS
235.579 114.702 L
235.579 123.013 L
218.994 123.013 L
218.994 114.702 LE
219.011 114.718 LS
235.571 114.718 L
235.571 123.006 L
219.011 123.006 L
219.011 114.718 LE
219.026 114.729 LS
235.563 114.729 L
235.563 123.002 L
219.026 123.002 L
219.026 114.729 LE
219.041 114.736 LS
235.556 114.736 L
235.556 123.002 L
219.041 123.002 L
219.041 114.736 LE
219.055 114.755 LS
235.549 114.755 L
235.549 122.991 L
219.055 122.991 L
219.055 114.755 LE
219.068 114.773 LS
235.542 114.773 L
235.542 122.979 L
219.068 122.979 L
219.068 114.773 LE
219.081 114.791 LS
235.535 114.791 L
235.535 122.967 L
219.081 122.967 L
219.081 114.791 LE
219.093 114.805 LS
235.529 114.805 L
235.529 122.959 L
219.093 122.959 L
219.093 114.805 LE
219.104 114.817 LS
235.523 114.817 L
235.523 122.953 L
219.104 122.953 L
219.104 114.817 LE
219.115 114.826 LS
235.518 114.826 L
235.518 122.949 L
219.115 122.949 L
219.115 114.826 LE
219.125 114.835 LS
235.513 114.835 L
235.513 122.946 L
219.125 122.946 L
219.125 114.835 LE
219.134 114.843 LS
235.508 114.843 L
235.508 122.942 L
219.134 122.942 L
219.134 114.843 LE
219.143 114.848 LS
235.503 114.848 L
235.503 122.942 L
219.143 122.942 L
219.143 114.848 LE
219.152 114.849 LS
235.499 114.849 L
235.499 122.945 L
219.152 122.945 L
219.152 114.849 LE
219.16 114.862 LS
235.495 114.862 L
235.495 122.936 L
219.16 122.936 L
219.16 114.862 LE
219.168 114.874 LS
235.491 114.874 L
235.491 122.927 L
219.168 122.927 L
219.168 114.874 LE
219.175 114.888 LS
235.487 114.888 L
235.487 122.918 L
219.175 122.918 L
219.175 114.888 LE
219.182 114.896 LS
235.483 114.896 L
235.483 122.913 L
219.182 122.913 L
219.182 114.896 LE
219.189 114.903 LS
235.48 114.903 L
235.48 122.91 L
219.189 122.91 L
219.189 114.903 LE
219.195 114.908 LS
235.477 114.908 L
235.477 122.908 L
219.195 122.908 L
219.195 114.908 LE
219.201 114.912 LS
235.474 114.912 L
235.474 122.907 L
219.201 122.907 L
219.201 114.912 LE
219.207 114.916 LS
235.471 114.916 L
235.471 122.905 L
219.207 122.905 L
219.207 114.916 LE
219.212 114.917 LS
235.468 114.917 L
235.468 122.907 L
219.212 122.907 L
219.212 114.917 LE
219.217 114.915 LS
235.466 114.915 L
235.466 122.912 L
219.217 122.912 L
219.217 114.915 LE
219.222 114.924 LS
235.463 114.924 L
235.463 122.905 L
219.222 122.905 L
219.222 114.924 LE
219.226 114.934 LS
235.461 114.934 L
235.461 122.897 L
219.226 122.897 L
219.226 114.934 LE
219.231 114.944 LS
235.459 114.944 L
235.459 122.889 L
219.231 122.889 L
219.231 114.944 LE
219.235 114.95 LS
235.457 114.95 L
235.457 122.886 L
219.235 122.886 L
219.235 114.95 LE
219.239 114.953 LS
235.455 114.953 L
235.455 122.884 L
219.239 122.884 L
219.239 114.953 LE
219.243 114.956 LS
235.453 114.956 L
235.453 122.883 L
219.243 122.883 L
219.243 114.956 LE
219.246 114.957 LS
235.451 114.957 L
235.451 122.884 L
219.246 122.884 L
219.246 114.957 LE
219.249 114.959 LS
235.449 114.959 L
235.449 122.883 L
219.249 122.883 L
219.249 114.959 LE
219.252 114.958 LS
235.448 114.958 L
235.448 122.886 L
219.252 122.886 L
219.252 114.958 LE
0 0 0 C
(Flowpipe for Ex. 7) 298.08 410.6 10 /Helvetica SBC
grestore
showpage
cleartomark
%%PageTrailer
%%Trailer
end
%%EOF
