%!PS-Adobe-3.0 EPSF-3.0
%%Title: glps_renderer figure
%%Creator: GL2PS 1.3.8, (C) 1999-2012 C. Geuzaine
%%For: Octave
%%CreationDate: Wed Mar 13 16:19:24 2019
%%LanguageLevel: 3
%%DocumentData: Clean7Bit
%%Pages: 1
%%BoundingBox: 0 0 576 433
%%EndComments
%%BeginProlog
/gl2psdict 64 dict def gl2psdict begin
0 setlinecap 0 setlinejoin
/tryPS3shading false def % set to false to force subdivision
/rThreshold 0.064 def % red component subdivision threshold
/gThreshold 0.034 def % green component subdivision threshold
/bThreshold 0.1 def % blue component subdivision threshold
/BD { bind def } bind def
/C  { setrgbcolor } BD
/G  { 0.082 mul exch 0.6094 mul add exch 0.3086 mul add neg 1.0 add setgray } BD
/W  { setlinewidth } BD
/FC { findfont exch /SH exch def SH scalefont setfont } BD
/SW { dup stringwidth pop } BD
/S  { FC moveto show } BD
/SBC{ FC moveto SW -2 div 0 rmoveto show } BD
/SBR{ FC moveto SW neg 0 rmoveto show } BD
/SCL{ FC moveto 0 SH -2 div rmoveto show } BD
/SCC{ FC moveto SW -2 div SH -2 div rmoveto show } BD
/SCR{ FC moveto SW neg SH -2 div rmoveto show } BD
/STL{ FC moveto 0 SH neg rmoveto show } BD
/STC{ FC moveto SW -2 div SH neg rmoveto show } BD
/STR{ FC moveto SW neg SH neg rmoveto show } BD
/FCT { FC translate 0 0 } BD
/SR  { gsave FCT moveto rotate show grestore } BD
/SBCR{ gsave FCT moveto rotate SW -2 div 0 rmoveto show grestore } BD
/SBRR{ gsave FCT moveto rotate SW neg 0 rmoveto show grestore } BD
/SCLR{ gsave FCT moveto rotate 0 SH -2 div rmoveto show grestore} BD
/SCCR{ gsave FCT moveto rotate SW -2 div SH -2 div rmoveto show grestore} BD
/SCRR{ gsave FCT moveto rotate SW neg SH -2 div rmoveto show grestore} BD
/STLR{ gsave FCT moveto rotate 0 SH neg rmoveto show grestore } BD
/STCR{ gsave FCT moveto rotate SW -2 div SH neg rmoveto show grestore } BD
/STRR{ gsave FCT moveto rotate SW neg SH neg rmoveto show grestore } BD
/P  { newpath 0.0 360.0 arc closepath fill } BD
/LS { newpath moveto } BD
/L  { lineto } BD
/LE { lineto stroke } BD
/T  { newpath moveto lineto lineto closepath fill } BD
/STshfill {
      /b1 exch def /g1 exch def /r1 exch def /y1 exch def /x1 exch def
      /b2 exch def /g2 exch def /r2 exch def /y2 exch def /x2 exch def
      /b3 exch def /g3 exch def /r3 exch def /y3 exch def /x3 exch def
      gsave << /ShadingType 4 /ColorSpace [/DeviceRGB]
      /DataSource [ 0 x1 y1 r1 g1 b1 0 x2 y2 r2 g2 b2 0 x3 y3 r3 g3 b3 ] >>
      shfill grestore } BD
/Tm { 3 -1 roll 8 -1 roll 13 -1 roll add add 3 div
      3 -1 roll 7 -1 roll 11 -1 roll add add 3 div
      3 -1 roll 6 -1 roll 9 -1 roll add add 3 div C T } BD
/STsplit {
      4 index 15 index add 0.5 mul
      4 index 15 index add 0.5 mul
      4 index 15 index add 0.5 mul
      4 index 15 index add 0.5 mul
      4 index 15 index add 0.5 mul
      5 copy 5 copy 25 15 roll
      9 index 30 index add 0.5 mul
      9 index 30 index add 0.5 mul
      9 index 30 index add 0.5 mul
      9 index 30 index add 0.5 mul
      9 index 30 index add 0.5 mul
      5 copy 5 copy 35 5 roll 25 5 roll 15 5 roll
      4 index 10 index add 0.5 mul
      4 index 10 index add 0.5 mul
      4 index 10 index add 0.5 mul
      4 index 10 index add 0.5 mul
      4 index 10 index add 0.5 mul
      5 copy 5 copy 40 5 roll 25 5 roll 15 5 roll 25 5 roll
      STnoshfill STnoshfill STnoshfill STnoshfill } BD
/STnoshfill {
      2 index 8 index sub abs rThreshold gt
      { STsplit }
      { 1 index 7 index sub abs gThreshold gt
        { STsplit }
        { dup 6 index sub abs bThreshold gt
          { STsplit }
          { 2 index 13 index sub abs rThreshold gt
            { STsplit }
            { 1 index 12 index sub abs gThreshold gt
              { STsplit }
              { dup 11 index sub abs bThreshold gt
                { STsplit }
                { 7 index 13 index sub abs rThreshold gt
                  { STsplit }
                  { 6 index 12 index sub abs gThreshold gt
                    { STsplit }
                    { 5 index 11 index sub abs bThreshold gt
                      { STsplit }
                      { Tm }
                      ifelse }
                    ifelse }
                  ifelse }
                ifelse }
              ifelse }
            ifelse }
          ifelse }
        ifelse }
      ifelse } BD
tryPS3shading
{ /shfill where
  { /ST { STshfill } BD }
  { /ST { STnoshfill } BD }
  ifelse }
{ /ST { STnoshfill } BD }
ifelse
end
%%EndProlog
%%BeginSetup
/DeviceRGB setcolorspace
gl2psdict begin
%%EndSetup
%%Page: 1 1
%%BeginPageSetup
%%EndPageSetup
mark
gsave
1.0 1.0 scale
1 1 1 C
74.88 400.6 521.28 48.52 74.88 48.52 T
74.88 400.6 521.28 400.6 521.28 48.52 T
0.5 W
[16 0] 0 setdash
0 0 0 C
74.88 48.52 LS
521.28 48.52 LE
74.88 400.6 LS
521.28 400.6 LE
74.88 48.52 LS
74.88 400.6 LE
521.28 48.52 LS
521.28 400.6 LE
74.88 48.52 LS
74.88 52.985 LE
74.88 400.6 LS
74.88 396.135 LE
149.28 48.52 LS
149.28 52.985 LE
149.28 400.6 LS
149.28 396.135 LE
223.68 48.52 LS
223.68 52.985 LE
223.68 400.6 LS
223.68 396.135 LE
298.08 48.52 LS
298.08 52.985 LE
298.08 400.6 LS
298.08 396.135 LE
372.48 48.52 LS
372.48 52.985 LE
372.48 400.6 LS
372.48 396.135 LE
446.88 48.52 LS
446.88 52.985 LE
446.88 400.6 LS
446.88 396.135 LE
521.28 48.52 LS
521.28 52.985 LE
521.28 400.6 LS
521.28 396.135 LE
(-0.2) 74.88 43.5189 10 /Helvetica STC
(0) 149.28 43.5189 10 /Helvetica STC
(0.2) 223.68 43.5189 10 /Helvetica STC
(0.4) 298.08 43.5189 10 /Helvetica STC
(0.6) 372.48 43.5189 10 /Helvetica STC
(0.8) 446.88 43.5189 10 /Helvetica STC
(1) 521.28 43.5189 10 /Helvetica STC
74.88 48.52 LS
79.348 48.52 LE
521.28 48.52 LS
516.812 48.52 LE
74.88 107.2 LS
79.348 107.2 LE
521.28 107.2 LS
516.812 107.2 LE
74.88 165.88 LS
79.348 165.88 LE
521.28 165.88 LS
516.812 165.88 LE
74.88 224.56 LS
79.348 224.56 LE
521.28 224.56 LS
516.812 224.56 LE
74.88 283.24 LS
79.348 283.24 LE
521.28 283.24 LS
516.812 283.24 LE
74.88 341.92 LS
79.348 341.92 LE
521.28 341.92 LS
516.812 341.92 LE
74.88 400.6 LS
79.348 400.6 LE
521.28 400.6 LS
516.812 400.6 LE
(-0.8) 69.8755 48.52 10 /Helvetica SCR
(-0.6) 69.8755 107.2 10 /Helvetica SCR
(-0.4) 69.8755 165.88 10 /Helvetica SCR
(-0.2) 69.8755 224.56 10 /Helvetica SCR
(0) 69.8755 283.24 10 /Helvetica SCR
(0.2) 69.8755 341.92 10 /Helvetica SCR
(0.4) 69.8755 400.6 10 /Helvetica SCR
[] 0 setdash
0.11 0.11 0.11 C
279.479 356.531 LS
320.039 356.531 L
320.039 388.629 L
279.479 388.629 L
279.479 356.531 LE
281.722 358.325 LS
323.157 358.325 L
323.157 390.708 L
281.722 390.708 L
281.722 358.325 LE
283.882 359.717 LS
326.125 359.717 L
326.125 392.34 L
283.882 392.34 L
283.882 359.717 LE
285.971 360.706 LS
328.989 360.706 L
328.989 393.524 L
285.971 393.524 L
285.971 360.706 LE
288.008 361.293 LS
331.788 361.293 L
331.788 394.263 L
288.008 394.263 L
288.008 361.293 LE
290.013 361.034 LS
334.565 361.034 L
334.565 394.554 L
290.013 394.554 L
290.013 361.034 LE
292.007 360.365 LS
337.389 360.365 L
337.389 394.399 L
292.007 394.399 L
292.007 360.365 LE
294.007 359.293 LS
340.309 359.293 L
340.309 393.937 L
294.007 393.937 L
294.007 359.293 LE
296.036 357.819 LS
343.317 357.819 L
343.317 393.286 L
296.036 393.286 L
296.036 357.819 LE
298.112 355.943 LS
346.449 355.943 L
346.449 392.187 L
298.112 392.187 L
298.112 355.943 LE
300.254 353.76 LS
349.689 353.76 L
349.689 390.642 L
300.254 390.642 L
300.254 353.76 LE
302.454 351.351 LS
353.008 351.351 L
353.008 388.736 L
302.454 388.736 L
302.454 351.351 LE
304.693 348.709 LS
356.424 348.709 L
356.424 386.555 L
304.693 386.555 L
304.693 348.709 LE
306.976 345.834 LS
359.946 345.834 L
359.946 384.098 L
306.976 384.098 L
306.976 345.834 LE
309.308 342.724 LS
363.586 342.724 L
363.586 381.367 L
309.308 381.367 L
309.308 342.724 LE
311.692 339.382 LS
367.353 339.382 L
367.353 378.36 L
311.692 378.36 L
311.692 339.382 LE
314.134 335.805 LS
371.258 335.805 L
371.258 375.078 L
314.134 375.078 L
314.134 335.805 LE
316.639 331.995 LS
375.312 331.995 L
375.312 371.522 L
316.639 371.522 L
316.639 331.995 LE
319.211 327.952 LS
379.524 327.952 L
379.524 367.69 L
319.211 367.69 L
319.211 327.952 LE
321.855 323.675 LS
383.905 323.675 L
383.905 363.583 L
321.855 363.583 L
321.855 323.675 LE
324.575 319.245 LS
388.376 319.245 L
388.376 359.201 L
324.575 359.201 L
324.575 319.245 LE
327.317 314.729 LS
392.855 314.729 L
392.855 354.625 L
327.317 354.625 L
327.317 314.729 LE
330.021 310.122 LS
397.34 310.122 L
397.34 349.938 L
330.021 349.938 L
330.021 310.122 LE
332.685 305.424 LS
401.832 305.424 L
401.832 345.139 L
332.685 345.139 L
332.685 305.424 LE
335.309 300.634 LS
406.331 300.634 L
406.331 340.229 L
335.309 340.229 L
335.309 300.634 LE
337.892 295.753 LS
410.838 295.753 L
410.838 335.207 L
337.892 335.207 L
337.892 295.753 LE
340.431 290.764 LS
415.376 290.764 L
415.376 330.074 L
340.431 330.074 L
340.431 290.764 LE
342.927 285.683 LS
419.923 285.683 L
419.923 324.829 L
342.927 324.829 L
342.927 285.683 LE
345.378 280.511 LS
424.479 280.511 L
424.479 319.472 L
345.378 319.472 L
345.378 280.511 LE
347.785 275.248 LS
429.044 275.248 L
429.044 314.004 L
347.785 314.004 L
347.785 275.248 LE
350.146 269.955 LS
433.61 269.955 L
433.61 308.424 L
350.146 308.424 L
350.146 269.955 LE
352.405 264.718 LS
437.9 264.718 L
437.9 302.8 L
352.405 302.8 L
352.405 264.718 LE
354.505 259.516 LS
442.005 259.516 L
442.005 297.199 L
354.505 297.199 L
354.505 259.516 LE
356.446 254.349 LS
445.927 254.349 L
445.927 291.623 L
356.446 291.623 L
356.446 254.349 LE
358.226 249.217 LS
449.67 249.217 L
449.67 286.071 L
358.226 286.071 L
358.226 249.217 LE
359.848 244.121 LS
453.233 244.121 L
453.233 280.542 L
359.848 280.542 L
359.848 244.121 LE
361.314 239.06 LS
456.616 239.06 L
456.616 275.037 L
361.314 275.037 L
361.314 239.06 LE
362.625 234.034 LS
459.819 234.034 L
459.819 269.556 L
362.625 269.556 L
362.625 234.034 LE
363.783 229.043 LS
462.843 229.043 L
462.843 264.098 L
363.783 264.098 L
363.783 229.043 LE
364.789 224.088 LS
465.689 224.088 L
465.689 258.665 L
364.789 258.665 L
364.789 224.088 LE
365.645 219.168 LS
468.356 219.168 L
468.356 253.255 L
365.645 253.255 L
365.645 219.168 LE
366.257 214.406 LS
470.679 214.406 L
470.679 247.909 L
366.257 247.909 L
366.257 214.406 LE
366.525 209.75 LS
472.72 209.75 L
472.72 242.669 L
366.525 242.669 L
366.525 209.75 LE
366.604 205.2 LS
474.485 205.2 L
474.485 237.533 L
366.604 237.533 L
366.604 205.2 LE
366.49 200.522 LS
475.985 200.522 L
475.985 232.736 L
366.49 232.736 L
366.49 200.522 LE
366.181 195.345 LS
477.235 195.345 L
477.235 228.65 L
366.181 228.65 L
366.181 195.345 LE
365.696 190.282 LS
478.225 190.282 L
478.225 224.66 L
365.696 224.66 L
365.696 190.282 LE
365.041 185.335 LS
478.959 185.335 L
478.959 220.766 L
365.041 220.766 L
365.041 185.335 LE
364.22 180.504 LS
479.442 180.504 L
479.442 216.968 L
364.22 216.968 L
364.22 180.504 LE
363.237 175.785 LS
479.683 175.785 L
479.683 213.265 L
363.237 213.265 L
363.237 175.785 LE
362.078 171.181 LS
479.685 171.181 L
479.685 209.659 L
362.078 209.659 L
362.078 171.181 LE
360.774 166.727 LS
479.403 166.727 L
479.403 206.172 L
360.774 206.172 L
360.774 166.727 LE
359.316 162.402 LS
478.863 162.402 L
478.863 202.817 L
359.316 202.817 L
359.316 162.402 LE
357.71 158.21 LS
478.073 158.21 L
478.073 199.591 L
357.71 199.591 L
357.71 158.21 LE
355.963 154.158 LS
477.118 154.158 L
477.118 196.485 L
355.963 196.485 L
355.963 154.158 LE
354.08 150.248 LS
476.057 150.248 L
476.057 193.499 L
354.08 193.499 L
354.08 150.248 LE
352.067 146.48 LS
474.763 146.48 L
474.763 190.633 L
352.067 190.633 L
352.067 146.48 LE
349.932 142.854 LS
473.242 142.854 L
473.242 187.886 L
349.932 187.886 L
349.932 142.854 LE
347.682 139.369 LS
471.502 139.369 L
471.502 185.258 L
347.682 185.258 L
347.682 139.369 LE
345.316 136.014 LS
469.551 136.014 L
469.551 182.757 L
345.316 182.757 L
345.316 136.014 LE
342.841 132.784 LS
467.396 132.784 L
467.396 180.389 L
342.841 180.389 L
342.841 132.784 LE
340.29 129.711 LS
465.043 129.711 L
465.043 178.148 L
340.29 178.148 L
340.29 129.711 LE
337.656 126.776 LS
462.491 126.776 L
462.491 176.032 L
337.656 176.032 L
337.656 126.776 LE
334.939 123.781 LS
459.751 123.781 L
459.751 174.239 L
334.939 174.239 L
334.939 123.781 LE
332.149 120.944 LS
456.83 120.944 L
456.83 172.553 L
332.149 172.553 L
332.149 120.944 LE
329.293 118.265 LS
453.738 118.265 L
453.738 170.972 L
329.293 170.972 L
329.293 118.265 LE
326.376 115.744 LS
450.484 115.744 L
450.484 169.497 L
326.376 169.497 L
326.376 115.744 LE
323.402 113.381 LS
447.076 113.381 L
447.076 168.128 L
323.402 168.128 L
323.402 113.381 LE
320.375 111.165 LS
443.525 111.165 L
443.525 166.873 L
320.375 166.873 L
320.375 111.165 LE
317.297 109.088 LS
439.839 109.088 L
439.839 165.735 L
317.297 165.735 L
317.297 109.088 LE
314.173 107.152 LS
436.028 107.152 L
436.028 164.713 L
314.173 164.713 L
314.173 107.152 LE
311.009 105.345 LS
432.107 105.345 L
432.107 163.801 L
311.009 163.801 L
311.009 105.345 LE
307.81 103.68 LS
428.086 103.68 L
428.086 162.993 L
307.81 162.993 L
307.81 103.68 LE
304.57 102.155 LS
423.986 102.155 L
423.986 162.291 L
304.57 162.291 L
304.57 102.155 LE
301.303 100.772 LS
419.804 100.772 L
419.804 161.693 L
301.303 161.693 L
301.303 100.772 LE
298.02 99.5317 LS
415.543 99.5317 L
415.543 161.2 L
298.02 161.2 L
298.02 99.5317 LE
294.725 98.4337 LS
411.211 98.4337 L
411.211 160.859 L
294.725 160.859 L
294.725 98.4337 LE
291.421 97.4713 LS
406.815 97.4713 L
406.815 160.709 L
291.421 160.709 L
291.421 97.4713 LE
288.114 96.6432 LS
402.364 96.6432 L
402.364 160.671 L
288.114 160.671 L
288.114 96.6432 LE
284.809 95.9488 LS
397.867 95.9488 L
397.867 160.745 L
284.809 160.745 L
284.809 95.9488 LE
281.516 95.3849 LS
393.332 95.3849 L
393.332 160.918 L
281.516 160.918 L
281.516 95.3849 LE
278.24 94.9815 LS
388.765 94.9815 L
388.765 161.127 L
278.24 161.127 L
278.24 94.9815 LE
274.983 94.7223 LS
384.168 94.7223 L
384.168 161.395 L
274.983 161.395 L
274.983 94.7223 LE
271.641 94.6106 LS
379.642 94.6106 L
379.642 161.717 L
271.641 161.717 L
271.641 94.6106 LE
268.181 94.6465 LS
375.229 94.6465 L
375.229 162.093 L
268.181 162.093 L
268.181 94.6465 LE
264.634 94.83 LS
370.926 94.83 L
370.926 162.524 L
264.634 162.524 L
264.634 94.83 LE
261.072 95.1569 LS
366.668 95.1569 L
366.668 163.013 L
261.072 163.013 L
261.072 95.1569 LE
257.523 95.6236 LS
362.435 95.6236 L
362.435 163.565 L
257.523 163.565 L
257.523 95.6236 LE
254.011 96.2379 LS
358.215 96.2379 L
358.215 164.171 L
254.011 164.171 L
254.011 96.2379 LE
250.542 96.887 LS
354.012 96.887 L
354.012 164.838 L
250.542 164.838 L
250.542 96.887 LE
247.123 97.66 LS
349.829 97.66 L
349.829 165.545 L
247.123 165.545 L
247.123 97.66 LE
243.748 98.543 LS
345.668 98.543 L
345.668 166.295 L
243.748 166.295 L
243.748 98.543 LE
240.417 99.5139 LS
341.532 99.5139 L
341.532 167.087 L
240.417 167.087 L
240.417 99.5139 LE
237.132 100.577 LS
337.423 100.577 L
337.423 167.917 L
237.132 167.917 L
237.132 100.577 LE
233.892 101.733 LS
333.344 101.733 L
333.344 168.799 L
233.892 168.799 L
233.892 101.733 LE
230.7 102.982 LS
329.299 102.982 L
329.299 169.727 L
230.7 169.727 L
230.7 102.982 LE
227.554 104.322 LS
325.292 104.322 L
325.292 170.706 L
227.554 170.706 L
227.554 104.322 LE
224.461 105.756 LS
321.325 105.756 L
321.325 171.724 L
224.461 171.724 L
224.461 105.756 LE
221.424 107.28 LS
317.402 107.28 L
317.402 172.781 L
221.424 172.781 L
221.424 107.28 LE
218.443 108.887 LS
313.526 108.887 L
313.526 173.886 L
218.443 173.886 L
218.443 108.887 LE
215.522 110.578 LS
309.699 110.578 L
309.699 175.018 L
215.522 175.018 L
215.522 110.578 LE
212.653 112.323 LS
305.92 112.323 L
305.92 176.172 L
212.653 176.172 L
212.653 112.323 LE
209.832 114.095 LS
302.188 114.095 L
302.188 177.365 L
209.832 177.365 L
209.832 114.095 LE
207.06 115.896 LS
298.504 115.896 L
298.504 178.593 L
207.06 178.593 L
207.06 115.896 LE
204.336 117.728 LS
294.87 117.728 L
294.87 179.857 L
204.336 179.857 L
204.336 117.728 LE
201.662 119.58 LS
291.287 119.58 L
291.287 181.166 L
201.662 181.166 L
201.662 119.58 LE
199.038 121.46 LS
287.757 121.46 L
287.757 182.514 L
199.038 182.514 L
199.038 121.46 LE
196.464 123.371 LS
284.281 123.371 L
284.281 183.897 L
196.464 183.897 L
196.464 123.371 LE
193.941 125.307 LS
280.862 125.307 L
280.862 185.32 L
193.941 185.32 L
193.941 125.307 LE
191.47 127.265 LS
277.5 127.265 L
277.5 186.788 L
191.47 186.788 L
191.47 127.265 LE
189.049 129.245 LS
274.197 129.245 L
274.197 188.297 L
189.049 188.297 L
189.049 129.245 LE
186.683 131.233 LS
270.951 131.233 L
270.951 189.815 L
186.683 189.815 L
186.683 131.233 LE
184.365 133.216 LS
267.756 133.216 L
267.756 191.366 L
184.365 191.366 L
184.365 133.216 LE
182.097 135.194 LS
264.612 135.194 L
264.612 192.951 L
182.097 192.951 L
182.097 135.194 LE
179.878 137.168 LS
261.52 137.168 L
261.52 194.569 L
179.878 194.569 L
179.878 137.168 LE
177.708 139.111 LS
258.481 139.111 L
258.481 196.247 L
177.708 196.247 L
177.708 139.111 LE
175.588 141.049 LS
255.496 141.049 L
255.496 197.958 L
175.588 197.958 L
175.588 141.049 LE
173.517 142.986 LS
252.564 142.986 L
252.564 199.702 L
173.517 199.702 L
173.517 142.986 LE
171.497 144.916 LS
249.687 144.916 L
249.687 201.48 L
171.497 201.48 L
171.497 144.916 LE
169.526 146.799 LS
246.865 146.799 L
246.865 203.335 L
169.526 203.335 L
169.526 146.799 LE
167.606 148.672 LS
244.099 148.672 L
244.099 205.223 L
167.606 205.223 L
167.606 148.672 LE
165.747 150.543 LS
241.384 150.543 L
241.384 207.108 L
165.747 207.108 L
165.747 150.543 LE
163.942 152.364 LS
238.713 152.364 L
238.713 209.054 L
163.942 209.054 L
163.942 152.364 LE
162.194 154.182 LS
236.085 154.182 L
236.085 211.012 L
162.194 211.012 L
162.194 154.182 LE
160.504 156.012 LS
233.501 156.012 L
233.501 212.97 L
160.504 212.97 L
160.504 156.012 LE
158.871 157.852 LS
230.96 157.852 L
230.96 214.928 L
158.871 214.928 L
158.871 157.852 LE
157.295 159.683 LS
228.462 159.683 L
228.462 216.904 L
157.295 216.904 L
157.295 159.683 LE
155.775 161.483 LS
226.009 161.483 L
226.009 218.926 L
155.775 218.926 L
155.775 161.483 LE
154.303 163.295 LS
223.605 163.295 L
223.605 220.951 L
154.303 220.951 L
154.303 163.295 LE
152.886 165.118 LS
221.25 165.118 L
221.25 222.976 L
152.886 222.976 L
152.886 165.118 LE
151.527 166.948 LS
218.938 166.948 L
218.938 224.994 L
151.527 224.994 L
151.527 166.948 LE
150.221 168.786 LS
216.67 168.786 L
216.67 227.01 L
150.221 227.01 L
150.221 168.786 LE
148.968 170.632 LS
214.445 170.632 L
214.445 229.014 L
148.968 229.014 L
148.968 170.632 LE
147.752 172.369 LS
212.275 172.369 L
212.275 231.12 L
147.752 231.12 L
147.752 172.369 LE
146.586 174.111 LS
210.152 174.111 L
210.152 233.217 L
146.586 233.217 L
146.586 174.111 LE
145.473 175.869 LS
208.07 175.869 L
208.07 235.292 L
145.473 235.292 L
145.473 175.869 LE
144.414 177.645 LS
206.032 177.645 L
206.032 237.345 L
144.414 237.345 L
144.414 177.645 LE
143.407 179.437 LS
204.035 179.437 L
204.035 239.378 L
143.407 239.378 L
143.407 179.437 LE
142.447 181.245 LS
202.081 181.245 L
202.081 241.402 L
142.447 241.402 L
142.447 181.245 LE
141.539 183.071 LS
200.17 183.071 L
200.17 243.405 L
141.539 243.405 L
141.539 183.071 LE
140.683 184.914 LS
198.301 184.914 L
198.301 245.383 L
140.683 245.383 L
140.683 184.914 LE
139.873 186.769 LS
196.476 186.769 L
196.476 247.326 L
139.873 247.326 L
139.873 186.769 LE
139.106 188.622 LS
194.693 188.622 L
194.693 249.253 L
139.106 249.253 L
139.106 188.622 LE
138.382 190.479 LS
192.955 190.479 L
192.955 251.153 L
138.382 251.153 L
138.382 190.479 LE
137.701 192.343 LS
191.259 192.343 L
191.259 253.023 L
137.701 253.023 L
137.701 192.343 LE
137.062 194.217 LS
189.607 194.217 L
189.607 254.862 L
137.062 254.862 L
137.062 194.217 LE
136.465 196.099 LS
187.998 196.099 L
187.998 256.669 L
136.465 256.669 L
136.465 196.099 LE
135.891 197.991 LS
186.449 197.991 L
186.449 258.445 L
135.891 258.445 L
135.891 197.991 LE
135.354 199.894 LS
184.947 199.894 L
184.947 260.193 L
135.354 260.193 L
135.354 199.894 LE
134.857 201.809 LS
183.487 201.809 L
183.487 261.907 L
134.857 261.907 L
134.857 201.809 LE
134.399 203.736 LS
182.071 203.736 L
182.071 263.583 L
134.399 263.583 L
134.399 203.736 LE
133.976 205.667 LS
180.714 205.667 L
180.714 265.215 L
133.976 265.215 L
133.976 205.667 LE
133.585 207.597 LS
179.418 207.597 L
179.418 266.808 L
133.585 266.808 L
133.585 207.597 LE
133.224 209.518 LS
178.164 209.518 L
178.164 268.368 L
133.224 268.368 L
133.224 209.518 LE
132.894 211.434 LS
176.951 211.434 L
176.951 269.891 L
132.894 269.891 L
132.894 211.434 LE
132.593 213.346 LS
175.779 213.346 L
175.779 271.378 L
132.593 271.378 L
132.593 213.346 LE
132.322 215.253 LS
174.649 215.253 L
174.649 272.829 L
132.322 272.829 L
132.322 215.253 LE
132.077 217.155 LS
173.559 217.155 L
173.559 274.245 L
132.077 274.245 L
132.077 217.155 LE
131.86 219.052 LS
172.511 219.052 L
172.511 275.625 L
131.86 275.625 L
131.86 219.052 LE
131.669 220.945 LS
171.504 220.945 L
171.504 276.967 L
131.669 276.967 L
131.669 220.945 LE
131.502 222.835 LS
170.536 222.835 L
170.536 278.269 L
131.502 278.269 L
131.502 222.835 LE
131.359 224.713 LS
169.604 224.713 L
169.604 279.522 L
131.359 279.522 L
131.359 224.713 LE
131.237 226.572 LS
168.711 226.572 L
168.711 280.738 L
131.237 280.738 L
131.237 226.572 LE
131.12 228.415 LS
167.87 228.415 L
167.87 281.916 L
131.12 281.916 L
131.12 228.415 LE
131.017 230.191 LS
167.072 230.191 L
167.072 283.104 L
131.017 283.104 L
131.017 230.191 LE
130.931 231.927 LS
166.313 231.927 L
166.313 284.277 L
130.931 284.277 L
130.931 231.927 LE
130.862 233.649 LS
165.592 233.649 L
165.592 285.41 L
130.862 285.41 L
130.862 233.649 LE
130.81 235.352 LS
164.907 235.352 L
164.907 286.504 L
130.81 286.504 L
130.81 235.352 LE
130.776 237.037 LS
164.257 237.037 L
164.257 287.561 L
130.776 287.561 L
130.776 237.037 LE
130.757 238.705 LS
163.643 238.705 L
163.643 288.579 L
130.757 288.579 L
130.757 238.705 LE
130.753 240.355 LS
163.063 240.355 L
163.063 289.557 L
130.753 289.557 L
130.753 240.355 LE
130.769 241.983 LS
162.512 241.983 L
162.512 290.482 L
130.769 290.482 L
130.769 241.983 LE
130.8 243.585 LS
161.991 243.585 L
161.991 291.371 L
130.8 291.371 L
130.8 243.585 LE
130.845 245.161 LS
161.501 245.161 L
161.501 292.223 L
130.845 292.223 L
130.845 245.161 LE
130.903 246.652 LS
161.042 246.652 L
161.042 293.099 L
130.903 293.099 L
130.903 246.652 LE
130.974 248.062 LS
160.613 248.062 L
160.613 293.992 L
130.974 293.992 L
130.974 248.062 LE
131.06 249.452 LS
160.211 249.452 L
160.211 294.845 L
131.06 294.845 L
131.06 249.452 LE
131.159 250.821 LS
159.836 250.821 L
159.836 295.657 L
131.159 295.657 L
131.159 250.821 LE
131.27 252.166 LS
159.488 252.166 L
159.488 296.432 L
131.27 296.432 L
131.27 252.166 LE
131.392 253.486 LS
159.167 253.486 L
159.167 297.167 L
131.392 297.167 L
131.392 253.486 LE
131.525 254.784 LS
158.872 254.784 L
158.872 297.863 L
131.525 297.863 L
131.525 254.784 LE
131.668 256.057 LS
158.603 256.057 L
158.603 298.509 L
131.668 298.509 L
131.668 256.057 LE
131.801 257.306 LS
158.379 257.306 L
158.379 299.117 L
131.801 299.117 L
131.801 257.306 LE
131.948 258.524 LS
158.175 258.524 L
158.175 299.696 L
131.948 299.696 L
131.948 258.524 LE
132.107 259.677 LS
157.991 259.677 L
157.991 300.277 L
132.107 300.277 L
132.107 259.677 LE
132.28 260.811 LS
157.825 260.811 L
157.825 300.816 L
132.28 300.816 L
132.28 260.811 LE
132.462 261.924 LS
157.68 261.924 L
157.68 301.319 L
132.462 301.319 L
132.462 261.924 LE
132.65 263.011 LS
157.557 263.011 L
157.557 301.787 L
132.65 301.787 L
132.65 263.011 LE
132.842 264.067 LS
157.459 264.067 L
157.459 302.225 L
132.842 302.225 L
132.842 264.067 LE
133.043 265.099 LS
157.379 265.099 L
157.379 302.625 L
133.043 302.625 L
133.043 265.099 LE
133.247 266.109 LS
157.321 266.109 L
157.321 302.986 L
133.247 302.986 L
133.247 266.109 LE
133.461 267.076 LS
157.28 267.076 L
157.28 303.308 L
133.461 303.308 L
133.461 267.076 LE
133.681 268.014 LS
157.257 268.014 L
157.257 303.604 L
133.681 303.604 L
133.681 268.014 LE
133.908 268.913 LS
157.25 268.913 L
157.25 303.883 L
133.908 303.883 L
133.908 268.913 LE
134.122 269.791 LS
157.279 269.791 L
157.279 304.128 L
134.122 304.128 L
134.122 269.791 LE
134.324 270.647 LS
157.34 270.647 L
157.34 304.34 L
134.324 304.34 L
134.324 270.647 LE
134.532 271.474 LS
157.417 271.474 L
157.417 304.526 L
134.532 304.526 L
134.532 271.474 LE
134.739 272.275 LS
157.514 272.275 L
157.514 304.684 L
134.739 304.684 L
134.739 272.275 LE
134.951 273.039 LS
157.622 273.039 L
157.622 304.823 L
134.951 304.823 L
134.951 273.039 LE
135.036 273.776 LS
157.876 273.776 L
157.876 304.935 L
135.036 304.935 L
135.036 273.776 LE
134.86 273.975 LS
158.406 273.975 L
158.406 305.532 L
134.86 305.532 L
134.86 273.975 LE
134.678 274.09 LS
158.959 274.09 L
158.959 306.171 L
134.678 306.171 L
134.678 274.09 LE
134.479 274.116 LS
159.544 274.116 L
159.544 306.853 L
134.479 306.853 L
134.479 274.116 LE
134.26 274.055 LS
160.162 274.055 L
160.162 307.578 L
134.26 307.578 L
134.26 274.055 LE
133.99 273.906 LS
160.845 273.906 L
160.845 308.346 L
133.99 308.346 L
133.99 273.906 LE
133.654 273.668 LS
161.606 273.668 L
161.606 309.157 L
133.654 309.157 L
133.654 273.668 LE
133.295 273.342 LS
162.402 273.342 L
162.402 310.011 L
133.295 310.011 L
133.295 273.342 LE
132.911 272.929 LS
163.232 272.929 L
163.232 310.908 L
132.911 310.908 L
132.911 272.929 LE
132.501 272.427 LS
164.099 272.427 L
164.099 311.849 L
132.501 311.849 L
132.501 272.427 LE
132.061 271.836 LS
165.004 271.836 L
165.004 312.832 L
132.061 312.832 L
132.061 271.836 LE
131.579 271.127 LS
165.958 271.127 L
165.958 313.895 L
131.579 313.895 L
131.579 271.127 LE
131.099 270.528 LS
166.918 270.528 L
166.918 314.81 L
131.099 314.81 L
131.099 270.528 LE
130.62 269.984 LS
167.882 269.984 L
167.882 315.633 L
130.62 315.633 L
130.62 269.984 LE
130.145 269.494 LS
168.85 269.494 L
168.85 316.365 L
130.145 316.365 L
130.145 269.494 LE
129.673 269.059 LS
169.818 269.059 L
169.818 317.006 L
129.673 317.006 L
129.673 269.059 LE
129.206 268.679 LS
170.786 268.679 L
170.786 317.556 L
129.206 317.556 L
129.206 268.679 LE
128.745 268.354 LS
171.75 268.354 L
171.75 318.014 L
128.745 318.014 L
128.745 268.354 LE
128.291 268.084 LS
172.71 268.084 L
172.71 318.381 L
128.291 318.381 L
128.291 268.084 LE
127.845 267.868 LS
173.664 267.868 L
173.664 318.657 L
127.845 318.657 L
127.845 267.868 LE
127.409 267.707 LS
174.608 267.707 L
174.608 318.841 L
127.409 318.841 L
127.409 267.707 LE
126.988 267.629 LS
175.538 267.629 L
175.538 318.911 L
126.988 318.911 L
126.988 267.629 LE
126.575 267.573 LS
176.46 267.573 L
176.46 318.934 L
126.575 318.934 L
126.575 267.573 LE
126.172 267.551 LS
177.37 267.551 L
177.37 318.899 L
126.172 318.899 L
126.172 267.551 LE
125.781 267.55 LS
178.267 267.55 L
178.267 318.817 L
125.781 318.817 L
125.781 267.55 LE
125.396 267.559 LS
179.156 267.559 L
179.156 318.7 L
125.396 318.7 L
125.396 267.559 LE
125.019 267.603 LS
180.033 267.603 L
180.033 318.524 L
125.019 318.524 L
125.019 267.603 LE
124.649 267.667 LS
180.901 267.667 L
180.901 318.302 L
124.649 318.302 L
124.649 267.667 LE
124.277 267.695 LS
181.767 267.695 L
181.767 318.091 L
124.277 318.091 L
124.277 267.695 LE
123.905 267.752 LS
182.628 267.752 L
182.628 317.826 L
123.905 317.826 L
123.905 267.752 LE
123.533 267.844 LS
183.485 267.844 L
183.485 317.5 L
123.533 317.5 L
123.533 267.844 LE
123.162 267.899 LS
184.333 267.899 L
184.333 317.192 L
123.162 317.192 L
123.162 267.899 LE
122.805 267.976 LS
185.164 267.976 L
185.164 316.848 L
122.805 316.848 L
122.805 267.976 LE
122.459 268.074 LS
185.975 268.074 L
185.975 316.469 L
122.459 316.469 L
122.459 268.074 LE
122.126 268.193 LS
186.768 268.193 L
186.768 316.055 L
122.126 316.055 L
122.126 268.193 LE
121.804 268.277 LS
187.541 268.277 L
187.541 315.661 L
121.804 315.661 L
121.804 268.277 LE
121.494 268.37 LS
188.296 268.37 L
188.296 315.244 L
121.494 315.244 L
121.494 268.37 LE
121.197 268.487 LS
189.029 268.487 L
189.029 314.788 L
121.197 314.788 L
121.197 268.487 LE
120.911 268.62 LS
189.743 268.62 L
189.743 314.303 L
120.911 314.303 L
120.911 268.62 LE
120.636 268.776 LS
190.438 268.776 L
190.438 313.78 L
120.636 313.78 L
120.636 268.776 LE
120.372 268.955 LS
191.112 268.955 L
191.112 313.22 L
120.372 313.22 L
120.372 268.955 LE
120.12 269.162 LS
191.766 269.162 L
191.766 312.622 L
120.12 312.622 L
120.12 269.162 LE
119.889 269.41 LS
192.388 269.41 L
192.388 311.978 L
119.889 311.978 L
119.889 269.41 LE
119.677 269.662 LS
192.982 269.662 L
192.982 311.324 L
119.677 311.324 L
119.677 269.662 LE
119.485 269.918 LS
193.545 269.918 L
193.545 310.659 L
119.485 310.659 L
119.485 269.918 LE
119.313 270.18 LS
194.079 270.18 L
194.079 309.985 L
119.313 309.985 L
119.313 270.18 LE
119.162 270.446 LS
194.581 270.446 L
194.581 309.299 L
119.162 309.299 L
119.162 270.446 LE
119.028 270.716 LS
195.056 270.716 L
195.056 308.604 L
119.028 308.604 L
119.028 270.716 LE
118.91 270.93 LS
195.504 270.93 L
195.504 307.96 L
118.91 307.96 L
118.91 270.93 LE
118.795 270.632 LS
195.938 270.632 L
195.938 307.822 L
118.795 307.822 L
118.795 270.632 LE
118.697 270.34 LS
196.345 270.34 L
196.345 307.672 L
118.697 307.672 L
118.697 270.34 LE
118.615 270.056 LS
196.725 270.056 L
196.725 307.513 L
118.615 307.513 L
118.615 270.056 LE
118.559 269.813 LS
197.067 269.813 L
197.067 307.314 L
118.559 307.314 L
118.559 269.813 LE
118.526 269.586 LS
197.374 269.586 L
197.374 307.101 L
118.526 307.101 L
118.526 269.586 LE
118.518 269.379 LS
197.646 269.379 L
197.646 306.87 L
118.518 306.87 L
118.518 269.379 LE
118.533 269.191 LS
197.884 269.191 L
197.884 306.622 L
118.533 306.622 L
118.533 269.191 LE
118.572 269.021 LS
198.086 269.021 L
198.086 306.357 L
118.572 306.357 L
118.572 269.021 LE
118.633 268.871 LS
198.255 268.871 L
198.255 306.075 L
118.633 306.075 L
118.633 268.871 LE
118.713 268.655 LS
198.395 268.655 L
198.395 305.86 L
118.713 305.86 L
118.713 268.655 LE
118.804 268.123 LS
198.512 268.123 L
198.512 305.963 L
118.804 305.963 L
118.804 268.123 LE
118.914 267.607 LS
198.599 267.607 L
198.599 306.051 L
118.914 306.051 L
118.914 267.607 LE
119.042 267.077 LS
198.657 267.077 L
198.657 306.159 L
119.042 306.159 L
119.042 267.077 LE
119.18 266.102 LS
198.695 266.102 L
198.695 306.718 L
119.18 306.718 L
119.18 266.102 LE
119.339 265.164 LS
198.7 265.164 L
198.7 307.247 L
119.339 307.247 L
119.339 265.164 LE
119.52 264.264 LS
198.673 264.264 L
198.673 307.746 L
119.52 307.746 L
119.52 264.264 LE
119.721 263.402 LS
198.616 263.402 L
198.616 308.214 L
119.721 308.214 L
119.721 263.402 LE
119.942 262.576 LS
198.528 262.576 L
198.528 308.652 L
119.942 308.652 L
119.942 262.576 LE
120.182 261.788 LS
198.412 261.788 L
198.412 309.06 L
120.182 309.06 L
120.182 261.788 LE
120.438 261.033 LS
198.269 261.033 L
198.269 309.443 L
120.438 309.443 L
120.438 261.033 LE
120.71 260.301 LS
198.102 260.301 L
198.102 309.809 L
120.71 309.809 L
120.71 260.301 LE
120.994 259.587 LS
197.912 259.587 L
197.912 310.164 L
120.994 310.164 L
120.994 259.587 LE
121.29 258.904 LS
197.701 258.904 L
197.701 310.497 L
121.29 310.497 L
121.29 258.904 LE
121.601 258.236 LS
197.466 258.236 L
197.466 310.823 L
121.601 310.823 L
121.601 258.236 LE
121.924 257.549 LS
197.21 257.549 L
197.21 311.177 L
121.924 311.177 L
121.924 257.549 LE
122.26 256.902 LS
196.932 256.902 L
196.932 311.5 L
122.26 311.5 L
122.26 256.902 LE
122.61 256.294 LS
196.632 256.294 L
196.632 311.792 L
122.61 311.792 L
122.61 256.294 LE
122.972 255.726 LS
196.312 255.726 L
196.312 312.054 L
122.972 312.054 L
122.972 255.726 LE
123.346 255.198 LS
195.973 255.198 L
195.973 312.285 L
123.346 312.285 L
123.346 255.198 LE
123.73 254.707 LS
195.615 254.707 L
195.615 312.488 L
123.73 312.488 L
123.73 254.707 LE
124.123 254.243 LS
195.24 254.243 L
195.24 312.672 L
124.123 312.672 L
124.123 254.243 LE
124.525 253.809 LS
194.85 253.809 L
194.85 312.836 L
124.525 312.836 L
124.525 253.809 LE
124.935 253.41 LS
194.444 253.41 L
194.444 312.973 L
124.935 312.973 L
124.935 253.41 LE
125.355 253.049 LS
194.023 253.049 L
194.023 313.081 L
125.355 313.081 L
125.355 253.049 LE
125.782 252.689 LS
193.587 252.689 L
193.587 313.198 L
125.782 313.198 L
125.782 252.689 LE
126.217 252.35 LS
193.137 252.35 L
193.137 313.302 L
126.217 313.302 L
126.217 252.35 LE
126.659 252.049 LS
192.674 252.049 L
192.674 313.378 L
126.659 313.378 L
126.659 252.049 LE
127.108 251.785 LS
192.198 251.785 L
192.198 313.427 L
127.108 313.427 L
127.108 251.785 LE
127.561 251.546 LS
191.712 251.546 L
191.712 313.458 L
127.561 313.458 L
127.561 251.546 LE
128.018 251.343 LS
191.217 251.343 L
191.217 313.464 L
128.018 313.464 L
128.018 251.343 LE
128.477 251.165 LS
190.715 251.165 L
190.715 313.453 L
128.477 313.453 L
128.477 251.165 LE
128.939 251.015 LS
190.205 251.015 L
190.205 313.423 L
128.939 313.423 L
128.939 251.015 LE
129.401 250.898 LS
189.691 250.898 L
189.691 313.369 L
129.401 313.369 L
129.401 250.898 LE
129.861 250.814 LS
189.175 250.814 L
189.175 313.292 L
129.861 313.292 L
129.861 250.814 LE
130.297 250.749 LS
188.678 250.749 L
188.678 313.204 L
130.297 313.204 L
130.297 250.749 LE
130.729 250.668 LS
188.18 250.668 L
188.18 313.139 L
130.729 313.139 L
130.729 250.668 LE
131.155 250.619 LS
187.686 250.619 L
187.686 313.053 L
131.155 313.053 L
131.155 250.619 LE
131.582 250.6 LS
187.187 250.6 L
187.187 312.945 L
131.582 312.945 L
131.582 250.6 LE
132.011 250.607 LS
186.683 250.607 L
186.683 312.82 L
132.011 312.82 L
132.011 250.607 LE
132.44 250.638 LS
186.176 250.638 L
186.176 312.679 L
132.44 312.679 L
132.44 250.638 LE
132.867 250.691 LS
185.668 250.691 L
185.668 312.526 L
132.867 312.526 L
132.867 250.691 LE
133.291 250.757 LS
185.16 250.757 L
185.16 312.367 L
133.291 312.367 L
133.291 250.757 LE
133.712 250.845 LS
184.653 250.845 L
184.653 312.196 L
133.712 312.196 L
133.712 250.845 LE
134.131 250.965 LS
184.147 250.965 L
184.147 311.999 L
134.131 311.999 L
134.131 250.965 LE
134.547 251.104 LS
183.641 251.104 L
183.641 311.791 L
134.547 311.791 L
134.547 251.104 LE
134.959 251.209 LS
183.138 251.209 L
183.138 311.625 L
134.959 311.625 L
134.959 251.209 LE
135.367 251.312 LS
182.637 251.312 L
182.637 311.468 L
135.367 311.468 L
135.367 251.312 LE
135.771 251.441 LS
182.138 251.441 L
182.138 311.294 L
135.771 311.294 L
135.771 251.441 LE
136.171 251.595 LS
181.642 251.595 L
181.642 311.101 L
136.171 311.101 L
136.171 251.595 LE
136.568 251.774 LS
181.15 251.774 L
181.15 310.892 L
136.568 310.892 L
136.568 251.774 LE
136.958 251.972 LS
180.662 251.972 L
180.662 310.67 L
136.958 310.67 L
136.958 251.972 LE
137.343 252.186 LS
180.18 252.186 L
180.18 310.44 L
137.343 310.44 L
137.343 252.186 LE
137.722 252.419 LS
179.703 252.419 L
179.703 310.199 L
137.722 310.199 L
137.722 252.419 LE
138.095 252.677 LS
179.232 252.677 L
179.232 309.937 L
138.095 309.937 L
138.095 252.677 LE
138.464 252.948 LS
178.765 252.948 L
178.765 309.669 L
138.464 309.669 L
138.464 252.948 LE
138.826 253.219 LS
178.305 253.219 L
178.305 309.407 L
138.826 309.407 L
138.826 253.219 LE
139.182 253.475 LS
177.852 253.475 L
177.852 309.165 L
139.182 309.165 L
139.182 253.475 LE
139.532 253.751 LS
177.405 253.751 L
177.405 308.909 L
139.532 308.909 L
139.532 253.751 LE
139.876 254.047 LS
176.964 254.047 L
176.964 308.639 L
139.876 308.639 L
139.876 254.047 LE
140.215 254.36 LS
176.53 254.36 L
176.53 308.358 L
140.215 308.358 L
140.215 254.36 LE
140.546 254.688 LS
176.104 254.688 L
176.104 308.069 L
140.546 308.069 L
140.546 254.688 LE
140.869 255.027 LS
175.687 255.027 L
175.687 307.773 L
140.869 307.773 L
140.869 255.027 LE
141.093 255.378 LS
175.37 255.378 L
175.37 307.471 L
141.093 307.471 L
141.093 255.378 LE
141.29 255.749 LS
175.081 255.749 L
175.081 307.152 L
141.29 307.152 L
141.29 255.749 LE
141.487 256.126 LS
174.795 256.126 L
174.795 306.832 L
141.487 306.832 L
141.487 256.126 LE
141.682 256.499 LS
174.511 256.499 L
174.511 306.52 L
141.682 306.52 L
141.682 256.499 LE
141.876 256.836 LS
174.231 256.836 L
174.231 306.248 L
141.876 306.248 L
141.876 256.836 LE
142.067 257.178 LS
173.954 257.178 L
173.954 305.976 L
142.067 305.976 L
142.067 257.178 LE
142.143 257.531 LS
173.795 257.531 L
173.795 305.696 L
142.143 305.696 L
142.143 257.531 LE
142.207 257.889 LS
173.651 257.889 L
173.651 305.416 L
142.207 305.416 L
142.207 257.889 LE
142.264 258.258 LS
173.515 258.258 L
173.515 305.129 L
142.264 305.129 L
142.264 258.258 LE
142.318 258.636 LS
173.384 258.636 L
173.384 304.836 L
142.318 304.836 L
142.318 258.636 LE
142.375 259.021 LS
173.252 259.021 L
173.252 304.54 L
142.375 304.54 L
142.375 259.021 LE
142.436 259.418 LS
173.118 259.418 L
173.118 304.234 L
142.436 304.234 L
142.436 259.418 LE
142.501 259.816 LS
172.983 259.816 L
172.983 303.93 L
142.501 303.93 L
142.501 259.816 LE
142.57 260.207 LS
172.847 260.207 L
172.847 303.635 L
142.57 303.635 L
142.57 260.207 LE
142.641 260.568 LS
172.711 260.568 L
172.711 303.372 L
142.641 303.372 L
142.641 260.568 LE
142.713 260.937 LS
172.576 260.937 L
172.576 303.104 L
142.713 303.104 L
142.713 260.937 LE
142.734 261.314 LS
172.495 261.314 L
172.495 302.83 L
142.734 302.83 L
142.734 261.314 LE
142.709 261.696 LS
172.462 261.696 L
172.462 302.552 L
142.709 302.552 L
142.709 261.696 LE
142.691 262.083 LS
172.426 262.083 L
172.426 302.273 L
142.691 302.273 L
142.691 262.083 LE
142.595 262.473 LS
172.47 262.473 L
172.47 301.993 L
142.595 301.993 L
142.595 262.473 LE
142.478 262.861 LS
172.538 262.861 L
172.538 301.717 L
142.478 301.717 L
142.478 262.861 LE
142.373 263.257 LS
172.597 263.257 L
172.597 301.432 L
142.373 301.432 L
142.373 263.257 LE
142.28 263.65 LS
172.647 263.65 L
172.647 301.151 L
142.28 301.151 L
142.28 263.65 LE
142.196 264.03 LS
172.69 264.03 L
172.69 300.885 L
142.196 300.885 L
142.196 264.03 LE
142.123 264.384 LS
172.726 264.384 L
172.726 300.643 L
142.123 300.643 L
142.123 264.384 LE
142.055 264.743 LS
172.759 264.743 L
172.759 300.399 L
142.055 300.399 L
142.055 264.743 LE
141.981 265.106 LS
172.801 265.106 L
172.801 300.15 L
141.981 300.15 L
141.981 265.106 LE
141.917 265.471 LS
172.836 265.471 L
172.836 299.901 L
141.917 299.901 L
141.917 265.471 LE
141.863 265.837 LS
172.864 265.837 L
172.864 299.651 L
141.863 299.651 L
141.863 265.837 LE
141.806 266.202 LS
172.898 266.202 L
172.898 299.403 L
141.806 299.403 L
141.806 266.202 LE
141.751 266.522 LS
172.934 266.522 L
172.934 299.199 L
141.751 299.199 L
141.751 266.522 LE
141.706 266.793 LS
172.962 266.793 L
172.962 299.043 L
141.706 299.043 L
141.706 266.793 LE
141.671 267.062 LS
172.983 267.062 L
172.983 298.889 L
141.671 298.889 L
141.671 267.062 LE
141.646 267.308 LS
172.996 267.308 L
172.996 298.756 L
141.646 298.756 L
141.646 267.308 LE
141.629 267.534 LS
173.004 267.534 L
173.004 298.643 L
141.629 298.643 L
141.629 267.534 LE
141.611 267.766 LS
173.017 267.766 L
173.017 298.523 L
141.611 298.523 L
141.611 267.766 LE
141.59 268.003 LS
173.036 268.003 L
173.036 298.397 L
141.59 298.397 L
141.59 268.003 LE
141.577 268.229 LS
173.048 268.229 L
173.048 298.281 L
141.577 298.281 L
141.577 268.229 LE
141.572 268.37 LS
173.056 268.37 L
173.056 298.249 L
141.572 298.249 L
141.572 268.37 LE
141.573 268.5 LS
173.06 268.5 L
173.06 298.228 L
141.573 298.228 L
141.573 268.5 LE
141.573 268.632 LS
173.068 268.632 L
173.068 298.203 L
141.573 298.203 L
141.573 268.632 LE
141.584 268.774 LS
173.069 268.774 L
173.069 298.166 L
141.584 298.166 L
141.584 268.774 LE
141.603 268.917 LS
173.063 268.917 L
173.063 298.125 L
141.603 298.125 L
141.603 268.917 LE
141.631 269.031 LS
173.052 269.031 L
173.052 298.112 L
141.631 298.112 L
141.631 269.031 LE
141.667 269.142 LS
173.034 269.142 L
173.034 298.1 L
141.667 298.1 L
141.667 269.142 LE
141.703 269.261 LS
173.019 269.261 L
173.019 298.077 L
141.703 298.077 L
141.703 269.261 LE
141.734 269.389 LS
173.012 269.389 L
173.012 298.044 L
141.734 298.044 L
141.734 269.389 LE
141.772 269.515 LS
173 269.515 L
173 298.01 L
141.772 298.01 L
141.772 269.515 LE
141.815 269.574 LS
172.984 269.574 L
172.984 298.041 L
141.815 298.041 L
141.815 269.574 LE
141.866 269.632 LS
172.963 269.632 L
172.963 298.072 L
141.866 298.072 L
141.866 269.632 LE
141.922 269.682 LS
172.94 269.682 L
172.94 298.107 L
141.922 298.107 L
141.922 269.682 LE
141.976 269.667 LS
172.921 269.667 L
172.921 298.206 L
141.976 298.206 L
141.976 269.667 LE
142.037 269.661 LS
172.896 269.661 L
172.896 298.293 L
142.037 298.293 L
142.037 269.661 LE
142.106 269.624 LS
172.866 269.624 L
172.866 298.408 L
142.106 298.408 L
142.106 269.624 LE
142.183 269.603 LS
172.83 269.603 L
172.83 298.503 L
142.183 298.503 L
142.183 269.603 LE
142.268 269.6 LS
172.788 269.6 L
172.788 298.579 L
142.268 298.579 L
142.268 269.6 LE
142.347 269.604 LS
172.752 269.604 L
172.752 298.645 L
142.347 298.645 L
142.347 269.604 LE
142.429 269.611 LS
172.716 269.611 L
172.716 298.705 L
142.429 298.705 L
142.429 269.611 LE
142.518 269.632 LS
172.675 269.632 L
172.675 298.748 L
142.518 298.748 L
142.518 269.632 LE
142.613 269.663 LS
172.63 269.663 L
172.63 298.778 L
142.613 298.778 L
142.613 269.663 LE
142.714 269.699 LS
172.579 269.699 L
172.579 298.801 L
142.714 298.801 L
142.714 269.699 LE
142.821 269.735 LS
172.524 269.735 L
172.524 298.821 L
142.821 298.821 L
142.821 269.735 LE
142.918 269.766 LS
172.481 269.766 L
172.481 298.843 L
142.918 298.843 L
142.918 269.766 LE
143.02 269.783 LS
172.433 269.783 L
172.433 298.876 L
143.02 298.876 L
143.02 269.783 LE
143.129 269.814 LS
172.38 269.814 L
172.38 298.893 L
143.129 298.893 L
143.129 269.814 LE
143.244 269.852 LS
172.322 269.852 L
172.322 298.9 L
143.244 298.9 L
143.244 269.852 LE
143.365 269.891 LS
172.26 269.891 L
172.26 298.902 L
143.365 298.902 L
143.365 269.891 LE
143.482 269.937 LS
172.202 269.937 L
172.202 298.895 L
143.482 298.895 L
143.482 269.937 LE
143.6 269.995 LS
172.144 269.995 L
172.144 298.873 L
143.6 298.873 L
143.6 269.995 LE
143.722 270.056 LS
172.083 270.056 L
172.083 298.845 L
143.722 298.845 L
143.722 270.056 LE
143.845 270.123 LS
172.022 270.123 L
172.022 298.809 L
143.845 298.809 L
143.845 270.123 LE
143.972 270.194 LS
171.957 270.194 L
171.957 298.765 L
143.972 298.765 L
143.972 270.194 LE
144.104 270.242 LS
171.889 270.242 L
171.889 298.743 L
144.104 298.743 L
144.104 270.242 LE
144.232 270.28 LS
171.825 270.28 L
171.825 298.727 L
144.232 298.727 L
144.232 270.28 LE
144.36 270.33 LS
171.761 270.33 L
171.761 298.697 L
144.36 298.697 L
144.36 270.33 LE
144.493 270.379 LS
171.692 270.379 L
171.692 298.666 L
144.493 298.666 L
144.493 270.379 LE
144.631 270.436 LS
171.62 270.436 L
171.62 298.624 L
144.631 298.624 L
144.631 270.436 LE
144.772 270.5 LS
171.544 270.5 L
171.544 298.573 L
144.772 298.573 L
144.772 270.5 LE
144.912 270.573 LS
171.47 270.573 L
171.47 298.51 L
144.912 298.51 L
144.912 270.573 LE
145.052 270.649 LS
171.397 270.649 L
171.397 298.442 L
145.052 298.442 L
145.052 270.649 LE
144.699 270.109 LS
171.816 270.109 L
171.816 298.986 L
144.699 298.986 L
144.699 270.109 LE
144.322 269.492 LS
172.259 269.492 L
172.259 299.607 L
144.322 299.607 L
144.322 269.492 LE
143.919 268.796 LS
172.729 268.796 L
172.729 300.303 L
143.919 300.303 L
143.919 268.796 LE
143.486 268.024 LS
173.228 268.024 L
173.228 301.075 L
143.486 301.075 L
143.486 268.024 LE
143.02 267.173 LS
173.761 267.173 L
173.761 301.923 L
143.02 301.923 L
143.02 267.173 LE
142.517 266.244 LS
174.33 266.244 L
174.33 302.846 L
142.517 302.846 L
142.517 266.244 LE
141.975 265.238 LS
174.938 265.238 L
174.938 303.845 L
141.975 303.845 L
141.975 265.238 LE
141.39 264.154 LS
175.589 264.154 L
175.589 304.92 L
141.39 304.92 L
141.39 264.154 LE
140.76 262.992 LS
176.285 262.992 L
176.285 306.071 L
140.76 306.071 L
140.76 262.992 LE
140.08 261.752 LS
177.03 261.752 L
177.03 307.298 L
140.08 307.298 L
140.08 261.752 LE
139.337 260.397 LS
177.837 260.397 L
177.837 308.635 L
139.337 308.635 L
139.337 260.397 LE
138.574 259.198 LS
178.665 259.198 L
178.665 309.81 L
138.574 309.81 L
138.574 259.198 LE
137.795 258.099 LS
179.508 258.099 L
179.508 310.878 L
137.795 310.878 L
137.795 258.099 LE
137.001 257.099 LS
180.365 257.099 L
180.365 311.84 L
137.001 311.84 L
137.001 257.099 LE
136.197 256.198 LS
181.231 256.198 L
181.231 312.697 L
136.197 312.697 L
136.197 256.198 LE
135.385 255.396 LS
182.104 255.396 L
182.104 313.447 L
135.385 313.447 L
135.385 255.396 LE
134.567 254.693 LS
182.98 254.693 L
182.98 314.092 L
134.567 314.092 L
134.567 254.693 LE
133.748 254.09 LS
183.857 254.09 L
183.857 314.63 L
133.748 314.63 L
133.748 254.09 LE
132.93 253.585 LS
184.732 253.585 L
184.732 315.063 L
132.93 315.063 L
132.93 253.585 LE
132.117 253.179 LS
185.6 253.179 L
185.6 315.39 L
132.117 315.39 L
132.117 253.179 LE
131.316 252.904 LS
186.452 252.904 L
186.452 315.582 L
131.316 315.582 L
131.316 252.904 LE
130.525 252.674 LS
187.294 252.674 L
187.294 315.724 L
130.525 315.724 L
130.525 252.674 LE
129.744 252.503 LS
188.123 252.503 L
188.123 315.802 L
129.744 315.802 L
129.744 252.503 LE
128.975 252.394 LS
188.937 252.394 L
188.937 315.815 L
128.975 315.815 L
128.975 252.394 LE
128.216 252.323 LS
189.739 252.323 L
189.739 315.786 L
128.216 315.786 L
128.216 252.323 LE
127.464 252.289 LS
190.532 252.289 L
190.532 315.715 L
127.464 315.715 L
127.464 252.289 LE
126.722 252.315 LS
191.312 252.315 L
191.312 315.579 L
126.722 315.579 L
126.722 252.315 LE
125.984 252.371 LS
192.085 252.371 L
192.085 315.41 L
125.984 315.41 L
125.984 252.371 LE
125.245 252.452 LS
192.856 252.452 L
192.856 315.212 L
125.245 315.212 L
125.245 252.452 LE
124.506 252.593 LS
193.625 252.593 L
193.625 314.949 L
124.506 314.949 L
124.506 252.593 LE
123.772 252.816 LS
194.385 252.816 L
194.385 314.602 L
123.772 314.602 L
123.772 252.816 LE
123.053 253.117 LS
195.127 253.117 L
195.127 314.176 L
123.053 314.176 L
123.053 253.117 LE
122.349 253.449 LS
195.851 253.449 L
195.851 313.718 L
122.349 313.718 L
122.349 253.449 LE
121.66 253.813 LS
196.557 253.813 L
196.557 313.227 L
121.66 313.227 L
121.66 253.813 LE
120.986 254.208 LS
197.244 254.208 L
197.244 312.704 L
120.986 312.704 L
120.986 254.208 LE
120.329 254.635 LS
197.911 254.635 L
197.911 312.149 L
120.329 312.149 L
120.329 254.635 LE
119.689 255.093 LS
198.558 255.093 L
198.558 311.561 L
119.689 311.561 L
119.689 255.093 LE
119.066 255.581 LS
199.185 255.581 L
199.185 310.943 L
119.066 310.943 L
119.066 255.581 LE
118.459 256.098 LS
199.792 256.098 L
199.792 310.295 L
118.459 310.295 L
118.459 256.098 LE
117.869 256.646 LS
200.379 256.646 L
200.379 309.615 L
117.869 309.615 L
117.869 256.646 LE
117.297 257.228 LS
200.945 257.228 L
200.945 308.9 L
117.297 308.9 L
117.297 257.228 LE
116.755 257.864 LS
201.477 257.864 L
201.477 308.134 L
116.755 308.134 L
116.755 257.864 LE
116.242 258.508 LS
201.977 258.508 L
201.977 307.36 L
116.242 307.36 L
116.242 258.508 LE
115.759 259.16 LS
202.444 259.16 L
202.444 306.58 L
115.759 306.58 L
115.759 259.16 LE
115.304 259.821 LS
202.88 259.821 L
202.88 305.792 L
115.304 305.792 L
115.304 259.821 LE
114.878 260.489 LS
203.283 260.489 L
203.283 304.998 L
114.878 304.998 L
114.878 260.489 LE
114.481 261.166 LS
203.654 261.166 L
203.654 304.196 L
114.481 304.196 L
114.481 261.166 LE
114.112 261.849 LS
203.994 261.849 L
203.994 303.39 L
114.112 303.39 L
114.112 261.849 LE
113.759 262.129 LS
204.314 262.129 L
204.314 302.988 L
113.759 302.988 L
113.759 262.129 LE
113.424 261.99 LS
204.614 261.99 L
204.614 303.006 L
113.424 303.006 L
113.424 261.99 LE
113.114 261.863 LS
204.886 261.863 L
204.886 303.014 L
113.114 303.014 L
113.114 261.863 LE
112.84 261.778 LS
205.118 261.778 L
205.118 302.985 L
112.84 302.985 L
112.84 261.778 LE
112.602 261.705 LS
205.312 261.705 L
205.312 302.947 L
112.602 302.947 L
112.602 261.705 LE
112.397 261.648 LS
205.47 261.648 L
205.47 302.897 L
112.397 302.897 L
112.397 261.648 LE
112.227 261.609 LS
205.591 261.609 L
205.591 302.833 L
112.227 302.833 L
112.227 261.609 LE
112.089 261.588 LS
205.676 261.588 L
205.676 302.755 L
112.089 302.755 L
112.089 261.588 LE
111.984 261.585 LS
205.726 261.585 L
205.726 302.663 L
111.984 302.663 L
111.984 261.585 LE
111.911 261.597 LS
205.742 261.597 L
205.742 302.559 L
111.911 302.559 L
111.911 261.597 LE
111.867 261.623 LS
205.726 261.623 L
205.726 302.445 L
111.867 302.445 L
111.867 261.623 LE
111.852 261.646 LS
205.679 261.646 L
205.679 302.338 L
111.852 302.338 L
111.852 261.646 LE
111.853 261.209 LS
205.614 261.209 L
205.614 302.696 L
111.853 302.696 L
111.853 261.209 LE
111.888 260.811 LS
205.513 260.811 L
205.513 303.019 L
111.888 303.019 L
111.888 260.811 LE
111.954 260.432 LS
205.379 260.432 L
205.379 303.328 L
111.954 303.328 L
111.954 260.432 LE
112.037 259.469 LS
205.227 259.469 L
205.227 304.225 L
112.037 304.225 L
112.037 259.469 LE
112.149 258.537 LS
205.043 258.537 L
205.043 305.097 L
112.149 305.097 L
112.149 258.537 LE
112.292 257.645 LS
204.828 257.645 L
204.828 305.934 L
112.292 305.934 L
112.292 257.645 LE
112.464 256.793 LS
204.582 256.793 L
204.582 306.736 L
112.464 306.736 L
112.464 256.793 LE
112.663 255.977 LS
204.307 255.977 L
204.307 307.506 L
112.663 307.506 L
112.663 255.977 LE
112.885 255.182 LS
204.009 255.182 L
204.009 308.26 L
112.885 308.26 L
112.885 255.182 LE
113.127 254.418 LS
203.689 254.418 L
203.689 308.988 L
113.127 308.988 L
113.127 254.418 LE
113.391 253.687 LS
203.347 253.687 L
203.347 309.688 L
113.391 309.688 L
113.391 253.687 LE
113.678 253.001 LS
202.981 253.001 L
202.981 310.345 L
113.678 310.345 L
113.678 253.001 LE
113.987 252.351 LS
202.593 252.351 L
202.593 310.971 L
113.987 310.971 L
113.987 252.351 LE
114.316 251.703 LS
202.183 251.703 L
202.183 311.598 L
114.316 311.598 L
114.316 251.703 LE
114.665 251.09 LS
201.753 251.09 L
201.753 312.194 L
114.665 312.194 L
114.665 251.09 LE
115.035 250.519 LS
201.303 250.519 L
201.303 312.752 L
115.035 312.752 L
115.035 250.519 LE
115.423 249.991 LS
200.833 249.991 L
200.833 313.27 L
115.423 313.27 L
115.423 249.991 LE
115.828 249.503 LS
200.346 249.503 L
200.346 313.752 L
115.828 313.752 L
115.828 249.503 LE
116.25 249.05 LS
199.842 249.05 L
199.842 314.202 L
116.25 314.202 L
116.25 249.05 LE
116.686 248.633 LS
199.325 248.633 L
199.325 314.621 L
116.686 314.621 L
116.686 248.633 LE
117.135 248.252 LS
198.793 248.252 L
198.793 315.006 L
117.135 315.006 L
117.135 248.252 LE
117.599 247.908 LS
198.247 247.908 L
198.247 315.357 L
117.599 315.357 L
117.599 247.908 LE
118.076 247.593 LS
197.689 247.593 L
197.689 315.681 L
118.076 315.681 L
118.076 247.593 LE
118.565 247.281 LS
197.12 247.281 L
197.12 316.004 L
118.565 316.004 L
118.565 247.281 LE
119.065 246.993 LS
196.539 246.993 L
196.539 316.306 L
119.065 316.306 L
119.065 246.993 LE
119.575 246.742 LS
195.948 246.742 L
195.948 316.572 L
119.575 316.572 L
119.575 246.742 LE
120.094 246.517 LS
195.349 246.517 L
195.349 316.817 L
120.094 316.817 L
120.094 246.517 LE
120.62 246.319 LS
194.744 246.319 L
194.744 317.035 L
120.62 317.035 L
120.62 246.319 LE
121.15 246.154 LS
194.134 246.154 L
194.134 317.223 L
121.15 317.223 L
121.15 246.154 LE
121.684 246.018 LS
193.522 246.018 L
193.522 317.384 L
121.684 317.384 L
121.684 246.018 LE
122.222 245.916 LS
192.906 245.916 L
192.906 317.514 L
122.222 317.514 L
122.222 245.916 LE
122.765 245.85 LS
192.287 245.85 L
192.287 317.609 L
122.765 317.609 L
122.765 245.85 LE
123.312 245.81 LS
191.664 245.81 L
191.664 317.68 L
123.312 317.68 L
123.312 245.81 LE
123.861 245.771 LS
191.039 245.771 L
191.039 317.752 L
123.861 317.752 L
123.861 245.771 LE
124.413 245.745 LS
190.413 245.745 L
190.413 317.813 L
124.413 317.813 L
124.413 245.745 LE
124.967 245.752 LS
189.785 245.752 L
189.785 317.842 L
124.967 317.842 L
124.967 245.752 LE
125.523 245.792 LS
189.156 245.792 L
189.156 317.84 L
125.523 317.84 L
125.523 245.792 LE
126.08 245.862 LS
188.528 245.862 L
188.528 317.809 L
126.08 317.809 L
126.08 245.862 LE
126.635 245.954 LS
187.902 245.954 L
187.902 317.759 L
126.635 317.759 L
126.635 245.954 LE
127.188 246.069 LS
187.28 246.069 L
187.28 317.688 L
127.188 317.688 L
127.188 246.069 LE
0 0 0 C
(Flowpipe for Ex. 4) 298.08 410.6 10 /Helvetica SBC
grestore
showpage
cleartomark
%%PageTrailer
%%Trailer
end
%%EOF
