%!PS-Adobe-3.0 EPSF-3.0
%%Title: glps_renderer figure
%%Creator: GL2PS 1.3.8, (C) 1999-2012 C. Geuzaine
%%For: Octave
%%CreationDate: Wed Mar 13 17:57:03 2019
%%LanguageLevel: 3
%%DocumentData: Clean7Bit
%%Pages: 1
%%BoundingBox: 0 0 576 433
%%EndComments
%%BeginProlog
/gl2psdict 64 dict def gl2psdict begin
0 setlinecap 0 setlinejoin
/tryPS3shading false def % set to false to force subdivision
/rThreshold 0.064 def % red component subdivision threshold
/gThreshold 0.034 def % green component subdivision threshold
/bThreshold 0.1 def % blue component subdivision threshold
/BD { bind def } bind def
/C  { setrgbcolor } BD
/G  { 0.082 mul exch 0.6094 mul add exch 0.3086 mul add neg 1.0 add setgray } BD
/W  { setlinewidth } BD
/FC { findfont exch /SH exch def SH scalefont setfont } BD
/SW { dup stringwidth pop } BD
/S  { FC moveto show } BD
/SBC{ FC moveto SW -2 div 0 rmoveto show } BD
/SBR{ FC moveto SW neg 0 rmoveto show } BD
/SCL{ FC moveto 0 SH -2 div rmoveto show } BD
/SCC{ FC moveto SW -2 div SH -2 div rmoveto show } BD
/SCR{ FC moveto SW neg SH -2 div rmoveto show } BD
/STL{ FC moveto 0 SH neg rmoveto show } BD
/STC{ FC moveto SW -2 div SH neg rmoveto show } BD
/STR{ FC moveto SW neg SH neg rmoveto show } BD
/FCT { FC translate 0 0 } BD
/SR  { gsave FCT moveto rotate show grestore } BD
/SBCR{ gsave FCT moveto rotate SW -2 div 0 rmoveto show grestore } BD
/SBRR{ gsave FCT moveto rotate SW neg 0 rmoveto show grestore } BD
/SCLR{ gsave FCT moveto rotate 0 SH -2 div rmoveto show grestore} BD
/SCCR{ gsave FCT moveto rotate SW -2 div SH -2 div rmoveto show grestore} BD
/SCRR{ gsave FCT moveto rotate SW neg SH -2 div rmoveto show grestore} BD
/STLR{ gsave FCT moveto rotate 0 SH neg rmoveto show grestore } BD
/STCR{ gsave FCT moveto rotate SW -2 div SH neg rmoveto show grestore } BD
/STRR{ gsave FCT moveto rotate SW neg SH neg rmoveto show grestore } BD
/P  { newpath 0.0 360.0 arc closepath fill } BD
/LS { newpath moveto } BD
/L  { lineto } BD
/LE { lineto stroke } BD
/T  { newpath moveto lineto lineto closepath fill } BD
/STshfill {
      /b1 exch def /g1 exch def /r1 exch def /y1 exch def /x1 exch def
      /b2 exch def /g2 exch def /r2 exch def /y2 exch def /x2 exch def
      /b3 exch def /g3 exch def /r3 exch def /y3 exch def /x3 exch def
      gsave << /ShadingType 4 /ColorSpace [/DeviceRGB]
      /DataSource [ 0 x1 y1 r1 g1 b1 0 x2 y2 r2 g2 b2 0 x3 y3 r3 g3 b3 ] >>
      shfill grestore } BD
/Tm { 3 -1 roll 8 -1 roll 13 -1 roll add add 3 div
      3 -1 roll 7 -1 roll 11 -1 roll add add 3 div
      3 -1 roll 6 -1 roll 9 -1 roll add add 3 div C T } BD
/STsplit {
      4 index 15 index add 0.5 mul
      4 index 15 index add 0.5 mul
      4 index 15 index add 0.5 mul
      4 index 15 index add 0.5 mul
      4 index 15 index add 0.5 mul
      5 copy 5 copy 25 15 roll
      9 index 30 index add 0.5 mul
      9 index 30 index add 0.5 mul
      9 index 30 index add 0.5 mul
      9 index 30 index add 0.5 mul
      9 index 30 index add 0.5 mul
      5 copy 5 copy 35 5 roll 25 5 roll 15 5 roll
      4 index 10 index add 0.5 mul
      4 index 10 index add 0.5 mul
      4 index 10 index add 0.5 mul
      4 index 10 index add 0.5 mul
      4 index 10 index add 0.5 mul
      5 copy 5 copy 40 5 roll 25 5 roll 15 5 roll 25 5 roll
      STnoshfill STnoshfill STnoshfill STnoshfill } BD
/STnoshfill {
      2 index 8 index sub abs rThreshold gt
      { STsplit }
      { 1 index 7 index sub abs gThreshold gt
        { STsplit }
        { dup 6 index sub abs bThreshold gt
          { STsplit }
          { 2 index 13 index sub abs rThreshold gt
            { STsplit }
            { 1 index 12 index sub abs gThreshold gt
              { STsplit }
              { dup 11 index sub abs bThreshold gt
                { STsplit }
                { 7 index 13 index sub abs rThreshold gt
                  { STsplit }
                  { 6 index 12 index sub abs gThreshold gt
                    { STsplit }
                    { 5 index 11 index sub abs bThreshold gt
                      { STsplit }
                      { Tm }
                      ifelse }
                    ifelse }
                  ifelse }
                ifelse }
              ifelse }
            ifelse }
          ifelse }
        ifelse }
      ifelse } BD
tryPS3shading
{ /shfill where
  { /ST { STshfill } BD }
  { /ST { STnoshfill } BD }
  ifelse }
{ /ST { STnoshfill } BD }
ifelse
end
%%EndProlog
%%BeginSetup
/DeviceRGB setcolorspace
gl2psdict begin
%%EndSetup
%%Page: 1 1
%%BeginPageSetup
%%EndPageSetup
mark
gsave
1.0 1.0 scale
1 1 1 C
74.88 400.6 521.28 48.52 74.88 48.52 T
74.88 400.6 521.28 400.6 521.28 48.52 T
0.5 W
[16 0] 0 setdash
0 0 0 C
74.88 48.52 LS
521.28 48.52 LE
74.88 400.6 LS
521.28 400.6 LE
74.88 48.52 LS
74.88 400.6 LE
521.28 48.52 LS
521.28 400.6 LE
74.88 48.52 LS
74.88 52.985 LE
74.88 400.6 LS
74.88 396.135 LE
186.48 48.52 LS
186.48 52.985 LE
186.48 400.6 LS
186.48 396.135 LE
298.08 48.52 LS
298.08 52.985 LE
298.08 400.6 LS
298.08 396.135 LE
409.68 48.52 LS
409.68 52.985 LE
409.68 400.6 LS
409.68 396.135 LE
521.28 48.52 LS
521.28 52.985 LE
521.28 400.6 LS
521.28 396.135 LE
(-1) 74.88 43.5189 10 /Helvetica STC
(-0.5) 186.48 43.5189 10 /Helvetica STC
(0) 298.08 43.5189 10 /Helvetica STC
(0.5) 409.68 43.5189 10 /Helvetica STC
(1) 521.28 43.5189 10 /Helvetica STC
74.88 48.52 LS
79.348 48.52 LE
521.28 48.52 LS
516.812 48.52 LE
74.88 107.2 LS
79.348 107.2 LE
521.28 107.2 LS
516.812 107.2 LE
74.88 165.88 LS
79.348 165.88 LE
521.28 165.88 LS
516.812 165.88 LE
74.88 224.56 LS
79.348 224.56 LE
521.28 224.56 LS
516.812 224.56 LE
74.88 283.24 LS
79.348 283.24 LE
521.28 283.24 LS
516.812 283.24 LE
74.88 341.92 LS
79.348 341.92 LE
521.28 341.92 LS
516.812 341.92 LE
74.88 400.6 LS
79.348 400.6 LE
521.28 400.6 LS
516.812 400.6 LE
(-1.5) 69.8755 48.52 10 /Helvetica SCR
(-1) 69.8755 107.2 10 /Helvetica SCR
(-0.5) 69.8755 165.88 10 /Helvetica SCR
(0) 69.8755 224.56 10 /Helvetica SCR
(0.5) 69.8755 283.24 10 /Helvetica SCR
(1) 69.8755 341.92 10 /Helvetica SCR
(1.5) 69.8755 400.6 10 /Helvetica SCR
[] 0 setdash
0.11 0.11 0.11 C
415.549 177.616 LS
454.322 177.616 L
454.322 196.543 L
415.549 196.543 L
415.549 177.616 LE
397.748 183.525 LS
440.144 183.525 L
440.144 203.625 L
397.748 203.625 L
397.748 183.525 LE
378.884 189.518 LS
424.495 189.518 L
424.495 210.679 L
378.884 210.679 L
378.884 189.518 LE
359.155 195.593 LS
407.545 195.593 L
407.545 217.705 L
359.155 217.705 L
359.155 195.593 LE
338.772 201.751 LS
389.476 201.751 L
389.476 224.704 L
338.772 224.704 L
338.772 201.751 LE
317.949 207.992 LS
370.483 207.992 L
370.483 231.73 L
317.949 231.73 L
317.949 207.992 LE
296.906 214.316 LS
350.768 214.316 L
350.768 238.919 L
296.906 238.919 L
296.906 214.316 LE
275.867 220.723 LS
330.542 220.723 L
330.542 246.081 L
275.867 246.081 L
275.867 220.723 LE
255.054 227.213 LS
310.019 227.213 L
310.019 253.216 L
255.054 253.216 L
255.054 227.213 LE
234.635 233.785 LS
289.417 233.785 L
289.417 260.323 L
234.635 260.323 L
234.635 233.785 LE
214.823 239.897 LS
268.955 239.897 L
268.955 267.797 L
214.823 267.797 L
214.823 239.897 LE
195.885 244.862 LS
248.85 244.862 L
248.85 273.552 L
195.885 273.552 L
195.885 244.862 LE
178.019 248.93 LS
229.314 248.93 L
229.314 277.797 L
178.019 277.797 L
178.019 248.93 LE
161.41 252.099 LS
210.551 252.099 L
210.551 280.758 L
161.41 280.758 L
161.41 252.099 LE
146.23 254.14 LS
192.754 254.14 L
192.754 282.27 L
146.23 282.27 L
146.23 254.14 LE
132.625 254.275 LS
176.105 254.275 L
176.105 282.353 L
132.625 282.353 L
132.625 254.275 LE
120.588 253.39 LS
160.902 253.39 L
160.902 281.048 L
120.588 281.048 L
120.588 253.39 LE
108.205 251.417 LS
149.147 251.417 L
149.147 278.423 L
108.205 278.423 L
108.205 251.417 LE
97.7941 247.523 LS
138.957 247.523 L
138.957 275.918 L
97.7941 275.918 L
97.7941 247.523 LE
89.4542 241.844 LS
130.43 241.844 L
130.43 272.935 L
89.4542 272.935 L
89.4542 241.844 LE
83.2599 235.124 LS
123.644 235.124 L
123.644 268.729 L
83.2599 268.729 L
83.2599 235.124 LE
79.2626 228.748 LS
118.657 228.748 L
118.657 263.434 L
79.2626 263.434 L
79.2626 228.748 LE
77.4792 221.641 LS
115.804 221.641 L
115.804 257.262 L
77.4792 257.262 L
77.4792 221.641 LE
77.8835 212.825 LS
116.625 212.825 L
116.625 251.193 L
77.8835 251.193 L
77.8835 212.825 LE
80.4794 203.58 LS
119.286 203.58 L
119.286 243.948 L
80.4794 243.948 L
80.4794 203.58 LE
83.3139 193.97 LS
123.722 193.97 L
123.722 235.411 L
83.3139 235.411 L
83.3139 193.97 LE
88.2476 183.373 LS
129.868 183.373 L
129.868 225.584 L
88.2476 225.584 L
88.2476 183.373 LE
95.2556 172.179 LS
137.641 172.179 L
137.641 214.466 L
95.2556 214.466 L
95.2556 172.179 LE
104.247 160.593 LS
146.946 160.593 L
146.946 202.058 L
104.247 202.058 L
104.247 160.593 LE
115.111 148.692 LS
157.672 148.692 L
157.672 188.359 L
115.111 188.359 L
115.111 148.692 LE
127.714 137.138 LS
169.685 137.138 L
169.685 173.369 L
127.714 173.369 L
127.714 137.138 LE
141.908 127.706 LS
182.848 127.706 L
182.848 159.156 L
141.908 159.156 L
141.908 127.706 LE
155.6 119.011 LS
199.148 119.011 L
199.148 146.968 L
155.6 146.968 L
155.6 119.011 LE
170.094 111.188 LS
216.763 111.188 L
216.763 136.7 L
170.094 136.7 L
170.094 111.188 LE
185.696 103.811 LS
235.027 103.811 L
235.027 128.782 L
185.696 128.782 L
185.696 103.811 LE
202.239 98.0051 LS
253.749 98.0051 L
253.749 122.09 L
202.239 122.09 L
202.239 98.0051 LE
219.551 93.6595 LS
272.736 93.6595 L
272.736 116.732 L
219.551 116.732 L
219.551 93.6595 LE
237.453 90.3323 LS
291.794 90.3323 L
291.794 113.151 L
237.453 113.151 L
237.453 90.3323 LE
255.762 88.7031 LS
310.729 88.7031 L
310.729 110.659 L
255.762 110.659 L
255.762 88.7031 LE
274.151 88.7432 LS
329.495 88.7432 L
329.495 110.257 L
274.151 110.257 L
274.151 88.7432 LE
292.486 90.3216 LS
347.918 90.3216 L
347.918 111.356 L
292.486 111.356 L
292.486 90.3216 LE
310.678 92.2424 LS
365.699 92.2424 L
365.699 114.066 L
310.678 114.066 L
310.678 92.2424 LE
328.544 94.7946 LS
382.621 94.7946 L
382.621 118.946 L
328.544 118.946 L
328.544 94.7946 LE
345.907 99.0474 LS
398.521 99.0474 L
398.521 125.165 L
345.907 125.165 L
345.907 99.0474 LE
362.595 105.001 LS
413.247 105.001 L
413.247 132.75 L
362.595 132.75 L
362.595 105.001 LE
378.448 112.654 LS
426.662 112.654 L
426.662 141.7 L
378.448 141.7 L
378.448 112.654 LE
393.297 122.006 LS
438.664 122.006 L
438.664 151.989 L
393.297 151.989 L
393.297 122.006 LE
406.198 131.939 LS
450.006 131.939 L
450.006 164.756 L
406.198 164.756 L
406.198 131.939 LE
416.706 142.99 LS
461.05 142.99 L
461.05 179.451 L
416.706 179.451 L
416.706 142.99 LE
425.893 155.533 LS
470.367 155.533 L
470.367 195.69 L
425.893 195.69 L
425.893 155.533 LE
433.688 169.569 LS
477.89 169.569 L
477.89 212.6 L
433.688 212.6 L
433.688 169.569 LE
440.037 183.965 LS
483.576 183.965 L
483.576 227.523 L
440.037 227.523 L
440.037 183.965 LE
444.903 197.592 LS
487.396 197.592 L
487.396 241.248 L
444.903 241.248 L
444.903 197.592 LE
448.262 210.451 LS
489.34 210.451 L
489.34 253.774 L
448.262 253.774 L
448.262 210.451 LE
448.451 222.514 LS
489.427 222.514 L
489.427 265.128 L
448.451 265.128 L
448.451 222.514 LE
447.017 233.684 LS
487.774 233.684 L
487.774 275.545 L
447.017 275.545 L
447.017 233.684 LE
444.002 244.097 LS
485.134 244.097 L
485.134 284.831 L
444.002 284.831 L
444.002 244.097 LE
439.586 253.79 LS
481.67 253.79 L
481.67 293.224 L
439.586 293.224 L
439.586 253.79 LE
433.832 262.791 LS
476.47 262.791 L
476.47 300.395 L
433.832 300.395 L
433.832 262.791 LE
426.81 271.102 LS
469.602 271.102 L
469.602 306.339 L
426.81 306.339 L
426.81 271.102 LE
418.602 278.721 LS
461.146 278.721 L
461.146 311.017 L
418.602 311.017 L
418.602 278.721 LE
409.298 285.81 LS
451.196 285.81 L
451.196 315.162 L
409.298 315.162 L
409.298 285.81 LE
398.932 292.463 LS
439.862 292.463 L
439.862 319.093 L
398.932 319.093 L
398.932 292.463 LE
387.56 298.663 LS
427.265 298.663 L
427.265 322.827 L
387.56 322.827 L
387.56 298.663 LE
373.712 304.501 LS
415.247 304.501 L
415.247 326.275 L
373.712 326.275 L
373.712 304.501 LE
358.791 309.975 LS
402.679 309.975 L
402.679 329.446 L
358.791 329.446 L
358.791 309.975 LE
343.412 315.084 LS
389.239 315.084 L
389.239 332.343 L
343.412 332.343 L
343.412 315.084 LE
327.729 319.027 LS
375.066 319.027 L
375.066 335.812 L
327.729 335.812 L
327.729 319.027 LE
311.904 322.233 LS
360.31 322.233 L
360.31 339.392 L
311.904 339.392 L
311.904 322.233 LE
296.097 325.018 LS
345.123 325.018 L
345.123 342.773 L
296.097 342.773 L
296.097 325.018 LE
280.287 327.382 LS
329.843 327.382 L
329.843 345.926 L
280.287 345.926 L
280.287 327.382 LE
264.743 328.052 LS
314.503 328.052 L
314.503 347.08 L
264.743 347.08 L
264.743 328.052 LE
249.607 326.847 LS
299.202 326.847 L
299.202 346.737 L
249.607 346.737 L
249.607 326.847 LE
235.115 323.869 LS
284.092 323.869 L
284.092 345.488 L
235.115 345.488 L
235.115 323.869 LE
221.395 319.23 LS
269.339 319.23 L
269.339 344.372 L
221.395 344.372 L
221.395 319.23 LE
208.538 313.17 LS
255.132 313.17 L
255.132 341.862 L
208.538 341.862 L
208.538 313.17 LE
196.713 305.695 LS
241.56 305.695 L
241.56 337.956 L
196.713 337.956 L
196.713 305.695 LE
186.034 296.799 LS
228.75 296.799 L
228.75 332.657 L
186.034 332.657 L
186.034 296.799 LE
175.56 286.463 LS
217.858 286.463 L
217.858 325.964 L
175.56 325.964 L
175.56 286.463 LE
165.687 274.701 LS
208.677 274.701 L
208.677 317.878 L
165.687 317.878 L
165.687 274.701 LE
157.037 262.213 LS
200.544 262.213 L
200.544 308.401 L
157.037 308.401 L
157.037 262.213 LE
149.881 250.204 LS
193.526 250.204 L
193.526 298.179 L
149.881 298.179 L
149.881 250.204 LE
144.267 238.328 LS
187.676 238.328 L
187.676 287.832 L
144.267 287.832 L
144.267 238.328 LE
140.227 226.697 LS
183.034 226.697 L
183.034 277.314 L
140.227 277.314 L
140.227 226.697 LE
137.782 215.342 LS
179.628 215.342 L
179.628 266.624 L
137.782 266.624 L
137.782 215.342 LE
136.919 204.245 LS
178.276 204.245 L
178.276 255.762 L
136.919 255.762 L
136.919 204.245 LE
137.609 193.428 LS
178.817 193.428 L
178.817 244.726 L
137.609 244.726 L
137.609 193.428 LE
139.853 182.77 LS
180.561 182.77 L
180.561 233.519 L
139.853 233.519 L
139.853 182.77 LE
142.319 172.375 LS
183.577 172.375 L
183.577 222.139 L
142.319 222.139 L
142.319 172.375 LE
146.009 162.128 LS
187.794 162.128 L
187.794 210.585 L
146.009 210.585 L
146.009 162.128 LE
151.135 152.218 LS
193.062 152.218 L
193.062 198.859 L
151.135 198.859 L
151.135 152.218 LE
157.624 143.99 LS
199.311 143.99 L
199.311 187.519 L
157.624 187.519 L
157.624 143.99 LE
165.38 136.679 LS
206.477 136.679 L
206.477 177.133 L
165.38 177.133 L
165.38 136.679 LE
174.293 130.275 LS
214.612 130.275 L
214.612 167.71 L
174.293 167.71 L
174.293 130.275 LE
184.29 124.796 LS
223.516 124.796 L
223.516 159.232 L
184.29 159.232 L
184.29 124.796 LE
195.261 120.234 LS
233.046 120.234 L
233.046 151.707 L
195.261 151.707 L
195.261 120.234 LE
206.779 116.396 LS
243.405 116.396 L
243.405 145.329 L
206.779 145.329 L
206.779 116.396 LE
217.439 112.75 LS
255.778 112.75 L
255.778 140.623 L
217.439 140.623 L
217.439 112.75 LE
228.727 110.029 LS
268.425 110.029 L
268.425 136.823 L
228.727 136.823 L
228.727 110.029 LE
240.488 108.272 LS
281.255 108.272 L
281.255 133.929 L
240.488 133.929 L
240.488 108.272 LE
252.62 107.477 LS
294.119 107.477 L
294.119 132.302 L
252.62 132.302 L
252.62 107.477 LE
265.011 107.741 LS
306.874 107.741 L
306.874 132.295 L
265.011 132.295 L
265.011 107.741 LE
277.36 109.11 LS
319.569 109.11 L
319.569 133.207 L
277.36 133.207 L
277.36 109.11 LE
289.676 111.258 LS
331.993 111.258 L
331.993 135.069 L
289.676 135.069 L
289.676 111.258 LE
301.867 113.698 LS
343.988 113.698 L
343.988 138.005 L
301.867 138.005 L
301.867 113.698 LE
313.789 117.232 LS
355.427 117.232 L
355.427 141.872 L
313.789 141.872 L
313.789 117.232 LE
325.349 121.85 LS
366.173 121.85 L
366.173 146.682 L
325.349 146.682 L
325.349 121.85 LE
336.451 127.527 LS
376.116 127.527 L
376.116 152.459 L
336.451 152.459 L
336.451 127.527 LE
346.988 132.733 LS
385.166 132.733 L
385.166 160.746 L
346.988 160.746 L
346.988 132.733 LE
355.489 138.638 LS
394.618 138.638 L
394.618 170.359 L
355.489 170.359 L
355.489 138.638 LE
363.101 145.491 LS
403.169 145.491 L
403.169 180.807 L
363.101 180.807 L
363.101 145.491 LE
369.923 153.055 LS
410.585 153.055 L
410.585 190.902 L
369.923 190.902 L
369.923 153.055 LE
375.902 161.099 LS
416.894 161.099 L
416.894 201.007 L
375.902 201.007 L
375.902 161.099 LE
380.991 169.579 LS
422.046 169.579 L
422.046 211.287 L
380.991 211.287 L
380.991 169.579 LE
385.118 178.511 LS
425.967 178.511 L
425.967 221.662 L
385.118 221.662 L
385.118 178.511 LE
388.295 187.943 LS
428.603 187.943 L
428.603 232.049 L
388.295 232.049 L
388.295 187.943 LE
390.377 197.875 LS
429.957 197.875 L
429.957 242.501 L
390.377 242.501 L
390.377 197.875 LE
390.486 208.304 LS
430.026 208.304 L
430.026 253.179 L
390.486 253.179 L
390.486 208.304 LE
389.647 219.237 LS
428.842 219.237 L
428.842 263.981 L
389.647 263.981 L
389.647 219.237 LE
387.902 230.671 LS
426.727 230.671 L
426.727 274.772 L
387.902 274.772 L
387.902 230.671 LE
385.173 242.608 LS
424.278 242.608 L
424.278 285.219 L
385.173 285.219 L
385.173 242.608 LE
381.591 254.303 LS
420.685 254.303 L
420.685 293.839 L
381.591 293.839 L
381.591 254.303 LE
377.11 265.007 LS
416.101 265.007 L
416.101 301.682 L
377.11 301.682 L
377.11 265.007 LE
371.919 274.731 LS
410.462 274.731 L
410.462 308.735 L
371.919 308.735 L
371.919 274.731 LE
365.931 283.477 LS
403.851 283.477 L
403.851 315 L
365.931 315 L
365.931 283.477 LE
359.352 290.675 LS
396.356 290.675 L
396.356 321.045 L
359.352 321.045 L
359.352 290.675 LE
352.271 296.629 LS
388.048 296.629 L
388.048 326.565 L
352.271 326.565 L
352.271 296.629 LE
344.768 301.704 LS
379.017 301.704 L
379.017 331.387 L
344.768 331.387 L
344.768 301.704 LE
336.923 305.899 LS
369.364 305.899 L
369.364 335.355 L
336.923 335.355 L
336.923 305.899 LE
327.654 309.222 LS
360.345 309.222 L
360.345 338.565 L
327.654 338.565 L
327.654 309.222 LE
317.697 311.682 LS
351.425 311.682 L
351.425 340.897 L
317.697 340.897 L
317.697 311.682 LE
307.658 313.204 LS
342.193 313.204 L
342.193 342.091 L
307.658 342.091 L
307.658 313.204 LE
297.604 313.379 LS
332.778 313.379 L
332.778 342.431 L
297.604 342.431 L
297.604 313.379 LE
287.637 312.701 LS
323.275 312.701 L
323.275 341.978 L
287.637 341.978 L
287.637 312.701 LE
277.745 311.26 LS
313.89 311.26 L
313.89 340.64 L
277.745 340.64 L
277.745 311.26 LE
268.12 309.031 LS
304.573 309.031 L
304.573 339.049 L
268.12 339.049 L
268.12 309.031 LE
258.885 306.05 LS
295.426 306.05 L
295.426 336.718 L
258.885 336.718 L
258.885 306.05 LE
250.136 302.304 LS
286.527 302.304 L
286.527 333.501 L
250.136 333.501 L
250.136 302.304 LE
241.988 297.654 LS
277.941 297.654 L
277.941 329.541 L
241.988 329.541 L
241.988 297.654 LE
234.464 292.195 LS
269.799 292.195 L
269.799 324.707 L
234.464 324.707 L
234.464 292.195 LE
226.407 286.082 LS
263.4 286.082 L
263.4 319.002 L
226.407 319.002 L
226.407 286.082 LE
219.172 278.913 LS
257.516 278.913 L
257.516 313.541 L
219.172 313.541 L
219.172 278.913 LE
212.821 271.108 LS
252.197 271.108 L
252.197 307.732 L
212.821 307.732 L
212.821 271.108 LE
207.4 262.922 LS
247.488 262.922 L
247.488 301.281 L
207.4 301.281 L
207.4 262.922 LE
202.928 254.3 LS
243.43 254.3 L
243.43 294.202 L
202.928 294.202 L
202.928 254.3 LE
199.292 245.339 LS
240.071 245.339 L
240.071 286.473 L
199.292 286.473 L
199.292 245.339 LE
196.684 236.028 LS
237.405 236.028 L
237.405 278.093 L
196.684 278.093 L
196.684 236.028 LE
195.102 226.277 LS
235.449 226.277 L
235.449 269.093 L
195.102 269.093 L
195.102 226.277 LE
194.528 216.1 LS
234.999 216.1 L
234.999 259.498 L
194.528 259.498 L
194.528 216.1 LE
194.961 205.542 LS
235.346 205.542 L
235.346 249.267 L
194.961 249.267 L
194.961 205.542 LE
196.381 194.999 LS
236.357 194.999 L
236.357 238.389 L
196.381 238.389 L
196.381 194.999 LE
198.318 185.793 LS
238.006 185.793 L
238.006 227.559 L
198.318 227.559 L
198.318 185.793 LE
200.748 177.376 LS
240.339 177.376 L
240.339 217.484 L
200.748 217.484 L
200.748 177.376 LE
204.011 169.77 LS
243.292 169.77 L
243.292 208.143 L
204.011 208.143 L
204.011 169.77 LE
208.062 162.953 LS
246.822 162.953 L
246.822 199.535 L
208.062 199.535 L
208.062 162.953 LE
212.909 156.945 LS
250.934 156.945 L
250.934 191.657 L
212.909 191.657 L
212.909 156.945 LE
218.487 151.425 LS
255.457 151.425 L
255.457 184.776 L
218.487 184.776 L
218.487 151.425 LE
224.705 146.211 LS
260.361 146.211 L
260.361 179.086 L
224.705 179.086 L
224.705 146.211 LE
231.511 141.833 LS
265.568 141.833 L
265.568 174.107 L
231.511 174.107 L
231.511 141.833 LE
238.829 138.286 LS
271.018 138.286 L
271.018 169.839 L
238.829 169.839 L
238.829 138.286 LE
246.578 135.571 LS
276.657 135.571 L
276.657 166.284 L
246.578 166.284 L
246.578 135.571 LE
254.03 133.488 LS
283.078 133.488 L
283.078 163.379 L
254.03 163.379 L
254.03 133.488 LE
260.931 132.07 LS
290.381 132.07 L
290.381 161.019 L
260.931 161.019 L
260.931 132.07 LE
267.841 131.297 LS
297.856 131.297 L
297.856 159.596 L
267.841 159.596 L
267.841 131.297 LE
274.843 131.188 LS
305.271 131.188 L
305.271 158.957 L
274.843 158.957 L
274.843 131.188 LE
281.827 131.701 LS
312.594 131.701 L
312.594 158.908 L
281.827 158.908 L
281.827 131.701 LE
288.681 132.731 LS
319.802 132.731 L
319.802 159.554 L
288.681 159.554 L
288.681 132.731 LE
295.431 134.329 LS
326.742 134.329 L
326.742 160.842 L
295.431 160.842 L
295.431 134.329 LE
301.993 136.281 LS
333.342 136.281 L
333.342 162.731 L
301.993 162.731 L
301.993 136.281 LE
308.34 138.593 LS
339.508 138.593 L
339.508 165.204 L
308.34 165.204 L
308.34 138.593 LE
314.412 141.547 LS
345.173 141.547 L
345.173 168.284 L
314.412 168.284 L
314.412 141.547 LE
319.052 144.702 LS
351.387 144.702 L
351.387 172.222 L
319.052 172.222 L
319.052 144.702 LE
323.297 147.89 LS
357.016 147.89 L
357.016 177.43 L
323.297 177.43 L
323.297 147.89 LE
327.142 151.67 LS
361.983 151.67 L
361.983 183.436 L
327.142 183.436 L
327.142 151.67 LE
330.56 156.076 LS
366.241 156.076 L
366.241 190.097 L
330.56 190.097 L
330.56 156.076 LE
333.523 161.211 LS
369.759 161.211 L
369.759 197.31 L
333.523 197.31 L
333.523 161.211 LE
335.98 167.011 LS
372.546 167.011 L
372.546 205.14 L
335.98 205.14 L
335.98 167.011 LE
337.95 173.446 LS
374.637 173.446 L
374.637 213.62 L
337.95 213.62 L
337.95 173.446 LE
339.426 180.579 LS
375.99 180.579 L
375.99 222.747 L
339.426 222.747 L
339.426 180.579 LE
339.664 188.399 LS
376.714 188.399 L
376.714 232.467 L
339.664 232.467 L
339.664 188.399 LE
339.384 196.892 LS
376.67 196.892 L
376.67 242.382 L
339.384 242.382 L
339.384 196.892 LE
338.638 205.542 LS
375.888 205.542 L
375.888 251.1 L
338.638 251.1 L
338.638 205.542 LE
337.408 213.815 LS
374.511 213.815 L
374.511 259.152 L
337.408 259.152 L
337.408 213.815 LE
335.748 221.716 LS
372.947 221.716 L
372.947 266.548 L
335.748 266.548 L
335.748 221.716 LE
333.685 228.612 LS
370.724 228.612 L
370.724 273.916 L
333.685 273.916 L
333.685 228.612 LE
331.217 235.026 LS
367.916 235.026 L
367.916 280.73 L
331.217 280.73 L
331.217 235.026 LE
328.33 241.154 LS
364.538 241.154 L
364.538 286.845 L
328.33 286.845 L
328.33 241.154 LE
325.113 247.004 LS
360.642 247.004 L
360.642 292.476 L
325.113 292.476 L
325.113 247.004 LE
321.669 252.567 LS
356.237 252.567 L
356.237 297.374 L
321.669 297.374 L
321.669 252.567 LE
318.033 257.853 LS
351.387 257.853 L
351.387 301.532 L
318.033 301.532 L
318.033 257.853 LE
314.229 262.855 LS
346.167 262.855 L
346.167 304.935 L
314.229 304.935 L
314.229 262.855 LE
310.316 267.396 LS
340.621 267.396 L
340.621 307.347 L
310.316 307.347 L
310.316 267.396 LE
306.349 271.289 LS
334.803 271.289 L
334.803 309.185 L
306.349 309.185 L
306.349 271.289 LE
302.369 274.478 LS
328.777 274.478 L
328.777 310.506 L
302.369 310.506 L
302.369 274.478 LE
298.405 276.899 LS
322.612 276.899 L
322.612 311.316 L
298.405 311.316 L
298.405 276.899 LE
293.652 278.139 LS
317.226 278.139 L
317.226 311.562 L
293.652 311.562 L
293.652 278.139 LE
288.741 278.716 LS
312.096 278.716 L
312.096 311.248 L
288.741 311.248 L
288.741 278.716 LE
283.842 278.56 LS
307.142 278.56 L
307.142 310.447 L
283.842 310.447 L
283.842 278.56 LE
279.075 277.706 LS
302.332 277.706 L
302.332 309.122 L
279.075 309.122 L
279.075 277.706 LE
274.472 276.14 LS
297.747 276.14 L
297.747 307.357 L
274.472 307.357 L
274.472 276.14 LE
0 0 0 C
(Flowpipe for Ex. 9) 298.08 410.6 10 /Helvetica SBC
grestore
showpage
cleartomark
%%PageTrailer
%%Trailer
end
%%EOF
