%!PS-Adobe-3.0 EPSF-3.0
%%Title: glps_renderer figure
%%Creator: GL2PS 1.3.8, (C) 1999-2012 C. Geuzaine
%%For: Octave
%%CreationDate: Wed Mar 13 13:50:11 2019
%%LanguageLevel: 3
%%DocumentData: Clean7Bit
%%Pages: 1
%%BoundingBox: 0 0 576 433
%%EndComments
%%BeginProlog
/gl2psdict 64 dict def gl2psdict begin
0 setlinecap 0 setlinejoin
/tryPS3shading false def % set to false to force subdivision
/rThreshold 0.064 def % red component subdivision threshold
/gThreshold 0.034 def % green component subdivision threshold
/bThreshold 0.1 def % blue component subdivision threshold
/BD { bind def } bind def
/C  { setrgbcolor } BD
/G  { 0.082 mul exch 0.6094 mul add exch 0.3086 mul add neg 1.0 add setgray } BD
/W  { setlinewidth } BD
/FC { findfont exch /SH exch def SH scalefont setfont } BD
/SW { dup stringwidth pop } BD
/S  { FC moveto show } BD
/SBC{ FC moveto SW -2 div 0 rmoveto show } BD
/SBR{ FC moveto SW neg 0 rmoveto show } BD
/SCL{ FC moveto 0 SH -2 div rmoveto show } BD
/SCC{ FC moveto SW -2 div SH -2 div rmoveto show } BD
/SCR{ FC moveto SW neg SH -2 div rmoveto show } BD
/STL{ FC moveto 0 SH neg rmoveto show } BD
/STC{ FC moveto SW -2 div SH neg rmoveto show } BD
/STR{ FC moveto SW neg SH neg rmoveto show } BD
/FCT { FC translate 0 0 } BD
/SR  { gsave FCT moveto rotate show grestore } BD
/SBCR{ gsave FCT moveto rotate SW -2 div 0 rmoveto show grestore } BD
/SBRR{ gsave FCT moveto rotate SW neg 0 rmoveto show grestore } BD
/SCLR{ gsave FCT moveto rotate 0 SH -2 div rmoveto show grestore} BD
/SCCR{ gsave FCT moveto rotate SW -2 div SH -2 div rmoveto show grestore} BD
/SCRR{ gsave FCT moveto rotate SW neg SH -2 div rmoveto show grestore} BD
/STLR{ gsave FCT moveto rotate 0 SH neg rmoveto show grestore } BD
/STCR{ gsave FCT moveto rotate SW -2 div SH neg rmoveto show grestore } BD
/STRR{ gsave FCT moveto rotate SW neg SH neg rmoveto show grestore } BD
/P  { newpath 0.0 360.0 arc closepath fill } BD
/LS { newpath moveto } BD
/L  { lineto } BD
/LE { lineto stroke } BD
/T  { newpath moveto lineto lineto closepath fill } BD
/STshfill {
      /b1 exch def /g1 exch def /r1 exch def /y1 exch def /x1 exch def
      /b2 exch def /g2 exch def /r2 exch def /y2 exch def /x2 exch def
      /b3 exch def /g3 exch def /r3 exch def /y3 exch def /x3 exch def
      gsave << /ShadingType 4 /ColorSpace [/DeviceRGB]
      /DataSource [ 0 x1 y1 r1 g1 b1 0 x2 y2 r2 g2 b2 0 x3 y3 r3 g3 b3 ] >>
      shfill grestore } BD
/Tm { 3 -1 roll 8 -1 roll 13 -1 roll add add 3 div
      3 -1 roll 7 -1 roll 11 -1 roll add add 3 div
      3 -1 roll 6 -1 roll 9 -1 roll add add 3 div C T } BD
/STsplit {
      4 index 15 index add 0.5 mul
      4 index 15 index add 0.5 mul
      4 index 15 index add 0.5 mul
      4 index 15 index add 0.5 mul
      4 index 15 index add 0.5 mul
      5 copy 5 copy 25 15 roll
      9 index 30 index add 0.5 mul
      9 index 30 index add 0.5 mul
      9 index 30 index add 0.5 mul
      9 index 30 index add 0.5 mul
      9 index 30 index add 0.5 mul
      5 copy 5 copy 35 5 roll 25 5 roll 15 5 roll
      4 index 10 index add 0.5 mul
      4 index 10 index add 0.5 mul
      4 index 10 index add 0.5 mul
      4 index 10 index add 0.5 mul
      4 index 10 index add 0.5 mul
      5 copy 5 copy 40 5 roll 25 5 roll 15 5 roll 25 5 roll
      STnoshfill STnoshfill STnoshfill STnoshfill } BD
/STnoshfill {
      2 index 8 index sub abs rThreshold gt
      { STsplit }
      { 1 index 7 index sub abs gThreshold gt
        { STsplit }
        { dup 6 index sub abs bThreshold gt
          { STsplit }
          { 2 index 13 index sub abs rThreshold gt
            { STsplit }
            { 1 index 12 index sub abs gThreshold gt
              { STsplit }
              { dup 11 index sub abs bThreshold gt
                { STsplit }
                { 7 index 13 index sub abs rThreshold gt
                  { STsplit }
                  { 6 index 12 index sub abs gThreshold gt
                    { STsplit }
                    { 5 index 11 index sub abs bThreshold gt
                      { STsplit }
                      { Tm }
                      ifelse }
                    ifelse }
                  ifelse }
                ifelse }
              ifelse }
            ifelse }
          ifelse }
        ifelse }
      ifelse } BD
tryPS3shading
{ /shfill where
  { /ST { STshfill } BD }
  { /ST { STnoshfill } BD }
  ifelse }
{ /ST { STnoshfill } BD }
ifelse
end
%%EndProlog
%%BeginSetup
/DeviceRGB setcolorspace
gl2psdict begin
%%EndSetup
%%Page: 1 1
%%BeginPageSetup
%%EndPageSetup
mark
gsave
1.0 1.0 scale
1 1 1 C
74.88 400.6 521.28 48.52 74.88 48.52 T
74.88 400.6 521.28 400.6 521.28 48.52 T
0.5 W
[16 0] 0 setdash
0 0 0 C
74.88 48.52 LS
521.28 48.52 LE
74.88 400.6 LS
521.28 400.6 LE
74.88 48.52 LS
74.88 400.6 LE
521.28 48.52 LS
521.28 400.6 LE
74.88 48.52 LS
74.88 52.985 LE
74.88 400.6 LS
74.88 396.135 LE
164.16 48.52 LS
164.16 52.985 LE
164.16 400.6 LS
164.16 396.135 LE
253.44 48.52 LS
253.44 52.985 LE
253.44 400.6 LS
253.44 396.135 LE
342.72 48.52 LS
342.72 52.985 LE
342.72 400.6 LS
342.72 396.135 LE
432 48.52 LS
432 52.985 LE
432 400.6 LS
432 396.135 LE
521.28 48.52 LS
521.28 52.985 LE
521.28 400.6 LS
521.28 396.135 LE
(0) 74.88 43.5189 10 /Helvetica STC
(2) 164.16 43.5189 10 /Helvetica STC
(4) 253.44 43.5189 10 /Helvetica STC
(6) 342.72 43.5189 10 /Helvetica STC
(8) 432 43.5189 10 /Helvetica STC
(10) 521.28 43.5189 10 /Helvetica STC
74.88 48.52 LS
79.348 48.52 LE
521.28 48.52 LS
516.812 48.52 LE
74.88 118.936 LS
79.348 118.936 LE
521.28 118.936 LS
516.812 118.936 LE
74.88 189.352 LS
79.348 189.352 LE
521.28 189.352 LS
516.812 189.352 LE
74.88 259.768 LS
79.348 259.768 LE
521.28 259.768 LS
516.812 259.768 LE
74.88 330.184 LS
79.348 330.184 LE
521.28 330.184 LS
516.812 330.184 LE
74.88 400.6 LS
79.348 400.6 LE
521.28 400.6 LS
516.812 400.6 LE
(-5) 69.8755 48.52 10 /Helvetica SCR
(-4) 69.8755 118.936 10 /Helvetica SCR
(-3) 69.8755 189.352 10 /Helvetica SCR
(-2) 69.8755 259.768 10 /Helvetica SCR
(-1) 69.8755 330.184 10 /Helvetica SCR
(0) 69.8755 400.6 10 /Helvetica SCR
[] 0 setdash
0.11 0.11 0.11 C
498.607 83.728 LS
501.192 83.728 L
501.192 88.1667 L
498.607 88.1667 L
498.607 83.728 LE
498.242 84.632 LS
500.847 84.632 L
500.847 89.0775 L
498.242 89.0775 L
498.242 84.632 LE
497.864 85.5311 LS
500.49 85.5311 L
500.49 89.983 L
497.864 89.983 L
497.864 85.5311 LE
497.474 86.4249 LS
500.12 86.4249 L
500.12 90.8825 L
497.474 90.8825 L
497.474 86.4249 LE
497.071 87.3127 LS
499.736 87.3127 L
499.736 91.7759 L
497.071 91.7759 L
497.071 87.3127 LE
496.656 88.1944 LS
499.34 88.1944 L
499.34 92.6624 L
496.656 92.6624 L
496.656 88.1944 LE
496.228 89.0693 LS
498.93 89.0693 L
498.93 93.5418 L
496.228 93.5418 L
496.228 89.0693 LE
495.788 89.9372 LS
498.508 89.9372 L
498.508 94.4136 L
495.788 94.4136 L
495.788 89.9372 LE
495.335 90.7975 LS
498.073 90.7975 L
498.073 95.2772 L
495.335 95.2772 L
495.335 90.7975 LE
494.87 91.6498 LS
497.624 91.6498 L
497.624 96.1323 L
494.87 96.1323 L
494.87 91.6498 LE
494.393 92.4937 LS
497.164 92.4937 L
497.164 96.9785 L
494.393 96.9785 L
494.393 92.4937 LE
493.903 93.3287 LS
496.69 93.3287 L
496.69 97.8151 L
493.903 97.8151 L
493.903 93.3287 LE
493.401 94.1544 LS
496.203 94.1544 L
496.203 98.642 L
493.401 98.642 L
493.401 94.1544 LE
492.886 94.9703 LS
495.704 94.9703 L
495.704 99.4585 L
492.886 99.4585 L
492.886 94.9703 LE
492.36 95.7761 LS
495.193 95.7761 L
495.193 100.264 L
492.36 100.264 L
492.36 95.7761 LE
491.822 96.5712 LS
494.669 96.5712 L
494.669 101.059 L
491.822 101.059 L
491.822 96.5712 LE
491.271 97.3553 LS
494.132 97.3553 L
494.132 101.841 L
491.271 101.841 L
491.271 97.3553 LE
490.709 98.1279 LS
493.583 98.1279 L
493.583 102.612 L
490.709 102.612 L
490.709 98.1279 LE
490.134 98.8886 LS
493.022 98.8886 L
493.022 103.37 L
490.134 103.37 L
490.134 98.8886 LE
489.548 99.6369 LS
492.449 99.6369 L
492.449 104.115 L
489.548 104.115 L
489.548 99.6369 LE
488.955 100.372 LS
491.863 100.372 L
491.863 104.85 L
488.955 104.85 L
488.955 100.372 LE
488.359 101.103 LS
491.271 101.103 L
491.271 105.594 L
488.359 105.594 L
488.359 101.103 LE
487.76 101.839 LS
490.675 101.839 L
490.675 106.343 L
487.76 106.343 L
487.76 101.839 LE
487.158 102.579 LS
490.077 102.579 L
490.077 107.096 L
487.158 107.096 L
487.158 102.579 LE
486.553 103.323 LS
489.476 103.323 L
489.476 107.853 L
486.553 107.853 L
486.553 103.323 LE
485.945 104.072 LS
488.872 104.072 L
488.872 108.614 L
485.945 108.614 L
485.945 104.072 LE
485.334 104.825 LS
488.265 104.825 L
488.265 109.38 L
485.334 109.38 L
485.334 104.825 LE
484.721 105.583 LS
487.655 105.583 L
487.655 110.15 L
484.721 110.15 L
484.721 105.583 LE
484.104 106.345 LS
487.043 106.345 L
487.043 110.924 L
484.104 110.924 L
484.104 106.345 LE
483.484 107.112 LS
486.428 107.112 L
486.428 111.702 L
483.484 111.702 L
483.484 107.112 LE
482.861 107.883 LS
485.81 107.883 L
485.81 112.485 L
482.861 112.485 L
482.861 107.883 LE
482.236 108.658 LS
485.189 108.658 L
485.189 113.271 L
482.236 113.271 L
482.236 108.658 LE
481.607 109.438 LS
484.566 109.438 L
484.566 114.062 L
481.607 114.062 L
481.607 109.438 LE
480.975 110.222 LS
483.94 110.222 L
483.94 114.858 L
480.975 114.858 L
480.975 110.222 LE
480.341 111.011 LS
483.311 111.011 L
483.311 115.657 L
480.341 115.657 L
480.341 111.011 LE
479.703 111.804 LS
482.679 111.804 L
482.679 116.461 L
479.703 116.461 L
479.703 111.804 LE
479.063 112.602 LS
482.044 112.602 L
482.044 117.269 L
479.063 117.269 L
479.063 112.602 LE
478.419 113.405 LS
481.407 113.405 L
481.407 118.082 L
478.419 118.082 L
478.419 113.405 LE
477.773 114.211 LS
480.767 114.211 L
480.767 118.899 L
477.773 118.899 L
477.773 114.211 LE
477.124 115.023 LS
480.124 115.023 L
480.124 119.72 L
477.124 119.72 L
477.124 115.023 LE
476.471 115.839 LS
479.479 115.839 L
479.479 120.544 L
476.471 120.544 L
476.471 115.839 LE
475.814 116.658 LS
478.83 116.658 L
478.83 121.37 L
475.814 121.37 L
475.814 116.658 LE
475.154 117.48 LS
478.177 117.48 L
478.177 122.199 L
475.154 122.199 L
475.154 117.48 LE
474.489 118.304 LS
477.521 118.304 L
477.521 123.031 L
474.489 123.031 L
474.489 118.304 LE
473.821 119.13 LS
476.861 119.13 L
476.861 123.865 L
473.821 123.865 L
473.821 119.13 LE
473.149 119.96 LS
476.197 119.96 L
476.197 124.7 L
473.149 124.7 L
473.149 119.96 LE
472.473 120.791 LS
475.529 120.791 L
475.529 125.539 L
472.473 125.539 L
472.473 120.791 LE
471.793 121.625 LS
474.857 121.625 L
474.857 126.379 L
471.793 126.379 L
471.793 121.625 LE
471.109 122.461 LS
474.181 122.461 L
474.181 127.222 L
471.109 127.222 L
471.109 122.461 LE
470.422 123.3 LS
473.501 123.3 L
473.501 128.067 L
470.422 128.067 L
470.422 123.3 LE
469.73 124.141 LS
472.818 124.141 L
472.818 128.914 L
469.73 128.914 L
469.73 124.141 LE
469.035 124.984 LS
472.13 124.984 L
472.13 129.764 L
469.035 129.764 L
469.035 124.984 LE
468.336 125.83 LS
471.439 125.83 L
471.439 130.615 L
468.336 130.615 L
468.336 125.83 LE
467.632 126.677 LS
470.744 126.677 L
470.744 131.469 L
467.632 131.469 L
467.632 126.677 LE
466.925 127.528 LS
470.045 127.528 L
470.045 132.325 L
466.925 132.325 L
466.925 127.528 LE
466.214 128.38 LS
469.342 128.38 L
469.342 133.183 L
466.214 133.183 L
466.214 128.38 LE
465.499 129.235 LS
468.635 129.235 L
468.635 134.044 L
465.499 134.044 L
465.499 129.235 LE
464.78 130.092 LS
467.924 130.092 L
467.924 134.906 L
464.78 134.906 L
464.78 130.092 LE
464.057 130.951 LS
467.209 130.951 L
467.209 135.771 L
464.057 135.771 L
464.057 130.951 LE
463.331 131.812 LS
466.49 131.812 L
466.49 136.637 L
463.331 136.637 L
463.331 131.812 LE
462.6 132.676 LS
465.768 132.676 L
465.768 137.506 L
462.6 137.506 L
462.6 132.676 LE
461.865 133.541 LS
465.041 133.541 L
465.041 138.376 L
461.865 138.376 L
461.865 133.541 LE
461.125 134.409 LS
464.31 134.409 L
464.31 139.247 L
461.125 139.247 L
461.125 134.409 LE
460.382 135.278 LS
463.575 135.278 L
463.575 140.121 L
460.382 140.121 L
460.382 135.278 LE
459.634 136.149 LS
462.836 136.149 L
462.836 140.996 L
459.634 140.996 L
459.634 136.149 LE
458.882 137.021 LS
462.093 137.021 L
462.093 141.873 L
458.882 141.873 L
458.882 137.021 LE
458.126 137.896 LS
461.345 137.896 L
461.345 142.751 L
458.126 142.751 L
458.126 137.896 LE
457.365 138.771 LS
460.594 138.771 L
460.594 143.63 L
457.365 143.63 L
457.365 138.771 LE
456.601 139.649 LS
459.838 139.649 L
459.838 144.512 L
456.601 144.512 L
456.601 139.649 LE
455.832 140.529 LS
459.078 140.529 L
459.078 145.394 L
455.832 145.394 L
455.832 140.529 LE
455.058 141.409 LS
458.314 141.409 L
458.314 146.279 L
455.058 146.279 L
455.058 141.409 LE
454.281 142.292 LS
457.545 142.292 L
457.545 147.164 L
454.281 147.164 L
454.281 142.292 LE
453.499 143.176 LS
456.772 143.176 L
456.772 148.052 L
453.499 148.052 L
453.499 143.176 LE
452.713 144.062 LS
455.996 144.062 L
455.996 148.94 L
452.713 148.94 L
452.713 144.062 LE
451.922 144.949 LS
455.215 144.949 L
455.215 149.83 L
451.922 149.83 L
451.922 144.949 LE
451.128 145.838 LS
454.429 145.838 L
454.429 150.722 L
451.128 150.722 L
451.128 145.838 LE
450.329 146.728 LS
453.64 146.728 L
453.64 151.614 L
450.329 151.614 L
450.329 146.728 LE
449.526 147.62 LS
452.846 147.62 L
452.846 152.508 L
449.526 152.508 L
449.526 147.62 LE
448.718 148.514 LS
452.048 148.514 L
452.048 153.404 L
448.718 153.404 L
448.718 148.514 LE
447.906 149.408 LS
451.246 149.408 L
451.246 154.301 L
447.906 154.301 L
447.906 149.408 LE
447.09 150.304 LS
450.439 150.304 L
450.439 155.198 L
447.09 155.198 L
447.09 150.304 LE
446.269 151.202 LS
449.629 151.202 L
449.629 156.097 L
446.269 156.097 L
446.269 151.202 LE
445.443 152.1 LS
448.813 152.1 L
448.813 156.997 L
445.443 156.997 L
445.443 152.1 LE
444.613 153 LS
447.993 153 L
447.993 157.898 L
444.613 157.898 L
444.613 153 LE
443.779 153.9 LS
447.168 153.9 L
447.168 158.8 L
443.779 158.8 L
443.779 153.9 LE
442.939 154.802 LS
446.339 154.802 L
446.339 159.702 L
442.939 159.702 L
442.939 154.802 LE
442.096 155.704 LS
445.504 155.704 L
445.504 160.606 L
442.096 160.606 L
442.096 155.704 LE
441.247 156.607 LS
444.666 156.607 L
444.666 161.511 L
441.247 161.511 L
441.247 156.607 LE
440.394 157.512 LS
443.822 157.512 L
443.822 162.417 L
440.394 162.417 L
440.394 157.512 LE
439.536 158.417 LS
442.974 158.417 L
442.974 163.324 L
439.536 163.324 L
439.536 158.417 LE
438.674 159.323 LS
442.121 159.323 L
442.121 164.232 L
438.674 164.232 L
438.674 159.323 LE
437.807 160.229 LS
441.264 160.229 L
441.264 165.141 L
437.807 165.141 L
437.807 160.229 LE
436.936 161.137 LS
440.402 161.137 L
440.402 166.05 L
436.936 166.05 L
436.936 161.137 LE
436.059 162.045 LS
439.535 162.045 L
439.535 166.96 L
436.059 166.96 L
436.059 162.045 LE
435.179 162.954 LS
438.663 162.954 L
438.663 167.871 L
435.179 167.871 L
435.179 162.954 LE
434.293 163.864 LS
437.787 163.864 L
437.787 168.783 L
434.293 168.783 L
434.293 163.864 LE
433.403 164.774 LS
436.906 164.774 L
436.906 169.696 L
433.403 169.696 L
433.403 164.774 LE
432.508 165.685 LS
436.02 165.685 L
436.02 170.609 L
432.508 170.609 L
432.508 165.685 LE
431.608 166.597 LS
435.13 166.597 L
435.13 171.524 L
431.608 171.524 L
431.608 166.597 LE
430.704 167.509 LS
434.235 167.509 L
434.235 172.438 L
430.704 172.438 L
430.704 167.509 LE
429.795 168.422 LS
433.335 168.422 L
433.335 173.354 L
429.795 173.354 L
429.795 168.422 LE
428.882 169.336 LS
432.43 169.336 L
432.43 174.272 L
428.882 174.272 L
428.882 169.336 LE
427.964 170.251 LS
431.521 170.251 L
431.521 175.191 L
427.964 175.191 L
427.964 170.251 LE
427.041 171.168 LS
430.607 171.168 L
430.607 176.112 L
427.041 176.112 L
427.041 171.168 LE
426.114 172.086 LS
429.689 172.086 L
429.689 177.034 L
426.114 177.034 L
426.114 172.086 LE
425.182 173.005 LS
428.767 173.005 L
428.767 177.958 L
425.182 177.958 L
425.182 173.005 LE
424.245 173.926 LS
427.839 173.926 L
427.839 178.883 L
424.245 178.883 L
424.245 173.926 LE
423.304 174.848 LS
426.907 174.848 L
426.907 179.809 L
423.304 179.809 L
423.304 174.848 LE
422.358 175.772 LS
425.971 175.772 L
425.971 180.737 L
422.358 180.737 L
422.358 175.772 LE
421.408 176.696 LS
425.03 176.696 L
425.03 181.666 L
421.408 181.666 L
421.408 176.696 LE
420.452 177.622 LS
424.084 177.622 L
424.084 182.597 L
420.452 182.597 L
420.452 177.622 LE
419.493 178.55 LS
423.134 178.55 L
423.134 183.529 L
419.493 183.529 L
419.493 178.55 LE
418.528 179.478 LS
422.179 179.478 L
422.179 184.462 L
418.528 184.462 L
418.528 179.478 LE
417.559 180.408 LS
421.22 180.408 L
421.22 185.397 L
417.559 185.397 L
417.559 180.408 LE
416.585 181.339 LS
420.256 181.339 L
420.256 186.333 L
416.585 186.333 L
416.585 181.339 LE
415.606 182.272 LS
419.287 182.272 L
419.287 187.27 L
415.606 187.27 L
415.606 182.272 LE
414.623 183.205 LS
418.314 183.205 L
418.314 188.208 L
414.623 188.208 L
414.623 183.205 LE
413.635 184.139 LS
417.336 184.139 L
417.336 189.148 L
413.635 189.148 L
413.635 184.139 LE
412.643 185.075 LS
416.353 185.075 L
416.353 190.088 L
412.643 190.088 L
412.643 185.075 LE
411.645 186.012 LS
415.366 186.012 L
415.366 191.031 L
411.645 191.031 L
411.645 186.012 LE
410.644 186.95 LS
414.374 186.95 L
414.374 191.973 L
410.644 191.973 L
410.644 186.95 LE
409.642 187.888 LS
413.379 187.888 L
413.379 192.914 L
409.642 192.914 L
409.642 187.888 LE
408.637 188.826 LS
412.381 188.826 L
412.381 193.854 L
408.637 193.854 L
408.637 188.826 LE
407.631 189.763 LS
411.381 189.763 L
411.381 194.793 L
407.631 194.793 L
407.631 189.763 LE
406.623 190.7 LS
410.378 190.7 L
410.378 195.731 L
406.623 195.731 L
406.623 190.7 LE
405.613 191.637 LS
409.372 191.637 L
409.372 196.668 L
405.613 196.668 L
405.613 191.637 LE
404.601 192.574 LS
408.364 192.574 L
408.364 197.604 L
404.601 197.604 L
404.601 192.574 LE
403.587 193.51 LS
407.353 193.51 L
407.353 198.538 L
403.587 198.538 L
403.587 193.51 LE
402.571 194.445 LS
406.34 194.445 L
406.34 199.472 L
402.571 199.472 L
402.571 194.445 LE
401.554 195.381 LS
405.324 195.381 L
405.324 200.404 L
401.554 200.404 L
401.554 195.381 LE
400.534 196.316 LS
404.306 196.316 L
404.306 201.336 L
400.534 201.336 L
400.534 196.316 LE
399.513 197.25 LS
403.285 197.25 L
403.285 202.266 L
399.513 202.266 L
399.513 197.25 LE
398.489 198.184 LS
402.261 198.184 L
402.261 203.195 L
398.489 203.195 L
398.489 198.184 LE
397.464 199.118 LS
401.235 199.118 L
401.235 204.123 L
397.464 204.123 L
397.464 199.118 LE
396.437 200.051 LS
400.206 200.051 L
400.206 205.05 L
396.437 205.05 L
396.437 200.051 LE
395.409 200.984 LS
399.175 200.984 L
399.175 205.975 L
395.409 205.975 L
395.409 200.984 LE
394.378 201.916 LS
398.141 201.916 L
398.141 206.9 L
394.378 206.9 L
394.378 201.916 LE
393.346 202.848 LS
397.105 202.848 L
397.105 207.823 L
393.346 207.823 L
393.346 202.848 LE
392.311 203.78 LS
396.066 203.78 L
396.066 208.745 L
392.311 208.745 L
392.311 203.78 LE
391.275 204.71 LS
395.024 204.71 L
395.024 209.666 L
391.275 209.666 L
391.275 204.71 LE
390.238 205.641 LS
393.98 205.641 L
393.98 210.586 L
390.238 210.586 L
390.238 205.641 LE
389.206 206.569 LS
392.936 206.569 L
392.936 211.501 L
389.206 211.501 L
389.206 206.569 LE
388.177 207.494 LS
391.895 207.494 L
391.895 212.412 L
388.177 212.412 L
388.177 207.494 LE
387.151 208.415 LS
390.857 208.415 L
390.857 213.32 L
387.151 213.32 L
387.151 208.415 LE
386.128 209.332 LS
389.821 209.332 L
389.821 214.224 L
386.128 214.224 L
386.128 209.332 LE
385.108 210.246 LS
388.789 210.246 L
388.789 215.125 L
385.108 215.125 L
385.108 210.246 LE
384.091 211.156 LS
387.759 211.156 L
387.759 216.023 L
384.091 216.023 L
384.091 211.156 LE
383.077 212.062 LS
386.732 212.062 L
386.732 216.918 L
383.077 216.918 L
383.077 212.062 LE
382.067 212.965 LS
385.707 212.965 L
385.707 217.809 L
382.067 217.809 L
382.067 212.965 LE
381.059 213.864 LS
384.686 213.864 L
384.686 218.697 L
381.059 218.697 L
381.059 213.864 LE
380.054 214.76 LS
383.667 214.76 L
383.667 219.582 L
380.054 219.582 L
380.054 214.76 LE
379.052 215.652 LS
382.652 215.652 L
382.652 220.463 L
379.052 220.463 L
379.052 215.652 LE
378.054 216.54 LS
381.639 216.54 L
381.639 221.341 L
378.054 221.341 L
378.054 216.54 LE
377.058 217.425 LS
380.629 217.425 L
380.629 222.216 L
377.058 222.216 L
377.058 217.425 LE
376.066 218.306 LS
379.621 218.306 L
379.621 223.088 L
376.066 223.088 L
376.066 218.306 LE
375.076 219.184 LS
378.617 219.184 L
378.617 223.956 L
375.076 223.956 L
375.076 219.184 LE
374.09 220.057 LS
377.615 220.057 L
377.615 224.821 L
374.09 224.821 L
374.09 220.057 LE
373.106 220.928 LS
376.617 220.928 L
376.617 225.683 L
373.106 225.683 L
373.106 220.928 LE
372.126 221.795 LS
375.621 221.795 L
375.621 226.541 L
372.126 226.541 L
372.126 221.795 LE
371.149 222.658 LS
374.628 222.658 L
374.628 227.396 L
371.149 227.396 L
371.149 222.658 LE
370.174 223.517 LS
373.637 223.517 L
373.637 228.248 L
370.174 228.248 L
370.174 223.517 LE
369.205 224.374 LS
372.651 224.374 L
372.651 229.098 L
369.205 229.098 L
369.205 224.374 LE
368.239 225.228 LS
371.668 225.228 L
371.668 229.946 L
368.239 229.946 L
368.239 225.228 LE
367.277 226.08 LS
370.689 226.08 L
370.689 230.792 L
367.277 230.792 L
367.277 226.08 LE
366.319 226.93 LS
369.713 226.93 L
369.713 231.636 L
366.319 231.636 L
366.319 226.93 LE
365.364 227.777 LS
368.742 227.777 L
368.742 232.477 L
365.364 232.477 L
365.364 227.777 LE
364.414 228.622 LS
367.775 228.622 L
367.775 233.316 L
364.414 233.316 L
364.414 228.622 LE
363.467 229.465 LS
366.811 229.465 L
366.811 234.153 L
363.467 234.153 L
363.467 229.465 LE
362.524 230.305 LS
365.852 230.305 L
365.852 234.987 L
362.524 234.987 L
362.524 230.305 LE
361.585 231.143 LS
364.896 231.143 L
364.896 235.819 L
361.585 235.819 L
361.585 231.143 LE
360.65 231.979 LS
363.944 231.979 L
363.944 236.649 L
360.65 236.649 L
360.65 231.979 LE
359.719 232.812 LS
362.996 232.812 L
362.996 237.477 L
359.719 237.477 L
359.719 232.812 LE
358.791 233.643 LS
362.052 233.643 L
362.052 238.302 L
358.791 238.302 L
358.791 233.643 LE
357.868 234.471 LS
361.112 234.471 L
361.112 239.125 L
357.868 239.125 L
357.868 234.471 LE
356.948 235.297 LS
360.175 235.297 L
360.175 239.946 L
356.948 239.946 L
356.948 235.297 LE
356.032 236.121 LS
359.243 236.121 L
359.243 240.764 L
356.032 240.764 L
356.032 236.121 LE
355.12 236.942 LS
358.314 236.942 L
358.314 241.58 L
355.12 241.58 L
355.12 236.942 LE
354.212 237.761 LS
357.39 237.761 L
357.39 242.393 L
354.212 242.393 L
354.212 237.761 LE
353.307 238.578 LS
356.469 238.578 L
356.469 243.205 L
353.307 243.205 L
353.307 238.578 LE
352.407 239.392 LS
355.552 239.392 L
355.552 244.014 L
352.407 244.014 L
352.407 239.392 LE
351.51 240.203 LS
354.638 240.203 L
354.638 244.82 L
351.51 244.82 L
351.51 240.203 LE
350.617 241.013 LS
353.729 241.013 L
353.729 245.625 L
350.617 245.625 L
350.617 241.013 LE
349.728 241.82 LS
352.824 241.82 L
352.824 246.427 L
349.728 246.427 L
349.728 241.82 LE
348.843 242.625 LS
351.923 242.625 L
351.923 247.227 L
348.843 247.227 L
348.843 242.625 LE
347.962 243.427 LS
351.025 243.427 L
351.025 248.025 L
347.962 248.025 L
347.962 243.427 LE
347.085 244.228 LS
350.132 244.228 L
350.132 248.821 L
347.085 248.821 L
347.085 244.228 LE
346.212 245.026 LS
349.242 245.026 L
349.242 249.615 L
346.212 249.615 L
346.212 245.026 LE
345.343 245.822 LS
348.357 245.822 L
348.357 250.407 L
345.343 250.407 L
345.343 245.822 LE
344.477 246.616 LS
347.475 246.616 L
347.475 251.196 L
344.477 251.196 L
344.477 246.616 LE
343.616 247.408 LS
346.597 247.408 L
346.597 251.983 L
343.616 251.983 L
343.616 247.408 LE
342.758 248.197 LS
345.724 248.197 L
345.724 252.768 L
342.758 252.768 L
342.758 248.197 LE
341.904 248.984 LS
344.854 248.984 L
344.854 253.551 L
341.904 253.551 L
341.904 248.984 LE
341.055 249.769 LS
343.988 249.769 L
343.988 254.331 L
341.055 254.331 L
341.055 249.769 LE
340.209 250.551 LS
343.126 250.551 L
343.126 255.109 L
340.209 255.109 L
340.209 250.551 LE
339.367 251.332 LS
342.268 251.332 L
342.268 255.885 L
339.367 255.885 L
339.367 251.332 LE
338.529 252.11 LS
341.414 252.11 L
341.414 256.659 L
338.529 256.659 L
338.529 252.11 LE
337.694 252.885 LS
340.564 252.885 L
340.564 257.43 L
337.694 257.43 L
337.694 252.885 LE
336.864 253.659 LS
339.718 253.659 L
339.718 258.2 L
336.864 258.2 L
336.864 253.659 LE
336.037 254.43 LS
338.876 254.43 L
338.876 258.967 L
336.037 258.967 L
336.037 254.43 LE
335.215 255.198 LS
338.037 255.198 L
338.037 259.731 L
335.215 259.731 L
335.215 255.198 LE
334.396 255.965 LS
337.203 255.965 L
337.203 260.494 L
334.396 260.494 L
334.396 255.965 LE
333.581 256.729 LS
336.373 256.729 L
336.373 261.255 L
333.581 261.255 L
333.581 256.729 LE
332.77 257.491 LS
335.547 257.491 L
335.547 262.014 L
332.77 262.014 L
332.77 257.491 LE
331.963 258.251 LS
334.726 258.251 L
334.726 262.771 L
331.963 262.771 L
331.963 258.251 LE
331.161 259.01 LS
333.908 259.01 L
333.908 263.526 L
331.161 263.526 L
331.161 259.01 LE
330.362 259.767 LS
333.095 259.767 L
333.095 264.28 L
330.362 264.28 L
330.362 259.767 LE
329.568 260.521 LS
332.286 260.521 L
332.286 265.032 L
329.568 265.032 L
329.568 260.521 LE
328.778 261.274 LS
331.481 261.274 L
331.481 265.781 L
328.778 265.781 L
328.778 261.274 LE
327.992 262.025 LS
330.681 262.025 L
330.681 266.529 L
327.992 266.529 L
327.992 262.025 LE
327.21 262.773 LS
329.884 262.773 L
329.884 267.275 L
327.21 267.275 L
327.21 262.773 LE
326.432 263.52 LS
329.092 263.52 L
329.092 268.019 L
326.432 268.019 L
326.432 263.52 LE
325.658 264.265 LS
328.303 264.265 L
328.303 268.761 L
325.658 268.761 L
325.658 264.265 LE
324.888 265.008 LS
327.519 265.008 L
327.519 269.501 L
324.888 269.501 L
324.888 265.008 LE
324.123 265.749 LS
326.74 265.749 L
326.74 270.24 L
324.123 270.24 L
324.123 265.749 LE
323.361 266.487 LS
325.964 266.487 L
325.964 270.976 L
323.361 270.976 L
323.361 266.487 LE
322.604 267.224 LS
325.192 267.224 L
325.192 271.71 L
322.604 271.71 L
322.604 267.224 LE
321.85 267.959 LS
324.425 267.959 L
324.425 272.442 L
321.85 272.442 L
321.85 267.959 LE
321.101 268.691 LS
323.661 268.691 L
323.661 273.172 L
321.101 273.172 L
321.101 268.691 LE
320.356 269.422 LS
322.902 269.422 L
322.902 273.9 L
320.356 273.9 L
320.356 269.422 LE
319.615 270.15 LS
322.147 270.15 L
322.147 274.626 L
319.615 274.626 L
319.615 270.15 LE
318.878 270.876 LS
321.396 270.876 L
321.396 275.349 L
318.878 275.349 L
318.878 270.876 LE
318.145 271.601 LS
320.65 271.601 L
320.65 276.072 L
318.145 276.072 L
318.145 271.601 LE
317.417 272.324 LS
319.907 272.324 L
319.907 276.793 L
317.417 276.793 L
317.417 272.324 LE
316.694 273.045 LS
319.169 273.045 L
319.169 277.513 L
316.694 277.513 L
316.694 273.045 LE
315.975 273.766 LS
318.436 273.766 L
318.436 278.231 L
315.975 278.231 L
315.975 273.766 LE
315.26 274.484 LS
317.707 274.484 L
317.707 278.947 L
315.26 278.947 L
315.26 274.484 LE
314.55 275.201 LS
316.983 275.201 L
316.983 279.662 L
314.55 279.662 L
314.55 275.201 LE
313.845 275.917 LS
316.262 275.917 L
316.262 280.375 L
313.845 280.375 L
313.845 275.917 LE
313.144 276.631 LS
315.547 276.631 L
315.547 281.086 L
313.144 281.086 L
313.144 276.631 LE
312.447 277.343 LS
314.835 277.343 L
314.835 281.796 L
312.447 281.796 L
312.447 277.343 LE
311.755 278.054 LS
314.128 278.054 L
314.128 282.504 L
311.755 282.504 L
311.755 278.054 LE
311.068 278.763 LS
313.426 278.763 L
313.426 283.21 L
311.068 283.21 L
311.068 278.763 LE
310.384 279.47 LS
312.727 279.47 L
312.727 283.914 L
310.384 283.914 L
310.384 279.47 LE
309.704 280.176 LS
312.035 280.176 L
312.035 284.617 L
309.704 284.617 L
309.704 280.176 LE
309.026 280.88 LS
311.349 280.88 L
311.349 285.318 L
309.026 285.318 L
309.026 280.88 LE
308.352 281.582 LS
310.668 281.582 L
310.668 286.017 L
308.352 286.017 L
308.352 281.582 LE
307.683 282.283 LS
309.991 282.283 L
309.991 286.714 L
307.683 286.714 L
307.683 282.283 LE
307.018 282.982 LS
309.318 282.982 L
309.318 287.409 L
307.018 287.409 L
307.018 282.982 LE
306.357 283.679 LS
308.65 283.679 L
308.65 288.102 L
306.357 288.102 L
306.357 283.679 LE
305.701 284.374 LS
307.986 284.374 L
307.986 288.794 L
305.701 288.794 L
305.701 284.374 LE
305.049 285.067 LS
307.327 285.067 L
307.327 289.483 L
305.049 289.483 L
305.049 285.067 LE
304.403 285.759 LS
306.672 285.759 L
306.672 290.172 L
304.403 290.172 L
304.403 285.759 LE
303.761 286.45 LS
306.022 286.45 L
306.022 290.86 L
303.761 290.86 L
303.761 286.45 LE
303.124 287.14 LS
305.376 287.14 L
305.376 291.546 L
303.124 291.546 L
303.124 287.14 LE
302.492 287.829 LS
304.736 287.829 L
304.736 292.232 L
302.492 292.232 L
302.492 287.829 LE
301.865 288.516 LS
304.1 288.516 L
304.1 292.917 L
301.865 292.917 L
301.865 288.516 LE
301.242 289.203 LS
303.47 289.203 L
303.47 293.6 L
301.242 293.6 L
301.242 289.203 LE
300.625 289.888 LS
302.844 289.888 L
302.844 294.282 L
300.625 294.282 L
300.625 289.888 LE
300.012 290.571 LS
302.222 290.571 L
302.222 294.963 L
300.012 294.963 L
300.012 290.571 LE
299.404 291.254 LS
301.606 291.254 L
301.606 295.642 L
299.404 295.642 L
299.404 291.254 LE
298.801 291.935 LS
300.994 291.935 L
300.994 296.321 L
298.801 296.321 L
298.801 291.935 LE
298.202 292.615 LS
300.388 292.615 L
300.388 296.997 L
298.202 296.997 L
298.202 292.615 LE
297.609 293.293 LS
299.785 293.293 L
299.785 297.673 L
297.609 297.673 L
297.609 293.293 LE
297.02 293.97 LS
299.188 293.97 L
299.188 298.347 L
297.02 298.347 L
297.02 293.97 LE
296.436 294.645 LS
298.596 294.645 L
298.596 299.019 L
296.436 299.019 L
296.436 294.645 LE
295.856 295.319 LS
298.008 295.319 L
298.008 299.69 L
295.856 299.69 L
295.856 295.319 LE
295.282 295.992 LS
297.425 295.992 L
297.425 300.36 L
295.282 300.36 L
295.282 295.992 LE
294.712 296.662 LS
296.846 296.662 L
296.846 301.028 L
294.712 301.028 L
294.712 296.662 LE
294.147 297.331 LS
296.272 297.331 L
296.272 301.694 L
294.147 301.694 L
294.147 297.331 LE
293.586 297.999 LS
295.703 297.999 L
295.703 302.358 L
293.586 302.358 L
293.586 297.999 LE
293.03 298.665 LS
295.139 298.665 L
295.139 303.021 L
293.03 303.021 L
293.03 298.665 LE
292.48 299.329 LS
294.58 299.329 L
294.58 303.684 L
292.48 303.684 L
292.48 299.329 LE
291.935 299.993 LS
294.025 299.993 L
294.025 304.346 L
291.935 304.346 L
291.935 299.993 LE
291.395 300.656 LS
293.476 300.656 L
293.476 305.007 L
291.395 305.007 L
291.395 300.656 LE
290.86 301.318 LS
292.932 301.318 L
292.932 305.667 L
290.86 305.667 L
290.86 301.318 LE
290.33 301.98 LS
292.394 301.98 L
292.394 306.326 L
290.33 306.326 L
290.33 301.98 LE
289.806 302.64 LS
291.86 302.64 L
291.86 306.984 L
289.806 306.984 L
289.806 302.64 LE
289.286 303.3 LS
291.331 303.3 L
291.331 307.641 L
289.286 307.641 L
289.286 303.3 LE
288.772 303.958 LS
290.808 303.958 L
290.808 308.297 L
288.772 308.297 L
288.772 303.958 LE
288.263 304.615 LS
290.29 304.615 L
290.29 308.951 L
288.263 308.951 L
288.263 304.615 LE
287.758 305.272 LS
289.776 305.272 L
289.776 309.605 L
287.758 309.605 L
287.758 305.272 LE
287.259 305.927 LS
289.268 305.927 L
289.268 310.257 L
287.259 310.257 L
287.259 305.927 LE
286.765 306.58 LS
288.765 306.58 L
288.765 310.908 L
286.765 310.908 L
286.765 306.58 LE
286.276 307.233 LS
288.267 307.233 L
288.267 311.557 L
286.276 311.557 L
286.276 307.233 LE
285.792 307.884 LS
287.774 307.884 L
287.774 312.205 L
285.792 312.205 L
285.792 307.884 LE
285.313 308.534 LS
287.286 308.534 L
287.286 312.851 L
285.313 312.851 L
285.313 308.534 LE
284.839 309.182 LS
286.803 309.182 L
286.803 313.496 L
284.839 313.496 L
284.839 309.182 LE
284.37 309.829 LS
286.324 309.829 L
286.324 314.139 L
284.37 314.139 L
284.37 309.829 LE
283.905 310.474 LS
285.851 310.474 L
285.851 314.781 L
283.905 314.781 L
283.905 310.474 LE
283.446 311.117 LS
285.383 311.117 L
285.383 315.421 L
283.446 315.421 L
283.446 311.117 LE
282.992 311.759 LS
284.92 311.759 L
284.92 316.059 L
282.992 316.059 L
282.992 311.759 LE
282.543 312.4 LS
284.462 312.4 L
284.462 316.697 L
282.543 316.697 L
282.543 312.4 LE
282.1 313.04 LS
284.009 313.04 L
284.009 317.333 L
282.1 317.333 L
282.1 313.04 LE
281.662 313.679 LS
283.562 313.679 L
283.562 317.969 L
281.662 317.969 L
281.662 313.679 LE
281.23 314.317 LS
283.12 314.317 L
283.12 318.604 L
281.23 318.604 L
281.23 314.317 LE
280.803 314.953 LS
282.684 314.953 L
282.684 319.238 L
280.803 319.238 L
280.803 314.953 LE
280.381 315.589 LS
282.253 315.589 L
282.253 319.871 L
280.381 319.871 L
280.381 315.589 LE
279.964 316.223 LS
281.827 316.223 L
281.827 320.502 L
279.964 320.502 L
279.964 316.223 LE
279.553 316.857 LS
281.407 316.857 L
281.407 321.132 L
279.553 321.132 L
279.553 316.857 LE
279.147 317.488 LS
280.992 317.488 L
280.992 321.76 L
279.147 321.76 L
279.147 317.488 LE
278.746 318.119 LS
280.582 318.119 L
280.582 322.387 L
278.746 322.387 L
278.746 318.119 LE
278.351 318.748 LS
280.178 318.748 L
280.178 323.013 L
278.351 323.013 L
278.351 318.748 LE
277.96 319.375 LS
279.779 319.375 L
279.779 323.637 L
277.96 323.637 L
277.96 319.375 LE
277.575 320.001 LS
279.385 320.001 L
279.385 324.259 L
277.575 324.259 L
277.575 320.001 LE
277.195 320.625 LS
278.996 320.625 L
278.996 324.88 L
277.195 324.88 L
277.195 320.625 LE
276.82 321.247 LS
278.613 321.247 L
278.613 325.499 L
276.82 325.499 L
276.82 321.247 LE
276.451 321.868 LS
278.235 321.868 L
278.235 326.115 L
276.451 326.115 L
276.451 321.868 LE
276.086 322.486 LS
277.862 322.486 L
277.862 326.73 L
276.086 326.73 L
276.086 322.486 LE
275.726 323.103 LS
277.494 323.103 L
277.494 327.343 L
275.726 327.343 L
275.726 323.103 LE
275.372 323.718 LS
277.131 323.718 L
277.131 327.954 L
275.372 327.954 L
275.372 323.718 LE
275.022 324.33 LS
276.773 324.33 L
276.773 328.562 L
275.022 328.562 L
275.022 324.33 LE
274.679 324.941 LS
276.421 324.941 L
276.421 329.17 L
274.679 329.17 L
274.679 324.941 LE
274.342 325.552 LS
276.075 325.552 L
276.075 329.778 L
274.342 329.778 L
274.342 325.552 LE
274.011 326.161 LS
275.734 326.161 L
275.734 330.384 L
274.011 330.384 L
274.011 326.161 LE
273.685 326.769 LS
275.4 326.769 L
275.4 330.989 L
273.685 330.989 L
273.685 326.769 LE
273.366 327.376 LS
275.072 327.376 L
275.072 331.592 L
273.366 331.592 L
273.366 327.376 LE
273.052 327.982 LS
274.75 327.982 L
274.75 332.194 L
273.052 332.194 L
273.052 327.982 LE
272.744 328.586 LS
274.433 328.586 L
274.433 332.795 L
272.744 332.795 L
272.744 328.586 LE
272.442 329.189 LS
274.122 329.189 L
274.122 333.394 L
272.442 333.394 L
272.442 329.189 LE
272.145 329.79 LS
273.817 329.79 L
273.817 333.991 L
272.145 333.991 L
272.145 329.79 LE
271.854 330.39 LS
273.518 330.39 L
273.518 334.586 L
271.854 334.586 L
271.854 330.39 LE
271.569 330.987 LS
273.225 330.987 L
273.225 335.179 L
271.569 335.179 L
271.569 330.987 LE
271.29 331.583 LS
272.937 331.583 L
272.937 335.77 L
271.29 335.77 L
271.29 331.583 LE
271.016 332.177 LS
272.655 332.177 L
272.655 336.359 L
271.016 336.359 L
271.016 332.177 LE
270.747 332.769 LS
272.379 332.769 L
272.379 336.946 L
270.747 336.946 L
270.747 332.769 LE
270.484 333.358 LS
272.108 333.358 L
272.108 337.53 L
270.484 337.53 L
270.484 333.358 LE
270.227 333.945 LS
271.843 333.945 L
271.843 338.111 L
270.227 338.111 L
270.227 333.945 LE
269.975 334.53 LS
271.583 334.53 L
271.583 338.69 L
269.975 338.69 L
269.975 334.53 LE
269.728 335.112 LS
271.329 335.112 L
271.329 339.266 L
269.728 339.266 L
269.728 335.112 LE
269.487 335.692 LS
271.08 335.692 L
271.08 339.839 L
269.487 339.839 L
269.487 335.692 LE
269.25 336.269 LS
270.836 336.269 L
270.836 340.41 L
269.25 340.41 L
269.25 336.269 LE
269.021 336.845 LS
270.599 336.845 L
270.599 340.98 L
269.021 340.98 L
269.021 336.845 LE
268.797 337.419 LS
270.367 337.419 L
270.367 341.548 L
268.797 341.548 L
268.797 337.419 LE
268.58 337.991 LS
270.142 337.991 L
270.142 342.116 L
268.58 342.116 L
268.58 337.991 LE
268.369 338.563 LS
269.922 338.563 L
269.922 342.681 L
268.369 342.681 L
268.369 338.563 LE
268.163 339.132 LS
269.709 339.132 L
269.709 343.245 L
268.163 343.245 L
268.163 339.132 LE
267.964 339.7 LS
269.502 339.7 L
269.502 343.807 L
267.964 343.807 L
267.964 339.7 LE
267.77 340.266 LS
269.301 340.266 L
269.301 344.367 L
267.77 344.367 L
267.77 340.266 LE
267.582 340.831 LS
269.106 340.831 L
269.106 344.925 L
267.582 344.925 L
267.582 340.831 LE
267.4 341.393 LS
268.917 341.393 L
268.917 345.481 L
267.4 345.481 L
267.4 341.393 LE
267.223 341.953 LS
268.733 341.953 L
268.733 346.034 L
267.223 346.034 L
267.223 341.953 LE
267.053 342.51 LS
268.555 342.51 L
268.555 346.585 L
267.053 346.585 L
267.053 342.51 LE
266.887 343.065 LS
268.383 343.065 L
268.383 347.133 L
266.887 347.133 L
266.887 343.065 LE
266.726 343.617 LS
268.219 343.617 L
268.219 347.678 L
266.726 347.678 L
266.726 343.617 LE
266.561 344.167 LS
268.068 344.167 L
268.068 348.22 L
266.561 348.22 L
266.561 344.167 LE
266.402 344.714 LS
267.923 344.714 L
267.923 348.759 L
266.402 348.759 L
266.402 344.714 LE
266.248 345.258 LS
267.784 345.258 L
267.784 349.294 L
266.248 349.294 L
266.248 345.258 LE
266.099 345.798 LS
267.65 345.798 L
267.65 349.827 L
266.099 349.827 L
266.099 345.798 LE
265.956 346.336 LS
267.521 346.336 L
267.521 350.356 L
265.956 350.356 L
265.956 346.336 LE
265.818 346.87 LS
267.397 346.87 L
267.397 350.881 L
265.818 350.881 L
265.818 346.87 LE
265.685 347.401 LS
267.279 347.401 L
267.279 351.403 L
265.685 351.403 L
265.685 347.401 LE
265.559 347.928 LS
267.167 347.928 L
267.167 351.923 L
265.559 351.923 L
265.559 347.928 LE
265.441 348.454 LS
267.062 348.454 L
267.062 352.44 L
265.441 352.44 L
265.441 348.454 LE
265.329 348.978 LS
266.964 348.978 L
266.964 352.955 L
265.329 352.955 L
265.329 348.978 LE
265.223 349.499 LS
266.874 349.499 L
266.874 353.467 L
265.223 353.467 L
265.223 349.499 LE
265.124 350.017 LS
266.79 350.017 L
266.79 353.975 L
265.124 353.975 L
265.124 350.017 LE
265.032 350.533 LS
266.713 350.533 L
266.713 354.479 L
265.032 354.479 L
265.032 350.533 LE
264.946 351.045 LS
266.643 351.045 L
266.643 354.98 L
264.946 354.98 L
264.946 351.045 LE
264.866 351.554 LS
266.579 351.554 L
266.579 355.477 L
264.866 355.477 L
264.866 351.554 LE
264.792 352.06 LS
266.522 352.06 L
266.522 355.97 L
264.792 355.97 L
264.792 352.06 LE
264.724 352.561 LS
266.471 352.561 L
266.471 356.458 L
264.724 356.458 L
264.724 352.561 LE
264.663 353.059 LS
266.426 353.059 L
266.426 356.941 L
264.663 356.941 L
264.663 353.059 LE
264.607 353.553 LS
266.388 353.553 L
266.388 357.42 L
264.607 357.42 L
264.607 353.553 LE
264.557 354.043 LS
266.355 354.043 L
266.355 357.894 L
264.557 357.894 L
264.557 354.043 LE
264.512 354.528 LS
266.329 354.528 L
266.329 358.363 L
264.512 358.363 L
264.512 354.528 LE
264.473 355.008 LS
266.308 355.008 L
266.308 358.827 L
264.473 358.827 L
264.473 355.008 LE
264.439 355.484 LS
266.293 355.484 L
266.293 359.285 L
264.439 359.285 L
264.439 355.484 LE
264.411 355.955 LS
266.283 355.955 L
266.283 359.738 L
264.411 359.738 L
264.411 355.955 LE
264.388 356.421 LS
266.284 356.421 L
266.284 360.185 L
264.388 360.185 L
264.388 356.421 LE
264.37 356.882 LS
266.29 356.882 L
266.29 360.625 L
264.37 360.625 L
264.37 356.882 LE
264.357 357.337 LS
266.303 357.337 L
266.303 361.06 L
264.357 361.06 L
264.357 357.337 LE
264.352 357.787 LS
266.323 357.787 L
266.323 361.488 L
264.352 361.488 L
264.352 357.787 LE
264.355 358.231 LS
266.351 358.231 L
266.351 361.909 L
264.355 361.909 L
264.355 358.231 LE
264.363 358.669 LS
266.386 358.669 L
266.386 362.323 L
264.363 362.323 L
264.363 358.669 LE
264.373 359.1 LS
266.428 359.1 L
266.428 362.728 L
264.373 362.728 L
264.373 359.1 LE
264.39 359.524 LS
266.476 359.524 L
266.476 363.126 L
264.39 363.126 L
264.39 359.524 LE
264.414 359.941 LS
266.531 359.941 L
266.531 363.514 L
264.414 363.514 L
264.414 359.941 LE
264.445 360.35 LS
266.592 360.35 L
266.592 363.894 L
264.445 363.894 L
264.445 360.35 LE
264.481 360.752 LS
266.659 360.752 L
266.659 364.265 L
264.481 364.265 L
264.481 360.752 LE
264.524 361.146 LS
266.731 361.146 L
266.731 364.626 L
264.524 364.626 L
264.524 361.146 LE
264.572 361.531 LS
266.809 361.531 L
266.809 364.978 L
264.572 364.978 L
264.572 361.531 LE
264.625 361.909 LS
266.891 361.909 L
266.891 365.321 L
264.625 365.321 L
264.625 361.909 LE
264.685 362.278 LS
266.979 362.278 L
266.979 365.653 L
264.685 365.653 L
264.685 362.278 LE
264.749 362.638 LS
267.07 362.638 L
267.07 365.976 L
264.749 365.976 L
264.749 362.638 LE
264.817 362.989 LS
267.166 362.989 L
267.166 366.289 L
264.817 366.289 L
264.817 362.989 LE
264.89 363.331 LS
267.266 363.331 L
267.266 366.592 L
264.89 366.592 L
264.89 363.331 LE
264.967 363.663 LS
267.369 363.663 L
267.369 366.884 L
264.967 366.884 L
264.967 363.663 LE
265.049 363.987 LS
267.476 363.987 L
267.476 367.167 L
265.049 367.167 L
265.049 363.987 LE
265.134 364.301 LS
267.586 364.301 L
267.586 367.439 L
265.134 367.439 L
265.134 364.301 LE
265.221 364.606 LS
267.699 364.606 L
267.699 367.7 L
265.221 367.7 L
265.221 364.606 LE
265.31 364.901 LS
267.816 364.901 L
267.816 367.952 L
265.31 367.952 L
265.31 364.901 LE
265.403 365.185 LS
267.935 365.185 L
267.935 368.191 L
265.403 368.191 L
265.403 365.185 LE
265.5 365.459 LS
268.055 365.459 L
268.055 368.419 L
265.5 368.419 L
265.5 365.459 LE
265.599 365.722 LS
268.176 365.722 L
268.176 368.636 L
265.599 368.636 L
265.599 365.722 LE
265.702 365.974 LS
268.298 365.974 L
268.298 368.842 L
265.702 368.842 L
265.702 365.974 LE
265.807 366.215 LS
268.42 366.215 L
268.42 369.037 L
265.807 369.037 L
265.807 366.215 LE
265.914 366.445 LS
268.543 366.445 L
268.543 369.222 L
265.914 369.222 L
265.914 366.445 LE
266.023 366.664 LS
268.666 366.664 L
268.666 369.396 L
266.023 369.396 L
266.023 366.664 LE
266.133 366.872 LS
268.788 366.872 L
268.788 369.56 L
266.133 369.56 L
266.133 366.872 LE
266.245 367.07 LS
268.91 367.07 L
268.91 369.713 L
266.245 369.713 L
266.245 367.07 LE
266.358 367.256 LS
269.031 367.256 L
269.031 369.857 L
266.358 369.857 L
266.358 367.256 LE
266.471 367.432 LS
269.151 367.432 L
269.151 369.99 L
266.471 369.99 L
266.471 367.432 LE
266.585 367.598 LS
269.27 367.598 L
269.27 370.115 L
266.585 370.115 L
266.585 367.598 LE
266.698 367.746 LS
269.387 367.746 L
269.387 370.236 L
266.698 370.236 L
266.698 367.746 LE
266.811 367.881 LS
269.502 367.881 L
269.502 370.352 L
266.811 370.352 L
266.811 367.881 LE
266.924 368.006 LS
269.615 368.006 L
269.615 370.459 L
266.924 370.459 L
266.924 368.006 LE
267.035 368.122 LS
269.726 368.122 L
269.726 370.557 L
267.035 370.557 L
267.035 368.122 LE
267.146 368.228 LS
269.835 368.228 L
269.835 370.647 L
267.146 370.647 L
267.146 368.228 LE
267.254 368.326 LS
269.941 368.326 L
269.941 370.728 L
267.254 370.728 L
267.254 368.326 LE
267.362 368.416 LS
270.043 368.416 L
270.043 370.801 L
267.362 370.801 L
267.362 368.416 LE
267.465 368.491 LS
270.145 368.491 L
270.145 370.872 L
267.465 370.872 L
267.465 368.491 LE
267.566 368.559 LS
270.242 368.559 L
270.242 370.939 L
267.566 370.939 L
267.566 368.559 LE
267.664 368.621 LS
270.336 368.621 L
270.336 371.001 L
267.664 371.001 L
267.664 368.621 LE
267.758 368.678 LS
270.425 368.678 L
270.425 371.058 L
267.758 371.058 L
267.758 368.678 LE
267.848 368.73 LS
270.511 368.73 L
270.511 371.11 L
267.848 371.11 L
267.848 368.73 LE
267.935 368.776 LS
270.592 368.776 L
270.592 371.157 L
267.935 371.157 L
267.935 368.776 LE
268.019 368.818 LS
270.67 368.818 L
270.67 371.199 L
268.019 371.199 L
268.019 368.818 LE
268.098 368.855 LS
270.743 368.855 L
270.743 371.238 L
268.098 371.238 L
268.098 368.855 LE
268.174 368.888 LS
270.812 368.888 L
270.812 371.272 L
268.174 371.272 L
268.174 368.888 LE
268.245 368.916 LS
270.876 368.916 L
270.876 371.303 L
268.245 371.303 L
268.245 368.916 LE
268.311 368.941 LS
270.938 368.941 L
270.938 371.33 L
268.311 371.33 L
268.311 368.941 LE
268.373 368.962 LS
270.995 368.962 L
270.995 371.353 L
268.373 371.353 L
268.373 368.962 LE
268.431 368.98 LS
271.048 368.98 L
271.048 371.374 L
268.431 371.374 L
268.431 368.98 LE
268.485 368.995 LS
271.096 368.995 L
271.096 371.391 L
268.485 371.391 L
268.485 368.995 LE
268.534 369.007 LS
271.14 369.007 L
271.14 371.406 L
268.534 371.406 L
268.534 369.007 LE
268.579 369.016 LS
271.179 369.016 L
271.179 371.418 L
268.579 371.418 L
268.579 369.016 LE
268.619 369.023 LS
271.213 369.023 L
271.213 371.428 L
268.619 371.428 L
268.619 369.023 LE
268.655 369.028 LS
271.243 369.028 L
271.243 371.436 L
268.655 371.436 L
268.655 369.028 LE
268.686 369.031 LS
271.268 369.031 L
271.268 371.442 L
268.686 371.442 L
268.686 369.031 LE
268.713 369.032 LS
271.289 369.032 L
271.289 371.447 L
268.713 371.447 L
268.713 369.032 LE
268.736 369.033 LS
271.305 369.033 L
271.305 371.45 L
268.736 371.45 L
268.736 369.033 LE
268.753 369.033 LS
271.316 369.033 L
271.316 371.453 L
268.753 371.453 L
268.753 369.033 LE
268.764 369.033 LS
271.323 369.033 L
271.323 371.454 L
268.764 371.454 L
268.764 369.033 LE
268.768 369.033 LS
271.326 369.033 L
271.326 371.455 L
268.768 371.455 L
268.768 369.033 LE
268.768 369.032 LS
271.323 369.032 L
271.323 371.456 L
268.768 371.456 L
268.768 369.032 LE
268.762 369.031 LS
271.317 369.031 L
271.317 371.456 L
268.762 371.456 L
268.762 369.031 LE
268.752 369.03 LS
271.305 369.03 L
271.305 371.456 L
268.752 371.456 L
268.752 369.03 LE
268.738 369.028 LS
271.293 369.028 L
271.293 371.455 L
268.738 371.455 L
268.738 369.028 LE
268.718 369.027 LS
271.277 369.027 L
271.277 371.454 L
268.718 371.454 L
268.718 369.027 LE
268.694 369.026 LS
271.257 369.026 L
271.257 371.453 L
268.694 371.453 L
268.694 369.026 LE
268.666 369.025 LS
271.232 369.025 L
271.232 371.452 L
268.666 371.452 L
268.666 369.025 LE
268.633 369.024 LS
271.202 369.024 L
271.202 371.451 L
268.633 371.451 L
268.633 369.024 LE
268.595 369.024 LS
271.168 369.024 L
271.168 371.45 L
268.595 371.45 L
268.595 369.024 LE
268.552 369.023 LS
271.13 369.023 L
271.13 371.449 L
268.552 371.449 L
268.552 369.023 LE
268.505 369.024 LS
271.087 369.024 L
271.087 371.449 L
268.505 371.449 L
268.505 369.024 LE
268.453 369.024 LS
271.039 369.024 L
271.039 371.449 L
268.453 371.449 L
268.453 369.024 LE
268.396 369.025 LS
270.987 369.025 L
270.987 371.449 L
268.396 371.449 L
268.396 369.025 LE
268.335 369.027 LS
270.93 369.027 L
270.93 371.451 L
268.335 371.451 L
268.335 369.027 LE
268.269 369.029 LS
270.869 369.029 L
270.869 371.453 L
268.269 371.453 L
268.269 369.029 LE
268.199 369.031 LS
270.804 369.031 L
270.804 371.456 L
268.199 371.456 L
268.199 369.031 LE
268.124 369.033 LS
270.733 369.033 L
270.733 371.46 L
268.124 371.46 L
268.124 369.033 LE
268.044 369.036 LS
270.659 369.036 L
270.659 371.464 L
268.044 371.464 L
268.044 369.036 LE
267.96 369.04 LS
270.579 369.04 L
270.579 371.469 L
267.96 371.469 L
267.96 369.04 LE
267.872 369.043 LS
270.496 369.043 L
270.496 371.474 L
267.872 371.474 L
267.872 369.043 LE
267.779 369.047 LS
270.408 369.047 L
270.408 371.48 L
267.779 371.48 L
267.779 369.047 LE
267.681 369.052 LS
270.315 369.052 L
270.315 371.486 L
267.681 371.486 L
267.681 369.052 LE
267.579 369.056 LS
270.218 369.056 L
270.218 371.492 L
267.579 371.492 L
267.579 369.056 LE
267.472 369.062 LS
270.116 369.062 L
270.116 371.499 L
267.472 371.499 L
267.472 369.062 LE
267.361 369.067 LS
270.01 369.067 L
270.01 371.507 L
267.361 371.507 L
267.361 369.067 LE
267.246 369.073 LS
269.899 369.073 L
269.899 371.514 L
267.246 371.514 L
267.246 369.073 LE
267.126 369.08 LS
269.784 369.08 L
269.784 371.522 L
267.126 371.522 L
267.126 369.08 LE
267.001 369.087 LS
269.664 369.087 L
269.664 371.531 L
267.001 371.531 L
267.001 369.087 LE
266.872 369.094 LS
269.54 369.094 L
269.54 371.54 L
266.872 371.54 L
266.872 369.094 LE
266.738 369.103 LS
269.411 369.103 L
269.411 371.55 L
266.738 371.55 L
266.738 369.103 LE
266.6 369.111 LS
269.278 369.111 L
269.278 371.56 L
266.6 371.56 L
266.6 369.111 LE
266.458 369.12 LS
269.14 369.12 L
269.14 371.57 L
266.458 371.57 L
266.458 369.12 LE
266.311 369.13 LS
268.998 369.13 L
268.998 371.582 L
266.311 371.582 L
266.311 369.13 LE
266.159 369.141 LS
268.852 369.141 L
268.852 371.593 L
266.159 371.593 L
266.159 369.141 LE
266.003 369.152 LS
268.7 369.152 L
268.7 371.605 L
266.003 371.605 L
266.003 369.152 LE
265.843 369.163 LS
268.545 369.163 L
268.545 371.618 L
265.843 371.618 L
265.843 369.163 LE
265.678 369.176 LS
268.385 369.176 L
268.385 371.632 L
265.678 371.632 L
265.678 369.176 LE
265.508 369.189 LS
268.22 369.189 L
268.22 371.645 L
265.508 371.645 L
265.508 369.189 LE
265.335 369.202 LS
268.051 369.202 L
268.051 371.659 L
265.335 371.659 L
265.335 369.202 LE
265.156 369.216 LS
267.877 369.216 L
267.877 371.674 L
265.156 371.674 L
265.156 369.216 LE
264.973 369.23 LS
267.699 369.23 L
267.699 371.689 L
264.973 371.689 L
264.973 369.23 LE
264.786 369.245 LS
267.517 369.245 L
267.517 371.704 L
264.786 371.704 L
264.786 369.245 LE
264.594 369.26 LS
267.33 369.26 L
267.33 371.72 L
264.594 371.72 L
264.594 369.26 LE
264.398 369.276 LS
267.139 369.276 L
267.139 371.736 L
264.398 371.736 L
264.398 369.276 LE
264.198 369.292 LS
266.943 369.292 L
266.943 371.753 L
264.198 371.753 L
264.198 369.292 LE
263.992 369.309 LS
266.743 369.309 L
266.743 371.77 L
263.992 371.77 L
263.992 369.309 LE
263.783 369.326 LS
266.538 369.326 L
266.538 371.787 L
263.783 371.787 L
263.783 369.326 LE
263.569 369.344 LS
266.329 369.344 L
266.329 371.805 L
263.569 371.805 L
263.569 369.344 LE
263.351 369.362 LS
266.115 369.362 L
266.115 371.824 L
263.351 371.824 L
263.351 369.362 LE
263.128 369.38 LS
265.897 369.38 L
265.897 371.843 L
263.128 371.843 L
263.128 369.38 LE
262.9 369.399 LS
265.675 369.399 L
265.675 371.863 L
262.9 371.863 L
262.9 369.399 LE
262.669 369.419 LS
265.448 369.419 L
265.448 371.883 L
262.669 371.883 L
262.669 369.419 LE
262.432 369.439 LS
265.217 369.439 L
265.217 371.903 L
262.432 371.903 L
262.432 369.439 LE
262.192 369.46 LS
264.981 369.46 L
264.981 371.924 L
262.192 371.924 L
262.192 369.46 LE
261.946 369.481 LS
264.74 369.481 L
264.74 371.946 L
261.946 371.946 L
261.946 369.481 LE
261.697 369.503 LS
264.496 369.503 L
264.496 371.968 L
261.697 371.968 L
261.697 369.503 LE
261.443 369.525 LS
264.247 369.525 L
264.247 371.99 L
261.443 371.99 L
261.443 369.525 LE
261.184 369.548 LS
263.993 369.548 L
263.993 372.013 L
261.184 372.013 L
261.184 369.548 LE
260.921 369.572 LS
263.735 369.572 L
263.735 372.036 L
260.921 372.036 L
260.921 369.572 LE
260.654 369.596 LS
263.472 369.596 L
263.472 372.06 L
260.654 372.06 L
260.654 369.596 LE
260.382 369.62 LS
263.206 369.62 L
263.206 372.085 L
260.382 372.085 L
260.382 369.62 LE
260.106 369.645 LS
262.934 369.645 L
262.934 372.11 L
260.106 372.11 L
260.106 369.645 LE
259.825 369.671 LS
262.659 369.671 L
262.659 372.136 L
259.825 372.136 L
259.825 369.671 LE
259.54 369.697 LS
262.378 369.697 L
262.378 372.163 L
259.54 372.163 L
259.54 369.697 LE
259.251 369.724 LS
262.094 369.724 L
262.094 372.189 L
259.251 372.189 L
259.251 369.724 LE
258.956 369.752 LS
261.805 369.752 L
261.805 372.217 L
258.956 372.217 L
258.956 369.752 LE
258.658 369.78 LS
261.511 369.78 L
261.511 372.245 L
258.658 372.245 L
258.658 369.78 LE
258.355 369.809 LS
261.214 369.809 L
261.214 372.274 L
258.355 372.274 L
258.355 369.809 LE
258.048 369.838 LS
260.911 369.838 L
260.911 372.303 L
258.048 372.303 L
258.048 369.838 LE
257.736 369.868 LS
260.605 369.868 L
260.605 372.333 L
257.736 372.333 L
257.736 369.868 LE
257.42 369.898 LS
260.294 369.898 L
260.294 372.364 L
257.42 372.364 L
257.42 369.898 LE
257.099 369.929 LS
259.978 369.929 L
259.978 372.395 L
257.099 372.395 L
257.099 369.929 LE
256.774 369.961 LS
259.658 369.961 L
259.658 372.427 L
256.774 372.427 L
256.774 369.961 LE
256.444 369.994 LS
259.334 369.994 L
259.334 372.459 L
256.444 372.459 L
256.444 369.994 LE
256.11 370.027 LS
259.005 370.027 L
259.005 372.493 L
256.11 372.493 L
256.11 370.027 LE
255.772 370.06 LS
258.672 370.06 L
258.672 372.526 L
255.772 372.526 L
255.772 370.06 LE
255.429 370.094 LS
258.334 370.094 L
258.334 372.561 L
255.429 372.561 L
255.429 370.094 LE
255.082 370.129 LS
257.992 370.129 L
257.992 372.596 L
255.082 372.596 L
255.082 370.129 LE
254.73 370.165 LS
257.646 370.165 L
257.646 372.631 L
254.73 372.631 L
254.73 370.165 LE
254.374 370.201 LS
257.295 370.201 L
257.295 372.667 L
254.374 372.667 L
254.374 370.201 LE
254.013 370.238 LS
256.94 370.238 L
256.94 372.704 L
254.013 372.704 L
254.013 370.238 LE
253.649 370.275 LS
256.58 370.275 L
256.58 372.741 L
253.649 372.741 L
253.649 370.275 LE
253.279 370.313 LS
256.217 370.313 L
256.217 372.779 L
253.279 372.779 L
253.279 370.313 LE
252.906 370.351 LS
255.848 370.351 L
255.848 372.818 L
252.906 372.818 L
252.906 370.351 LE
252.528 370.389 LS
255.476 370.389 L
255.476 372.858 L
252.528 372.858 L
252.528 370.389 LE
252.146 370.428 LS
255.099 370.428 L
255.099 372.898 L
252.146 372.898 L
252.146 370.428 LE
251.759 370.467 LS
254.717 370.467 L
254.717 372.939 L
251.759 372.939 L
251.759 370.467 LE
251.368 370.508 LS
254.332 370.508 L
254.332 372.98 L
251.368 372.98 L
251.368 370.508 LE
250.972 370.548 LS
253.942 370.548 L
253.942 373.022 L
250.972 373.022 L
250.972 370.548 LE
250.572 370.59 LS
253.547 370.59 L
253.547 373.065 L
250.572 373.065 L
250.572 370.59 LE
250.168 370.632 LS
253.148 370.632 L
253.148 373.108 L
250.168 373.108 L
250.168 370.632 LE
249.759 370.675 LS
252.745 370.675 L
252.745 373.152 L
249.759 373.152 L
249.759 370.675 LE
249.346 370.718 LS
252.338 370.718 L
252.338 373.197 L
249.346 373.197 L
249.346 370.718 LE
248.929 370.762 LS
251.926 370.762 L
251.926 373.242 L
248.929 373.242 L
248.929 370.762 LE
248.507 370.806 LS
251.509 370.806 L
251.509 373.288 L
248.507 373.288 L
248.507 370.806 LE
248.08 370.852 LS
251.089 370.852 L
251.089 373.334 L
248.08 373.334 L
248.08 370.852 LE
247.65 370.898 LS
250.664 370.898 L
250.664 373.381 L
247.65 373.381 L
247.65 370.898 LE
247.215 370.944 LS
250.234 370.944 L
250.234 373.429 L
247.215 373.429 L
247.215 370.944 LE
246.776 370.991 LS
249.801 370.991 L
249.801 373.477 L
246.776 373.477 L
246.776 370.991 LE
246.332 371.039 LS
249.363 371.039 L
249.363 373.525 L
246.332 373.525 L
246.332 371.039 LE
245.879 371.087 LS
248.925 371.087 L
248.925 373.574 L
245.879 373.574 L
245.879 371.087 LE
245.42 371.136 LS
248.485 371.136 L
248.485 373.624 L
245.42 373.624 L
245.42 371.136 LE
244.957 371.185 LS
248.04 371.185 L
248.04 373.674 L
244.957 373.674 L
244.957 371.185 LE
244.489 371.235 LS
247.591 371.235 L
247.591 373.724 L
244.489 373.724 L
244.489 371.235 LE
244.017 371.285 LS
247.138 371.285 L
247.138 373.775 L
244.017 373.775 L
244.017 371.285 LE
243.541 371.336 LS
246.68 371.336 L
246.68 373.827 L
243.541 373.827 L
243.541 371.336 LE
243.061 371.387 LS
246.218 371.387 L
246.218 373.878 L
243.061 373.878 L
243.061 371.387 LE
242.576 371.44 LS
245.752 371.44 L
245.752 373.931 L
242.576 373.931 L
242.576 371.44 LE
242.086 371.492 LS
245.281 371.492 L
245.281 373.984 L
242.086 373.984 L
242.086 371.492 LE
241.593 371.545 LS
244.806 371.545 L
244.806 374.037 L
241.593 374.037 L
241.593 371.545 LE
241.095 371.599 LS
244.327 371.599 L
244.327 374.091 L
241.095 374.091 L
241.095 371.599 LE
240.592 371.653 LS
243.843 371.653 L
243.843 374.145 L
240.592 374.145 L
240.592 371.653 LE
240.086 371.708 LS
243.355 371.708 L
243.355 374.2 L
240.086 374.2 L
240.086 371.708 LE
239.575 371.764 LS
242.863 371.764 L
242.863 374.255 L
239.575 374.255 L
239.575 371.764 LE
239.059 371.82 LS
242.366 371.82 L
242.366 374.311 L
239.059 374.311 L
239.059 371.82 LE
238.539 371.877 LS
241.865 371.877 L
241.865 374.367 L
238.539 374.367 L
238.539 371.877 LE
238.015 371.934 LS
241.36 371.934 L
241.36 374.423 L
238.015 374.423 L
238.015 371.934 LE
237.487 371.992 LS
240.85 371.992 L
240.85 374.48 L
237.487 374.48 L
237.487 371.992 LE
236.956 372.05 LS
240.337 372.05 L
240.337 374.537 L
236.956 374.537 L
236.956 372.05 LE
236.42 372.108 LS
239.819 372.108 L
239.819 374.595 L
236.42 374.595 L
236.42 372.108 LE
235.88 372.168 LS
239.297 372.168 L
239.297 374.653 L
235.88 374.653 L
235.88 372.168 LE
235.337 372.227 LS
238.77 372.227 L
238.77 374.711 L
235.337 374.711 L
235.337 372.227 LE
234.789 372.287 LS
238.24 372.287 L
238.24 374.769 L
234.789 374.769 L
234.789 372.287 LE
234.237 372.348 LS
237.705 372.348 L
237.705 374.828 L
234.237 374.828 L
234.237 372.348 LE
233.682 372.409 LS
237.167 372.409 L
237.167 374.887 L
233.682 374.887 L
233.682 372.409 LE
233.122 372.47 LS
236.624 372.47 L
236.624 374.946 L
233.122 374.946 L
233.122 372.47 LE
232.559 372.532 LS
236.077 372.532 L
236.077 375.006 L
232.559 375.006 L
232.559 372.532 LE
231.991 372.595 LS
235.526 372.595 L
235.526 375.066 L
231.991 375.066 L
231.991 372.595 LE
231.42 372.657 LS
234.97 372.657 L
234.97 375.126 L
231.42 375.126 L
231.42 372.657 LE
230.845 372.721 LS
234.411 372.721 L
234.411 375.186 L
230.845 375.186 L
230.845 372.721 LE
230.266 372.785 LS
233.847 372.785 L
233.847 375.247 L
230.266 375.247 L
230.266 372.785 LE
229.682 372.849 LS
233.28 372.849 L
233.28 375.308 L
229.682 375.308 L
229.682 372.849 LE
229.095 372.914 LS
232.708 372.914 L
232.708 375.369 L
229.095 375.369 L
229.095 372.914 LE
228.504 372.979 LS
232.132 372.979 L
232.132 375.431 L
228.504 375.431 L
228.504 372.979 LE
227.909 373.045 LS
231.551 373.045 L
231.551 375.493 L
227.909 375.493 L
227.909 373.045 LE
227.31 373.111 LS
230.967 373.111 L
230.967 375.555 L
227.31 375.555 L
227.31 373.111 LE
226.709 373.177 LS
230.378 373.177 L
230.378 375.617 L
226.709 375.617 L
226.709 373.177 LE
226.11 373.245 LS
229.788 373.245 L
229.788 375.68 L
226.11 375.68 L
226.11 373.245 LE
225.511 373.312 LS
229.197 373.312 L
229.197 375.744 L
225.511 375.744 L
225.511 373.312 LE
224.914 373.381 LS
228.607 373.381 L
228.607 375.809 L
224.914 375.809 L
224.914 373.381 LE
224.318 373.45 LS
228.017 373.45 L
228.017 375.874 L
224.318 375.874 L
224.318 373.45 LE
223.723 373.519 LS
227.427 373.519 L
227.427 375.94 L
223.723 375.94 L
223.723 373.519 LE
223.128 373.589 LS
226.837 373.589 L
226.837 376.007 L
223.128 376.007 L
223.128 373.589 LE
222.535 373.659 LS
226.248 373.659 L
226.248 376.076 L
222.535 376.076 L
222.535 373.659 LE
221.943 373.729 LS
225.658 373.729 L
225.658 376.146 L
221.943 376.146 L
221.943 373.729 LE
221.352 373.8 LS
225.069 373.8 L
225.069 376.217 L
221.352 376.217 L
221.352 373.8 LE
220.762 373.871 LS
224.48 373.871 L
224.48 376.289 L
220.762 376.289 L
220.762 373.871 LE
220.173 373.942 LS
223.891 373.942 L
223.891 376.362 L
220.173 376.362 L
220.173 373.942 LE
219.585 374.014 LS
223.303 374.014 L
223.303 376.435 L
219.585 376.435 L
219.585 374.014 LE
218.998 374.086 LS
222.714 374.086 L
222.714 376.509 L
218.998 376.509 L
218.998 374.086 LE
218.411 374.159 LS
222.126 374.159 L
222.126 376.585 L
218.411 376.585 L
218.411 374.159 LE
217.825 374.232 LS
221.538 374.232 L
221.538 376.661 L
217.825 376.661 L
217.825 374.232 LE
217.24 374.306 LS
220.951 374.306 L
220.951 376.738 L
217.24 376.738 L
217.24 374.306 LE
216.656 374.38 LS
220.364 374.38 L
220.364 376.815 L
216.656 376.815 L
216.656 374.38 LE
216.073 374.455 LS
219.777 374.455 L
219.777 376.894 L
216.073 376.894 L
216.073 374.455 LE
215.491 374.531 LS
219.19 374.531 L
219.19 376.973 L
215.491 376.973 L
215.491 374.531 LE
214.91 374.606 LS
218.603 374.606 L
218.603 377.053 L
214.91 377.053 L
214.91 374.606 LE
214.332 374.683 LS
218.017 374.683 L
218.017 377.134 L
214.332 377.134 L
214.332 374.683 LE
213.757 374.76 LS
217.433 374.76 L
217.433 377.215 L
213.757 377.215 L
213.757 374.76 LE
213.183 374.839 LS
216.851 374.839 L
216.851 377.297 L
213.183 377.297 L
213.183 374.839 LE
212.611 374.919 LS
216.27 374.919 L
216.27 377.38 L
212.611 377.38 L
212.611 374.919 LE
212.041 374.999 LS
215.691 374.999 L
215.691 377.463 L
212.041 377.463 L
212.041 374.999 LE
211.473 375.081 LS
215.114 375.081 L
215.114 377.546 L
211.473 377.546 L
211.473 375.081 LE
210.907 375.163 LS
214.539 375.163 L
214.539 377.63 L
210.907 377.63 L
210.907 375.163 LE
210.343 375.247 LS
213.966 375.247 L
213.966 377.715 L
210.343 377.715 L
210.343 375.247 LE
209.781 375.331 LS
213.395 375.331 L
213.395 377.8 L
209.781 377.8 L
209.781 375.331 LE
209.222 375.416 LS
212.825 375.416 L
212.825 377.886 L
209.222 377.886 L
209.222 375.416 LE
208.664 375.503 LS
212.257 375.503 L
212.257 377.972 L
208.664 377.972 L
208.664 375.503 LE
208.108 375.59 LS
211.691 375.59 L
211.691 378.058 L
208.108 378.058 L
208.108 375.59 LE
207.554 375.678 LS
211.127 375.678 L
211.127 378.146 L
207.554 378.146 L
207.554 375.678 LE
207.002 375.767 LS
210.564 375.767 L
210.564 378.233 L
207.002 378.233 L
207.002 375.767 LE
206.452 375.857 LS
210.004 375.857 L
210.004 378.322 L
206.452 378.322 L
206.452 375.857 LE
205.904 375.948 LS
209.445 375.948 L
209.445 378.41 L
205.904 378.41 L
205.904 375.948 LE
205.358 376.04 LS
208.888 376.04 L
208.888 378.5 L
205.358 378.5 L
205.358 376.04 LE
204.814 376.133 LS
208.332 376.133 L
208.332 378.589 L
204.814 378.589 L
204.814 376.133 LE
204.272 376.227 LS
207.779 376.227 L
207.779 378.679 L
204.272 378.679 L
204.272 376.227 LE
203.723 376.312 LS
207.237 376.312 L
207.237 378.779 L
203.723 378.779 L
203.723 376.312 LE
203.174 376.398 LS
206.697 376.398 L
206.697 378.879 L
203.174 378.879 L
203.174 376.398 LE
202.628 376.483 LS
206.16 376.483 L
206.16 378.98 L
202.628 378.98 L
202.628 376.483 LE
202.082 376.567 LS
205.625 376.567 L
205.625 379.081 L
202.082 379.081 L
202.082 376.567 LE
201.539 376.651 LS
205.093 376.651 L
205.093 379.183 L
201.539 379.183 L
201.539 376.651 LE
200.997 376.734 LS
204.563 376.734 L
204.563 379.286 L
200.997 379.286 L
200.997 376.734 LE
200.456 376.816 LS
204.035 376.816 L
204.035 379.389 L
200.456 379.389 L
200.456 376.816 LE
199.917 376.898 LS
203.51 376.898 L
203.51 379.493 L
199.917 379.493 L
199.917 376.898 LE
199.379 376.979 LS
202.987 376.979 L
202.987 379.598 L
199.379 379.598 L
199.379 376.979 LE
198.843 377.059 LS
202.466 377.059 L
202.466 379.703 L
198.843 379.703 L
198.843 377.059 LE
198.309 377.139 LS
201.948 377.139 L
201.948 379.808 L
198.309 379.808 L
198.309 377.139 LE
197.776 377.218 LS
201.432 377.218 L
201.432 379.915 L
197.776 379.915 L
197.776 377.218 LE
197.245 377.297 LS
200.919 377.297 L
200.919 380.021 L
197.245 380.021 L
197.245 377.297 LE
196.715 377.375 LS
200.408 377.375 L
200.408 380.129 L
196.715 380.129 L
196.715 377.375 LE
196.186 377.452 LS
199.9 377.452 L
199.9 380.237 L
196.186 380.237 L
196.186 377.452 LE
195.659 377.528 LS
199.394 377.528 L
199.394 380.345 L
195.659 380.345 L
195.659 377.528 LE
195.134 377.604 LS
198.89 377.604 L
198.89 380.454 L
195.134 380.454 L
195.134 377.604 LE
194.61 377.68 LS
198.389 377.68 L
198.389 380.564 L
194.61 380.564 L
194.61 377.68 LE
194.088 377.754 LS
197.89 377.754 L
197.89 380.674 L
194.088 380.674 L
194.088 377.754 LE
193.567 377.828 LS
197.394 377.828 L
197.394 380.785 L
193.567 380.785 L
193.567 377.828 LE
193.048 377.901 LS
196.9 377.901 L
196.9 380.896 L
193.048 380.896 L
193.048 377.901 LE
192.532 377.974 LS
196.407 377.974 L
196.407 381.006 L
192.532 381.006 L
192.532 377.974 LE
192.018 378.047 LS
195.917 378.047 L
195.917 381.116 L
192.018 381.116 L
192.018 378.047 LE
191.507 378.119 LS
195.428 378.119 L
195.428 381.225 L
191.507 381.225 L
191.507 378.119 LE
190.998 378.191 LS
194.94 378.191 L
194.94 381.334 L
190.998 381.334 L
190.998 378.191 LE
190.493 378.263 LS
194.453 378.263 L
194.453 381.442 L
190.493 381.442 L
190.493 378.263 LE
189.99 378.335 LS
193.969 378.335 L
193.969 381.549 L
189.99 381.549 L
189.99 378.335 LE
189.489 378.406 LS
193.485 378.406 L
193.485 381.656 L
189.489 381.656 L
189.489 378.406 LE
188.991 378.477 LS
193.003 378.477 L
193.003 381.762 L
188.991 381.762 L
188.991 378.477 LE
188.496 378.548 LS
192.523 378.548 L
192.523 381.868 L
188.496 381.868 L
188.496 378.548 LE
188.004 378.618 LS
192.043 378.618 L
192.043 381.973 L
188.004 381.973 L
188.004 378.618 LE
187.514 378.689 LS
191.566 378.689 L
191.566 382.078 L
187.514 382.078 L
187.514 378.689 LE
187.027 378.759 LS
191.09 378.759 L
191.09 382.181 L
187.027 382.181 L
187.027 378.759 LE
186.543 378.829 LS
190.615 378.829 L
190.615 382.285 L
186.543 382.285 L
186.543 378.829 LE
186.061 378.898 LS
190.141 378.898 L
190.141 382.388 L
186.061 382.388 L
186.061 378.898 LE
185.582 378.968 LS
189.67 378.968 L
189.67 382.49 L
185.582 382.49 L
185.582 378.968 LE
185.105 379.037 LS
189.199 379.037 L
189.199 382.591 L
185.105 382.591 L
185.105 379.037 LE
184.631 379.106 LS
188.73 379.106 L
188.73 382.692 L
184.631 382.692 L
184.631 379.106 LE
184.16 379.174 LS
188.263 379.174 L
188.263 382.793 L
184.16 382.793 L
184.16 379.174 LE
183.692 379.243 LS
187.796 379.243 L
187.796 382.892 L
183.692 382.892 L
183.692 379.243 LE
183.226 379.311 LS
187.332 379.311 L
187.332 382.991 L
183.226 382.991 L
183.226 379.311 LE
182.763 379.379 LS
186.869 379.379 L
186.869 383.089 L
182.763 383.089 L
182.763 379.379 LE
182.301 379.447 LS
186.408 379.447 L
186.408 383.186 L
182.301 383.186 L
182.301 379.447 LE
181.842 379.514 LS
185.948 379.514 L
185.948 383.283 L
181.842 383.283 L
181.842 379.514 LE
181.386 379.582 LS
185.491 379.582 L
185.491 383.378 L
181.386 383.378 L
181.386 379.582 LE
180.931 379.649 LS
185.035 379.649 L
185.035 383.472 L
180.931 383.472 L
180.931 379.649 LE
180.479 379.717 LS
184.581 379.717 L
184.581 383.566 L
180.479 383.566 L
180.479 379.717 LE
180.029 379.784 LS
184.129 379.784 L
184.129 383.659 L
180.029 383.659 L
180.029 379.784 LE
179.582 379.851 LS
183.678 379.851 L
183.678 383.75 L
179.582 383.75 L
179.582 379.851 LE
179.136 379.918 LS
183.23 379.918 L
183.23 383.841 L
179.136 383.841 L
179.136 379.918 LE
178.693 379.985 LS
182.783 379.985 L
182.783 383.931 L
178.693 383.931 L
178.693 379.985 LE
178.252 380.051 LS
182.338 380.051 L
182.338 384.021 L
178.252 384.021 L
178.252 380.051 LE
177.814 380.118 LS
181.895 380.118 L
181.895 384.109 L
177.814 384.109 L
177.814 380.118 LE
177.377 380.184 LS
181.454 380.184 L
181.454 384.197 L
177.377 384.197 L
177.377 380.184 LE
176.943 380.25 LS
181.015 380.25 L
181.015 384.283 L
176.943 384.283 L
176.943 380.25 LE
176.511 380.317 LS
180.577 380.317 L
180.577 384.369 L
176.511 384.369 L
176.511 380.317 LE
176.082 380.383 LS
180.141 380.383 L
180.141 384.454 L
176.082 384.454 L
176.082 380.383 LE
175.654 380.448 LS
179.707 380.448 L
179.707 384.538 L
175.654 384.538 L
175.654 380.448 LE
175.229 380.514 LS
179.275 380.514 L
179.275 384.622 L
175.229 384.622 L
175.229 380.514 LE
174.806 380.58 LS
178.845 380.58 L
178.845 384.704 L
174.806 384.704 L
174.806 380.58 LE
174.385 380.645 LS
178.417 380.645 L
178.417 384.786 L
174.385 384.786 L
174.385 380.645 LE
173.967 380.71 LS
177.99 380.71 L
177.99 384.867 L
173.967 384.867 L
173.967 380.71 LE
173.55 380.775 LS
177.565 380.775 L
177.565 384.947 L
173.55 384.947 L
173.55 380.775 LE
173.135 380.839 LS
177.141 380.839 L
177.141 385.026 L
173.135 385.026 L
173.135 380.839 LE
172.721 380.903 LS
176.72 380.903 L
176.72 385.105 L
172.721 385.105 L
172.721 380.903 LE
172.31 380.966 LS
176.3 380.966 L
176.3 385.183 L
172.31 385.183 L
172.31 380.966 LE
171.901 381.029 LS
175.881 381.029 L
175.881 385.26 L
171.901 385.26 L
171.901 381.029 LE
171.493 381.092 LS
175.465 381.092 L
175.465 385.337 L
171.493 385.337 L
171.493 381.092 LE
171.087 381.155 LS
175.05 381.155 L
175.05 385.413 L
171.087 385.413 L
171.087 381.155 LE
170.683 381.216 LS
174.637 381.216 L
174.637 385.488 L
170.683 385.488 L
170.683 381.216 LE
170.281 381.278 LS
174.225 381.278 L
174.225 385.562 L
170.281 385.562 L
170.281 381.278 LE
169.881 381.339 LS
173.815 381.339 L
173.815 385.636 L
169.881 385.636 L
169.881 381.339 LE
169.483 381.4 LS
173.407 381.4 L
173.407 385.709 L
169.483 385.709 L
169.483 381.4 LE
169.086 381.46 LS
173.001 381.46 L
173.001 385.781 L
169.086 385.781 L
169.086 381.46 LE
168.691 381.52 LS
172.596 381.52 L
172.596 385.852 L
168.691 385.852 L
168.691 381.52 LE
168.299 381.58 LS
172.193 381.58 L
172.193 385.923 L
168.299 385.923 L
168.299 381.58 LE
167.908 381.639 LS
171.792 381.639 L
171.792 385.993 L
167.908 385.993 L
167.908 381.639 LE
167.519 381.698 LS
171.392 381.698 L
171.392 386.063 L
167.519 386.063 L
167.519 381.698 LE
167.131 381.756 LS
170.994 381.756 L
170.994 386.132 L
167.131 386.132 L
167.131 381.756 LE
166.746 381.814 LS
170.598 381.814 L
170.598 386.2 L
166.746 386.2 L
166.746 381.814 LE
166.362 381.872 LS
170.203 381.872 L
170.203 386.267 L
166.362 386.267 L
166.362 381.872 LE
165.98 381.929 LS
169.81 381.929 L
169.81 386.334 L
165.98 386.334 L
165.98 381.929 LE
165.6 381.986 LS
169.418 381.986 L
169.418 386.4 L
165.6 386.4 L
165.6 381.986 LE
165.221 382.043 LS
169.028 382.043 L
169.028 386.466 L
165.221 386.466 L
165.221 382.043 LE
164.843 382.099 LS
168.64 382.099 L
168.64 386.531 L
164.843 386.531 L
164.843 382.099 LE
164.467 382.155 LS
168.252 382.155 L
168.252 386.595 L
164.467 386.595 L
164.467 382.155 LE
164.093 382.21 LS
167.867 382.21 L
167.867 386.658 L
164.093 386.658 L
164.093 382.21 LE
163.72 382.265 LS
167.482 382.265 L
167.482 386.722 L
163.72 386.722 L
163.72 382.265 LE
163.349 382.32 LS
167.099 382.32 L
167.099 386.784 L
163.349 386.784 L
163.349 382.32 LE
162.979 382.374 LS
166.718 382.374 L
166.718 386.846 L
162.979 386.846 L
162.979 382.374 LE
162.611 382.428 LS
166.338 382.428 L
166.338 386.907 L
162.611 386.907 L
162.611 382.428 LE
162.244 382.481 LS
165.96 382.481 L
165.96 386.968 L
162.244 386.968 L
162.244 382.481 LE
161.879 382.534 LS
165.583 382.534 L
165.583 387.028 L
161.879 387.028 L
161.879 382.534 LE
161.515 382.587 LS
165.207 382.587 L
165.207 387.087 L
161.515 387.087 L
161.515 382.587 LE
161.153 382.64 LS
164.833 382.64 L
164.833 387.146 L
161.153 387.146 L
161.153 382.64 LE
160.792 382.692 LS
164.46 382.692 L
164.46 387.204 L
160.792 387.204 L
160.792 382.692 LE
160.433 382.743 LS
164.089 382.743 L
164.089 387.262 L
160.433 387.262 L
160.433 382.743 LE
160.076 382.795 LS
163.719 382.795 L
163.719 387.319 L
160.076 387.319 L
160.076 382.795 LE
159.72 382.846 LS
163.351 382.846 L
163.351 387.376 L
159.72 387.376 L
159.72 382.846 LE
159.365 382.896 LS
162.984 382.896 L
162.984 387.432 L
159.365 387.432 L
159.365 382.896 LE
159.013 382.947 LS
162.619 382.947 L
162.619 387.487 L
159.013 387.487 L
159.013 382.947 LE
158.661 382.997 LS
162.255 382.997 L
162.255 387.542 L
158.661 387.542 L
158.661 382.997 LE
158.311 383.046 LS
161.892 383.046 L
161.892 387.596 L
158.311 387.596 L
158.311 383.046 LE
157.962 383.095 LS
161.531 383.095 L
161.531 387.651 L
157.962 387.651 L
157.962 383.095 LE
157.614 383.144 LS
161.171 383.144 L
161.171 387.704 L
157.614 387.704 L
157.614 383.144 LE
157.268 383.192 LS
160.812 383.192 L
160.812 387.757 L
157.268 387.757 L
157.268 383.192 LE
156.923 383.24 LS
160.455 383.24 L
160.455 387.81 L
156.923 387.81 L
156.923 383.24 LE
156.579 383.288 LS
160.099 383.288 L
160.099 387.862 L
156.579 387.862 L
156.579 383.288 LE
156.237 383.335 LS
159.744 383.335 L
159.744 387.914 L
156.237 387.914 L
156.237 383.335 LE
155.896 383.382 LS
159.391 383.382 L
159.391 387.965 L
155.896 387.965 L
155.896 383.382 LE
155.556 383.429 LS
159.039 383.429 L
159.039 388.016 L
155.556 388.016 L
155.556 383.429 LE
155.218 383.475 LS
158.688 383.475 L
158.688 388.066 L
155.218 388.066 L
155.218 383.475 LE
154.881 383.521 LS
158.339 383.521 L
158.339 388.116 L
154.881 388.116 L
154.881 383.521 LE
154.545 383.567 LS
157.991 383.567 L
157.991 388.165 L
154.545 388.165 L
154.545 383.567 LE
154.211 383.612 LS
157.644 383.612 L
157.644 388.214 L
154.211 388.214 L
154.211 383.612 LE
153.878 383.657 LS
157.299 383.657 L
157.299 388.262 L
153.878 388.262 L
153.878 383.657 LE
153.547 383.702 LS
156.955 383.702 L
156.955 388.31 L
153.547 388.31 L
153.547 383.702 LE
153.216 383.746 LS
156.612 383.746 L
156.612 388.357 L
153.216 388.357 L
153.216 383.746 LE
152.887 383.791 LS
156.271 383.791 L
156.271 388.404 L
152.887 388.404 L
152.887 383.791 LE
152.56 383.834 LS
155.931 383.834 L
155.931 388.45 L
152.56 388.45 L
152.56 383.834 LE
152.234 383.878 LS
155.592 383.878 L
155.592 388.496 L
152.234 388.496 L
152.234 383.878 LE
151.909 383.921 LS
155.255 383.921 L
155.255 388.542 L
151.909 388.542 L
151.909 383.921 LE
151.585 383.964 LS
154.918 383.964 L
154.918 388.587 L
151.585 388.587 L
151.585 383.964 LE
151.262 384.007 LS
154.583 384.007 L
154.583 388.632 L
151.262 388.632 L
151.262 384.007 LE
150.94 384.049 LS
154.25 384.049 L
154.25 388.676 L
150.94 388.676 L
150.94 384.049 LE
150.62 384.091 LS
153.917 384.091 L
153.917 388.72 L
150.62 388.72 L
150.62 384.091 LE
150.301 384.133 LS
153.586 384.133 L
153.586 388.763 L
150.301 388.763 L
150.301 384.133 LE
149.983 384.174 LS
153.256 384.174 L
153.256 388.807 L
149.983 388.807 L
149.983 384.174 LE
149.667 384.215 LS
152.927 384.215 L
152.927 388.849 L
149.667 388.849 L
149.667 384.215 LE
149.351 384.256 LS
152.6 384.256 L
152.6 388.892 L
149.351 388.892 L
149.351 384.256 LE
149.037 384.296 LS
152.273 384.296 L
152.273 388.934 L
149.037 388.934 L
149.037 384.296 LE
148.724 384.337 LS
151.948 384.337 L
151.948 388.975 L
148.724 388.975 L
148.724 384.337 LE
148.412 384.377 LS
151.624 384.377 L
151.624 389.017 L
148.412 389.017 L
148.412 384.377 LE
148.101 384.416 LS
151.302 384.416 L
151.302 389.058 L
148.101 389.058 L
148.101 384.416 LE
147.792 384.456 LS
150.98 384.456 L
150.98 389.098 L
147.792 389.098 L
147.792 384.456 LE
147.484 384.495 LS
150.66 384.495 L
150.66 389.138 L
147.484 389.138 L
147.484 384.495 LE
147.177 384.534 LS
150.341 384.534 L
150.341 389.178 L
147.177 389.178 L
147.177 384.534 LE
146.871 384.572 LS
150.023 384.572 L
150.023 389.217 L
146.871 389.217 L
146.871 384.572 LE
146.566 384.61 LS
149.707 384.61 L
149.707 389.256 L
146.566 389.256 L
146.566 384.61 LE
146.263 384.648 LS
149.391 384.648 L
149.391 389.295 L
146.263 389.295 L
146.263 384.648 LE
145.961 384.686 LS
149.077 384.686 L
149.077 389.333 L
145.961 389.333 L
145.961 384.686 LE
145.659 384.723 LS
148.765 384.723 L
148.765 389.371 L
145.659 389.371 L
145.659 384.723 LE
145.359 384.761 LS
148.453 384.761 L
148.453 389.409 L
145.359 389.409 L
145.359 384.761 LE
145.06 384.797 LS
148.142 384.797 L
148.142 389.446 L
145.06 389.446 L
145.06 384.797 LE
144.763 384.834 LS
147.833 384.834 L
147.833 389.483 L
144.763 389.483 L
144.763 384.834 LE
144.466 384.87 LS
147.525 384.87 L
147.525 389.52 L
144.466 389.52 L
144.466 384.87 LE
144.17 384.907 LS
147.217 384.907 L
147.217 389.556 L
144.17 389.556 L
144.17 384.907 LE
143.876 384.942 LS
146.911 384.942 L
146.911 389.592 L
143.876 389.592 L
143.876 384.942 LE
143.582 384.978 LS
146.606 384.978 L
146.606 389.628 L
143.582 389.628 L
143.582 384.978 LE
143.29 385.013 LS
146.303 385.013 L
146.303 389.663 L
143.29 389.663 L
143.29 385.013 LE
142.999 385.048 LS
146 385.048 L
146 389.699 L
142.999 389.699 L
142.999 385.048 LE
142.709 385.083 LS
145.699 385.083 L
145.699 389.733 L
142.709 389.733 L
142.709 385.083 LE
142.42 385.118 LS
145.398 385.118 L
145.398 389.768 L
142.42 389.768 L
142.42 385.118 LE
142.132 385.152 LS
145.099 385.152 L
145.099 389.802 L
142.132 389.802 L
142.132 385.152 LE
141.845 385.186 LS
144.801 385.186 L
144.801 389.836 L
141.845 389.836 L
141.845 385.186 LE
141.56 385.22 LS
144.504 385.22 L
144.504 389.87 L
141.56 389.87 L
141.56 385.22 LE
141.275 385.254 LS
144.209 385.254 L
144.209 389.903 L
141.275 389.903 L
141.275 385.254 LE
140.992 385.287 LS
143.914 385.287 L
143.914 389.937 L
140.992 389.937 L
140.992 385.287 LE
140.71 385.32 LS
143.62 385.32 L
143.62 389.969 L
140.71 389.969 L
140.71 385.32 LE
140.428 385.353 LS
143.328 385.353 L
143.328 390.002 L
140.428 390.002 L
140.428 385.353 LE
140.148 385.385 LS
143.037 385.385 L
143.037 390.034 L
140.148 390.034 L
140.148 385.385 LE
139.869 385.418 LS
142.747 385.418 L
142.747 390.066 L
139.869 390.066 L
139.869 385.418 LE
139.591 385.45 LS
142.458 385.45 L
142.458 390.098 L
139.591 390.098 L
139.591 385.45 LE
139.314 385.481 LS
142.17 385.481 L
142.17 390.129 L
139.314 390.129 L
139.314 385.481 LE
139.038 385.513 LS
141.883 385.513 L
141.883 390.161 L
139.038 390.161 L
139.038 385.513 LE
138.763 385.544 LS
141.597 385.544 L
141.597 390.192 L
138.763 390.192 L
138.763 385.544 LE
138.489 385.576 LS
141.312 385.576 L
141.312 390.223 L
138.489 390.223 L
138.489 385.576 LE
138.216 385.606 LS
141.029 385.606 L
141.029 390.253 L
138.216 390.253 L
138.216 385.606 LE
137.944 385.637 LS
140.746 385.637 L
140.746 390.284 L
137.944 390.284 L
137.944 385.637 LE
137.673 385.668 LS
140.464 385.668 L
140.464 390.314 L
137.673 390.314 L
137.673 385.668 LE
137.403 385.698 LS
140.184 385.698 L
140.184 390.344 L
137.403 390.344 L
137.403 385.698 LE
137.134 385.728 LS
139.904 385.728 L
139.904 390.373 L
137.134 390.373 L
137.134 385.728 LE
136.867 385.758 LS
139.626 385.758 L
139.626 390.403 L
136.867 390.403 L
136.867 385.758 LE
136.6 385.787 LS
139.348 385.787 L
139.348 390.432 L
136.6 390.432 L
136.6 385.787 LE
136.334 385.816 LS
139.072 385.816 L
139.072 390.461 L
136.334 390.461 L
136.334 385.816 LE
136.069 385.845 LS
138.797 385.845 L
138.797 390.49 L
136.069 390.49 L
136.069 385.845 LE
135.805 385.874 LS
138.523 385.874 L
138.523 390.518 L
135.805 390.518 L
135.805 385.874 LE
135.543 385.903 LS
138.25 385.903 L
138.25 390.547 L
135.543 390.547 L
135.543 385.903 LE
135.281 385.931 LS
137.977 385.931 L
137.977 390.575 L
135.281 390.575 L
135.281 385.931 LE
135.02 385.96 LS
137.706 385.96 L
137.706 390.603 L
135.02 390.603 L
135.02 385.96 LE
134.761 385.988 LS
137.436 385.988 L
137.436 390.63 L
134.761 390.63 L
134.761 385.988 LE
134.502 386.015 LS
137.167 386.015 L
137.167 390.658 L
134.502 390.658 L
134.502 386.015 LE
134.244 386.043 LS
136.9 386.043 L
136.9 390.685 L
134.244 390.685 L
134.244 386.043 LE
133.987 386.07 LS
136.633 386.07 L
136.633 390.712 L
133.987 390.712 L
133.987 386.07 LE
133.731 386.097 LS
136.367 386.097 L
136.367 390.739 L
133.731 390.739 L
133.731 386.097 LE
133.477 386.124 LS
136.102 386.124 L
136.102 390.766 L
133.477 390.766 L
133.477 386.124 LE
133.223 386.151 LS
135.837 386.151 L
135.837 390.793 L
133.223 390.793 L
133.223 386.151 LE
132.969 386.178 LS
135.574 386.178 L
135.574 390.819 L
132.969 390.819 L
132.969 386.178 LE
132.717 386.204 LS
135.312 386.204 L
135.312 390.845 L
132.717 390.845 L
132.717 386.204 LE
132.466 386.23 LS
135.051 386.23 L
135.051 390.871 L
132.466 390.871 L
132.466 386.23 LE
132.216 386.256 LS
134.791 386.256 L
134.791 390.897 L
132.216 390.897 L
132.216 386.256 LE
131.967 386.282 LS
134.532 386.282 L
134.532 390.923 L
131.967 390.923 L
131.967 386.282 LE
131.718 386.307 LS
134.274 386.307 L
134.274 390.949 L
131.718 390.949 L
131.718 386.307 LE
131.471 386.333 LS
134.017 386.333 L
134.017 390.974 L
131.471 390.974 L
131.471 386.333 LE
131.225 386.358 LS
133.761 386.358 L
133.761 390.999 L
131.225 390.999 L
131.225 386.358 LE
130.979 386.383 LS
133.505 386.383 L
133.505 391.024 L
130.979 391.024 L
130.979 386.383 LE
130.735 386.408 LS
133.251 386.408 L
133.251 391.049 L
130.735 391.049 L
130.735 386.408 LE
130.491 386.432 LS
132.998 386.432 L
132.998 391.074 L
130.491 391.074 L
130.491 386.432 LE
130.249 386.456 LS
132.746 386.456 L
132.746 391.098 L
130.249 391.098 L
130.249 386.456 LE
130.007 386.481 LS
132.495 386.481 L
132.495 391.123 L
130.007 391.123 L
130.007 386.481 LE
129.758 386.502 LS
132.252 386.502 L
132.252 391.15 L
129.758 391.15 L
129.758 386.502 LE
129.51 386.523 LS
132.011 386.523 L
132.011 391.177 L
129.51 391.177 L
129.51 386.523 LE
129.262 386.544 LS
131.771 386.544 L
131.771 391.203 L
129.262 391.203 L
129.262 386.544 LE
129.015 386.564 LS
131.532 386.564 L
131.532 391.23 L
129.015 391.23 L
129.015 386.564 LE
128.769 386.585 LS
131.294 386.585 L
131.294 391.257 L
128.769 391.257 L
128.769 386.585 LE
128.523 386.605 LS
131.058 386.605 L
131.058 391.284 L
128.523 391.284 L
128.523 386.605 LE
128.278 386.624 LS
130.822 386.624 L
130.822 391.31 L
128.278 391.31 L
128.278 386.624 LE
128.034 386.644 LS
130.588 386.644 L
130.588 391.337 L
128.034 391.337 L
128.034 386.644 LE
127.79 386.663 LS
130.355 386.663 L
130.355 391.363 L
127.79 391.363 L
127.79 386.663 LE
127.547 386.682 LS
130.123 386.682 L
130.123 391.389 L
127.547 391.389 L
127.547 386.682 LE
127.304 386.701 LS
129.892 386.701 L
129.892 391.416 L
127.304 391.416 L
127.304 386.701 LE
127.062 386.72 LS
129.663 386.72 L
129.663 391.442 L
127.062 391.442 L
127.062 386.72 LE
126.821 386.738 LS
129.434 386.738 L
129.434 391.468 L
126.821 391.468 L
126.821 386.738 LE
126.58 386.756 LS
129.207 386.756 L
129.207 391.494 L
126.58 391.494 L
126.58 386.756 LE
126.34 386.774 LS
128.981 386.774 L
128.981 391.52 L
126.34 391.52 L
126.34 386.774 LE
126.101 386.792 LS
128.756 386.792 L
128.756 391.546 L
126.101 391.546 L
126.101 386.792 LE
125.862 386.809 LS
128.532 386.809 L
128.532 391.572 L
125.862 391.572 L
125.862 386.809 LE
125.624 386.826 LS
128.31 386.826 L
128.31 391.598 L
125.624 391.598 L
125.624 386.826 LE
125.386 386.843 LS
128.088 386.843 L
128.088 391.624 L
125.386 391.624 L
125.386 386.843 LE
125.149 386.86 LS
127.868 386.86 L
127.868 391.65 L
125.149 391.65 L
125.149 386.86 LE
124.913 386.877 LS
127.649 386.877 L
127.649 391.675 L
124.913 391.675 L
124.913 386.877 LE
124.678 386.893 LS
127.43 386.893 L
127.43 391.701 L
124.678 391.701 L
124.678 386.893 LE
124.444 386.909 LS
127.212 386.909 L
127.212 391.726 L
124.444 391.726 L
124.444 386.909 LE
124.212 386.925 LS
126.995 386.925 L
126.995 391.751 L
124.212 391.751 L
124.212 386.925 LE
123.981 386.941 LS
126.777 386.941 L
126.777 391.776 L
123.981 391.776 L
123.981 386.941 LE
123.751 386.957 LS
126.561 386.957 L
126.561 391.801 L
123.751 391.801 L
123.751 386.957 LE
123.522 386.973 LS
126.344 386.973 L
126.344 391.826 L
123.522 391.826 L
123.522 386.973 LE
123.295 386.989 LS
126.128 386.989 L
126.128 391.85 L
123.295 391.85 L
123.295 386.989 LE
123.069 387.004 LS
125.912 387.004 L
125.912 391.875 L
123.069 391.875 L
123.069 387.004 LE
122.844 387.02 LS
125.697 387.02 L
125.697 391.899 L
122.844 391.899 L
122.844 387.02 LE
122.621 387.035 LS
125.482 387.035 L
125.482 391.923 L
122.621 391.923 L
122.621 387.035 LE
122.398 387.05 LS
125.267 387.05 L
125.267 391.946 L
122.398 391.946 L
122.398 387.05 LE
122.177 387.066 LS
125.053 387.066 L
125.053 391.97 L
122.177 391.97 L
122.177 387.066 LE
121.958 387.081 LS
124.839 387.081 L
124.839 391.994 L
121.958 391.994 L
121.958 387.081 LE
121.739 387.096 LS
124.626 387.096 L
124.626 392.017 L
121.739 392.017 L
121.739 387.096 LE
121.522 387.11 LS
124.413 387.11 L
124.413 392.04 L
121.522 392.04 L
121.522 387.11 LE
121.306 387.125 LS
124.2 387.125 L
124.2 392.063 L
121.306 392.063 L
121.306 387.125 LE
121.092 387.14 LS
123.988 387.14 L
123.988 392.086 L
121.092 392.086 L
121.092 387.14 LE
120.878 387.155 LS
123.776 387.155 L
123.776 392.108 L
120.878 392.108 L
120.878 387.155 LE
120.666 387.169 LS
123.565 387.169 L
123.565 392.131 L
120.666 392.131 L
120.666 387.169 LE
120.455 387.183 LS
123.353 387.183 L
123.353 392.153 L
120.455 392.153 L
120.455 387.183 LE
120.245 387.198 LS
123.143 387.198 L
123.143 392.176 L
120.245 392.176 L
120.245 387.198 LE
120.036 387.212 LS
122.933 387.212 L
122.933 392.198 L
120.036 392.198 L
120.036 387.212 LE
119.828 387.226 LS
122.723 387.226 L
122.723 392.219 L
119.828 392.219 L
119.828 387.226 LE
119.621 387.24 LS
122.515 387.24 L
122.515 392.241 L
119.621 392.241 L
119.621 387.24 LE
119.415 387.254 LS
122.306 387.254 L
122.306 392.263 L
119.415 392.263 L
119.415 387.254 LE
119.209 387.268 LS
122.099 387.268 L
122.099 392.284 L
119.209 392.284 L
119.209 387.268 LE
119.005 387.282 LS
121.892 387.282 L
121.892 392.305 L
119.005 392.305 L
119.005 387.282 LE
118.801 387.295 LS
121.686 387.295 L
121.686 392.327 L
118.801 392.327 L
118.801 387.295 LE
118.599 387.309 LS
121.48 387.309 L
121.48 392.348 L
118.599 392.348 L
118.599 387.309 LE
118.397 387.322 LS
121.275 387.322 L
121.275 392.368 L
118.397 392.368 L
118.397 387.322 LE
118.196 387.336 LS
121.07 387.336 L
121.07 392.389 L
118.196 392.389 L
118.196 387.336 LE
117.997 387.349 LS
120.866 387.349 L
120.866 392.41 L
117.997 392.41 L
117.997 387.349 LE
117.798 387.362 LS
120.663 387.362 L
120.663 392.43 L
117.798 392.43 L
117.798 387.362 LE
117.6 387.375 LS
120.46 387.375 L
120.46 392.451 L
117.6 392.451 L
117.6 387.375 LE
117.403 387.388 LS
120.258 387.388 L
120.258 392.471 L
117.403 392.471 L
117.403 387.388 LE
117.206 387.401 LS
120.057 387.401 L
120.057 392.491 L
117.206 392.491 L
117.206 387.401 LE
117.011 387.414 LS
119.856 387.414 L
119.856 392.51 L
117.011 392.51 L
117.011 387.414 LE
116.817 387.427 LS
119.656 387.427 L
119.656 392.53 L
116.817 392.53 L
116.817 387.427 LE
116.623 387.439 LS
119.456 387.439 L
119.456 392.55 L
116.623 392.55 L
116.623 387.439 LE
116.431 387.452 LS
119.257 387.452 L
119.257 392.569 L
116.431 392.569 L
116.431 387.452 LE
116.239 387.464 LS
119.059 387.464 L
119.059 392.589 L
116.239 392.589 L
116.239 387.464 LE
116.048 387.477 LS
118.861 387.477 L
118.861 392.608 L
116.048 392.608 L
116.048 387.477 LE
115.858 387.489 LS
118.664 387.489 L
118.664 392.627 L
115.858 392.627 L
115.858 387.489 LE
115.668 387.501 LS
118.467 387.501 L
118.467 392.646 L
115.668 392.646 L
115.668 387.501 LE
115.479 387.514 LS
118.272 387.514 L
118.272 392.665 L
115.479 392.665 L
115.479 387.514 LE
115.291 387.526 LS
118.077 387.526 L
118.077 392.683 L
115.291 392.683 L
115.291 387.526 LE
115.104 387.538 LS
117.882 387.538 L
117.882 392.702 L
115.104 392.702 L
115.104 387.538 LE
114.917 387.549 LS
117.688 387.549 L
117.688 392.72 L
114.917 392.72 L
114.917 387.549 LE
114.732 387.561 LS
117.495 387.561 L
117.495 392.739 L
114.732 392.739 L
114.732 387.561 LE
114.547 387.573 LS
117.303 387.573 L
117.303 392.757 L
114.547 392.757 L
114.547 387.573 LE
114.362 387.585 LS
117.111 387.585 L
117.111 392.775 L
114.362 392.775 L
114.362 387.585 LE
114.179 387.596 LS
116.92 387.596 L
116.92 392.793 L
114.179 392.793 L
114.179 387.596 LE
113.996 387.608 LS
116.729 387.608 L
116.729 392.811 L
113.996 392.811 L
113.996 387.608 LE
113.814 387.619 LS
116.54 387.619 L
116.54 392.829 L
113.814 392.829 L
113.814 387.619 LE
113.632 387.63 LS
116.351 387.63 L
116.351 392.846 L
113.632 392.846 L
113.632 387.63 LE
113.452 387.642 LS
116.162 387.642 L
116.162 392.864 L
113.452 392.864 L
113.452 387.642 LE
113.272 387.653 LS
115.974 387.653 L
115.974 392.881 L
113.272 392.881 L
113.272 387.653 LE
113.093 387.664 LS
115.787 387.664 L
115.787 392.898 L
113.093 392.898 L
113.093 387.664 LE
112.915 387.675 LS
115.601 387.675 L
115.601 392.915 L
112.915 392.915 L
112.915 387.675 LE
112.737 387.686 LS
115.415 387.686 L
115.415 392.932 L
112.737 392.932 L
112.737 387.686 LE
112.56 387.697 LS
115.23 387.697 L
115.23 392.949 L
112.56 392.949 L
112.56 387.697 LE
112.384 387.707 LS
115.045 387.707 L
115.045 392.966 L
112.384 392.966 L
112.384 387.707 LE
112.208 387.718 LS
114.861 387.718 L
114.861 392.983 L
112.208 392.983 L
112.208 387.718 LE
112.034 387.729 LS
114.678 387.729 L
114.678 393 L
112.034 393 L
112.034 387.729 LE
111.859 387.739 LS
114.496 387.739 L
114.496 393.016 L
111.859 393.016 L
111.859 387.739 LE
111.686 387.75 LS
114.314 387.75 L
114.314 393.032 L
111.686 393.032 L
111.686 387.75 LE
111.513 387.76 LS
114.133 387.76 L
114.133 393.049 L
111.513 393.049 L
111.513 387.76 LE
111.341 387.77 LS
113.952 387.77 L
113.952 393.065 L
111.341 393.065 L
111.341 387.77 LE
111.169 387.78 LS
113.772 387.78 L
113.772 393.081 L
111.169 393.081 L
111.169 387.78 LE
110.998 387.791 LS
113.593 387.791 L
113.593 393.097 L
110.998 393.097 L
110.998 387.791 LE
110.828 387.801 LS
113.414 387.801 L
113.414 393.113 L
110.828 393.113 L
110.828 387.801 LE
110.658 387.811 LS
113.236 387.811 L
113.236 393.128 L
110.658 393.128 L
110.658 387.811 LE
110.49 387.821 LS
113.059 387.821 L
113.059 393.144 L
110.49 393.144 L
110.49 387.821 LE
110.321 387.831 LS
112.882 387.831 L
112.882 393.159 L
110.321 393.159 L
110.321 387.831 LE
110.154 387.84 LS
112.706 387.84 L
112.706 393.175 L
110.154 393.175 L
110.154 387.84 LE
109.987 387.85 LS
112.531 387.85 L
112.531 393.19 L
109.987 393.19 L
109.987 387.85 LE
109.82 387.86 LS
112.356 387.86 L
112.356 393.205 L
109.82 393.205 L
109.82 387.86 LE
109.655 387.869 LS
112.182 387.869 L
112.182 393.22 L
109.655 393.22 L
109.655 387.869 LE
109.49 387.879 LS
112.009 387.879 L
112.009 393.235 L
109.49 393.235 L
109.49 387.879 LE
109.325 387.888 LS
111.836 387.888 L
111.836 393.25 L
109.325 393.25 L
109.325 387.888 LE
109.162 387.898 LS
111.664 387.898 L
111.664 393.265 L
109.162 393.265 L
109.162 387.898 LE
108.999 387.907 LS
111.492 387.907 L
111.492 393.28 L
108.999 393.28 L
108.999 387.907 LE
108.836 387.916 LS
111.321 387.916 L
111.321 393.294 L
108.836 393.294 L
108.836 387.916 LE
108.674 387.926 LS
111.151 387.926 L
111.151 393.309 L
108.674 393.309 L
108.674 387.926 LE
108.513 387.935 LS
110.982 387.935 L
110.982 393.323 L
108.513 393.323 L
108.513 387.935 LE
108.352 387.944 LS
110.813 387.944 L
110.813 393.338 L
108.352 393.338 L
108.352 387.944 LE
108.191 387.953 LS
110.645 387.953 L
110.645 393.352 L
108.191 393.352 L
108.191 387.953 LE
108.031 387.962 LS
110.477 387.962 L
110.477 393.366 L
108.031 393.366 L
108.031 387.962 LE
107.872 387.97 LS
110.31 387.97 L
110.31 393.38 L
107.872 393.38 L
107.872 387.97 LE
107.714 387.979 LS
110.144 387.979 L
110.144 393.394 L
107.714 393.394 L
107.714 387.979 LE
107.556 387.988 LS
109.978 387.988 L
109.978 393.408 L
107.556 393.408 L
107.556 387.988 LE
107.398 387.996 LS
109.813 387.996 L
109.813 393.422 L
107.398 393.422 L
107.398 387.996 LE
107.242 388.005 LS
109.648 388.005 L
109.648 393.436 L
107.242 393.436 L
107.242 388.005 LE
107.085 388.013 LS
109.485 388.013 L
109.485 393.45 L
107.085 393.45 L
107.085 388.013 LE
106.93 388.022 LS
109.321 388.022 L
109.321 393.463 L
106.93 393.463 L
106.93 388.022 LE
106.775 388.03 LS
109.159 388.03 L
109.159 393.477 L
106.775 393.477 L
106.775 388.03 LE
106.62 388.038 LS
108.997 388.038 L
108.997 393.49 L
106.62 393.49 L
106.62 388.038 LE
106.466 388.046 LS
108.836 388.046 L
108.836 393.504 L
106.466 393.504 L
106.466 388.046 LE
106.313 388.054 LS
108.675 388.054 L
108.675 393.517 L
106.313 393.517 L
106.313 388.054 LE
106.16 388.062 LS
108.515 388.062 L
108.515 393.53 L
106.16 393.53 L
106.16 388.062 LE
106.008 388.07 LS
108.356 388.07 L
108.356 393.543 L
106.008 393.543 L
106.008 388.07 LE
105.856 388.078 LS
108.197 388.078 L
108.197 393.557 L
105.856 393.557 L
105.856 388.078 LE
105.705 388.086 LS
108.039 388.086 L
108.039 393.57 L
105.705 393.57 L
105.705 388.086 LE
105.554 388.094 LS
107.881 388.094 L
107.881 393.583 L
105.554 393.583 L
105.554 388.094 LE
105.404 388.101 LS
107.724 388.101 L
107.724 393.596 L
105.404 393.596 L
105.404 388.101 LE
105.254 388.109 LS
107.568 388.109 L
107.568 393.608 L
105.254 393.608 L
105.254 388.109 LE
105.104 388.116 LS
107.413 388.116 L
107.413 393.621 L
105.104 393.621 L
105.104 388.116 LE
104.955 388.124 LS
107.258 388.124 L
107.258 393.634 L
104.955 393.634 L
104.955 388.124 LE
104.807 388.131 LS
107.103 388.131 L
107.103 393.647 L
104.807 393.647 L
104.807 388.131 LE
104.659 388.138 LS
106.95 388.138 L
106.95 393.66 L
104.659 393.66 L
104.659 388.138 LE
104.511 388.145 LS
106.797 388.145 L
106.797 393.672 L
104.511 393.672 L
104.511 388.145 LE
104.364 388.152 LS
106.644 388.152 L
106.644 393.685 L
104.364 393.685 L
104.364 388.152 LE
104.218 388.159 LS
106.493 388.159 L
106.493 393.697 L
104.218 393.697 L
104.218 388.159 LE
104.072 388.166 LS
106.342 388.166 L
106.342 393.71 L
104.072 393.71 L
104.072 388.166 LE
103.926 388.173 LS
106.191 388.173 L
106.191 393.722 L
103.926 393.722 L
103.926 388.173 LE
103.781 388.18 LS
106.041 388.18 L
106.041 393.734 L
103.781 393.734 L
103.781 388.18 LE
103.636 388.186 LS
105.892 388.186 L
105.892 393.747 L
103.636 393.747 L
103.636 388.186 LE
103.492 388.193 LS
105.744 388.193 L
105.744 393.759 L
103.492 393.759 L
103.492 388.193 LE
103.348 388.2 LS
105.596 388.2 L
105.596 393.771 L
103.348 393.771 L
103.348 388.2 LE
103.205 388.206 LS
105.449 388.206 L
105.449 393.783 L
103.205 393.783 L
103.205 388.206 LE
103.062 388.212 LS
105.302 388.212 L
105.302 393.795 L
103.062 393.795 L
103.062 388.212 LE
102.92 388.219 LS
105.156 388.219 L
105.156 393.808 L
102.92 393.808 L
102.92 388.219 LE
102.778 388.225 LS
105.011 388.225 L
105.011 393.82 L
102.778 393.82 L
102.778 388.225 LE
102.636 388.231 LS
104.866 388.231 L
104.866 393.832 L
102.636 393.832 L
102.636 388.231 LE
102.495 388.237 LS
104.722 388.237 L
104.722 393.844 L
102.495 393.844 L
102.495 388.237 LE
102.354 388.242 LS
104.578 388.242 L
104.578 393.855 L
102.354 393.855 L
102.354 388.242 LE
102.214 388.248 LS
104.436 388.248 L
104.436 393.867 L
102.214 393.867 L
102.214 388.248 LE
102.074 388.254 LS
104.293 388.254 L
104.293 393.879 L
102.074 393.879 L
102.074 388.254 LE
101.934 388.259 LS
104.152 388.259 L
104.152 393.891 L
101.934 393.891 L
101.934 388.259 LE
101.795 388.264 LS
104.011 388.264 L
104.011 393.903 L
101.795 393.903 L
101.795 388.264 LE
101.656 388.269 LS
103.871 388.269 L
103.871 393.914 L
101.656 393.914 L
101.656 388.269 LE
101.518 388.274 LS
103.731 388.274 L
103.731 393.926 L
101.518 393.926 L
101.518 388.274 LE
101.38 388.279 LS
103.592 388.279 L
103.592 393.938 L
101.38 393.938 L
101.38 388.279 LE
101.242 388.284 LS
103.454 388.284 L
103.454 393.949 L
101.242 393.949 L
101.242 388.284 LE
101.105 388.289 LS
103.316 388.289 L
103.316 393.961 L
101.105 393.961 L
101.105 388.289 LE
100.968 388.294 LS
103.179 388.294 L
103.179 393.972 L
100.968 393.972 L
100.968 388.294 LE
100.832 388.298 LS
103.043 388.298 L
103.043 393.984 L
100.832 393.984 L
100.832 388.298 LE
100.696 388.303 LS
102.907 388.303 L
102.907 393.995 L
100.696 393.995 L
100.696 388.303 LE
100.561 388.307 LS
102.772 388.307 L
102.772 394.006 L
100.561 394.006 L
100.561 388.307 LE
100.426 388.311 LS
102.637 388.311 L
102.637 394.018 L
100.426 394.018 L
100.426 388.311 LE
100.291 388.315 LS
102.503 388.315 L
102.503 394.029 L
100.291 394.029 L
100.291 388.315 LE
100.157 388.319 LS
102.37 388.319 L
102.37 394.04 L
100.157 394.04 L
100.157 388.319 LE
100.023 388.323 LS
102.237 388.323 L
102.237 394.052 L
100.023 394.052 L
100.023 388.323 LE
99.8896 388.327 LS
102.105 388.327 L
102.105 394.063 L
99.8896 394.063 L
99.8896 388.327 LE
99.7568 388.33 LS
101.973 388.33 L
101.973 394.074 L
99.7568 394.074 L
99.7568 388.33 LE
99.6245 388.333 LS
101.842 388.333 L
101.842 394.085 L
99.6245 394.085 L
99.6245 388.333 LE
99.4925 388.337 LS
101.712 388.337 L
101.712 394.096 L
99.4925 394.096 L
99.4925 388.337 LE
99.3609 388.34 LS
101.582 388.34 L
101.582 394.107 L
99.3609 394.107 L
99.3609 388.34 LE
99.2299 388.343 LS
101.453 388.343 L
101.453 394.118 L
99.2299 394.118 L
99.2299 388.343 LE
99.0992 388.346 LS
101.324 388.346 L
101.324 394.129 L
99.0992 394.129 L
99.0992 388.346 LE
98.969 388.349 LS
101.196 388.349 L
101.196 394.14 L
98.969 394.14 L
98.969 388.349 LE
98.8392 388.352 LS
101.068 388.352 L
101.068 394.151 L
98.8392 394.151 L
98.8392 388.352 LE
98.7098 388.354 LS
100.941 388.354 L
100.941 394.162 L
98.7098 394.162 L
98.7098 388.354 LE
98.581 388.357 LS
100.814 388.357 L
100.814 394.173 L
98.581 394.173 L
98.581 388.357 LE
98.4525 388.359 LS
100.689 388.359 L
100.689 394.184 L
98.4525 394.184 L
98.4525 388.359 LE
98.3245 388.361 LS
100.563 388.361 L
100.563 394.194 L
98.3245 394.194 L
98.3245 388.361 LE
98.1969 388.363 LS
100.438 388.363 L
100.438 394.205 L
98.1969 394.205 L
98.1969 388.363 LE
98.0698 388.365 LS
100.314 388.365 L
100.314 394.216 L
98.0698 394.216 L
98.0698 388.365 LE
97.9431 388.367 LS
100.191 388.367 L
100.191 394.226 L
97.9431 394.226 L
97.9431 388.367 LE
97.8169 388.369 LS
100.068 388.369 L
100.068 394.237 L
97.8169 394.237 L
97.8169 388.369 LE
97.691 388.371 LS
99.9452 388.371 L
99.9452 394.248 L
97.691 394.248 L
97.691 388.371 LE
97.5656 388.372 LS
99.8234 388.372 L
99.8234 394.258 L
97.5656 394.258 L
97.5656 388.372 LE
97.4405 388.373 LS
99.7022 388.373 L
99.7022 394.269 L
97.4405 394.269 L
97.4405 388.373 LE
97.3158 388.375 LS
99.5817 388.375 L
99.5817 394.28 L
97.3158 394.28 L
97.3158 388.375 LE
97.1915 388.376 LS
99.4617 388.376 L
99.4617 394.29 L
97.1915 394.29 L
97.1915 388.376 LE
97.0676 388.377 LS
99.3424 388.377 L
99.3424 394.301 L
97.0676 394.301 L
97.0676 388.377 LE
96.944 388.378 LS
99.2238 388.378 L
99.2238 394.311 L
96.944 394.311 L
96.944 388.378 LE
96.8208 388.378 LS
99.1058 388.378 L
99.1058 394.322 L
96.8208 394.322 L
96.8208 388.378 LE
96.698 388.379 LS
98.9884 388.379 L
98.9884 394.333 L
96.698 394.333 L
96.698 388.379 LE
96.5756 388.379 LS
98.8717 388.379 L
98.8717 394.343 L
96.5756 394.343 L
96.5756 388.379 LE
96.4535 388.379 LS
98.7556 388.379 L
98.7556 394.354 L
96.4535 394.354 L
96.4535 388.379 LE
96.3318 388.379 LS
98.6402 388.379 L
98.6402 394.365 L
96.3318 394.365 L
96.3318 388.379 LE
96.2105 388.379 LS
98.5254 388.379 L
98.5254 394.375 L
96.2105 394.375 L
96.2105 388.379 LE
96.0896 388.379 LS
98.4112 388.379 L
98.4112 394.386 L
96.0896 394.386 L
96.0896 388.379 LE
95.9691 388.379 LS
98.2977 388.379 L
98.2977 394.397 L
95.9691 394.397 L
95.9691 388.379 LE
95.849 388.378 LS
98.1848 388.378 L
98.1848 394.407 L
95.849 394.407 L
95.849 388.378 LE
95.7292 388.378 LS
98.0725 388.378 L
98.0725 394.418 L
95.7292 394.418 L
95.7292 388.378 LE
95.6098 388.377 LS
97.9608 388.377 L
97.9608 394.428 L
95.6098 394.428 L
95.6098 388.377 LE
95.4908 388.376 LS
97.8498 388.376 L
97.8498 394.439 L
95.4908 394.439 L
95.4908 388.376 LE
0 0 0 C
(Flowpipe for Ex. 10) 298.08 410.6 10 /Helvetica SBC
grestore
showpage
cleartomark
%%PageTrailer
%%Trailer
end
%%EOF
