%!PS-Adobe-3.0 EPSF-3.0
%%Title: glps_renderer figure
%%Creator: GL2PS 1.3.8, (C) 1999-2012 C. Geuzaine
%%For: Octave
%%CreationDate: Wed Mar 13 12:48:10 2019
%%LanguageLevel: 3
%%DocumentData: Clean7Bit
%%Pages: 1
%%BoundingBox: 0 0 576 433
%%EndComments
%%BeginProlog
/gl2psdict 64 dict def gl2psdict begin
0 setlinecap 0 setlinejoin
/tryPS3shading false def % set to false to force subdivision
/rThreshold 0.064 def % red component subdivision threshold
/gThreshold 0.034 def % green component subdivision threshold
/bThreshold 0.1 def % blue component subdivision threshold
/BD { bind def } bind def
/C  { setrgbcolor } BD
/G  { 0.082 mul exch 0.6094 mul add exch 0.3086 mul add neg 1.0 add setgray } BD
/W  { setlinewidth } BD
/FC { findfont exch /SH exch def SH scalefont setfont } BD
/SW { dup stringwidth pop } BD
/S  { FC moveto show } BD
/SBC{ FC moveto SW -2 div 0 rmoveto show } BD
/SBR{ FC moveto SW neg 0 rmoveto show } BD
/SCL{ FC moveto 0 SH -2 div rmoveto show } BD
/SCC{ FC moveto SW -2 div SH -2 div rmoveto show } BD
/SCR{ FC moveto SW neg SH -2 div rmoveto show } BD
/STL{ FC moveto 0 SH neg rmoveto show } BD
/STC{ FC moveto SW -2 div SH neg rmoveto show } BD
/STR{ FC moveto SW neg SH neg rmoveto show } BD
/FCT { FC translate 0 0 } BD
/SR  { gsave FCT moveto rotate show grestore } BD
/SBCR{ gsave FCT moveto rotate SW -2 div 0 rmoveto show grestore } BD
/SBRR{ gsave FCT moveto rotate SW neg 0 rmoveto show grestore } BD
/SCLR{ gsave FCT moveto rotate 0 SH -2 div rmoveto show grestore} BD
/SCCR{ gsave FCT moveto rotate SW -2 div SH -2 div rmoveto show grestore} BD
/SCRR{ gsave FCT moveto rotate SW neg SH -2 div rmoveto show grestore} BD
/STLR{ gsave FCT moveto rotate 0 SH neg rmoveto show grestore } BD
/STCR{ gsave FCT moveto rotate SW -2 div SH neg rmoveto show grestore } BD
/STRR{ gsave FCT moveto rotate SW neg SH neg rmoveto show grestore } BD
/P  { newpath 0.0 360.0 arc closepath fill } BD
/LS { newpath moveto } BD
/L  { lineto } BD
/LE { lineto stroke } BD
/T  { newpath moveto lineto lineto closepath fill } BD
/STshfill {
      /b1 exch def /g1 exch def /r1 exch def /y1 exch def /x1 exch def
      /b2 exch def /g2 exch def /r2 exch def /y2 exch def /x2 exch def
      /b3 exch def /g3 exch def /r3 exch def /y3 exch def /x3 exch def
      gsave << /ShadingType 4 /ColorSpace [/DeviceRGB]
      /DataSource [ 0 x1 y1 r1 g1 b1 0 x2 y2 r2 g2 b2 0 x3 y3 r3 g3 b3 ] >>
      shfill grestore } BD
/Tm { 3 -1 roll 8 -1 roll 13 -1 roll add add 3 div
      3 -1 roll 7 -1 roll 11 -1 roll add add 3 div
      3 -1 roll 6 -1 roll 9 -1 roll add add 3 div C T } BD
/STsplit {
      4 index 15 index add 0.5 mul
      4 index 15 index add 0.5 mul
      4 index 15 index add 0.5 mul
      4 index 15 index add 0.5 mul
      4 index 15 index add 0.5 mul
      5 copy 5 copy 25 15 roll
      9 index 30 index add 0.5 mul
      9 index 30 index add 0.5 mul
      9 index 30 index add 0.5 mul
      9 index 30 index add 0.5 mul
      9 index 30 index add 0.5 mul
      5 copy 5 copy 35 5 roll 25 5 roll 15 5 roll
      4 index 10 index add 0.5 mul
      4 index 10 index add 0.5 mul
      4 index 10 index add 0.5 mul
      4 index 10 index add 0.5 mul
      4 index 10 index add 0.5 mul
      5 copy 5 copy 40 5 roll 25 5 roll 15 5 roll 25 5 roll
      STnoshfill STnoshfill STnoshfill STnoshfill } BD
/STnoshfill {
      2 index 8 index sub abs rThreshold gt
      { STsplit }
      { 1 index 7 index sub abs gThreshold gt
        { STsplit }
        { dup 6 index sub abs bThreshold gt
          { STsplit }
          { 2 index 13 index sub abs rThreshold gt
            { STsplit }
            { 1 index 12 index sub abs gThreshold gt
              { STsplit }
              { dup 11 index sub abs bThreshold gt
                { STsplit }
                { 7 index 13 index sub abs rThreshold gt
                  { STsplit }
                  { 6 index 12 index sub abs gThreshold gt
                    { STsplit }
                    { 5 index 11 index sub abs bThreshold gt
                      { STsplit }
                      { Tm }
                      ifelse }
                    ifelse }
                  ifelse }
                ifelse }
              ifelse }
            ifelse }
          ifelse }
        ifelse }
      ifelse } BD
tryPS3shading
{ /shfill where
  { /ST { STshfill } BD }
  { /ST { STnoshfill } BD }
  ifelse }
{ /ST { STnoshfill } BD }
ifelse
end
%%EndProlog
%%BeginSetup
/DeviceRGB setcolorspace
gl2psdict begin
%%EndSetup
%%Page: 1 1
%%BeginPageSetup
%%EndPageSetup
mark
gsave
1.0 1.0 scale
1 1 1 C
74.88 400.6 521.28 48.52 74.88 48.52 T
74.88 400.6 521.28 400.6 521.28 48.52 T
0.5 W
[16 0] 0 setdash
0 0 0 C
74.88 48.52 LS
521.28 48.52 LE
74.88 400.6 LS
521.28 400.6 LE
74.88 48.52 LS
74.88 400.6 LE
521.28 48.52 LS
521.28 400.6 LE
74.88 48.52 LS
74.88 52.985 LE
74.88 400.6 LS
74.88 396.135 LE
149.28 48.52 LS
149.28 52.985 LE
149.28 400.6 LS
149.28 396.135 LE
223.68 48.52 LS
223.68 52.985 LE
223.68 400.6 LS
223.68 396.135 LE
298.08 48.52 LS
298.08 52.985 LE
298.08 400.6 LS
298.08 396.135 LE
372.48 48.52 LS
372.48 52.985 LE
372.48 400.6 LS
372.48 396.135 LE
446.88 48.52 LS
446.88 52.985 LE
446.88 400.6 LS
446.88 396.135 LE
521.28 48.52 LS
521.28 52.985 LE
521.28 400.6 LS
521.28 396.135 LE
(-0.2) 74.88 43.5189 10 /Helvetica STC
(0) 149.28 43.5189 10 /Helvetica STC
(0.2) 223.68 43.5189 10 /Helvetica STC
(0.4) 298.08 43.5189 10 /Helvetica STC
(0.6) 372.48 43.5189 10 /Helvetica STC
(0.8) 446.88 43.5189 10 /Helvetica STC
(1) 521.28 43.5189 10 /Helvetica STC
74.88 48.52 LS
79.348 48.52 LE
521.28 48.52 LS
516.812 48.52 LE
74.88 107.2 LS
79.348 107.2 LE
521.28 107.2 LS
516.812 107.2 LE
74.88 165.88 LS
79.348 165.88 LE
521.28 165.88 LS
516.812 165.88 LE
74.88 224.56 LS
79.348 224.56 LE
521.28 224.56 LS
516.812 224.56 LE
74.88 283.24 LS
79.348 283.24 LE
521.28 283.24 LS
516.812 283.24 LE
74.88 341.92 LS
79.348 341.92 LE
521.28 341.92 LS
516.812 341.92 LE
74.88 400.6 LS
79.348 400.6 LE
521.28 400.6 LS
516.812 400.6 LE
(-2) 69.8755 48.52 10 /Helvetica SCR
(-1.5) 69.8755 107.2 10 /Helvetica SCR
(-1) 69.8755 165.88 10 /Helvetica SCR
(-0.5) 69.8755 224.56 10 /Helvetica SCR
(0) 69.8755 283.24 10 /Helvetica SCR
(0.5) 69.8755 341.92 10 /Helvetica SCR
(1) 69.8755 400.6 10 /Helvetica SCR
[] 0 setdash
0.11 0.11 0.11 C
333.064 332.531 LS
491.203 332.531 L
491.203 388.864 L
333.064 388.864 L
333.064 332.531 LE
334.604 323.142 LS
492.981 323.142 L
492.981 379.475 L
334.604 379.475 L
334.604 323.142 LE
336.259 313.754 LS
493.373 313.754 L
493.373 370.086 L
336.259 370.086 L
336.259 313.754 LE
337.306 304.365 LS
493.139 304.365 L
493.139 360.698 L
337.306 360.698 L
337.306 304.365 LE
337.76 294.976 LS
492.301 294.976 L
492.301 351.309 L
337.76 351.309 L
337.76 294.976 LE
337.627 285.587 LS
490.889 285.587 L
490.889 341.92 L
337.627 341.92 L
337.627 285.587 LE
336.916 276.198 LS
488.932 276.198 L
488.932 332.531 L
336.916 332.531 L
336.916 276.198 LE
335.632 266.81 LS
486.453 266.81 L
486.453 323.142 L
335.632 323.142 L
335.632 266.81 LE
333.782 257.421 LS
483.478 257.421 L
483.478 313.754 L
333.782 313.754 L
333.782 257.421 LE
331.374 248.032 LS
480.028 248.032 L
480.028 304.365 L
331.374 304.365 L
331.374 248.032 LE
328.413 238.643 LS
476.122 238.643 L
476.122 294.976 L
328.413 294.976 L
328.413 238.643 LE
324.905 229.254 LS
471.778 229.254 L
471.778 285.587 L
324.905 285.587 L
324.905 229.254 LE
320.854 219.866 LS
467.277 219.866 L
467.277 276.198 L
320.854 276.198 L
320.854 219.866 LE
316.264 210.477 LS
462.663 210.477 L
462.663 266.81 L
316.264 266.81 L
316.264 210.477 LE
311.137 201.088 LS
457.645 201.088 L
457.645 257.421 L
311.137 257.421 L
311.137 201.088 LE
305.477 191.699 LS
452.235 191.699 L
452.235 248.032 L
305.477 248.032 L
305.477 191.699 LE
299.282 182.31 LS
446.44 182.31 L
446.44 238.643 L
299.282 238.643 L
299.282 182.31 LE
292.554 172.922 LS
440.267 172.922 L
440.267 229.254 L
292.554 229.254 L
292.554 172.922 LE
285.291 163.533 LS
433.719 163.533 L
433.719 219.866 L
285.291 219.866 L
285.291 163.533 LE
277.489 154.144 LS
426.801 154.144 L
426.801 210.477 L
277.489 210.477 L
277.489 154.144 LE
269.052 142.041 LS
419.517 142.041 L
419.517 205.378 L
269.052 205.378 L
269.052 142.041 LE
260.814 137.696 LS
411.869 137.696 L
411.869 201.911 L
260.814 201.911 L
260.814 137.696 LE
252.702 133.291 LS
403.852 133.291 L
403.852 198.503 L
252.702 198.503 L
252.702 133.291 LE
244.704 128.887 LS
395.461 128.887 L
395.461 195.095 L
244.704 195.095 L
244.704 128.887 LE
236.811 124.482 LS
386.688 124.482 L
386.688 191.687 L
236.811 191.687 L
236.811 124.482 LE
229.012 120.077 LS
377.525 120.077 L
377.525 188.279 L
229.012 188.279 L
229.012 120.077 LE
221.297 115.673 LS
367.962 115.673 L
367.962 184.871 L
221.297 184.871 L
221.297 115.673 LE
213.24 104.74 LS
357.992 104.74 L
357.992 187.992 L
213.24 187.992 L
213.24 104.74 LE
205.183 92.6965 LS
347.602 92.6965 L
347.602 192.223 L
205.183 192.223 L
205.183 92.6965 LE
197.19 80.653 LS
336.781 80.653 L
336.781 196.454 L
197.19 196.454 L
197.19 80.653 LE
189.676 80.653 LS
325.515 80.653 L
325.515 206.427 L
189.676 206.427 L
189.676 80.653 LE
182.948 85.1157 LS
314.293 85.1157 L
314.293 213.382 L
182.948 213.382 L
182.948 85.1157 LE
176.477 89.5784 LS
303.604 89.5784 L
303.604 220.358 L
176.477 220.358 L
176.477 89.5784 LE
170.267 94.041 LS
293.429 94.041 L
293.429 227.333 L
170.267 227.333 L
170.267 94.041 LE
164.323 98.5036 LS
283.753 98.5036 L
283.753 234.308 L
164.323 234.308 L
164.323 98.5036 LE
158.65 102.966 LS
274.562 102.966 L
274.562 241.283 L
158.65 241.283 L
158.65 102.966 LE
153.251 107.429 LS
265.844 107.429 L
265.844 248.258 L
153.251 248.258 L
153.251 107.429 LE
148.13 111.891 LS
257.59 111.891 L
257.59 255.233 L
148.13 255.233 L
148.13 111.891 LE
143.29 116.354 LS
249.792 116.354 L
249.792 262.208 L
143.29 262.208 L
143.29 116.354 LE
138.734 120.817 LS
242.443 120.817 L
242.443 269.184 L
138.734 269.184 L
138.734 120.817 LE
134.368 122.591 LS
235.539 122.591 L
235.539 280.389 L
134.368 280.389 L
134.368 122.591 LE
130.471 129.32 LS
229.137 129.32 L
229.137 285.157 L
130.471 285.157 L
130.471 129.32 LE
126.741 136.018 LS
223.333 136.018 L
223.333 289.954 L
126.741 289.954 L
126.741 136.018 LE
123.181 142.717 LS
218.346 142.717 L
218.346 294.751 L
123.181 294.751 L
123.181 142.717 LE
119.741 148.605 LS
213.969 148.605 L
213.969 300.359 L
119.741 300.359 L
119.741 148.605 LE
116.453 154.178 LS
210.17 154.178 L
210.17 306.282 L
116.453 306.282 L
116.453 154.178 LE
113.339 159.751 LS
206.926 159.751 L
206.926 312.206 L
113.339 312.206 L
113.339 159.751 LE
110.399 165.323 LS
204.237 165.323 L
204.237 318.129 L
110.399 318.129 L
110.399 165.323 LE
107.634 170.896 LS
202.103 170.896 L
202.103 324.052 L
107.634 324.052 L
107.634 170.896 LE
105.044 176.469 LS
200.523 176.469 L
200.523 329.975 L
105.044 329.975 L
105.044 176.469 LE
102.494 177.807 LS
199.453 177.807 L
199.453 334.542 L
102.494 334.542 L
102.494 177.807 LE
100.561 187.275 LS
198.142 187.275 L
198.142 330.978 L
100.561 330.978 L
100.561 187.275 LE
97.5935 196.727 LS
198.239 196.727 L
198.239 327.431 L
97.5935 327.431 L
97.5935 196.727 LE
94.9895 203.616 LS
198.347 203.616 L
198.347 326.447 L
94.9895 326.447 L
94.9895 203.616 LE
92.895 210.217 LS
198.32 210.217 L
198.32 325.751 L
92.895 325.751 L
92.895 210.217 LE
91.3291 216.818 LS
198.139 216.818 L
198.139 325.054 L
91.3291 325.054 L
91.3291 216.818 LE
90.2925 223.42 LS
197.803 223.42 L
197.803 324.358 L
90.2925 324.358 L
90.2925 223.42 LE
89.7859 230.021 LS
197.311 230.021 L
197.311 323.661 L
89.7859 323.661 L
89.7859 230.021 LE
89.81 236.622 LS
196.663 236.622 L
196.663 322.965 L
89.81 322.965 L
89.81 236.622 LE
89.4595 234.144 LS
196.763 234.144 L
196.763 331.347 L
89.4595 331.347 L
89.4595 234.144 LE
89.721 234.853 LS
196.481 234.853 L
196.481 331.962 L
89.721 331.962 L
89.721 234.853 LE
90.6347 237.607 LS
195.631 237.607 L
195.631 330.53 L
90.6347 330.53 L
90.6347 237.607 LE
91.7275 240.003 LS
194.685 240.003 L
194.685 329.457 L
91.7275 329.457 L
91.7275 240.003 LE
93.0222 242.399 LS
193.621 242.399 L
193.621 328.384 L
93.0222 328.384 L
93.0222 242.399 LE
94.519 244.795 LS
192.439 244.795 L
192.439 327.311 L
94.519 327.311 L
94.519 244.795 LE
96.2181 247.191 LS
191.139 247.191 L
191.139 326.238 L
96.2181 326.238 L
96.2181 247.191 LE
98.1196 249.587 LS
189.72 249.587 L
189.72 325.165 L
98.1196 325.165 L
98.1196 249.587 LE
100.109 250.181 LS
188.297 250.181 L
188.297 325.893 L
100.109 325.893 L
100.109 250.181 LE
102.123 247.975 LS
186.933 247.975 L
186.933 329.422 L
102.123 329.422 L
102.123 247.975 LE
104.329 245.602 LS
185.461 245.602 L
185.461 333.118 L
104.329 333.118 L
104.329 245.602 LE
106.755 243.796 LS
183.793 243.796 L
183.793 334.34 L
106.755 334.34 L
106.755 243.796 LE
109.463 245.6 LS
181.805 245.6 L
181.805 331.952 L
109.463 331.952 L
109.463 245.6 LE
112.042 247.405 LS
179.91 247.405 L
179.91 329.563 L
112.042 329.563 L
112.042 247.405 LE
114.49 249.209 LS
178.108 249.209 L
178.108 327.175 L
114.49 327.175 L
114.49 249.209 LE
116.808 251.013 LS
176.4 251.013 L
176.4 324.787 L
116.808 324.787 L
116.808 251.013 LE
118.994 252.818 LS
174.785 252.818 L
174.785 322.398 L
118.994 322.398 L
118.994 252.818 LE
121.05 254.622 LS
173.265 254.622 L
173.265 320.01 L
121.05 320.01 L
121.05 254.622 LE
122.959 256.189 LS
171.854 256.189 L
171.854 317.859 L
122.959 317.859 L
122.959 256.189 LE
124.702 257.192 LS
170.573 257.192 L
170.573 316.272 L
124.702 316.272 L
124.702 257.192 LE
126.313 258.196 LS
169.386 258.196 L
169.386 314.685 L
126.313 314.685 L
126.313 258.196 LE
127.824 260.173 LS
168.264 260.173 L
168.264 312.182 L
127.824 312.182 L
127.824 260.173 LE
129.216 261.423 LS
167.228 261.423 L
167.228 310.405 L
129.216 310.405 L
129.216 261.423 LE
130.534 262.674 LS
166.233 262.674 L
166.233 308.629 L
130.534 308.629 L
130.534 262.674 LE
131.776 263.924 LS
165.279 263.924 L
165.279 306.852 L
131.776 306.852 L
131.776 263.924 LE
132.944 265.175 LS
164.367 265.175 L
164.367 305.076 L
132.944 305.076 L
132.944 265.175 LE
134.037 266.426 LS
163.496 266.426 L
163.496 303.299 L
134.037 303.299 L
134.037 266.426 LE
135.055 267.676 LS
162.668 267.676 L
162.668 301.523 L
135.055 301.523 L
135.055 267.676 LE
135.977 268.593 LS
161.901 268.593 L
161.901 300.081 L
135.977 300.081 L
135.977 268.593 LE
136.797 269.095 LS
161.203 269.095 L
161.203 299.052 L
136.797 299.052 L
136.797 269.095 LE
137.543 269.598 LS
160.547 269.598 L
160.547 298.024 L
137.543 298.024 L
137.543 269.598 LE
138.247 271.17 LS
159.908 271.17 L
159.908 296.246 L
138.247 296.246 L
138.247 271.17 LE
138.866 271.759 LS
159.342 271.759 L
159.342 295.452 L
138.866 295.452 L
138.866 271.759 LE
139.446 272.348 LS
158.802 272.348 L
158.802 294.658 L
139.446 294.658 L
139.446 272.348 LE
139.986 272.937 LS
158.289 272.937 L
158.289 293.864 L
139.986 293.864 L
139.986 272.937 LE
140.486 273.526 LS
157.803 273.526 L
157.803 293.07 L
140.486 293.07 L
140.486 273.526 LE
140.947 274.116 LS
157.343 274.116 L
157.343 292.276 L
140.947 292.276 L
140.947 274.116 LE
141.368 274.705 LS
156.909 274.705 L
156.909 291.482 L
141.368 291.482 L
141.368 274.705 LE
141.739 275.114 LS
156.513 275.114 L
156.513 290.867 L
141.739 290.867 L
141.739 275.114 LE
142.066 275.456 LS
156.148 275.456 L
156.148 290.321 L
142.066 290.321 L
142.066 275.456 LE
142.353 275.797 LS
155.81 275.797 L
155.81 289.774 L
142.353 289.774 L
142.353 275.797 LE
142.618 276.667 LS
155.486 276.667 L
155.486 288.862 L
142.618 288.862 L
142.618 276.667 LE
142.833 276.91 LS
155.21 276.91 L
155.21 288.577 L
142.833 288.577 L
142.833 276.91 LE
143.035 277.152 LS
154.944 277.152 L
154.944 288.293 L
143.035 288.293 L
143.035 277.152 LE
143.223 277.395 LS
154.689 277.395 L
154.689 288.008 L
143.223 288.008 L
143.223 277.395 LE
143.397 277.637 LS
154.445 277.637 L
154.445 287.724 L
143.397 287.724 L
143.397 277.637 LE
143.558 277.88 LS
154.212 277.88 L
154.212 287.439 L
143.558 287.439 L
143.558 277.88 LE
143.705 278.119 LS
153.99 278.119 L
153.99 287.158 L
143.705 287.158 L
143.705 278.119 LE
143.831 278.235 LS
153.786 278.235 L
153.786 287 L
143.831 287 L
143.831 278.235 LE
143.943 278.35 LS
153.594 278.35 L
153.594 286.843 L
143.943 286.843 L
143.943 278.35 LE
144.042 278.465 LS
153.412 278.465 L
153.412 286.686 L
144.042 286.686 L
144.042 278.465 LE
144.134 278.798 LS
153.238 278.798 L
153.238 286.415 L
144.134 286.415 L
144.134 278.798 LE
144.215 278.968 LS
153.078 278.968 L
153.078 286.307 L
144.215 286.307 L
144.215 278.968 LE
144.294 279.139 LS
152.925 279.139 L
152.925 286.198 L
144.294 286.198 L
144.294 279.139 LE
144.372 279.309 LS
152.776 279.309 L
152.776 286.09 L
144.372 286.09 L
144.372 279.309 LE
144.448 279.48 LS
152.634 279.48 L
152.634 285.981 L
144.448 285.981 L
144.448 279.48 LE
144.523 279.65 LS
152.496 279.65 L
152.496 285.872 L
144.523 285.872 L
144.523 279.65 LE
144.595 279.808 LS
152.365 279.808 L
152.365 285.776 L
144.595 285.776 L
144.595 279.808 LE
144.66 279.883 LS
152.245 279.883 L
152.245 285.764 L
144.66 285.764 L
144.66 279.883 LE
144.724 279.957 LS
152.131 279.957 L
152.131 285.752 L
144.724 285.752 L
144.724 279.957 LE
144.786 280.031 LS
152.022 280.031 L
152.022 285.739 L
144.786 285.739 L
144.786 280.031 LE
144.848 280.157 LS
151.916 280.157 L
151.916 285.644 L
144.848 285.644 L
144.848 280.157 LE
144.906 280.243 LS
151.815 280.243 L
151.815 285.59 L
144.906 285.59 L
144.906 280.243 LE
144.962 280.329 LS
151.719 280.329 L
151.719 285.535 L
144.962 285.535 L
144.962 280.329 LE
145.015 280.415 LS
151.628 280.415 L
151.628 285.481 L
145.015 285.481 L
145.015 280.415 LE
145.066 280.5 LS
151.542 280.5 L
151.542 285.426 L
145.066 285.426 L
145.066 280.5 LE
145.113 280.586 LS
151.461 280.586 L
151.461 285.372 L
145.113 285.372 L
145.113 280.586 LE
145.157 280.669 LS
151.384 280.669 L
151.384 285.321 L
145.157 285.321 L
145.157 280.669 LE
145.197 280.732 LS
151.314 280.732 L
151.314 285.289 L
145.197 285.289 L
145.197 280.732 LE
145.235 280.795 LS
151.248 280.795 L
151.248 285.257 L
145.235 285.257 L
145.235 280.795 LE
145.269 280.858 LS
151.188 280.858 L
151.188 285.225 L
145.269 285.225 L
145.269 280.858 LE
145.302 280.949 LS
151.131 280.949 L
151.131 285.152 L
145.302 285.152 L
145.302 280.949 LE
145.33 280.994 LS
151.079 280.994 L
151.079 285.126 L
145.33 285.126 L
145.33 280.994 LE
145.358 281.038 LS
151.029 281.038 L
151.029 285.099 L
145.358 285.099 L
145.358 281.038 LE
145.384 281.082 LS
150.982 281.082 L
150.982 285.073 L
145.384 285.073 L
145.384 281.082 LE
145.409 281.126 LS
150.936 281.126 L
150.936 285.047 L
145.409 285.047 L
145.409 281.126 LE
145.433 281.171 LS
150.893 281.171 L
150.893 285.021 L
145.433 285.021 L
145.433 281.171 LE
145.456 281.212 LS
150.853 281.212 L
150.853 284.997 L
145.456 284.997 L
145.456 281.212 LE
145.477 281.233 LS
150.815 281.233 L
150.815 284.994 L
145.477 284.994 L
145.477 281.233 LE
145.496 281.255 LS
150.781 281.255 L
150.781 284.99 L
145.496 284.99 L
145.496 281.255 LE
145.515 281.277 LS
150.748 281.277 L
150.748 284.986 L
145.515 284.986 L
145.515 281.277 LE
145.532 281.306 LS
150.717 281.306 L
150.717 284.966 L
145.532 284.966 L
145.532 281.306 LE
145.549 281.337 LS
150.687 281.337 L
150.687 284.946 L
145.549 284.946 L
145.549 281.337 LE
145.566 281.367 LS
150.658 281.367 L
150.658 284.925 L
145.566 284.925 L
145.566 281.367 LE
145.581 281.397 LS
150.631 281.397 L
150.631 284.904 L
145.581 284.904 L
145.581 281.397 LE
145.596 281.428 LS
150.605 281.428 L
150.605 284.884 L
145.596 284.884 L
145.596 281.428 LE
145.61 281.458 LS
150.581 281.458 L
150.581 284.863 L
145.61 284.863 L
145.61 281.458 LE
145.624 281.486 LS
150.558 281.486 L
150.558 284.845 L
145.624 284.845 L
145.624 281.486 LE
145.635 281.493 LS
150.537 281.493 L
150.537 284.847 L
145.635 284.847 L
145.635 281.493 LE
145.645 281.501 LS
150.518 281.501 L
150.518 284.849 L
145.645 284.849 L
145.645 281.501 LE
145.655 281.509 LS
150.501 281.509 L
150.501 284.851 L
145.655 284.851 L
145.655 281.509 LE
145.664 281.523 LS
150.484 281.523 L
150.484 284.843 L
145.664 284.843 L
145.664 281.523 LE
145.674 281.543 LS
150.467 281.543 L
150.467 284.828 L
145.674 284.828 L
145.674 281.543 LE
145.683 281.564 LS
150.452 281.564 L
150.452 284.813 L
145.683 284.813 L
145.683 281.564 LE
145.691 281.584 LS
150.437 281.584 L
150.437 284.798 L
145.691 284.798 L
145.691 281.584 LE
145.7 281.604 LS
150.422 281.604 L
150.422 284.783 L
145.7 284.783 L
145.7 281.604 LE
145.708 281.625 LS
150.409 281.625 L
150.409 284.768 L
145.708 284.768 L
145.708 281.625 LE
145.715 281.642 LS
150.396 281.642 L
150.396 284.755 L
145.715 284.755 L
145.715 281.642 LE
145.721 281.64 LS
150.385 281.64 L
150.385 284.763 L
145.721 284.763 L
145.721 281.64 LE
145.726 281.638 LS
150.375 281.638 L
150.375 284.77 L
145.726 284.77 L
145.726 281.638 LE
145.731 281.636 LS
150.366 281.636 L
150.366 284.778 L
145.731 284.778 L
145.731 281.636 LE
145.736 281.636 LS
150.357 281.636 L
150.357 284.781 L
145.736 284.781 L
145.736 281.636 LE
145.741 281.652 LS
150.347 281.652 L
150.347 284.768 L
145.741 284.768 L
145.741 281.652 LE
145.747 281.668 LS
150.338 281.668 L
150.338 284.755 L
145.747 284.755 L
145.747 281.668 LE
145.752 281.683 LS
150.33 281.683 L
150.33 284.743 L
145.752 284.743 L
145.752 281.683 LE
145.757 281.699 LS
150.322 281.699 L
150.322 284.73 L
145.757 284.73 L
145.757 281.699 LE
145.761 281.714 LS
150.314 281.714 L
150.314 284.717 L
145.761 284.717 L
145.761 281.714 LE
145.766 281.727 LS
150.307 281.727 L
150.307 284.708 L
145.766 284.708 L
145.766 281.727 LE
145.768 281.72 LS
150.301 281.72 L
150.301 284.718 L
145.768 284.718 L
145.768 281.72 LE
145.771 281.713 LS
150.296 281.713 L
150.296 284.728 L
145.771 284.728 L
145.771 281.713 LE
145.773 281.706 LS
150.291 281.706 L
150.291 284.738 L
145.773 284.738 L
145.773 281.706 LE
145.776 281.7 LS
150.287 281.7 L
150.287 284.745 L
145.776 284.745 L
145.776 281.7 LE
145.779 281.713 LS
150.281 281.713 L
150.281 284.734 L
145.779 284.734 L
145.779 281.713 LE
145.782 281.726 LS
150.276 281.726 L
150.276 284.723 L
145.782 284.723 L
145.782 281.726 LE
145.785 281.739 LS
150.271 281.739 L
150.271 284.711 L
145.785 284.711 L
145.785 281.739 LE
145.788 281.751 LS
150.266 281.751 L
150.266 284.7 L
145.788 284.7 L
145.788 281.751 LE
145.791 281.764 LS
150.262 281.764 L
150.262 284.689 L
145.791 284.689 L
145.791 281.764 LE
145.793 281.774 LS
150.257 281.774 L
150.257 284.681 L
145.793 284.681 L
145.793 281.774 LE
145.795 281.764 LS
150.255 281.764 L
150.255 284.693 L
145.795 284.693 L
145.795 281.764 LE
145.796 281.754 LS
150.252 281.754 L
150.252 284.704 L
145.796 284.704 L
145.796 281.754 LE
145.797 281.744 LS
150.25 281.744 L
150.25 284.716 L
145.797 284.716 L
145.797 281.744 LE
145.797 281.735 LS
150.248 281.735 L
150.248 284.725 L
145.797 284.725 L
145.797 281.735 LE
145.8 281.747 LS
150.245 281.747 L
150.245 284.715 L
145.8 284.715 L
145.8 281.747 LE
145.802 281.758 LS
150.242 281.758 L
150.242 284.705 L
145.802 284.705 L
145.802 281.758 LE
145.803 281.769 LS
150.238 281.769 L
150.238 284.695 L
145.803 284.695 L
145.803 281.769 LE
145.805 281.78 LS
150.236 281.78 L
150.236 284.684 L
145.805 284.684 L
145.805 281.78 LE
145.807 281.791 LS
150.233 281.791 L
150.233 284.674 L
145.807 284.674 L
145.807 281.791 LE
145.809 281.8 LS
150.23 281.8 L
150.23 284.667 L
145.809 284.667 L
145.809 281.8 LE
145.809 281.788 LS
150.229 281.788 L
150.229 284.679 L
145.809 284.679 L
145.809 281.788 LE
145.809 281.777 LS
150.228 281.777 L
150.228 284.691 L
145.809 284.691 L
145.809 281.777 LE
145.809 281.766 LS
150.227 281.766 L
150.227 284.703 L
145.809 284.703 L
145.809 281.766 LE
145.809 281.755 LS
150.227 281.755 L
150.227 284.715 L
145.809 284.715 L
145.809 281.755 LE
145.811 281.765 LS
150.225 281.765 L
150.225 284.705 L
145.811 284.705 L
145.811 281.765 LE
145.812 281.775 LS
150.223 281.775 L
150.223 284.695 L
145.812 284.695 L
145.812 281.775 LE
145.814 281.786 LS
150.221 281.786 L
150.221 284.685 L
145.814 284.685 L
145.814 281.786 LE
145.815 281.796 LS
150.219 281.796 L
150.219 284.675 L
145.815 284.675 L
145.815 281.796 LE
145.816 281.807 LS
150.217 281.807 L
150.217 284.665 L
145.816 284.665 L
145.816 281.807 LE
145.817 281.814 LS
150.215 281.814 L
150.215 284.659 L
145.817 284.659 L
145.817 281.814 LE
145.817 281.802 LS
150.215 281.802 L
150.215 284.671 L
145.817 284.671 L
145.817 281.802 LE
145.817 281.79 LS
150.215 281.79 L
150.215 284.684 L
145.817 284.684 L
145.817 281.79 LE
145.816 281.777 LS
150.215 281.777 L
150.215 284.697 L
145.816 284.697 L
145.816 281.777 LE
145.637 281.375 LS
150.394 281.375 L
150.394 285.1 L
145.637 285.1 L
145.637 281.375 LE
145.431 280.972 LS
150.599 280.972 L
150.599 285.503 L
145.431 285.503 L
145.431 280.972 LE
145.2 280.569 LS
150.83 280.569 L
150.83 285.906 L
145.2 285.906 L
145.2 280.569 LE
144.944 280.166 LS
151.086 280.166 L
151.086 286.309 L
144.944 286.309 L
144.944 280.166 LE
144.662 279.763 LS
151.368 279.763 L
151.368 286.712 L
144.662 286.712 L
144.662 279.763 LE
144.354 279.36 LS
151.675 279.36 L
151.675 287.115 L
144.354 287.115 L
144.354 279.36 LE
144.021 278.957 LS
152.008 278.957 L
152.008 287.519 L
144.021 287.519 L
144.021 278.957 LE
143.663 278.554 LS
152.366 278.554 L
152.366 287.922 L
143.663 287.922 L
143.663 278.554 LE
143.278 278.152 LS
152.75 278.152 L
152.75 288.325 L
143.278 288.325 L
143.278 278.152 LE
142.869 277.749 LS
153.16 277.749 L
153.16 288.728 L
142.869 288.728 L
142.869 277.749 LE
142.407 276.514 LS
153.621 276.514 L
153.621 289.968 L
142.407 289.968 L
142.407 276.514 LE
142.068 277.219 LS
153.961 277.219 L
153.961 289.268 L
142.068 289.268 L
142.068 277.219 LE
141.805 277.925 LS
154.224 277.925 L
154.224 288.568 L
141.805 288.568 L
141.805 277.925 LE
141.619 278.63 LS
154.411 278.63 L
154.411 287.868 L
141.619 287.868 L
141.619 278.63 LE
141.51 279.336 LS
154.521 279.336 L
154.521 287.168 L
141.51 287.168 L
141.51 279.336 LE
141.478 280.041 LS
154.555 280.041 L
154.555 286.467 L
141.478 286.467 L
141.478 280.041 LE
141.48 280.082 LS
154.555 280.082 L
154.555 286.432 L
141.48 286.432 L
141.48 280.082 LE
141.478 278.847 LS
154.559 278.847 L
154.559 287.673 L
141.478 287.673 L
141.478 278.847 LE
141.553 277.611 LS
154.487 277.611 L
154.487 288.913 L
141.553 288.913 L
141.553 277.611 LE
141.705 276.376 LS
154.338 276.376 L
154.338 290.154 L
141.705 290.154 L
141.705 276.376 LE
141.952 275.733 LS
154.094 275.733 L
154.094 290.808 L
141.952 290.808 L
141.952 275.733 LE
142.313 276.2 LS
153.738 276.2 L
153.738 290.353 L
142.313 290.353 L
142.313 276.2 LE
142.643 276.667 LS
153.413 276.667 L
153.413 289.898 L
142.643 289.898 L
142.643 276.667 LE
142.945 277.133 LS
153.117 277.133 L
153.117 289.443 L
142.945 289.443 L
142.945 277.133 LE
143.217 277.6 LS
152.852 277.6 L
152.852 288.988 L
143.217 288.988 L
143.217 277.6 LE
143.459 278.066 LS
152.616 278.066 L
152.616 288.533 L
143.459 288.533 L
143.459 278.066 LE
143.672 278.532 LS
152.411 278.532 L
152.411 288.078 L
143.672 288.078 L
143.672 278.532 LE
143.853 278.95 LS
152.239 278.95 L
152.239 287.672 L
143.853 287.672 L
143.853 278.95 LE
144.004 279.367 LS
152.097 279.367 L
152.097 287.266 L
144.004 287.266 L
144.004 279.367 LE
144.126 279.785 LS
151.985 279.785 L
151.985 286.86 L
144.126 286.86 L
144.126 279.785 LE
144.232 280.619 LS
151.889 280.619 L
151.889 285.995 L
144.232 285.995 L
144.232 280.619 LE
144.286 280.653 LS
151.843 280.653 L
151.843 285.93 L
144.286 285.93 L
144.286 280.653 LE
144.341 280.686 LS
151.793 280.686 L
151.793 285.865 L
144.341 285.865 L
144.341 280.686 LE
144.398 280.72 LS
151.74 280.72 L
151.74 285.8 L
144.398 285.8 L
144.398 280.72 LE
144.456 280.754 LS
151.683 280.754 L
151.683 285.735 L
144.456 285.735 L
144.456 280.754 LE
144.515 280.787 LS
151.624 280.787 L
151.624 285.671 L
144.515 285.671 L
144.515 280.787 LE
144.575 280.808 LS
151.562 280.808 L
151.562 285.619 L
144.575 285.619 L
144.575 280.808 LE
144.63 280.743 LS
151.502 280.743 L
151.502 285.652 L
144.63 285.652 L
144.63 280.743 LE
144.687 280.679 LS
151.439 280.679 L
151.439 285.686 L
144.687 285.686 L
144.687 280.679 LE
144.745 280.614 LS
151.372 280.614 L
151.372 285.719 L
144.745 285.719 L
144.745 280.614 LE
144.805 280.56 LS
151.304 280.56 L
151.304 285.785 L
144.805 285.785 L
144.805 280.56 LE
144.872 280.642 LS
151.228 280.642 L
151.228 285.716 L
144.872 285.716 L
144.872 280.642 LE
144.936 280.724 LS
151.157 280.724 L
151.157 285.647 L
144.936 285.647 L
144.936 280.724 LE
144.995 280.806 LS
151.091 280.806 L
151.091 285.578 L
144.995 285.578 L
144.995 280.806 LE
145.051 280.888 LS
151.029 280.888 L
151.029 285.509 L
145.051 285.509 L
145.051 280.888 LE
145.104 280.97 LS
150.972 280.97 L
150.972 285.439 L
145.104 285.439 L
145.104 280.97 LE
145.152 281.048 LS
150.92 281.048 L
150.92 285.373 L
145.152 285.373 L
145.152 281.048 LE
145.195 281.108 LS
150.873 281.108 L
150.873 285.327 L
145.195 285.327 L
145.195 281.108 LE
145.234 281.167 LS
150.832 281.167 L
150.832 285.28 L
145.234 285.28 L
145.234 281.167 LE
145.27 281.226 LS
150.794 281.226 L
150.794 285.234 L
145.27 285.234 L
145.27 281.226 LE
145.303 281.328 LS
150.76 281.328 L
150.76 285.131 L
145.303 285.131 L
145.303 281.328 LE
145.33 281.352 LS
150.731 281.352 L
150.731 285.107 L
145.33 285.107 L
145.33 281.352 LE
145.357 281.375 LS
150.704 281.375 L
150.704 285.082 L
145.357 285.082 L
145.357 281.375 LE
145.382 281.399 LS
150.677 281.399 L
150.677 285.058 L
145.382 285.058 L
145.382 281.399 LE
145.406 281.422 LS
150.651 281.422 L
150.651 285.034 L
145.406 285.034 L
145.406 281.422 LE
145.43 281.446 LS
150.626 281.446 L
150.626 285.01 L
145.43 285.01 L
145.43 281.446 LE
145.452 281.467 LS
150.602 281.467 L
150.602 284.989 L
145.452 284.989 L
145.452 281.467 LE
145.472 281.468 LS
150.581 281.468 L
150.581 284.987 L
145.472 284.987 L
145.472 281.468 LE
145.491 281.469 LS
150.56 281.469 L
150.56 284.985 L
145.491 284.985 L
145.491 281.469 LE
145.509 281.469 LS
150.54 281.469 L
150.54 284.984 L
145.509 284.984 L
145.509 281.469 LE
145.527 281.475 LS
150.521 281.475 L
150.521 284.98 L
145.527 284.98 L
145.527 281.475 LE
145.545 281.499 LS
150.502 281.499 L
150.502 284.958 L
145.545 284.958 L
145.545 281.499 LE
145.562 281.522 LS
150.483 281.522 L
150.483 284.936 L
145.562 284.936 L
145.562 281.522 LE
145.578 281.546 LS
150.466 281.546 L
150.466 284.914 L
145.578 284.914 L
145.578 281.546 LE
145.593 281.57 LS
150.449 281.57 L
150.449 284.892 L
145.593 284.892 L
145.593 281.57 LE
145.608 281.593 LS
150.433 281.593 L
150.433 284.87 L
145.608 284.87 L
145.608 281.593 LE
145.621 281.614 LS
150.419 281.614 L
150.419 284.85 L
145.621 284.85 L
145.621 281.614 LE
145.633 281.615 LS
150.406 281.615 L
150.406 284.851 L
145.633 284.851 L
145.633 281.615 LE
145.644 281.616 LS
150.395 281.616 L
150.395 284.851 L
145.644 284.851 L
145.644 281.616 LE
145.654 281.618 LS
150.384 281.618 L
150.384 284.852 L
145.654 284.852 L
145.654 281.618 LE
145.663 281.626 LS
150.374 281.626 L
150.374 284.844 L
145.663 284.844 L
145.663 281.626 LE
145.672 281.641 LS
150.364 281.641 L
150.364 284.829 L
145.672 284.829 L
145.672 281.641 LE
145.682 281.657 LS
150.354 281.657 L
150.354 284.814 L
145.682 284.814 L
145.682 281.657 LE
145.69 281.672 LS
150.345 281.672 L
150.345 284.798 L
145.69 284.798 L
145.69 281.672 LE
145.699 281.688 LS
150.336 281.688 L
150.336 284.783 L
145.699 284.783 L
145.699 281.688 LE
145.706 281.704 LS
150.327 281.704 L
150.327 284.768 L
145.706 284.768 L
145.706 281.704 LE
145.714 281.716 LS
150.32 281.716 L
150.32 284.756 L
145.714 284.756 L
145.714 281.716 LE
145.72 281.709 LS
150.313 281.709 L
150.313 284.763 L
145.72 284.763 L
145.72 281.709 LE
145.725 281.702 LS
150.307 281.702 L
150.307 284.77 L
145.725 284.77 L
145.725 281.702 LE
145.73 281.695 LS
150.302 281.695 L
150.302 284.778 L
145.73 284.778 L
145.73 281.695 LE
145.735 281.691 LS
150.297 281.691 L
150.297 284.783 L
145.735 284.783 L
145.735 281.691 LE
145.74 281.704 LS
150.291 281.704 L
150.291 284.77 L
145.74 284.77 L
145.74 281.704 LE
145.746 281.717 LS
150.285 281.717 L
150.285 284.757 L
145.746 284.757 L
145.746 281.717 LE
145.751 281.73 LS
150.279 281.73 L
150.279 284.744 L
145.751 284.744 L
145.751 281.73 LE
145.756 281.743 LS
150.274 281.743 L
150.274 284.731 L
145.756 284.731 L
145.756 281.743 LE
145.761 281.757 LS
150.269 281.757 L
150.269 284.719 L
145.761 284.719 L
145.761 281.757 LE
145.765 281.767 LS
150.264 281.767 L
150.264 284.709 L
145.765 284.709 L
145.765 281.767 LE
145.768 281.757 LS
150.261 281.757 L
150.261 284.718 L
145.768 284.718 L
145.768 281.757 LE
145.77 281.748 LS
150.258 281.748 L
150.258 284.728 L
145.77 284.728 L
145.77 281.748 LE
145.773 281.739 LS
150.256 281.739 L
150.256 284.738 L
145.773 284.738 L
145.773 281.739 LE
145.775 281.731 LS
150.253 281.731 L
150.253 284.746 L
145.775 284.746 L
145.775 281.731 LE
145.778 281.742 LS
150.25 281.742 L
150.25 284.734 L
145.778 284.734 L
145.778 281.742 LE
145.782 281.754 LS
150.246 281.754 L
150.246 284.723 L
145.782 284.723 L
145.782 281.754 LE
145.785 281.765 LS
150.243 281.765 L
150.243 284.712 L
145.785 284.712 L
145.785 281.765 LE
145.788 281.776 LS
150.24 281.776 L
150.24 284.701 L
145.788 284.701 L
145.788 281.776 LE
145.791 281.788 LS
150.237 281.788 L
150.237 284.69 L
145.791 284.69 L
145.791 281.788 LE
145.793 281.796 LS
150.234 281.796 L
150.234 284.681 L
145.793 284.681 L
145.793 281.796 LE
145.794 281.785 LS
150.233 281.785 L
150.233 284.693 L
145.794 284.693 L
145.794 281.785 LE
145.795 281.774 LS
150.232 281.774 L
150.232 284.704 L
145.795 284.704 L
145.795 281.774 LE
145.796 281.762 LS
150.231 281.762 L
150.231 284.716 L
145.796 284.716 L
145.796 281.762 LE
0 0 0 C
(Flowpipe for Ex. 1) 298.08 410.6 10 /Helvetica SBC
grestore
showpage
cleartomark
%%PageTrailer
%%Trailer
end
%%EOF
