%!PS-Adobe-3.0 EPSF-3.0
%%Title: glps_renderer figure
%%Creator: GL2PS 1.3.8, (C) 1999-2012 C. Geuzaine
%%For: Octave
%%CreationDate: Wed Feb 13 13:33:24 2019
%%LanguageLevel: 3
%%DocumentData: Clean7Bit
%%Pages: 1
%%BoundingBox: 0 0 576 433
%%EndComments
%%BeginProlog
/gl2psdict 64 dict def gl2psdict begin
0 setlinecap 0 setlinejoin
/tryPS3shading false def % set to false to force subdivision
/rThreshold 0.064 def % red component subdivision threshold
/gThreshold 0.034 def % green component subdivision threshold
/bThreshold 0.1 def % blue component subdivision threshold
/BD { bind def } bind def
/C  { setrgbcolor } BD
/G  { 0.082 mul exch 0.6094 mul add exch 0.3086 mul add neg 1.0 add setgray } BD
/W  { setlinewidth } BD
/FC { findfont exch /SH exch def SH scalefont setfont } BD
/SW { dup stringwidth pop } BD
/S  { FC moveto show } BD
/SBC{ FC moveto SW -2 div 0 rmoveto show } BD
/SBR{ FC moveto SW neg 0 rmoveto show } BD
/SCL{ FC moveto 0 SH -2 div rmoveto show } BD
/SCC{ FC moveto SW -2 div SH -2 div rmoveto show } BD
/SCR{ FC moveto SW neg SH -2 div rmoveto show } BD
/STL{ FC moveto 0 SH neg rmoveto show } BD
/STC{ FC moveto SW -2 div SH neg rmoveto show } BD
/STR{ FC moveto SW neg SH neg rmoveto show } BD
/FCT { FC translate 0 0 } BD
/SR  { gsave FCT moveto rotate show grestore } BD
/SBCR{ gsave FCT moveto rotate SW -2 div 0 rmoveto show grestore } BD
/SBRR{ gsave FCT moveto rotate SW neg 0 rmoveto show grestore } BD
/SCLR{ gsave FCT moveto rotate 0 SH -2 div rmoveto show grestore} BD
/SCCR{ gsave FCT moveto rotate SW -2 div SH -2 div rmoveto show grestore} BD
/SCRR{ gsave FCT moveto rotate SW neg SH -2 div rmoveto show grestore} BD
/STLR{ gsave FCT moveto rotate 0 SH neg rmoveto show grestore } BD
/STCR{ gsave FCT moveto rotate SW -2 div SH neg rmoveto show grestore } BD
/STRR{ gsave FCT moveto rotate SW neg SH neg rmoveto show grestore } BD
/P  { newpath 0.0 360.0 arc closepath fill } BD
/LS { newpath moveto } BD
/L  { lineto } BD
/LE { lineto stroke } BD
/T  { newpath moveto lineto lineto closepath fill } BD
/STshfill {
      /b1 exch def /g1 exch def /r1 exch def /y1 exch def /x1 exch def
      /b2 exch def /g2 exch def /r2 exch def /y2 exch def /x2 exch def
      /b3 exch def /g3 exch def /r3 exch def /y3 exch def /x3 exch def
      gsave << /ShadingType 4 /ColorSpace [/DeviceRGB]
      /DataSource [ 0 x1 y1 r1 g1 b1 0 x2 y2 r2 g2 b2 0 x3 y3 r3 g3 b3 ] >>
      shfill grestore } BD
/Tm { 3 -1 roll 8 -1 roll 13 -1 roll add add 3 div
      3 -1 roll 7 -1 roll 11 -1 roll add add 3 div
      3 -1 roll 6 -1 roll 9 -1 roll add add 3 div C T } BD
/STsplit {
      4 index 15 index add 0.5 mul
      4 index 15 index add 0.5 mul
      4 index 15 index add 0.5 mul
      4 index 15 index add 0.5 mul
      4 index 15 index add 0.5 mul
      5 copy 5 copy 25 15 roll
      9 index 30 index add 0.5 mul
      9 index 30 index add 0.5 mul
      9 index 30 index add 0.5 mul
      9 index 30 index add 0.5 mul
      9 index 30 index add 0.5 mul
      5 copy 5 copy 35 5 roll 25 5 roll 15 5 roll
      4 index 10 index add 0.5 mul
      4 index 10 index add 0.5 mul
      4 index 10 index add 0.5 mul
      4 index 10 index add 0.5 mul
      4 index 10 index add 0.5 mul
      5 copy 5 copy 40 5 roll 25 5 roll 15 5 roll 25 5 roll
      STnoshfill STnoshfill STnoshfill STnoshfill } BD
/STnoshfill {
      2 index 8 index sub abs rThreshold gt
      { STsplit }
      { 1 index 7 index sub abs gThreshold gt
        { STsplit }
        { dup 6 index sub abs bThreshold gt
          { STsplit }
          { 2 index 13 index sub abs rThreshold gt
            { STsplit }
            { 1 index 12 index sub abs gThreshold gt
              { STsplit }
              { dup 11 index sub abs bThreshold gt
                { STsplit }
                { 7 index 13 index sub abs rThreshold gt
                  { STsplit }
                  { 6 index 12 index sub abs gThreshold gt
                    { STsplit }
                    { 5 index 11 index sub abs bThreshold gt
                      { STsplit }
                      { Tm }
                      ifelse }
                    ifelse }
                  ifelse }
                ifelse }
              ifelse }
            ifelse }
          ifelse }
        ifelse }
      ifelse } BD
tryPS3shading
{ /shfill where
  { /ST { STshfill } BD }
  { /ST { STnoshfill } BD }
  ifelse }
{ /ST { STnoshfill } BD }
ifelse
end
%%EndProlog
%%BeginSetup
/DeviceRGB setcolorspace
gl2psdict begin
%%EndSetup
%%Page: 1 1
%%BeginPageSetup
%%EndPageSetup
mark
gsave
1.0 1.0 scale
1 1 1 C
74.88 400.6 521.28 48.52 74.88 48.52 T
74.88 400.6 521.28 400.6 521.28 48.52 T
0.5 W
[16 0] 0 setdash
0 0 0 C
74.88 48.52 LS
521.28 48.52 LE
74.88 400.6 LS
521.28 400.6 LE
74.88 48.52 LS
74.88 400.6 LE
521.28 48.52 LS
521.28 400.6 LE
74.88 48.52 LS
74.88 52.985 LE
74.88 400.6 LS
74.88 396.135 LE
164.16 48.52 LS
164.16 52.985 LE
164.16 400.6 LS
164.16 396.135 LE
253.44 48.52 LS
253.44 52.985 LE
253.44 400.6 LS
253.44 396.135 LE
342.72 48.52 LS
342.72 52.985 LE
342.72 400.6 LS
342.72 396.135 LE
432 48.52 LS
432 52.985 LE
432 400.6 LS
432 396.135 LE
521.28 48.52 LS
521.28 52.985 LE
521.28 400.6 LS
521.28 396.135 LE
(0) 74.88 43.5189 10 /Helvetica STC
(0.2) 164.16 43.5189 10 /Helvetica STC
(0.4) 253.44 43.5189 10 /Helvetica STC
(0.6) 342.72 43.5189 10 /Helvetica STC
(0.8) 432 43.5189 10 /Helvetica STC
(1) 521.28 43.5189 10 /Helvetica STC
74.88 48.52 LS
79.348 48.52 LE
521.28 48.52 LS
516.812 48.52 LE
74.88 118.936 LS
79.348 118.936 LE
521.28 118.936 LS
516.812 118.936 LE
74.88 189.352 LS
79.348 189.352 LE
521.28 189.352 LS
516.812 189.352 LE
74.88 259.768 LS
79.348 259.768 LE
521.28 259.768 LS
516.812 259.768 LE
74.88 330.184 LS
79.348 330.184 LE
521.28 330.184 LS
516.812 330.184 LE
74.88 400.6 LS
79.348 400.6 LE
521.28 400.6 LS
516.812 400.6 LE
(-0.2) 69.8755 48.52 10 /Helvetica SCR
(0) 69.8755 118.936 10 /Helvetica SCR
(0.2) 69.8755 189.352 10 /Helvetica SCR
(0.4) 69.8755 259.768 10 /Helvetica SCR
(0.6) 69.8755 330.184 10 /Helvetica SCR
(0.8) 69.8755 400.6 10 /Helvetica SCR
[] 0 setdash
0.11 0.11 0.11 C
415.402 243.541 LS
476.679 243.541 L
476.679 295.18 L
415.402 295.18 L
415.402 243.541 LE
405.289 231.063 LS
463.431 231.063 L
463.431 280.867 L
405.289 280.867 L
405.289 231.063 LE
396.504 219.53 LS
451.635 219.53 L
451.635 267.56 L
396.504 267.56 L
396.504 219.53 LE
388.638 208.784 LS
441.218 208.784 L
441.218 255.22 L
388.638 255.22 L
388.638 208.784 LE
381.559 198.759 LS
431.949 198.759 L
431.949 243.747 L
381.559 243.747 L
381.559 198.759 LE
375.154 189.387 LS
423.65 189.387 L
423.65 233.058 L
375.154 233.058 L
375.154 189.387 LE
369.332 180.609 LS
416.174 180.609 L
416.174 223.077 L
369.332 223.077 L
369.332 180.609 LE
364.016 172.369 LS
409.405 172.369 L
409.405 213.738 L
364.016 213.738 L
364.016 172.369 LE
359.144 164.621 LS
403.246 164.621 L
403.246 204.981 L
359.144 204.981 L
359.144 164.621 LE
354.661 157.321 LS
397.618 157.321 L
397.618 196.753 L
354.661 196.753 L
354.661 157.321 LE
350.522 150.43 LS
392.453 150.43 L
392.453 189.009 L
350.522 189.009 L
350.522 150.43 LE
346.688 143.915 LS
387.696 143.915 L
387.696 181.705 L
346.688 181.705 L
346.688 143.915 LE
343.126 137.745 LS
383.3 137.745 L
383.3 174.804 L
343.126 174.804 L
343.126 137.745 LE
339.809 131.891 LS
379.224 131.891 L
379.224 168.273 L
339.809 168.273 L
339.809 131.891 LE
336.71 126.33 LS
375.433 126.33 L
375.433 162.082 L
336.71 162.082 L
336.71 126.33 LE
333.806 120.675 LS
371.9 120.675 L
371.9 156.208 L
333.806 156.208 L
333.806 120.675 LE
331.068 116.008 LS
368.591 116.008 L
368.591 150.979 L
331.068 150.979 L
331.068 116.008 LE
328.489 111.569 LS
365.483 111.569 L
365.483 145.958 L
328.489 145.958 L
328.489 111.569 LE
326.053 107.312 LS
362.557 107.312 L
362.557 141.161 L
326.053 141.161 L
326.053 107.312 LE
323.747 103.227 LS
359.796 103.227 L
359.796 136.571 L
323.747 136.571 L
323.747 103.227 LE
321.563 101.118 LS
357.186 101.118 L
357.186 132.171 L
321.563 132.171 L
321.563 101.118 LE
319.458 98.7014 LS
354.701 98.7014 L
354.701 129.056 L
319.458 129.056 L
319.458 98.7014 LE
317.442 96.3389 LS
352.319 96.3389 L
352.319 126.042 L
317.442 126.042 L
317.442 96.3389 LE
315.51 94.0355 LS
350.033 94.0355 L
350.033 123.118 L
315.51 123.118 L
315.51 94.0355 LE
313.656 91.7888 LS
347.837 91.7888 L
347.837 120.279 L
313.656 120.279 L
313.656 91.7888 LE
311.876 90.5867 LS
345.725 90.5867 L
345.725 117.522 L
311.876 117.522 L
311.876 90.5867 LE
310.146 89.0971 LS
343.688 89.0971 L
343.688 115.586 L
310.146 115.586 L
310.146 89.0971 LE
308.472 87.629 LS
341.715 87.629 L
341.715 113.693 L
308.472 113.693 L
308.472 87.629 LE
306.852 86.1848 LS
339.804 86.1848 L
339.804 111.838 L
306.852 111.838 L
306.852 86.1848 LE
305.282 84.7638 LS
337.95 84.7638 L
337.95 110.021 L
305.282 110.021 L
305.282 84.7638 LE
303.761 83.951 LS
336.153 83.951 L
336.153 108.239 L
303.761 108.239 L
303.761 83.951 LE
302.275 82.9798 LS
334.405 82.9798 L
334.405 106.945 L
302.275 106.945 L
302.275 82.9798 LE
300.828 82.0172 LS
332.703 82.0172 L
332.703 105.671 L
300.828 105.671 L
300.828 82.0172 LE
299.419 81.0641 LS
331.043 81.0641 L
331.043 104.414 L
299.419 104.414 L
299.419 81.0641 LE
298.046 80.1206 LS
329.425 80.1206 L
329.425 103.175 L
298.046 103.175 L
298.046 80.1206 LE
296.707 79.5684 LS
327.847 79.5684 L
327.847 101.953 L
296.707 101.953 L
296.707 79.5684 LE
295.394 78.9192 LS
326.304 78.9192 L
326.304 101.052 L
295.394 101.052 L
295.394 78.9192 LE
294.111 78.2725 LS
324.795 78.2725 L
324.795 100.159 L
294.111 100.159 L
294.111 78.2725 LE
292.855 77.6289 LS
323.319 77.6289 L
323.319 99.2746 L
292.855 99.2746 L
292.855 77.6289 LE
291.627 76.9885 LS
321.873 76.9885 L
321.873 98.3984 L
291.627 98.3984 L
291.627 76.9885 LE
290.424 76.5902 LS
320.457 76.5902 L
320.457 97.5303 L
290.424 97.5303 L
290.424 76.5902 LE
289.242 76.1568 LS
319.069 76.1568 L
319.069 96.8874 L
289.242 96.8874 L
289.242 76.1568 LE
288.083 75.7229 LS
317.707 75.7229 L
317.707 96.2482 L
288.083 96.2482 L
288.083 75.7229 LE
286.944 75.2887 LS
316.37 75.2887 L
316.37 95.6125 L
286.944 95.6125 L
286.944 75.2887 LE
285.827 74.8544 LS
315.057 74.8544 L
315.057 94.9802 L
285.827 94.9802 L
285.827 74.8544 LE
284.731 74.5836 LS
313.767 74.5836 L
313.767 94.3513 L
284.731 94.3513 L
284.731 74.5836 LE
283.651 74.2995 LS
312.5 74.2995 L
312.5 93.8883 L
283.651 93.8883 L
283.651 74.2995 LE
282.589 74.0131 LS
311.253 74.0131 L
311.253 93.4263 L
282.589 93.4263 L
282.589 74.0131 LE
281.544 73.7248 LS
310.027 73.7248 L
310.027 92.9652 L
281.544 92.9652 L
281.544 73.7248 LE
280.516 73.4348 LS
308.82 73.4348 L
308.82 92.505 L
280.516 92.505 L
280.516 73.4348 LE
279.504 73.2694 LS
307.632 73.2694 L
307.632 92.0457 L
279.504 92.0457 L
279.504 73.2694 LE
278.507 73.093 LS
306.463 73.093 L
306.463 91.7127 L
278.507 91.7127 L
278.507 73.093 LE
277.524 72.9135 LS
305.31 72.9135 L
305.31 91.3794 L
277.524 91.3794 L
277.524 72.9135 LE
276.555 72.7313 LS
304.174 72.7313 L
304.174 91.0456 L
276.555 91.0456 L
276.555 72.7313 LE
275.601 72.5465 LS
303.054 72.5465 L
303.054 90.7112 L
275.601 90.7112 L
275.601 72.5465 LE
274.659 72.4594 LS
301.95 72.4594 L
301.95 90.3764 L
274.659 90.3764 L
274.659 72.4594 LE
273.73 72.3629 LS
300.861 72.3629 L
300.861 90.1405 L
273.73 90.1405 L
273.73 72.3629 LE
272.813 72.2628 LS
299.786 72.2628 L
299.786 89.9035 L
272.813 89.9035 L
272.813 72.2628 LE
271.908 72.1596 LS
298.726 72.1596 L
298.726 89.6652 L
271.908 89.6652 L
271.908 72.1596 LE
271.014 72.0534 LS
297.679 72.0534 L
297.679 89.4255 L
271.014 89.4255 L
271.014 72.0534 LE
270.133 72.0256 LS
296.645 72.0256 L
296.645 89.1972 L
270.133 89.1972 L
270.133 72.0256 LE
269.261 71.9894 LS
295.625 71.9894 L
295.625 89.0315 L
269.261 89.0315 L
269.261 71.9894 LE
268.399 71.9497 LS
294.616 71.9497 L
294.616 88.8644 L
268.399 88.8644 L
268.399 71.9497 LE
267.548 71.9066 LS
293.62 71.9066 L
293.62 88.6955 L
267.548 88.6955 L
267.548 71.9066 LE
266.707 71.8603 LS
292.635 71.8603 L
292.635 88.5275 L
266.707 88.5275 L
266.707 71.8603 LE
265.876 71.8781 LS
291.662 71.8781 L
291.662 88.4155 L
265.876 88.4155 L
265.876 71.8781 LE
265.053 71.8883 LS
290.7 71.8883 L
290.7 88.3076 L
265.053 88.3076 L
265.053 71.8883 LE
264.24 71.895 LS
289.748 71.895 L
289.748 88.198 L
264.24 88.198 L
264.24 71.895 LE
263.436 71.8983 LS
288.807 71.8983 L
288.807 88.0864 L
263.436 88.0864 L
263.436 71.8983 LE
262.64 71.8985 LS
287.877 71.8985 L
287.877 87.9729 L
262.64 87.9729 L
262.64 71.8985 LE
261.852 71.9516 LS
286.956 71.9516 L
286.956 87.9099 L
261.852 87.9099 L
261.852 71.9516 LE
261.073 71.998 LS
286.045 71.998 L
286.045 87.8477 L
261.073 87.8477 L
261.073 71.998 LE
260.301 72.0409 LS
285.143 72.0409 L
285.143 87.7837 L
260.301 87.7837 L
260.301 72.0409 LE
259.538 72.0805 LS
284.251 72.0805 L
284.251 87.7176 L
259.538 87.7176 L
259.538 72.0805 LE
258.782 72.1169 LS
283.367 72.1169 L
283.367 87.6494 L
258.782 87.6494 L
258.782 72.1169 LE
258.033 72.1937 LS
282.493 72.1937 L
282.493 87.6275 L
258.033 87.6275 L
258.033 72.1937 LE
257.291 72.2689 LS
281.626 72.2689 L
281.626 87.6017 L
257.291 87.6017 L
257.291 72.2689 LE
256.557 72.3407 LS
280.769 72.3407 L
280.769 87.5738 L
256.557 87.5738 L
256.557 72.3407 LE
255.829 72.4093 LS
279.919 72.4093 L
279.919 87.5438 L
255.829 87.5438 L
255.829 72.4093 LE
255.108 72.4748 LS
279.078 72.4748 L
279.078 87.5117 L
255.108 87.5117 L
255.108 72.4748 LE
254.394 72.5725 LS
278.244 72.5725 L
278.244 87.5208 L
254.394 87.5208 L
254.394 72.5725 LE
253.686 72.67 LS
277.418 72.67 L
277.418 87.5246 L
253.686 87.5246 L
253.686 72.67 LE
252.984 72.7644 LS
276.599 72.7644 L
276.599 87.5262 L
252.984 87.5262 L
252.984 72.7644 LE
252.288 72.8557 LS
275.788 72.8557 L
275.788 87.5259 L
252.288 87.5259 L
252.288 72.8557 LE
251.599 72.9439 LS
274.984 72.9439 L
274.984 87.5234 L
251.599 87.5234 L
251.599 72.9439 LE
250.915 73.0598 LS
274.187 73.0598 L
274.187 87.556 L
250.915 87.556 L
250.915 73.0598 LE
250.237 73.1752 LS
273.397 73.1752 L
273.397 87.5839 L
250.237 87.5839 L
250.237 73.1752 LE
249.565 73.2875 LS
272.613 73.2875 L
272.613 87.6097 L
249.565 87.6097 L
249.565 73.2875 LE
248.898 73.3968 LS
271.836 73.3968 L
271.836 87.6335 L
248.898 87.6335 L
248.898 73.3968 LE
248.237 73.5032 LS
271.066 73.5032 L
271.066 87.6552 L
248.237 87.6552 L
248.237 73.5032 LE
247.582 73.6284 LS
270.302 73.6284 L
270.302 87.7071 L
247.582 87.7071 L
247.582 73.6284 LE
246.931 73.7594 LS
269.544 73.7594 L
269.544 87.7547 L
246.931 87.7547 L
246.931 73.7594 LE
246.285 73.8875 LS
268.793 73.8875 L
268.793 87.8004 L
246.285 87.8004 L
246.285 73.8875 LE
245.645 74.0127 LS
268.047 74.0127 L
268.047 87.844 L
245.645 87.844 L
245.645 74.0127 LE
245.009 74.1342 LS
267.308 74.1342 L
267.308 87.8856 L
245.009 87.8856 L
245.009 74.1342 LE
244.379 74.2548 LS
266.574 74.2548 L
266.574 87.9533 L
244.379 87.9533 L
244.379 74.2548 LE
243.753 74.3969 LS
265.846 74.3969 L
265.846 88.0173 L
243.753 88.0173 L
243.753 74.3969 LE
243.132 74.5363 LS
265.123 74.5363 L
265.123 88.0792 L
243.132 88.0792 L
243.132 74.5363 LE
242.515 74.673 LS
264.406 74.673 L
264.406 88.1392 L
242.515 88.1392 L
242.515 74.673 LE
241.903 74.807 LS
263.695 74.807 L
263.695 88.1973 L
241.903 88.1973 L
241.903 74.807 LE
241.295 74.8909 LS
262.99 74.8909 L
262.99 88.3516 L
241.295 88.3516 L
241.295 74.8909 LE
240.691 74.9689 LS
262.289 74.9689 L
262.289 88.5021 L
240.691 88.5021 L
240.691 74.9689 LE
240.09 75.0445 LS
261.594 75.0445 L
261.594 88.6502 L
240.09 88.6502 L
240.09 75.0445 LE
239.494 75.1178 LS
260.905 75.1178 L
260.905 88.7962 L
239.494 88.7962 L
239.494 75.1178 LE
238.901 75.1889 LS
260.221 75.1889 L
260.221 88.94 L
238.901 88.94 L
238.901 75.1889 LE
238.312 75.2577 LS
259.542 75.2577 L
259.542 89.1108 L
238.312 89.1108 L
238.312 75.2577 LE
237.727 75.4323 LS
258.869 75.4323 L
258.869 89.1825 L
237.727 89.1825 L
237.727 75.4323 LE
237.147 75.6044 LS
258.2 75.6044 L
258.2 89.2523 L
237.147 89.2523 L
237.147 75.6044 LE
236.57 75.7741 LS
257.535 75.7741 L
257.535 89.32 L
236.57 89.32 L
236.57 75.7741 LE
235.997 75.9282 LS
256.876 75.9282 L
256.876 89.3993 L
235.997 89.3993 L
235.997 75.9282 LE
235.429 76.0781 LS
256.22 76.0781 L
256.22 89.4957 L
235.429 89.4957 L
235.429 76.0781 LE
234.863 76.2433 LS
255.57 76.2433 L
255.57 89.5913 L
234.863 89.5913 L
234.863 76.2433 LE
234.302 76.4061 LS
254.923 76.4061 L
254.923 89.6851 L
234.302 89.6851 L
234.302 76.4061 LE
233.744 76.5666 LS
254.281 76.5666 L
254.281 89.7771 L
233.744 89.7771 L
233.744 76.5666 LE
233.19 76.7247 LS
253.643 76.7247 L
253.643 89.8673 L
233.19 89.8673 L
233.19 76.7247 LE
232.64 76.8807 LS
253.009 76.8807 L
253.009 89.9713 L
232.64 89.9713 L
232.64 76.8807 LE
232.093 77.0501 LS
252.38 77.0501 L
252.38 90.0744 L
232.093 90.0744 L
232.093 77.0501 LE
231.55 77.2172 LS
251.754 77.2172 L
251.754 90.1757 L
231.55 90.1757 L
231.55 77.2172 LE
231.009 77.3821 LS
251.133 77.3821 L
251.133 90.2753 L
231.009 90.2753 L
231.009 77.3821 LE
230.473 77.5448 LS
250.515 77.5448 L
250.515 90.3731 L
230.473 90.3731 L
230.473 77.5448 LE
229.94 77.7053 LS
249.902 77.7053 L
249.902 90.4833 L
229.94 90.4833 L
229.94 77.7053 LE
229.41 77.8778 LS
249.292 77.8778 L
249.292 90.5925 L
229.41 90.5925 L
229.41 77.8778 LE
228.883 78.0482 LS
248.686 78.0482 L
248.686 90.7 L
228.883 90.7 L
228.883 78.0482 LE
228.359 78.2164 LS
248.083 78.2164 L
248.083 90.8059 L
228.359 90.8059 L
228.359 78.2164 LE
227.839 78.3824 LS
247.485 78.3824 L
247.485 90.9101 L
227.839 90.9101 L
227.839 78.3824 LE
227.322 78.5464 LS
246.89 78.5464 L
246.89 91.0253 L
227.322 91.0253 L
227.322 78.5464 LE
226.808 78.7212 LS
246.299 78.7212 L
246.299 91.1395 L
226.808 91.1395 L
226.808 78.7212 LE
226.296 78.8938 LS
245.711 78.8938 L
245.711 91.2522 L
226.296 91.2522 L
226.296 78.8938 LE
225.788 79.0644 LS
245.127 79.0644 L
245.127 91.3632 L
225.788 91.3632 L
225.788 79.0644 LE
225.283 79.233 LS
244.546 79.233 L
244.546 91.4727 L
225.283 91.4727 L
225.283 79.233 LE
224.781 79.3995 LS
243.969 79.3995 L
243.969 91.5919 L
224.781 91.5919 L
224.781 79.3995 LE
224.282 79.5757 LS
243.395 79.5757 L
243.395 91.7103 L
224.282 91.7103 L
224.282 79.5757 LE
223.785 79.7499 LS
242.824 79.7499 L
242.824 91.8272 L
223.785 91.8272 L
223.785 79.7499 LE
223.292 79.9221 LS
242.257 79.9221 L
242.257 91.9425 L
223.292 91.9425 L
223.292 79.9221 LE
222.801 80.0924 LS
241.693 80.0924 L
241.693 92.0562 L
222.801 92.0562 L
222.801 80.0924 LE
222.313 80.2607 LS
241.132 80.2607 L
241.132 92.1788 L
222.313 92.1788 L
222.313 80.2607 LE
221.828 80.4377 LS
240.575 80.4377 L
240.575 92.3006 L
221.828 92.3006 L
221.828 80.4377 LE
221.345 80.6128 LS
240.02 80.6128 L
240.02 92.4208 L
221.345 92.4208 L
221.345 80.6128 LE
220.865 80.7859 LS
239.469 80.7859 L
239.469 92.5395 L
220.865 92.5395 L
220.865 80.7859 LE
220.388 80.9573 LS
238.921 80.9573 L
238.921 92.6568 L
220.388 92.6568 L
220.388 80.9573 LE
219.913 81.1268 LS
238.376 81.1268 L
238.376 92.782 L
219.913 92.782 L
219.913 81.1268 LE
219.441 81.304 LS
237.834 81.304 L
237.834 92.9064 L
219.441 92.9064 L
219.441 81.304 LE
218.972 81.4795 LS
237.295 81.4795 L
237.295 93.0293 L
218.972 93.0293 L
218.972 81.4795 LE
218.505 81.6531 LS
236.759 81.6531 L
236.759 93.1508 L
218.505 93.1508 L
218.505 81.6531 LE
218.04 81.8249 LS
236.225 81.8249 L
236.225 93.2709 L
218.04 93.2709 L
218.04 81.8249 LE
217.578 81.995 LS
235.695 81.995 L
235.695 93.3982 L
217.578 93.3982 L
217.578 81.995 LE
217.119 82.1721 LS
235.168 82.1721 L
235.168 93.5247 L
217.119 93.5247 L
217.119 82.1721 LE
216.662 82.3475 LS
234.643 82.3475 L
234.643 93.6497 L
216.662 93.6497 L
216.662 82.3475 LE
216.207 82.5211 LS
234.121 82.5211 L
234.121 93.7734 L
216.207 93.7734 L
216.207 82.5211 LE
215.755 82.693 LS
233.602 82.693 L
233.602 93.8957 L
215.755 93.8957 L
215.755 82.693 LE
215.305 82.8632 LS
233.086 82.8632 L
233.086 94.0245 L
215.305 94.0245 L
215.305 82.8632 LE
214.857 83.0398 LS
232.572 83.0398 L
232.572 94.1526 L
214.857 94.1526 L
214.857 83.0398 LE
214.411 83.2147 LS
232.062 83.2147 L
232.062 94.2793 L
214.411 94.2793 L
214.411 83.2147 LE
213.968 83.3879 LS
231.553 83.3879 L
231.553 94.4046 L
213.968 94.4046 L
213.968 83.3879 LE
213.528 83.5595 LS
231.048 83.5595 L
231.048 94.5286 L
213.528 94.5286 L
213.528 83.5595 LE
213.089 83.7295 LS
230.545 83.7295 L
230.545 94.6586 L
213.089 94.6586 L
213.089 83.7295 LE
212.653 83.9052 LS
230.044 83.9052 L
230.044 94.7878 L
212.653 94.7878 L
212.653 83.9052 LE
212.218 84.0793 LS
229.547 84.0793 L
229.547 94.9157 L
212.218 94.9157 L
212.218 84.0793 LE
211.786 84.2519 LS
229.051 84.2519 L
229.051 95.0423 L
211.786 95.0423 L
211.786 84.2519 LE
211.356 84.4228 LS
228.559 84.4228 L
228.559 95.1676 L
211.356 95.1676 L
211.356 84.4228 LE
210.929 84.5922 LS
228.068 84.5922 L
228.068 95.2985 L
210.929 95.2985 L
210.929 84.5922 LE
210.503 84.7666 LS
227.581 84.7666 L
227.581 95.4286 L
210.503 95.4286 L
210.503 84.7666 LE
210.079 84.9394 LS
227.095 84.9394 L
227.095 95.5575 L
210.079 95.5575 L
210.079 84.9394 LE
209.658 85.1107 LS
226.612 85.1107 L
226.612 95.6852 L
209.658 95.6852 L
209.658 85.1107 LE
209.238 85.2804 LS
226.132 85.2804 L
226.132 95.8116 L
209.238 95.8116 L
209.238 85.2804 LE
208.821 85.4487 LS
225.654 85.4487 L
225.654 95.9433 L
208.821 95.9433 L
208.821 85.4487 LE
208.405 85.6214 LS
225.178 85.6214 L
225.178 96.0742 L
208.405 96.0742 L
208.405 85.6214 LE
207.992 85.7925 LS
224.704 85.7925 L
224.704 96.2039 L
207.992 96.2039 L
207.992 85.7925 LE
207.58 85.9622 LS
224.233 85.9622 L
224.233 96.3324 L
207.58 96.3324 L
207.58 85.9622 LE
207.171 86.1304 LS
223.764 86.1304 L
223.764 96.4596 L
207.171 96.4596 L
207.171 86.1304 LE
206.763 86.2972 LS
223.298 86.2972 L
223.298 96.5919 L
206.763 96.5919 L
206.763 86.2972 LE
206.357 86.4679 LS
222.833 86.4679 L
222.833 96.7233 L
206.357 96.7233 L
206.357 86.4679 LE
205.954 86.6372 LS
222.371 86.6372 L
222.371 96.8535 L
205.954 96.8535 L
205.954 86.6372 LE
205.552 86.805 LS
221.911 86.805 L
221.911 96.9825 L
205.552 96.9825 L
205.552 86.805 LE
205.152 86.9714 LS
221.453 86.9714 L
221.453 97.1104 L
205.152 97.1104 L
205.152 86.9714 LE
204.754 87.1364 LS
220.998 87.1364 L
220.998 97.2432 L
204.754 97.2432 L
204.754 87.1364 LE
204.357 87.3049 LS
220.545 87.3049 L
220.545 97.3748 L
204.357 97.3748 L
204.357 87.3049 LE
203.963 87.472 LS
220.093 87.472 L
220.093 97.5054 L
203.963 97.5054 L
203.963 87.472 LE
203.57 87.6378 LS
219.644 87.6378 L
219.644 97.6348 L
203.57 97.6348 L
203.57 87.6378 LE
203.179 87.8021 LS
219.197 87.8021 L
219.197 97.7631 L
203.179 97.7631 L
203.179 87.8021 LE
202.79 87.9651 LS
218.752 87.9651 L
218.752 97.8959 L
202.79 97.8959 L
202.79 87.9651 LE
202.402 88.1312 LS
218.31 88.1312 L
218.31 98.0278 L
202.402 98.0278 L
202.402 88.1312 LE
202.017 88.2959 LS
217.869 88.2959 L
217.869 98.1585 L
202.017 98.1585 L
202.017 88.2959 LE
201.633 88.4592 LS
217.43 88.4592 L
217.43 98.2882 L
201.633 98.2882 L
201.633 88.4592 LE
201.251 88.6213 LS
216.993 88.6213 L
216.993 98.4167 L
201.251 98.4167 L
201.251 88.6213 LE
200.87 88.782 LS
216.559 88.782 L
216.559 98.5495 L
200.87 98.5495 L
200.87 88.782 LE
200.491 88.9455 LS
216.126 88.9455 L
216.126 98.6813 L
200.491 98.6813 L
200.491 88.9455 LE
200.114 89.1077 LS
215.695 89.1077 L
215.695 98.8119 L
200.114 98.8119 L
200.114 89.1077 LE
199.739 89.2687 LS
215.266 89.2687 L
215.266 98.9415 L
199.739 98.9415 L
199.739 89.2687 LE
199.365 89.4283 LS
214.839 89.4283 L
214.839 99.0701 L
199.365 99.0701 L
199.365 89.4283 LE
198.992 89.5867 LS
214.415 89.5867 L
214.415 99.2026 L
198.992 99.2026 L
198.992 89.5867 LE
198.622 89.7476 LS
213.992 89.7476 L
213.992 99.334 L
198.622 99.334 L
198.622 89.7476 LE
198.253 89.9073 LS
213.57 89.9073 L
213.57 99.4643 L
198.253 99.4643 L
198.253 89.9073 LE
197.885 90.0658 LS
213.151 90.0658 L
213.151 99.5937 L
197.885 99.5937 L
197.885 90.0658 LE
197.52 90.223 LS
212.734 90.223 L
212.734 99.722 L
197.52 99.722 L
197.52 90.223 LE
197.155 90.3789 LS
212.319 90.3789 L
212.319 99.8539 L
197.155 99.8539 L
197.155 90.3789 LE
196.793 90.5373 LS
211.905 90.5373 L
211.905 99.9846 L
196.793 99.9846 L
196.793 90.5373 LE
196.431 90.6945 LS
211.493 90.6945 L
211.493 100.114 L
196.431 100.114 L
196.431 90.6945 LE
196.072 90.8505 LS
211.083 90.8505 L
211.083 100.243 L
196.072 100.243 L
196.072 90.8505 LE
195.714 91.0053 LS
210.675 91.0053 L
210.675 100.371 L
195.714 100.371 L
195.714 91.0053 LE
195.357 91.1136 LS
210.269 91.1136 L
210.269 100.564 L
195.357 100.564 L
195.357 91.1136 LE
195.001 91.208 LS
209.865 91.208 L
209.865 100.755 L
195.001 100.755 L
195.001 91.208 LE
194.647 91.3012 LS
209.462 91.3012 L
209.462 100.945 L
194.647 100.945 L
194.647 91.3012 LE
194.294 91.3934 LS
209.062 91.3934 L
209.062 101.135 L
194.294 101.135 L
194.294 91.3934 LE
193.942 91.4844 LS
208.663 91.4844 L
208.663 101.323 L
193.942 101.323 L
193.942 91.4844 LE
193.592 91.5742 LS
208.267 91.5742 L
208.267 101.519 L
193.592 101.519 L
193.592 91.5742 LE
193.243 91.7409 LS
207.872 91.7409 L
207.872 101.634 L
193.243 101.634 L
193.243 91.7409 LE
192.895 91.9064 LS
207.479 91.9064 L
207.479 101.748 L
192.895 101.748 L
192.895 91.9064 LE
192.549 92.0709 LS
207.088 92.0709 L
207.088 101.861 L
192.549 101.861 L
192.549 92.0709 LE
192.205 92.2342 LS
206.698 92.2342 L
206.698 101.974 L
192.205 101.974 L
192.205 92.2342 LE
191.862 92.3852 LS
206.31 92.3852 L
206.31 102.099 L
191.862 102.099 L
191.862 92.3852 LE
191.52 92.5385 LS
205.923 92.5385 L
205.923 102.223 L
191.52 102.223 L
191.52 92.5385 LE
191.18 92.6907 LS
205.539 92.6907 L
205.539 102.347 L
191.18 102.347 L
191.18 92.6907 LE
190.841 92.8419 LS
205.155 92.8419 L
205.155 102.47 L
190.841 102.47 L
190.841 92.8419 LE
190.504 92.9919 LS
204.774 92.9919 L
204.774 102.592 L
190.504 102.592 L
190.504 92.9919 LE
190.167 93.1409 LS
204.394 93.1409 L
204.394 102.712 L
190.167 102.712 L
190.167 93.1409 LE
189.833 93.2956 LS
204.015 93.2956 L
204.015 102.831 L
189.833 102.831 L
189.833 93.2956 LE
189.499 93.4492 LS
203.638 93.4492 L
203.638 102.95 L
189.499 102.95 L
189.499 93.4492 LE
189.167 93.6018 LS
203.263 93.6018 L
203.263 103.067 L
189.167 103.067 L
189.167 93.6018 LE
188.837 93.7534 LS
202.889 93.7534 L
202.889 103.184 L
188.837 103.184 L
188.837 93.7534 LE
188.508 93.9039 LS
202.517 93.9039 L
202.517 103.301 L
188.508 103.301 L
188.508 93.9039 LE
188.18 94.0565 LS
202.146 94.0565 L
202.146 103.418 L
188.18 103.418 L
188.18 94.0565 LE
187.853 94.208 LS
201.777 94.208 L
201.777 103.535 L
187.853 103.535 L
187.853 94.208 LE
187.528 94.3586 LS
201.409 94.3586 L
201.409 103.651 L
187.528 103.651 L
187.528 94.3586 LE
187.204 94.5081 LS
201.043 94.5081 L
201.043 103.765 L
187.204 103.765 L
187.204 94.5081 LE
186.881 94.6566 LS
200.678 94.6566 L
200.678 103.88 L
186.881 103.88 L
186.881 94.6566 LE
186.56 94.8069 LS
200.315 94.8069 L
200.315 103.996 L
186.56 103.996 L
186.56 94.8069 LE
186.24 94.9562 LS
199.953 94.9562 L
199.953 104.11 L
186.24 104.11 L
186.24 94.9562 LE
185.921 95.1045 LS
199.593 95.1045 L
199.593 104.224 L
185.921 104.224 L
185.921 95.1045 LE
185.604 95.2518 LS
199.234 95.2518 L
199.234 104.337 L
185.604 104.337 L
185.604 95.2518 LE
185.287 95.3981 LS
198.876 95.3981 L
198.876 104.449 L
185.287 104.449 L
185.287 95.3981 LE
184.972 95.5461 LS
198.52 95.5461 L
198.52 104.563 L
184.972 104.563 L
184.972 95.5461 LE
184.659 95.693 LS
198.165 95.693 L
198.165 104.675 L
184.659 104.675 L
184.659 95.693 LE
184.346 95.839 LS
197.812 95.839 L
197.812 104.787 L
184.346 104.787 L
184.346 95.839 LE
184.035 95.9841 LS
197.46 95.9841 L
197.46 104.898 L
184.035 104.898 L
184.035 95.9841 LE
183.725 96.1281 LS
197.109 96.1281 L
197.109 105.009 L
183.725 105.009 L
183.725 96.1281 LE
183.416 96.2734 LS
196.76 96.2734 L
196.76 105.12 L
183.416 105.12 L
183.416 96.2734 LE
183.109 96.4177 LS
196.412 96.4177 L
196.412 105.231 L
183.109 105.231 L
183.109 96.4177 LE
182.802 96.5611 LS
196.066 96.5611 L
196.066 105.341 L
182.802 105.341 L
182.802 96.5611 LE
182.497 96.7035 LS
195.721 96.7035 L
195.721 105.45 L
182.497 105.45 L
182.497 96.7035 LE
182.193 96.845 LS
195.377 96.845 L
195.377 105.56 L
182.193 105.56 L
182.193 96.845 LE
181.89 96.9869 LS
195.035 96.9869 L
195.035 105.671 L
181.89 105.671 L
181.89 96.9869 LE
181.588 97.1279 LS
194.694 97.1279 L
194.694 105.78 L
181.588 105.78 L
181.588 97.1279 LE
181.288 97.268 LS
194.354 97.268 L
194.354 105.889 L
181.288 105.889 L
181.288 97.268 LE
180.989 97.4072 LS
194.015 97.4072 L
194.015 105.997 L
180.989 105.997 L
180.989 97.4072 LE
180.69 97.5454 LS
193.678 97.5454 L
193.678 106.11 L
180.69 106.11 L
180.69 97.5454 LE
180.393 97.6799 LS
193.342 97.6799 L
193.342 106.223 L
180.393 106.223 L
180.393 97.6799 LE
180.098 97.8135 LS
193.008 97.8135 L
193.008 106.336 L
180.098 106.336 L
180.098 97.8135 LE
179.803 97.9462 LS
192.675 97.9462 L
192.675 106.448 L
179.803 106.448 L
179.803 97.9462 LE
179.509 98.078 LS
192.343 98.078 L
192.343 106.559 L
179.509 106.559 L
179.509 98.078 LE
179.216 98.209 LS
192.012 98.209 L
192.012 106.668 L
179.216 106.668 L
179.216 98.209 LE
178.925 98.3435 LS
191.683 98.3435 L
191.683 106.776 L
178.925 106.776 L
178.925 98.3435 LE
178.635 98.4771 LS
191.355 98.4771 L
191.355 106.884 L
178.635 106.884 L
178.635 98.4771 LE
178.345 98.6099 LS
191.028 98.6099 L
191.028 106.991 L
178.345 106.991 L
178.345 98.6099 LE
178.057 98.7418 LS
190.702 98.7418 L
190.702 107.098 L
178.057 107.098 L
178.057 98.7418 LE
177.77 98.8728 LS
190.378 98.8728 L
190.378 107.205 L
177.77 107.205 L
177.77 98.8728 LE
177.484 99.0041 LS
190.055 99.0041 L
190.055 107.312 L
177.484 107.312 L
177.484 99.0041 LE
177.199 99.1346 LS
189.733 99.1346 L
189.733 107.418 L
177.199 107.418 L
177.199 99.1346 LE
176.915 99.2642 LS
189.412 99.2642 L
189.412 107.524 L
176.915 107.524 L
176.915 99.2642 LE
176.632 99.3929 LS
189.092 99.3929 L
189.092 107.629 L
176.632 107.629 L
176.632 99.3929 LE
176.35 99.5208 LS
188.774 99.5208 L
188.774 107.736 L
176.35 107.736 L
176.35 99.5208 LE
176.07 99.6473 LS
188.457 99.6473 L
188.457 107.844 L
176.07 107.844 L
176.07 99.6473 LE
175.79 99.773 LS
188.141 99.773 L
188.141 107.95 L
175.79 107.95 L
175.79 99.773 LE
175.511 99.8979 LS
187.826 99.8979 L
187.826 108.056 L
175.511 108.056 L
175.511 99.8979 LE
175.234 100.022 LS
187.513 100.022 L
187.513 108.162 L
175.234 108.162 L
175.234 100.022 LE
174.957 100.145 LS
187.201 100.145 L
187.201 108.265 L
174.957 108.265 L
174.957 100.145 LE
174.681 100.271 LS
186.889 100.271 L
186.889 108.369 L
174.681 108.369 L
174.681 100.271 LE
174.407 100.396 LS
186.579 100.396 L
186.579 108.472 L
174.407 108.472 L
174.407 100.396 LE
174.133 100.52 LS
186.271 100.52 L
186.271 108.574 L
174.133 108.574 L
174.133 100.52 LE
173.86 100.643 LS
185.963 100.643 L
185.963 108.675 L
173.86 108.675 L
173.86 100.643 LE
173.589 100.765 LS
185.656 100.765 L
185.656 108.78 L
173.589 108.78 L
173.589 100.765 LE
173.318 100.885 LS
185.351 100.885 L
185.351 108.885 L
173.318 108.885 L
173.318 100.885 LE
173.048 101.004 LS
185.047 101.004 L
185.047 108.989 L
173.048 108.989 L
173.048 101.004 LE
172.78 101.122 LS
184.743 101.122 L
184.743 109.092 L
172.78 109.092 L
172.78 101.122 LE
172.512 101.24 LS
184.441 101.24 L
184.441 109.195 L
172.512 109.195 L
172.512 101.24 LE
172.245 101.357 LS
184.14 101.357 L
184.14 109.298 L
172.245 109.298 L
172.245 101.357 LE
171.979 101.473 LS
183.841 101.473 L
183.841 109.401 L
171.979 109.401 L
171.979 101.473 LE
171.714 101.59 LS
183.542 101.59 L
183.542 109.503 L
171.714 109.503 L
171.714 101.59 LE
171.45 101.705 LS
183.244 101.705 L
183.244 109.605 L
171.45 109.605 L
171.45 101.705 LE
171.187 101.819 LS
182.948 101.819 L
182.948 109.706 L
171.187 109.706 L
171.187 101.819 LE
170.925 101.933 LS
182.652 101.933 L
182.652 109.802 L
170.925 109.802 L
170.925 101.933 LE
170.664 102.053 LS
182.358 102.053 L
182.358 109.898 L
170.664 109.898 L
170.664 102.053 LE
170.404 102.171 LS
182.065 102.171 L
182.065 109.993 L
170.404 109.993 L
170.404 102.171 LE
170.145 102.289 LS
181.773 102.289 L
181.773 110.087 L
170.145 110.087 L
170.145 102.289 LE
169.886 102.406 LS
181.482 102.406 L
181.482 110.181 L
169.886 110.181 L
169.886 102.406 LE
169.629 102.523 LS
181.191 102.523 L
181.191 110.274 L
169.629 110.274 L
169.629 102.523 LE
169.372 102.64 LS
180.902 102.64 L
180.902 110.368 L
169.372 110.368 L
169.372 102.64 LE
169.117 102.756 LS
180.614 102.756 L
180.614 110.46 L
169.117 110.46 L
169.117 102.756 LE
168.862 102.872 LS
180.327 102.872 L
180.327 110.552 L
168.862 110.552 L
168.862 102.872 LE
168.608 102.987 LS
180.041 102.987 L
180.041 110.644 L
168.608 110.644 L
168.608 102.987 LE
168.356 103.101 LS
179.757 103.101 L
179.757 110.734 L
168.356 110.734 L
168.356 103.101 LE
168.104 103.216 LS
179.473 103.216 L
179.473 110.825 L
168.104 110.825 L
168.104 103.216 LE
167.853 103.331 LS
179.19 103.331 L
179.19 110.915 L
167.853 110.915 L
167.853 103.331 LE
167.602 103.444 LS
178.908 103.444 L
178.908 111.004 L
167.602 111.004 L
167.602 103.444 LE
167.353 103.557 LS
178.627 103.557 L
178.627 111.093 L
167.353 111.093 L
167.353 103.557 LE
167.105 103.669 LS
178.347 103.669 L
178.347 111.18 L
167.105 111.18 L
167.105 103.669 LE
166.857 103.782 LS
178.068 103.782 L
178.068 111.268 L
166.857 111.268 L
166.857 103.782 LE
166.611 103.895 LS
177.79 103.895 L
177.79 111.355 L
166.611 111.355 L
166.611 103.895 LE
166.365 104.007 LS
177.513 104.007 L
177.513 111.441 L
166.365 111.441 L
166.365 104.007 LE
166.12 104.118 LS
177.237 104.118 L
177.237 111.527 L
166.12 111.527 L
166.12 104.118 LE
165.875 104.186 LS
176.962 104.186 L
176.962 111.663 L
165.875 111.663 L
165.875 104.186 LE
165.632 104.247 LS
176.689 104.247 L
176.689 111.799 L
165.632 111.799 L
165.632 104.247 LE
165.389 104.306 LS
176.416 104.306 L
176.416 111.934 L
165.389 111.934 L
165.389 104.306 LE
165.147 104.366 LS
176.144 104.366 L
176.144 112.068 L
165.147 112.068 L
165.147 104.366 LE
164.906 104.424 LS
175.873 104.424 L
175.873 112.202 L
164.906 112.202 L
164.906 104.424 LE
164.666 104.482 LS
175.604 104.482 L
175.604 112.338 L
164.666 112.338 L
164.666 104.482 LE
164.426 104.596 LS
175.335 104.596 L
175.335 112.415 L
164.426 112.415 L
164.426 104.596 LE
164.187 104.709 LS
175.067 104.709 L
175.067 112.491 L
164.187 112.491 L
164.187 104.709 LE
163.949 104.822 LS
174.8 104.822 L
174.8 112.567 L
163.949 112.567 L
163.949 104.822 LE
163.712 104.934 LS
174.534 104.934 L
174.534 112.642 L
163.712 112.642 L
163.712 104.934 LE
163.476 105.046 LS
174.269 105.046 L
174.269 112.716 L
163.476 112.716 L
163.476 105.046 LE
163.241 105.157 LS
174.005 105.157 L
174.005 112.791 L
163.241 112.791 L
163.241 105.157 LE
163.006 105.268 LS
173.742 105.268 L
173.742 112.865 L
163.006 112.865 L
163.006 105.268 LE
162.772 105.375 LS
173.48 105.375 L
173.48 112.942 L
162.772 112.942 L
162.772 105.375 LE
162.539 105.48 LS
173.218 105.48 L
173.218 113.02 L
162.539 113.02 L
162.539 105.48 LE
162.307 105.584 LS
172.958 105.584 L
172.958 113.097 L
162.307 113.097 L
162.307 105.584 LE
162.076 105.688 LS
172.698 105.688 L
172.698 113.174 L
162.076 113.174 L
162.076 105.688 LE
161.845 105.791 LS
172.44 105.791 L
172.44 113.251 L
161.845 113.251 L
161.845 105.791 LE
161.616 105.894 LS
172.182 105.894 L
172.182 113.327 L
161.616 113.327 L
161.616 105.894 LE
161.387 105.996 LS
171.925 105.996 L
171.925 113.403 L
161.387 113.403 L
161.387 105.996 LE
161.159 106.098 LS
171.669 106.098 L
171.669 113.476 L
161.159 113.476 L
161.159 106.098 LE
160.931 106.201 LS
171.414 106.201 L
171.414 113.55 L
160.931 113.55 L
160.931 106.201 LE
160.705 106.304 LS
171.159 106.304 L
171.159 113.623 L
160.705 113.623 L
160.705 106.304 LE
160.479 106.406 LS
170.906 106.406 L
170.906 113.695 L
160.479 113.695 L
160.479 106.406 LE
160.254 106.507 LS
170.653 106.507 L
170.653 113.767 L
160.254 113.767 L
160.254 106.507 LE
160.029 106.608 LS
170.401 106.608 L
170.401 113.838 L
160.029 113.838 L
160.029 106.608 LE
159.806 106.708 LS
170.151 106.708 L
170.151 113.91 L
159.806 113.91 L
159.806 106.708 LE
159.583 106.807 LS
169.9 106.807 L
169.9 113.982 L
159.583 113.982 L
159.583 106.807 LE
159.361 106.906 LS
169.651 106.906 L
169.651 114.053 L
159.361 114.053 L
159.361 106.906 LE
159.14 107.005 LS
169.403 107.005 L
169.403 114.123 L
159.14 114.123 L
159.14 107.005 LE
158.92 107.103 LS
169.155 107.103 L
169.155 114.193 L
158.92 114.193 L
158.92 107.103 LE
158.7 107.2 LS
168.908 107.2 L
168.908 114.264 L
158.7 114.264 L
158.7 107.2 LE
158.481 107.296 LS
168.663 107.296 L
168.663 114.334 L
158.481 114.334 L
158.481 107.296 LE
158.263 107.392 LS
168.417 107.392 L
168.417 114.403 L
158.263 114.403 L
158.263 107.392 LE
158.045 107.488 LS
168.173 107.488 L
168.173 114.472 L
158.045 114.472 L
158.045 107.488 LE
157.829 107.582 LS
167.93 107.582 L
167.93 114.54 L
157.829 114.54 L
157.829 107.582 LE
157.613 107.677 LS
167.687 107.677 L
167.687 114.609 L
157.613 114.609 L
157.613 107.677 LE
157.398 107.77 LS
167.445 107.77 L
167.445 114.678 L
157.398 114.678 L
157.398 107.77 LE
157.183 107.863 LS
167.204 107.863 L
167.204 114.746 L
157.183 114.746 L
157.183 107.863 LE
156.969 107.956 LS
166.964 107.956 L
166.964 114.813 L
156.969 114.813 L
156.969 107.956 LE
156.756 108.048 LS
166.725 108.048 L
166.725 114.88 L
156.756 114.88 L
156.756 108.048 LE
156.544 108.139 LS
166.486 108.139 L
166.486 114.948 L
156.544 114.948 L
156.544 108.139 LE
156.332 108.23 LS
166.248 108.23 L
166.248 115.015 L
156.332 115.015 L
156.332 108.23 LE
156.121 108.32 LS
166.011 108.32 L
166.011 115.081 L
156.121 115.081 L
156.121 108.32 LE
155.911 108.41 LS
165.775 108.41 L
165.775 115.147 L
155.911 115.147 L
155.911 108.41 LE
155.701 108.499 LS
165.539 108.499 L
165.539 115.213 L
155.701 115.213 L
155.701 108.499 LE
155.493 108.588 LS
165.305 108.588 L
165.305 115.279 L
155.493 115.279 L
155.493 108.588 LE
155.284 108.676 LS
165.071 108.676 L
165.071 115.345 L
155.284 115.345 L
155.284 108.676 LE
155.077 108.763 LS
164.838 108.763 L
164.838 115.41 L
155.077 115.41 L
155.077 108.763 LE
154.87 108.85 LS
164.605 108.85 L
164.605 115.475 L
154.87 115.475 L
154.87 108.85 LE
154.664 108.937 LS
164.374 108.937 L
164.374 115.539 L
154.664 115.539 L
154.664 108.937 LE
154.459 109.022 LS
164.143 109.022 L
164.143 115.604 L
154.459 115.604 L
154.459 109.022 LE
154.254 109.108 LS
163.913 109.108 L
163.913 115.668 L
154.254 115.668 L
154.254 109.108 LE
154.05 109.193 LS
163.683 109.193 L
163.683 115.732 L
154.05 115.732 L
154.05 109.193 LE
153.847 109.277 LS
163.455 109.277 L
163.455 115.796 L
153.847 115.796 L
153.847 109.277 LE
153.644 109.361 LS
163.227 109.361 L
163.227 115.859 L
153.644 115.859 L
153.644 109.361 LE
153.442 109.444 LS
163 109.444 L
163 115.923 L
153.442 115.923 L
153.442 109.444 LE
153.241 109.527 LS
162.773 109.527 L
162.773 115.986 L
153.241 115.986 L
153.241 109.527 LE
153.04 109.609 LS
162.548 109.609 L
162.548 116.048 L
153.04 116.048 L
153.04 109.609 LE
152.84 109.69 LS
162.323 109.69 L
162.323 116.111 L
152.84 116.111 L
152.84 109.69 LE
152.64 109.771 LS
162.099 109.771 L
162.099 116.173 L
152.64 116.173 L
152.64 109.771 LE
152.442 109.852 LS
161.876 109.852 L
161.876 116.235 L
152.442 116.235 L
152.442 109.852 LE
152.244 109.932 LS
161.653 109.932 L
161.653 116.297 L
152.244 116.297 L
152.244 109.932 LE
152.046 110.011 LS
161.431 110.011 L
161.431 116.358 L
152.046 116.358 L
152.046 110.011 LE
151.849 110.091 LS
161.21 110.091 L
161.21 116.419 L
151.849 116.419 L
151.849 110.091 LE
151.653 110.169 LS
160.989 110.169 L
160.989 116.48 L
151.653 116.48 L
151.653 110.169 LE
151.458 110.247 LS
160.769 110.247 L
160.769 116.542 L
151.458 116.542 L
151.458 110.247 LE
151.263 110.324 LS
160.55 110.324 L
160.55 116.602 L
151.263 116.602 L
151.263 110.324 LE
151.068 110.401 LS
160.332 110.401 L
160.332 116.663 L
151.068 116.663 L
151.068 110.401 LE
150.875 110.478 LS
160.114 110.478 L
160.114 116.722 L
150.875 116.722 L
150.875 110.478 LE
150.682 110.554 LS
159.897 110.554 L
159.897 116.782 L
150.682 116.782 L
150.682 110.554 LE
150.489 110.629 LS
159.681 110.629 L
159.681 116.842 L
150.489 116.842 L
150.489 110.629 LE
150.297 110.704 LS
159.466 110.704 L
159.466 116.902 L
150.297 116.902 L
150.297 110.704 LE
150.106 110.779 LS
159.251 110.779 L
159.251 116.961 L
150.106 116.961 L
150.106 110.779 LE
149.916 110.853 LS
159.037 110.853 L
159.037 117.019 L
149.916 117.019 L
149.916 110.853 LE
149.726 110.926 LS
158.823 110.926 L
158.823 117.075 L
149.726 117.075 L
149.726 110.926 LE
149.536 111.002 LS
158.611 111.002 L
158.611 117.131 L
149.536 117.131 L
149.536 111.002 LE
149.348 111.077 LS
158.398 111.077 L
158.398 117.187 L
149.348 117.187 L
149.348 111.077 LE
149.16 111.151 LS
158.187 111.151 L
158.187 117.242 L
149.16 117.242 L
149.16 111.151 LE
148.972 111.226 LS
157.976 111.226 L
157.976 117.297 L
148.972 117.297 L
148.972 111.226 LE
148.785 111.299 LS
157.766 111.299 L
157.766 117.352 L
148.785 117.352 L
148.785 111.299 LE
148.599 111.373 LS
157.557 111.373 L
157.557 117.406 L
148.599 117.406 L
148.599 111.373 LE
148.413 111.445 LS
157.348 111.445 L
157.348 117.461 L
148.413 117.461 L
148.413 111.445 LE
148.228 111.518 LS
157.14 111.518 L
157.14 117.515 L
148.228 117.515 L
148.228 111.518 LE
148.043 111.59 LS
156.933 111.59 L
156.933 117.568 L
148.043 117.568 L
148.043 111.59 LE
147.86 111.661 LS
156.726 111.661 L
156.726 117.622 L
147.86 117.622 L
147.86 111.661 LE
147.676 111.732 LS
156.52 111.732 L
156.52 117.675 L
147.676 117.675 L
147.676 111.732 LE
147.493 111.802 LS
156.315 111.802 L
156.315 117.729 L
147.493 117.729 L
147.493 111.802 LE
147.311 111.871 LS
156.11 111.871 L
156.11 117.782 L
147.311 117.782 L
147.311 111.871 LE
147.13 111.941 LS
155.906 111.941 L
155.906 117.835 L
147.13 117.835 L
147.13 111.941 LE
146.949 112.009 LS
155.702 112.009 L
155.702 117.887 L
146.949 117.887 L
146.949 112.009 LE
146.768 112.078 LS
155.499 112.078 L
155.499 117.939 L
146.768 117.939 L
146.768 112.078 LE
146.588 112.146 LS
155.297 112.146 L
155.297 117.992 L
146.588 117.992 L
146.588 112.146 LE
146.409 112.213 LS
155.096 112.213 L
155.096 118.043 L
146.409 118.043 L
146.409 112.213 LE
146.23 112.28 LS
154.895 112.28 L
154.895 118.095 L
146.23 118.095 L
146.23 112.28 LE
146.052 112.346 LS
154.694 112.346 L
154.694 118.146 L
146.052 118.146 L
146.052 112.346 LE
145.874 112.412 LS
154.495 112.412 L
154.495 118.197 L
145.874 118.197 L
145.874 112.412 LE
145.697 112.478 LS
154.296 112.478 L
154.296 118.248 L
145.697 118.248 L
145.697 112.478 LE
145.52 112.543 LS
154.097 112.543 L
154.097 118.298 L
145.52 118.298 L
145.52 112.543 LE
145.344 112.608 LS
153.9 112.608 L
153.9 118.348 L
145.344 118.348 L
145.344 112.608 LE
145.169 112.639 LS
153.703 112.639 L
153.703 118.434 L
145.169 118.434 L
145.169 112.639 LE
144.994 112.666 LS
153.506 112.666 L
153.506 118.52 L
144.994 118.52 L
144.994 112.666 LE
144.819 112.694 LS
153.31 112.694 L
153.31 118.605 L
144.819 118.605 L
144.819 112.694 LE
144.645 112.721 LS
153.115 112.721 L
153.115 118.69 L
144.645 118.69 L
144.645 112.721 LE
144.472 112.748 LS
152.921 112.748 L
152.921 118.775 L
144.472 118.775 L
144.472 112.748 LE
144.299 112.774 LS
152.727 112.774 L
152.727 118.864 L
144.299 118.864 L
144.299 112.774 LE
144.126 112.835 LS
152.534 112.835 L
152.534 118.913 L
144.126 118.913 L
144.126 112.835 LE
143.954 112.895 LS
152.341 112.895 L
152.341 118.962 L
143.954 118.962 L
143.954 112.895 LE
143.783 112.955 LS
152.149 112.955 L
152.149 119.011 L
143.783 119.011 L
143.783 112.955 LE
143.612 113.014 LS
151.958 113.014 L
151.958 119.059 L
143.612 119.059 L
143.612 113.014 LE
143.441 113.074 LS
151.767 113.074 L
151.767 119.107 L
143.441 119.107 L
143.441 113.074 LE
143.272 113.132 LS
151.577 113.132 L
151.577 119.154 L
143.272 119.154 L
143.272 113.132 LE
143.102 113.191 LS
151.388 113.191 L
151.388 119.202 L
143.102 119.202 L
143.102 113.191 LE
142.934 113.249 LS
151.199 113.249 L
151.199 119.249 L
142.934 119.249 L
142.934 113.249 LE
142.765 113.306 LS
151.01 113.306 L
151.01 119.295 L
142.765 119.295 L
142.765 113.306 LE
142.597 113.363 LS
150.822 113.363 L
150.822 119.337 L
142.597 119.337 L
142.597 113.363 LE
142.43 113.424 LS
150.635 113.424 L
150.635 119.379 L
142.43 119.379 L
142.43 113.424 LE
142.263 113.485 LS
150.449 113.485 L
150.449 119.421 L
142.263 119.421 L
142.263 113.485 LE
142.097 113.545 LS
150.262 113.545 L
150.262 119.462 L
142.097 119.462 L
142.097 113.545 LE
141.932 113.605 LS
150.077 113.605 L
150.077 119.503 L
141.932 119.503 L
141.932 113.605 LE
141.766 113.665 LS
149.892 113.665 L
149.892 119.542 L
141.766 119.542 L
141.766 113.665 LE
141.602 113.724 LS
149.708 113.724 L
149.708 119.582 L
141.602 119.582 L
141.602 113.724 LE
141.438 113.783 LS
149.524 113.783 L
149.524 119.622 L
141.438 119.622 L
141.438 113.783 LE
141.274 113.841 LS
149.341 113.841 L
149.341 119.662 L
141.274 119.662 L
141.274 113.841 LE
141.111 113.899 LS
149.158 113.899 L
149.158 119.701 L
141.111 119.701 L
141.111 113.899 LE
140.948 113.957 LS
148.976 113.957 L
148.976 119.739 L
140.948 119.739 L
140.948 113.957 LE
140.786 114.015 LS
148.794 114.015 L
148.794 119.777 L
140.786 119.777 L
140.786 114.015 LE
140.624 114.072 LS
148.613 114.072 L
148.613 119.815 L
140.624 119.815 L
140.624 114.072 LE
140.463 114.129 LS
148.433 114.129 L
148.433 119.852 L
140.463 119.852 L
140.463 114.129 LE
140.303 114.185 LS
148.253 114.185 L
148.253 119.89 L
140.303 119.89 L
140.303 114.185 LE
140.143 114.241 LS
148.073 114.241 L
148.073 119.926 L
140.143 119.926 L
140.143 114.241 LE
139.983 114.297 LS
147.895 114.297 L
147.895 119.963 L
139.983 119.963 L
139.983 114.297 LE
139.824 114.352 LS
147.716 114.352 L
147.716 119.999 L
139.824 119.999 L
139.824 114.352 LE
139.665 114.407 LS
147.538 114.407 L
147.538 120.035 L
139.665 120.035 L
139.665 114.407 LE
139.507 114.462 LS
147.361 114.462 L
147.361 120.071 L
139.507 120.071 L
139.507 114.462 LE
139.349 114.516 LS
147.185 114.516 L
147.185 120.105 L
139.349 120.105 L
139.349 114.516 LE
139.192 114.57 LS
147.008 114.57 L
147.008 120.14 L
139.192 120.14 L
139.192 114.57 LE
139.035 114.624 LS
146.833 114.624 L
146.833 120.175 L
139.035 120.175 L
139.035 114.624 LE
138.879 114.677 LS
146.658 114.677 L
146.658 120.209 L
138.879 120.209 L
138.879 114.677 LE
138.723 114.73 LS
146.483 114.73 L
146.483 120.243 L
138.723 120.243 L
138.723 114.73 LE
138.568 114.782 LS
146.309 114.782 L
146.309 120.276 L
138.568 120.276 L
138.568 114.782 LE
138.413 114.834 LS
146.136 114.834 L
146.136 120.31 L
138.413 120.31 L
138.413 114.834 LE
138.259 114.886 LS
145.963 114.886 L
145.963 120.343 L
138.259 120.343 L
138.259 114.886 LE
138.105 114.938 LS
145.79 114.938 L
145.79 120.376 L
138.105 120.376 L
138.105 114.938 LE
137.951 114.989 LS
145.618 114.989 L
145.618 120.408 L
137.951 120.408 L
137.951 114.989 LE
137.798 115.04 LS
145.447 115.04 L
145.447 120.44 L
137.798 120.44 L
137.798 115.04 LE
137.646 115.09 LS
145.276 115.09 L
145.276 120.472 L
137.646 120.472 L
137.646 115.09 LE
137.494 115.14 LS
145.105 115.14 L
145.105 120.503 L
137.494 120.503 L
137.494 115.14 LE
137.342 115.19 LS
144.935 115.19 L
144.935 120.535 L
137.342 120.535 L
137.342 115.19 LE
137.191 115.239 LS
144.766 115.239 L
144.766 120.566 L
137.191 120.566 L
137.191 115.239 LE
137.041 115.288 LS
144.597 115.288 L
144.597 120.596 L
137.041 120.596 L
137.041 115.288 LE
136.89 115.337 LS
144.429 115.337 L
144.429 120.627 L
136.89 120.627 L
136.89 115.337 LE
136.741 115.385 LS
144.261 115.385 L
144.261 120.657 L
136.741 120.657 L
136.741 115.385 LE
136.591 115.433 LS
144.093 115.433 L
144.093 120.687 L
136.591 120.687 L
136.591 115.433 LE
136.442 115.48 LS
143.927 115.48 L
143.927 120.717 L
136.442 120.717 L
136.442 115.48 LE
136.294 115.527 LS
143.76 115.527 L
143.76 120.746 L
136.294 120.746 L
136.294 115.527 LE
136.146 115.574 LS
143.594 115.574 L
143.594 120.775 L
136.146 120.775 L
136.146 115.574 LE
135.999 115.62 LS
143.429 115.62 L
143.429 120.804 L
135.999 120.804 L
135.999 115.62 LE
135.852 115.666 LS
143.264 115.666 L
143.264 120.833 L
135.852 120.833 L
135.852 115.666 LE
135.705 115.712 LS
143.099 115.712 L
143.099 120.861 L
135.705 120.861 L
135.705 115.712 LE
135.559 115.757 LS
142.935 115.757 L
142.935 120.889 L
135.559 120.889 L
135.559 115.757 LE
135.413 115.802 LS
142.772 115.802 L
142.772 120.917 L
135.413 120.917 L
135.413 115.802 LE
135.268 115.846 LS
142.609 115.846 L
142.609 120.945 L
135.268 120.945 L
135.268 115.846 LE
135.123 115.891 LS
142.447 115.891 L
142.447 120.973 L
135.123 120.973 L
135.123 115.891 LE
134.978 115.935 LS
142.284 115.935 L
142.284 121 L
134.978 121 L
134.978 115.935 LE
134.834 115.978 LS
142.123 115.978 L
142.123 121.027 L
134.834 121.027 L
134.834 115.978 LE
134.691 116.021 LS
141.962 116.021 L
141.962 121.054 L
134.691 121.054 L
134.691 116.021 LE
134.548 116.064 LS
141.801 116.064 L
141.801 121.081 L
134.548 121.081 L
134.548 116.064 LE
134.405 116.107 LS
141.641 116.107 L
141.641 121.107 L
134.405 121.107 L
134.405 116.107 LE
134.263 116.149 LS
141.481 116.149 L
141.481 121.133 L
134.263 121.133 L
134.263 116.149 LE
134.121 116.191 LS
141.322 116.191 L
141.322 121.159 L
134.121 121.159 L
134.121 116.191 LE
133.979 116.232 LS
141.164 116.232 L
141.164 121.185 L
133.979 121.185 L
133.979 116.232 LE
133.838 116.273 LS
141.005 116.273 L
141.005 121.21 L
133.838 121.21 L
133.838 116.273 LE
133.698 116.314 LS
140.848 116.314 L
140.848 121.235 L
133.698 121.235 L
133.698 116.314 LE
133.557 116.355 LS
140.69 116.355 L
140.69 121.26 L
133.557 121.26 L
133.557 116.355 LE
133.418 116.395 LS
140.533 116.395 L
140.533 121.285 L
133.418 121.285 L
133.418 116.395 LE
133.278 116.435 LS
140.377 116.435 L
140.377 121.31 L
133.278 121.31 L
133.278 116.435 LE
133.139 116.475 LS
140.221 116.475 L
140.221 121.334 L
133.139 121.334 L
133.139 116.475 LE
133.001 116.514 LS
140.066 116.514 L
140.066 121.359 L
133.001 121.359 L
133.001 116.514 LE
132.863 116.553 LS
139.911 116.553 L
139.911 121.382 L
132.863 121.382 L
132.863 116.553 LE
132.725 116.592 LS
139.756 116.592 L
139.756 121.406 L
132.725 121.406 L
132.725 116.592 LE
132.587 116.63 LS
139.602 116.63 L
139.602 121.43 L
132.587 121.43 L
132.587 116.63 LE
132.451 116.668 LS
139.448 116.668 L
139.448 121.453 L
132.451 121.453 L
132.451 116.668 LE
132.314 116.706 LS
139.295 116.706 L
139.295 121.477 L
132.314 121.477 L
132.314 116.706 LE
132.178 116.743 LS
139.142 116.743 L
139.142 121.499 L
132.178 121.499 L
132.178 116.743 LE
132.042 116.781 LS
138.99 116.781 L
138.99 121.522 L
132.042 121.522 L
132.042 116.781 LE
131.907 116.818 LS
138.838 116.818 L
138.838 121.545 L
131.907 121.545 L
131.907 116.818 LE
131.772 116.854 LS
138.686 116.854 L
138.686 121.567 L
131.772 121.567 L
131.772 116.854 LE
131.637 116.891 LS
138.535 116.891 L
138.535 121.59 L
131.637 121.59 L
131.637 116.891 LE
131.503 116.927 LS
138.385 116.927 L
138.385 121.612 L
131.503 121.612 L
131.503 116.927 LE
131.369 116.963 LS
138.235 116.963 L
138.235 121.633 L
131.369 121.633 L
131.369 116.963 LE
131.236 116.998 LS
138.085 116.998 L
138.085 121.655 L
131.236 121.655 L
131.236 116.998 LE
131.103 117.033 LS
137.936 117.033 L
137.936 121.677 L
131.103 121.677 L
131.103 117.033 LE
130.97 117.068 LS
137.787 117.068 L
137.787 121.698 L
130.97 121.698 L
130.97 117.068 LE
130.838 117.103 LS
137.638 117.103 L
137.638 121.719 L
130.838 121.719 L
130.838 117.103 LE
130.706 117.138 LS
137.49 117.138 L
137.49 121.74 L
130.706 121.74 L
130.706 117.138 LE
130.575 117.172 LS
137.343 117.172 L
137.343 121.761 L
130.575 121.761 L
130.575 117.172 LE
130.444 117.206 LS
137.196 117.206 L
137.196 121.782 L
130.444 121.782 L
130.444 117.206 LE
130.313 117.24 LS
137.049 117.24 L
137.049 121.802 L
130.313 121.802 L
130.313 117.24 LE
130.183 117.273 LS
136.903 117.273 L
136.903 121.822 L
130.183 121.822 L
130.183 117.273 LE
0 0 0 C
(Flowpipe for Ex. 3) 298.08 410.6 10 /Helvetica SBC
grestore
showpage
cleartomark
%%PageTrailer
%%Trailer
end
%%EOF
