%!PS-Adobe-3.0 EPSF-3.0
%%Title: glps_renderer figure
%%Creator: GL2PS 1.3.8, (C) 1999-2012 C. Geuzaine
%%For: Octave
%%CreationDate: Wed Mar 13 16:51:21 2019
%%LanguageLevel: 3
%%DocumentData: Clean7Bit
%%Pages: 1
%%BoundingBox: 0 0 576 433
%%EndComments
%%BeginProlog
/gl2psdict 64 dict def gl2psdict begin
0 setlinecap 0 setlinejoin
/tryPS3shading false def % set to false to force subdivision
/rThreshold 0.064 def % red component subdivision threshold
/gThreshold 0.034 def % green component subdivision threshold
/bThreshold 0.1 def % blue component subdivision threshold
/BD { bind def } bind def
/C  { setrgbcolor } BD
/G  { 0.082 mul exch 0.6094 mul add exch 0.3086 mul add neg 1.0 add setgray } BD
/W  { setlinewidth } BD
/FC { findfont exch /SH exch def SH scalefont setfont } BD
/SW { dup stringwidth pop } BD
/S  { FC moveto show } BD
/SBC{ FC moveto SW -2 div 0 rmoveto show } BD
/SBR{ FC moveto SW neg 0 rmoveto show } BD
/SCL{ FC moveto 0 SH -2 div rmoveto show } BD
/SCC{ FC moveto SW -2 div SH -2 div rmoveto show } BD
/SCR{ FC moveto SW neg SH -2 div rmoveto show } BD
/STL{ FC moveto 0 SH neg rmoveto show } BD
/STC{ FC moveto SW -2 div SH neg rmoveto show } BD
/STR{ FC moveto SW neg SH neg rmoveto show } BD
/FCT { FC translate 0 0 } BD
/SR  { gsave FCT moveto rotate show grestore } BD
/SBCR{ gsave FCT moveto rotate SW -2 div 0 rmoveto show grestore } BD
/SBRR{ gsave FCT moveto rotate SW neg 0 rmoveto show grestore } BD
/SCLR{ gsave FCT moveto rotate 0 SH -2 div rmoveto show grestore} BD
/SCCR{ gsave FCT moveto rotate SW -2 div SH -2 div rmoveto show grestore} BD
/SCRR{ gsave FCT moveto rotate SW neg SH -2 div rmoveto show grestore} BD
/STLR{ gsave FCT moveto rotate 0 SH neg rmoveto show grestore } BD
/STCR{ gsave FCT moveto rotate SW -2 div SH neg rmoveto show grestore } BD
/STRR{ gsave FCT moveto rotate SW neg SH neg rmoveto show grestore } BD
/P  { newpath 0.0 360.0 arc closepath fill } BD
/LS { newpath moveto } BD
/L  { lineto } BD
/LE { lineto stroke } BD
/T  { newpath moveto lineto lineto closepath fill } BD
/STshfill {
      /b1 exch def /g1 exch def /r1 exch def /y1 exch def /x1 exch def
      /b2 exch def /g2 exch def /r2 exch def /y2 exch def /x2 exch def
      /b3 exch def /g3 exch def /r3 exch def /y3 exch def /x3 exch def
      gsave << /ShadingType 4 /ColorSpace [/DeviceRGB]
      /DataSource [ 0 x1 y1 r1 g1 b1 0 x2 y2 r2 g2 b2 0 x3 y3 r3 g3 b3 ] >>
      shfill grestore } BD
/Tm { 3 -1 roll 8 -1 roll 13 -1 roll add add 3 div
      3 -1 roll 7 -1 roll 11 -1 roll add add 3 div
      3 -1 roll 6 -1 roll 9 -1 roll add add 3 div C T } BD
/STsplit {
      4 index 15 index add 0.5 mul
      4 index 15 index add 0.5 mul
      4 index 15 index add 0.5 mul
      4 index 15 index add 0.5 mul
      4 index 15 index add 0.5 mul
      5 copy 5 copy 25 15 roll
      9 index 30 index add 0.5 mul
      9 index 30 index add 0.5 mul
      9 index 30 index add 0.5 mul
      9 index 30 index add 0.5 mul
      9 index 30 index add 0.5 mul
      5 copy 5 copy 35 5 roll 25 5 roll 15 5 roll
      4 index 10 index add 0.5 mul
      4 index 10 index add 0.5 mul
      4 index 10 index add 0.5 mul
      4 index 10 index add 0.5 mul
      4 index 10 index add 0.5 mul
      5 copy 5 copy 40 5 roll 25 5 roll 15 5 roll 25 5 roll
      STnoshfill STnoshfill STnoshfill STnoshfill } BD
/STnoshfill {
      2 index 8 index sub abs rThreshold gt
      { STsplit }
      { 1 index 7 index sub abs gThreshold gt
        { STsplit }
        { dup 6 index sub abs bThreshold gt
          { STsplit }
          { 2 index 13 index sub abs rThreshold gt
            { STsplit }
            { 1 index 12 index sub abs gThreshold gt
              { STsplit }
              { dup 11 index sub abs bThreshold gt
                { STsplit }
                { 7 index 13 index sub abs rThreshold gt
                  { STsplit }
                  { 6 index 12 index sub abs gThreshold gt
                    { STsplit }
                    { 5 index 11 index sub abs bThreshold gt
                      { STsplit }
                      { Tm }
                      ifelse }
                    ifelse }
                  ifelse }
                ifelse }
              ifelse }
            ifelse }
          ifelse }
        ifelse }
      ifelse } BD
tryPS3shading
{ /shfill where
  { /ST { STshfill } BD }
  { /ST { STnoshfill } BD }
  ifelse }
{ /ST { STnoshfill } BD }
ifelse
end
%%EndProlog
%%BeginSetup
/DeviceRGB setcolorspace
gl2psdict begin
%%EndSetup
%%Page: 1 1
%%BeginPageSetup
%%EndPageSetup
mark
gsave
1.0 1.0 scale
1 1 1 C
74.88 400.6 521.28 48.52 74.88 48.52 T
74.88 400.6 521.28 400.6 521.28 48.52 T
0.5 W
[16 0] 0 setdash
0 0 0 C
74.88 48.52 LS
521.28 48.52 LE
74.88 400.6 LS
521.28 400.6 LE
74.88 48.52 LS
74.88 400.6 LE
521.28 48.52 LS
521.28 400.6 LE
74.88 48.52 LS
74.88 52.985 LE
74.88 400.6 LS
74.88 396.135 LE
149.28 48.52 LS
149.28 52.985 LE
149.28 400.6 LS
149.28 396.135 LE
223.68 48.52 LS
223.68 52.985 LE
223.68 400.6 LS
223.68 396.135 LE
298.08 48.52 LS
298.08 52.985 LE
298.08 400.6 LS
298.08 396.135 LE
372.48 48.52 LS
372.48 52.985 LE
372.48 400.6 LS
372.48 396.135 LE
446.88 48.52 LS
446.88 52.985 LE
446.88 400.6 LS
446.88 396.135 LE
521.28 48.52 LS
521.28 52.985 LE
521.28 400.6 LS
521.28 396.135 LE
(-0.1) 74.88 43.5189 10 /Helvetica STC
(0) 149.28 43.5189 10 /Helvetica STC
(0.1) 223.68 43.5189 10 /Helvetica STC
(0.2) 298.08 43.5189 10 /Helvetica STC
(0.3) 372.48 43.5189 10 /Helvetica STC
(0.4) 446.88 43.5189 10 /Helvetica STC
(0.5) 521.28 43.5189 10 /Helvetica STC
74.88 48.52 LS
79.348 48.52 LE
521.28 48.52 LS
516.812 48.52 LE
74.88 107.2 LS
79.348 107.2 LE
521.28 107.2 LS
516.812 107.2 LE
74.88 165.88 LS
79.348 165.88 LE
521.28 165.88 LS
516.812 165.88 LE
74.88 224.56 LS
79.348 224.56 LE
521.28 224.56 LS
516.812 224.56 LE
74.88 283.24 LS
79.348 283.24 LE
521.28 283.24 LS
516.812 283.24 LE
74.88 341.92 LS
79.348 341.92 LE
521.28 341.92 LS
516.812 341.92 LE
74.88 400.6 LS
79.348 400.6 LE
521.28 400.6 LS
516.812 400.6 LE
(-0.1) 69.8755 48.52 10 /Helvetica SCR
(0) 69.8755 107.2 10 /Helvetica SCR
(0.1) 69.8755 165.88 10 /Helvetica SCR
(0.2) 69.8755 224.56 10 /Helvetica SCR
(0.3) 69.8755 283.24 10 /Helvetica SCR
(0.4) 69.8755 341.92 10 /Helvetica SCR
(0.5) 69.8755 400.6 10 /Helvetica SCR
[] 0 setdash
0.11 0.11 0.11 C
372.328 275.216 LS
454.472 275.216 L
454.472 341.922 L
372.328 341.922 L
372.328 275.216 LE
376.34 268.33 LS
459.508 268.33 L
459.508 335.158 L
376.34 335.158 L
376.34 268.33 LE
379.764 261.453 LS
463.777 261.453 L
463.777 328.332 L
379.764 328.332 L
379.764 261.453 LE
382.614 254.561 LS
467.297 254.561 L
467.297 321.475 L
382.614 321.475 L
382.614 254.561 LE
384.747 247.661 LS
470.082 247.661 L
470.082 314.591 L
384.747 314.591 L
384.747 247.661 LE
385.846 240.763 LS
472.148 240.763 L
472.148 307.686 L
385.846 307.686 L
385.846 240.763 LE
386.421 233.873 LS
473.509 233.873 L
473.509 300.763 L
386.421 300.763 L
386.421 233.873 LE
386.482 227.001 LS
474.179 227.001 L
474.179 293.828 L
386.482 293.828 L
386.482 227.001 LE
386.041 220.155 LS
474.17 220.155 L
474.17 286.888 L
386.041 286.888 L
386.041 220.155 LE
385.11 213.345 LS
473.498 213.345 L
473.498 279.949 L
385.11 279.949 L
385.11 213.345 LE
383.819 206.598 LS
472.174 206.598 L
472.174 273.017 L
383.819 273.017 L
383.819 206.598 LE
382.235 199.99 LS
470.487 199.99 L
470.487 266.123 L
382.235 266.123 L
382.235 199.99 LE
380.35 193.503 LS
468.391 193.503 L
468.391 259.295 L
380.35 259.295 L
380.35 193.503 LE
378.174 187.14 LS
465.894 187.14 L
465.894 252.539 L
378.174 252.539 L
378.174 187.14 LE
375.711 180.905 LS
463.276 180.905 L
463.276 245.858 L
375.711 245.858 L
375.711 180.905 LE
372.972 174.803 LS
460.365 174.803 L
460.365 239.258 L
372.972 239.258 L
372.972 174.803 LE
369.962 168.834 LS
457.074 168.834 L
457.074 232.743 L
369.962 232.743 L
369.962 168.834 LE
366.689 163.005 LS
453.412 163.005 L
453.412 226.319 L
366.689 226.319 L
366.689 163.005 LE
363.159 157.318 LS
449.388 157.318 L
449.388 219.988 L
363.159 219.988 L
363.159 157.318 LE
359.379 151.777 LS
445.011 151.777 L
445.011 213.757 L
359.379 213.757 L
359.379 151.777 LE
355.433 146.386 LS
440.289 146.386 L
440.289 207.63 L
355.433 207.63 L
355.433 146.386 LE
351.383 141.21 LS
435.308 141.21 L
435.308 201.629 L
351.383 201.629 L
351.383 141.21 LE
347.218 136.221 LS
430.152 136.221 L
430.152 195.771 L
347.218 195.771 L
347.218 136.221 LE
342.943 131.417 LS
424.829 131.417 L
424.829 190.056 L
342.943 190.056 L
342.943 131.417 LE
338.562 126.795 LS
419.342 126.795 L
419.342 184.487 L
338.562 184.487 L
338.562 126.795 LE
334.079 122.355 LS
413.699 122.355 L
413.699 179.064 L
334.079 179.064 L
334.079 122.355 LE
329.499 118.094 LS
407.904 118.094 L
407.904 173.788 L
329.499 173.788 L
329.499 118.094 LE
324.819 113.822 LS
401.964 113.822 L
401.964 168.846 L
324.819 168.846 L
324.819 113.822 LE
320.049 109.727 LS
395.882 109.727 L
395.882 164.052 L
320.049 164.052 L
320.049 109.727 LE
315.191 105.807 LS
389.665 105.807 L
389.665 159.406 L
315.191 159.406 L
315.191 105.807 LE
310.296 102.061 LS
383.316 102.061 L
383.316 154.908 L
310.296 154.908 L
310.296 102.061 LE
305.411 98.5242 LS
376.897 98.5242 L
376.897 150.567 L
305.411 150.567 L
305.411 98.5242 LE
300.53 95.1774 LS
370.468 95.1774 L
370.468 146.389 L
300.53 146.389 L
300.53 95.1774 LE
295.655 92.0158 LS
364.03 92.0158 L
364.03 142.372 L
295.655 142.372 L
295.655 92.0158 LE
290.787 89.0347 LS
357.587 89.0347 L
357.587 138.512 L
290.787 138.512 L
290.787 89.0347 LE
285.927 86.2296 LS
351.14 86.2296 L
351.14 134.808 L
285.927 134.808 L
285.927 86.2296 LE
281.079 83.5963 LS
344.693 83.5963 L
344.693 131.258 L
281.079 131.258 L
281.079 83.5963 LE
276.227 81.1272 LS
338.248 81.1272 L
338.248 127.858 L
276.227 127.858 L
276.227 81.1272 LE
271.387 78.8208 LS
331.806 78.8208 L
331.806 124.607 L
271.387 124.607 L
271.387 78.8208 LE
266.562 76.6738 LS
325.37 76.6738 L
325.37 121.501 L
266.562 121.501 L
266.562 76.6738 LE
261.776 74.6821 LS
318.94 74.6821 L
318.94 118.54 L
261.776 118.54 L
261.776 74.6821 LE
257.089 72.8604 LS
312.559 72.8604 L
312.559 115.723 L
257.089 115.723 L
257.089 72.8604 LE
252.472 71.1925 LS
306.263 71.1925 L
306.263 113.053 L
252.472 113.053 L
252.472 71.1925 LE
247.927 69.6723 LS
300.055 69.6723 L
300.055 110.526 L
247.927 110.526 L
247.927 69.6723 LE
243.451 68.2935 LS
293.933 68.2935 L
293.933 108.137 L
243.451 108.137 L
243.451 68.2935 LE
239.045 67.0511 LS
287.898 67.0511 L
287.898 105.883 L
239.045 105.883 L
239.045 67.0511 LE
234.709 65.94 LS
281.95 65.94 L
281.95 103.76 L
234.709 103.76 L
234.709 65.94 LE
230.431 64.9546 LS
276.099 64.9546 L
276.099 101.764 L
230.431 101.764 L
230.431 64.9546 LE
225.389 64.075 LS
271.151 64.075 L
271.151 99.8915 L
225.389 99.8915 L
225.389 64.075 LE
220.456 63.3121 LS
266.249 63.3121 L
266.249 98.1389 L
220.456 98.1389 L
220.456 63.3121 LE
215.631 62.6612 LS
261.392 62.6612 L
261.392 96.5032 L
215.631 96.5032 L
215.631 62.6612 LE
210.982 62.125 LS
256.606 62.125 L
256.606 94.9827 L
210.982 94.9827 L
210.982 62.125 LE
206.472 61.6935 LS
251.912 61.6935 L
251.912 93.5752 L
206.472 93.5752 L
206.472 61.6935 LE
202.099 61.3611 LS
247.31 61.3611 L
247.31 92.2764 L
202.099 92.2764 L
202.099 61.3611 LE
197.857 61.1225 LS
242.804 61.1225 L
242.804 91.0948 L
197.857 91.0948 L
197.857 61.1225 LE
193.732 60.9727 LS
238.402 60.9727 L
238.402 90.0805 L
193.732 90.0805 L
193.732 60.9727 LE
189.728 60.9065 LS
234.1 60.9065 L
234.1 89.1589 L
189.728 89.1589 L
189.728 60.9065 LE
185.852 60.9199 LS
229.887 60.9199 L
229.887 88.326 L
185.852 88.326 L
185.852 60.9199 LE
182.103 61.0085 LS
225.76 61.0085 L
225.76 87.578 L
182.103 87.578 L
182.103 61.0085 LE
178.479 61.168 LS
221.719 61.168 L
221.719 86.9117 L
178.479 86.9117 L
178.479 61.168 LE
174.977 61.3944 LS
217.762 61.3944 L
217.762 86.3244 L
174.977 86.3244 L
174.977 61.3944 LE
171.634 61.6859 LS
213.902 61.6859 L
213.902 85.8117 L
171.634 85.8117 L
171.634 61.6859 LE
168.424 62.0361 LS
210.151 62.0361 L
210.151 85.3716 L
168.424 85.3716 L
168.424 62.0361 LE
165.335 62.4408 LS
206.517 62.4408 L
206.517 85.0006 L
165.335 85.0006 L
165.335 62.4408 LE
162.364 62.8961 LS
202.999 62.8961 L
202.999 84.6953 L
162.364 84.6953 L
162.364 62.8961 LE
159.51 63.3983 LS
199.592 63.3983 L
199.592 84.4523 L
159.51 84.4523 L
159.51 63.3983 LE
156.773 63.944 LS
196.294 63.944 L
196.294 84.2684 L
156.773 84.2684 L
156.773 63.944 LE
154.159 64.5296 LS
193.096 64.5296 L
193.096 84.1403 L
154.159 84.1403 L
154.159 64.5296 LE
151.664 65.152 LS
189.995 65.152 L
189.995 84.0653 L
151.664 84.0653 L
151.664 65.152 LE
149.285 65.808 LS
186.99 65.808 L
186.99 84.0403 L
149.285 84.0403 L
149.285 65.808 LE
147.022 66.4948 LS
184.08 66.4948 L
184.08 84.0626 L
147.022 84.0626 L
147.022 66.4948 LE
144.884 67.2096 LS
181.268 67.2096 L
181.268 84.1292 L
144.884 84.1292 L
144.884 67.2096 LE
142.856 67.9492 LS
178.563 67.9492 L
178.563 84.2378 L
142.856 84.2378 L
142.856 67.9492 LE
140.921 68.4703 LS
175.967 68.4703 L
175.967 84.6174 L
140.921 84.6174 L
140.921 68.4703 LE
138.995 68.9942 LS
173.568 68.9942 L
173.568 85.0238 L
138.995 85.0238 L
138.995 68.9942 LE
137.127 69.5514 LS
171.311 69.5514 L
171.311 85.4513 L
137.127 85.4513 L
137.127 69.5514 LE
135.363 70.139 LS
169.148 70.139 L
169.148 85.8971 L
135.363 85.8971 L
135.363 70.139 LE
133.706 70.7542 LS
167.073 70.7542 L
167.073 86.3593 L
133.706 86.3593 L
133.706 70.7542 LE
132.153 71.3942 LS
165.082 71.3942 L
165.082 86.8362 L
132.153 86.8362 L
132.153 71.3942 LE
130.704 72.0567 LS
163.173 72.0567 L
163.173 87.3266 L
130.704 87.3266 L
130.704 72.0567 LE
129.351 72.739 LS
161.345 72.739 L
161.345 87.8287 L
129.351 87.8287 L
129.351 72.739 LE
128.095 73.4387 LS
159.597 73.4387 L
159.597 88.3407 L
128.095 88.3407 L
128.095 73.4387 LE
126.927 74.1539 LS
157.931 74.1539 L
157.931 88.8612 L
126.927 88.8612 L
126.927 74.1539 LE
125.838 74.8822 LS
156.351 74.8822 L
156.351 89.3889 L
125.838 89.3889 L
125.838 74.8822 LE
124.828 75.6218 LS
154.855 75.6218 L
154.855 89.9226 L
124.828 89.9226 L
124.828 75.6218 LE
123.895 76.3707 LS
153.438 76.3707 L
153.438 90.4609 L
123.895 90.4609 L
123.895 76.3707 LE
123.038 77.127 LS
152.101 77.127 L
152.101 91.0027 L
123.038 91.0027 L
123.038 77.127 LE
122.258 77.889 LS
150.838 77.889 L
150.838 91.5469 L
122.258 91.5469 L
122.258 77.889 LE
121.555 78.655 LS
149.644 78.655 L
149.644 92.0922 L
121.555 92.0922 L
121.555 78.655 LE
120.93 79.4234 LS
148.517 79.4234 L
148.517 92.6377 L
120.93 92.6377 L
120.93 79.4234 LE
120.379 80.1928 LS
147.455 80.1928 L
147.455 93.1823 L
120.379 93.1823 L
120.379 80.1928 LE
119.897 80.9618 LS
146.456 80.9618 L
146.456 93.7253 L
119.897 93.7253 L
119.897 80.9618 LE
119.475 81.7292 LS
145.517 81.7292 L
145.517 94.266 L
119.475 94.266 L
119.475 81.7292 LE
119.106 82.4939 LS
144.642 82.4939 L
144.642 94.8037 L
119.106 94.8037 L
119.106 82.4939 LE
118.788 83.2547 LS
143.861 83.2547 L
143.861 95.3377 L
118.788 95.3377 L
118.788 83.2547 LE
118.521 84.0106 LS
143.157 84.0106 L
143.157 95.8673 L
118.521 95.8673 L
118.521 84.0106 LE
118.303 84.7606 LS
142.511 84.7606 L
142.511 96.3918 L
118.303 96.3918 L
118.303 84.7606 LE
118.134 85.5037 LS
141.922 85.5037 L
141.922 96.9106 L
118.134 96.9106 L
118.134 85.5037 LE
118.016 86.2392 LS
141.384 86.2392 L
141.384 97.4231 L
118.016 97.4231 L
118.016 86.2392 LE
117.95 86.966 LS
140.893 86.966 L
140.893 97.9288 L
117.95 97.9288 L
117.95 86.966 LE
117.935 87.6834 LS
140.445 87.6834 L
140.445 98.427 L
117.935 98.427 L
117.935 87.6834 LE
117.96 88.3909 LS
140.03 88.3909 L
140.03 98.9176 L
117.96 98.9176 L
117.96 88.3909 LE
118.022 89.0878 LS
139.654 89.0878 L
139.654 99.4003 L
118.022 99.4003 L
118.022 89.0878 LE
118.118 89.7739 LS
139.32 89.7739 L
139.32 99.8748 L
118.118 99.8748 L
118.118 89.7739 LE
118.24 90.4484 LS
139.029 90.4484 L
139.029 100.341 L
118.24 100.341 L
118.24 90.4484 LE
118.39 91.111 LS
138.781 91.111 L
138.781 100.799 L
118.39 100.799 L
118.39 91.111 LE
118.568 91.7613 LS
138.574 91.7613 L
138.574 101.247 L
118.568 101.247 L
118.568 91.7613 LE
118.772 92.3988 LS
138.406 92.3988 L
138.406 101.686 L
118.772 101.686 L
118.772 92.3988 LE
119.003 93.0233 LS
138.275 93.0233 L
138.275 102.116 L
119.003 102.116 L
119.003 93.0233 LE
119.264 93.6343 LS
138.175 93.6343 L
138.175 102.535 L
119.264 102.535 L
119.264 93.6343 LE
119.557 94.2315 LS
138.101 94.2315 L
138.101 102.945 L
119.557 102.945 L
119.557 94.2315 LE
119.87 94.8148 LS
138.044 94.8148 L
138.044 103.344 L
119.87 103.344 L
119.87 94.8148 LE
120.202 95.3843 LS
138.011 95.3843 L
138.011 103.734 L
120.202 103.734 L
120.202 95.3843 LE
120.55 95.8935 LS
138.001 95.8935 L
138.001 104.16 L
120.55 104.16 L
120.55 95.8935 LE
120.908 96.3638 LS
138.02 96.3638 L
138.02 104.602 L
120.908 104.602 L
120.908 96.3638 LE
121.276 96.8241 LS
138.065 96.8241 L
138.065 105.029 L
121.276 105.029 L
121.276 96.8241 LE
121.573 97.2742 LS
138.219 97.2742 L
138.219 105.443 L
121.573 105.443 L
121.573 97.2742 LE
121.846 97.7139 LS
138.431 97.7139 L
138.431 105.844 L
121.846 105.844 L
121.846 97.7139 LE
122.138 98.143 LS
138.659 98.143 L
138.659 106.23 L
122.138 106.23 L
122.138 98.143 LE
122.449 98.5614 LS
138.899 98.5614 L
138.899 106.602 L
122.449 106.602 L
122.449 98.5614 LE
122.779 98.969 LS
139.146 98.969 L
139.146 106.961 L
122.779 106.961 L
122.779 98.969 LE
123.127 99.3644 LS
139.392 99.3644 L
139.392 107.307 L
123.127 107.307 L
123.127 99.3644 LE
123.486 99.748 LS
139.642 99.748 L
139.642 107.64 L
123.486 107.64 L
123.486 99.748 LE
123.856 100.121 LS
139.897 100.121 L
139.897 107.961 L
123.856 107.961 L
123.856 100.121 LE
124.234 100.483 LS
140.159 100.483 L
140.159 108.268 L
124.234 108.268 L
124.234 100.483 LE
124.615 100.834 LS
140.431 100.834 L
140.431 108.563 L
124.615 108.563 L
124.615 100.834 LE
125.002 101.175 LS
140.712 101.175 L
140.712 108.845 L
125.002 108.845 L
125.002 101.175 LE
125.394 101.505 LS
141 101.505 L
141 109.115 L
125.394 109.115 L
125.394 101.505 LE
125.791 101.825 LS
141.296 101.825 L
141.296 109.372 L
125.791 109.372 L
125.791 101.825 LE
126.195 102.134 LS
141.597 102.134 L
141.597 109.618 L
126.195 109.618 L
126.195 102.134 LE
126.605 102.431 LS
141.897 102.431 L
141.897 109.853 L
126.605 109.853 L
126.605 102.431 LE
127.022 102.717 LS
142.19 102.717 L
142.19 110.078 L
127.022 110.078 L
127.022 102.717 LE
127.44 102.993 LS
142.481 102.993 L
142.481 110.292 L
127.44 110.292 L
127.44 102.993 LE
127.857 103.258 LS
142.769 103.258 L
142.769 110.496 L
127.857 110.496 L
127.857 103.258 LE
128.275 103.514 LS
143.057 103.514 L
143.057 110.688 L
128.275 110.688 L
128.275 103.514 LE
128.689 103.76 LS
143.348 103.76 L
143.348 110.871 L
128.689 110.871 L
128.689 103.76 LE
129.1 103.997 LS
143.642 103.997 L
143.642 111.043 L
129.1 111.043 L
129.1 103.997 LE
129.509 104.224 LS
143.938 104.224 L
143.938 111.206 L
129.509 111.206 L
129.509 104.224 LE
129.914 104.442 LS
144.236 104.442 L
144.236 111.359 L
129.914 111.359 L
129.914 104.442 LE
130.318 104.649 LS
144.534 104.649 L
144.534 111.503 L
130.318 111.503 L
130.318 104.649 LE
130.722 104.836 LS
144.828 104.836 L
144.828 111.644 L
130.722 111.644 L
130.722 104.836 LE
131.127 105.007 LS
145.111 105.007 L
145.111 111.783 L
131.127 111.783 L
131.127 105.007 LE
131.528 105.17 LS
145.388 105.17 L
145.388 111.914 L
131.528 111.914 L
131.528 105.17 LE
131.927 105.325 LS
145.659 105.325 L
145.659 112.036 L
131.927 112.036 L
131.927 105.325 LE
132.322 105.474 LS
145.925 105.474 L
145.925 112.149 L
132.322 112.149 L
132.322 105.474 LE
132.71 105.615 LS
146.19 105.615 L
146.19 112.254 L
132.71 112.254 L
132.71 105.615 LE
133.089 105.749 LS
146.455 105.749 L
146.455 112.352 L
133.089 112.352 L
133.089 105.749 LE
133.46 105.876 LS
146.718 105.876 L
146.718 112.441 L
133.46 112.441 L
133.46 105.876 LE
133.824 105.997 LS
146.98 105.997 L
146.98 112.523 L
133.824 112.523 L
133.824 105.997 LE
134.181 106.111 LS
147.242 106.111 L
147.242 112.598 L
134.181 112.598 L
134.181 106.111 LE
134.531 106.218 LS
147.497 106.218 L
147.497 112.667 L
134.531 112.667 L
134.531 106.218 LE
134.879 106.319 LS
147.739 106.319 L
147.739 112.73 L
134.879 112.73 L
134.879 106.319 LE
135.22 106.413 LS
147.973 106.413 L
147.973 112.787 L
135.22 112.787 L
135.22 106.413 LE
135.555 106.501 LS
148.2 106.501 L
148.2 112.838 L
135.555 112.838 L
135.555 106.501 LE
135.885 106.584 LS
148.419 106.584 L
148.419 112.883 L
135.885 112.883 L
135.885 106.584 LE
136.204 106.662 LS
148.636 106.662 L
148.636 112.923 L
136.204 112.923 L
136.204 106.662 LE
136.512 106.734 LS
148.852 106.734 L
148.852 112.957 L
136.512 112.957 L
136.512 106.734 LE
136.786 106.801 LS
149.089 106.801 L
149.089 112.986 L
136.786 112.986 L
136.786 106.801 LE
137.034 106.863 LS
149.339 106.863 L
149.339 113.011 L
137.034 113.011 L
137.034 106.863 LE
137.276 106.921 LS
149.584 106.921 L
149.584 113.031 L
137.276 113.031 L
137.276 106.921 LE
137.513 106.973 LS
149.82 106.973 L
149.82 113.047 L
137.513 113.047 L
137.513 106.973 LE
137.752 107.02 LS
150.041 107.02 L
150.041 113.06 L
137.752 113.06 L
137.752 107.02 LE
137.985 107.063 LS
150.252 107.063 L
150.252 113.069 L
137.985 113.069 L
137.985 107.063 LE
138.215 107.102 LS
150.453 107.102 L
150.453 113.074 L
138.215 113.074 L
138.215 107.102 LE
138.441 107.137 LS
150.645 107.137 L
150.645 113.075 L
138.441 113.075 L
138.441 107.137 LE
138.658 107.168 LS
150.832 107.168 L
150.832 113.073 L
138.658 113.073 L
138.658 107.168 LE
138.864 107.196 LS
151.017 107.196 L
151.017 113.068 L
138.864 113.068 L
138.864 107.196 LE
139.062 107.221 LS
151.197 107.221 L
151.197 113.059 L
139.062 113.059 L
139.062 107.221 LE
139.252 107.243 LS
151.373 107.243 L
151.373 113.048 L
139.252 113.048 L
139.252 107.243 LE
139.435 107.261 LS
151.543 107.261 L
151.543 113.033 L
139.435 113.033 L
139.435 107.261 LE
139.613 107.277 LS
151.706 107.277 L
151.706 113.017 L
139.613 113.017 L
139.613 107.277 LE
139.792 107.289 LS
151.855 107.289 L
151.855 112.998 L
139.792 112.998 L
139.792 107.289 LE
139.967 107.298 LS
151.995 107.298 L
151.995 112.978 L
139.967 112.978 L
139.967 107.298 LE
140.138 107.304 LS
152.127 107.304 L
152.127 112.956 L
140.138 112.956 L
140.138 107.304 LE
140.305 107.308 LS
152.251 107.308 L
152.251 112.932 L
140.305 112.932 L
140.305 107.308 LE
140.463 107.31 LS
152.371 107.31 L
152.371 112.906 L
140.463 112.906 L
140.463 107.31 LE
140.611 107.309 LS
152.49 107.309 L
152.49 112.879 L
140.611 112.879 L
140.611 107.309 LE
140.751 107.307 LS
152.605 107.307 L
152.605 112.849 L
140.751 112.849 L
140.751 107.307 LE
140.884 107.303 LS
152.717 107.303 L
152.717 112.819 L
140.884 112.819 L
140.884 107.303 LE
141.009 107.287 LS
152.826 107.287 L
152.826 112.797 L
141.009 112.797 L
141.009 107.287 LE
141.13 107.27 LS
152.928 107.27 L
152.928 112.774 L
141.13 112.774 L
141.13 107.27 LE
141.253 107.251 LS
153.017 107.251 L
153.017 112.749 L
141.253 112.749 L
141.253 107.251 LE
141.373 107.231 LS
153.099 107.231 L
153.099 112.724 L
141.373 112.724 L
141.373 107.231 LE
141.489 107.21 LS
153.175 107.21 L
153.175 112.697 L
141.489 112.697 L
141.489 107.21 LE
141.598 107.188 LS
153.248 107.188 L
153.248 112.67 L
141.598 112.67 L
141.598 107.188 LE
141.698 107.166 LS
153.321 107.166 L
153.321 112.641 L
141.698 112.641 L
141.698 107.166 LE
141.788 107.143 LS
153.393 107.143 L
153.393 112.611 L
141.788 112.611 L
141.788 107.143 LE
141.872 107.119 LS
153.464 107.119 L
153.464 112.58 L
141.872 112.58 L
141.872 107.119 LE
141.949 107.096 LS
153.532 107.096 L
153.532 112.548 L
141.949 112.548 L
141.949 107.096 LE
142.02 107.072 LS
153.597 107.072 L
153.597 112.515 L
142.02 112.515 L
142.02 107.072 LE
142.088 107.048 LS
153.657 107.048 L
153.657 112.482 L
142.088 112.482 L
142.088 107.048 LE
142.16 107.023 LS
153.705 107.023 L
153.705 112.448 L
142.16 112.448 L
142.16 107.023 LE
142.23 106.997 LS
153.748 106.997 L
153.748 112.414 L
142.23 112.414 L
142.23 106.997 LE
142.298 106.972 LS
153.785 106.972 L
153.785 112.38 L
142.298 112.38 L
142.298 106.972 LE
142.364 106.945 LS
153.817 106.945 L
153.817 112.347 L
142.364 112.347 L
142.364 106.945 LE
142.424 106.919 LS
153.848 106.919 L
153.848 112.312 L
142.424 112.312 L
142.424 106.919 LE
142.476 106.893 LS
153.879 106.893 L
153.879 112.278 L
142.476 112.278 L
142.476 106.893 LE
142.522 106.868 LS
153.91 106.868 L
153.91 112.243 L
142.522 112.243 L
142.522 106.868 LE
142.563 106.842 LS
153.94 106.842 L
153.94 112.208 L
142.563 112.208 L
142.563 106.842 LE
142.598 106.817 LS
153.969 106.817 L
153.969 112.173 L
142.598 112.173 L
142.598 106.817 LE
142.434 106.756 LS
154.192 106.756 L
154.192 112.174 L
142.434 112.174 L
142.434 106.756 LE
142.256 106.692 LS
154.422 106.692 L
154.422 112.178 L
142.256 112.178 L
142.256 106.692 LE
142.069 106.628 LS
154.657 106.628 L
154.657 112.183 L
142.069 112.183 L
142.069 106.628 LE
141.872 106.563 LS
154.897 106.563 L
154.897 112.189 L
141.872 112.189 L
141.872 106.563 LE
141.666 106.496 LS
155.14 106.496 L
155.14 112.197 L
141.666 112.197 L
141.666 106.496 LE
141.451 106.429 LS
155.388 106.429 L
155.388 112.206 L
141.451 112.206 L
141.451 106.429 LE
141.228 106.361 LS
155.64 106.361 L
155.64 112.217 L
141.228 112.217 L
141.228 106.361 LE
140.995 106.291 LS
155.897 106.291 L
155.897 112.231 L
140.995 112.231 L
140.995 106.291 LE
140.754 106.22 LS
156.158 106.22 L
156.158 112.246 L
140.754 112.246 L
140.754 106.22 LE
140.504 106.147 LS
156.423 106.147 L
156.423 112.264 L
140.504 112.264 L
140.504 106.147 LE
140.24 106.072 LS
156.697 106.072 L
156.697 112.285 L
140.24 112.285 L
140.24 106.072 LE
140.023 105.997 LS
156.923 105.997 L
156.923 112.307 L
140.023 112.307 L
140.023 105.997 LE
139.829 105.921 LS
157.122 105.921 L
157.122 112.331 L
139.829 112.331 L
139.829 105.921 LE
139.659 105.845 LS
157.294 105.845 L
157.294 112.356 L
139.659 112.356 L
139.659 105.845 LE
139.511 105.77 LS
157.441 105.77 L
157.441 112.382 L
139.511 112.382 L
139.511 105.77 LE
139.376 105.694 LS
157.572 105.694 L
157.572 112.408 L
139.376 112.408 L
139.376 105.694 LE
139.264 105.62 LS
157.678 105.62 L
157.678 112.434 L
139.264 112.434 L
139.264 105.62 LE
139.173 105.547 LS
157.76 105.547 L
157.76 112.461 L
139.173 112.461 L
139.173 105.547 LE
139.103 105.475 LS
157.818 105.475 L
157.818 112.487 L
139.103 112.487 L
139.103 105.475 LE
139.054 105.404 LS
157.852 105.404 L
157.852 112.513 L
139.054 112.513 L
139.054 105.404 LE
139.029 105.332 LS
157.86 105.332 L
157.86 112.541 L
139.029 112.541 L
139.029 105.332 LE
139.018 105.264 LS
157.853 105.264 L
157.853 112.567 L
139.018 112.567 L
139.018 105.264 LE
139.017 105.198 LS
157.835 105.198 L
157.835 112.592 L
139.017 112.592 L
139.017 105.198 LE
139.022 105.134 LS
157.809 105.134 L
157.809 112.615 L
139.022 112.615 L
139.022 105.134 LE
139.037 105.073 LS
157.771 105.073 L
157.771 112.637 L
139.037 112.637 L
139.037 105.073 LE
139.063 105.015 LS
157.721 105.015 L
157.721 112.657 L
139.063 112.657 L
139.063 105.015 LE
139.099 104.96 LS
157.658 104.96 L
157.658 112.676 L
139.099 112.676 L
139.099 104.96 LE
139.147 104.908 LS
157.584 104.908 L
157.584 112.692 L
139.147 112.692 L
139.147 104.908 LE
139.204 104.859 LS
157.499 104.859 L
157.499 112.707 L
139.204 112.707 L
139.204 104.859 LE
139.272 104.813 LS
157.402 104.813 L
157.402 112.72 L
139.272 112.72 L
139.272 104.813 LE
139.352 104.77 LS
157.291 104.77 L
157.291 112.73 L
139.352 112.73 L
139.352 104.77 LE
139.439 104.73 LS
157.174 104.73 L
157.174 112.739 L
139.439 112.739 L
139.439 104.73 LE
139.529 104.694 LS
157.052 104.694 L
157.052 112.745 L
139.529 112.745 L
139.529 104.694 LE
139.623 104.661 LS
156.926 104.661 L
156.926 112.75 L
139.623 112.75 L
139.623 104.661 LE
139.718 104.63 LS
156.799 104.63 L
156.799 112.753 L
139.718 112.753 L
139.718 104.63 LE
139.817 104.603 LS
156.667 104.603 L
156.667 112.753 L
139.817 112.753 L
139.817 104.603 LE
139.919 104.578 LS
156.533 104.578 L
156.533 112.752 L
139.919 112.752 L
139.919 104.578 LE
140.021 104.556 LS
156.397 104.556 L
156.397 112.749 L
140.021 112.749 L
140.021 104.556 LE
140.126 104.537 LS
156.258 104.537 L
156.258 112.745 L
140.126 112.745 L
140.126 104.537 LE
140.235 104.521 LS
156.115 104.521 L
156.115 112.738 L
140.235 112.738 L
140.235 104.521 LE
140.348 104.507 LS
155.968 104.507 L
155.968 112.73 L
140.348 112.73 L
140.348 104.507 LE
140.469 104.496 LS
155.813 104.496 L
155.813 112.721 L
140.469 112.721 L
140.469 104.496 LE
140.59 104.488 LS
155.658 104.488 L
155.658 112.709 L
140.59 112.709 L
140.59 104.488 LE
140.709 104.482 LS
155.505 104.482 L
155.505 112.696 L
140.709 112.696 L
140.709 104.482 LE
140.828 104.479 LS
155.353 104.479 L
155.353 112.681 L
140.828 112.681 L
140.828 104.479 LE
140.946 104.478 LS
155.201 104.478 L
155.201 112.665 L
140.946 112.665 L
140.946 104.478 LE
141.064 104.479 LS
155.05 104.479 L
155.05 112.648 L
141.064 112.648 L
141.064 104.479 LE
141.182 104.481 LS
154.9 104.481 L
154.9 112.63 L
141.182 112.63 L
141.182 104.481 LE
141.299 104.486 LS
154.749 104.486 L
154.749 112.611 L
141.299 112.611 L
141.299 104.486 LE
141.417 104.493 LS
154.6 104.493 L
154.6 112.59 L
141.417 112.59 L
141.417 104.493 LE
141.534 104.502 LS
154.45 104.502 L
154.45 112.569 L
141.534 112.569 L
141.534 104.502 LE
141.656 104.512 LS
154.297 104.512 L
154.297 112.546 L
141.656 112.546 L
141.656 104.512 LE
141.775 104.525 LS
154.147 104.525 L
154.147 112.522 L
141.775 112.522 L
141.775 104.525 LE
141.891 104.539 LS
154 104.539 L
154 112.497 L
141.891 112.497 L
141.891 104.539 LE
141.996 104.555 LS
153.865 104.555 L
153.865 112.472 L
141.996 112.472 L
141.996 104.555 LE
142.002 104.57 LS
153.83 104.57 L
153.83 112.447 L
142.002 112.447 L
142.002 104.57 LE
142.004 104.587 LS
153.799 104.587 L
153.799 112.421 L
142.004 112.421 L
142.004 104.587 LE
142.004 104.605 LS
153.77 104.605 L
153.77 112.395 L
142.004 112.395 L
142.004 104.605 LE
142.002 104.624 LS
153.744 104.624 L
153.744 112.368 L
142.002 112.368 L
142.002 104.624 LE
141.999 104.645 LS
153.719 104.645 L
153.719 112.341 L
141.999 112.341 L
141.999 104.645 LE
141.999 104.666 LS
153.693 104.666 L
153.693 112.313 L
141.999 112.313 L
141.999 104.666 LE
142.007 104.689 LS
153.659 104.689 L
153.659 112.284 L
142.007 112.284 L
142.007 104.689 LE
142.018 104.713 LS
153.623 104.713 L
153.623 112.255 L
142.018 112.255 L
142.018 104.713 LE
142.029 104.737 LS
153.586 104.737 L
153.586 112.226 L
142.029 112.226 L
142.029 104.737 LE
142.042 104.763 LS
153.549 104.763 L
153.549 112.196 L
142.042 112.196 L
142.042 104.763 LE
142.051 104.789 LS
153.516 104.789 L
153.516 112.166 L
142.051 112.166 L
142.051 104.789 LE
142.058 104.815 LS
153.487 104.815 L
153.487 112.136 L
142.058 112.136 L
142.058 104.815 LE
142.061 104.843 LS
153.462 104.843 L
153.462 112.106 L
142.061 112.106 L
142.061 104.843 LE
142.062 104.87 LS
153.439 104.87 L
153.439 112.075 L
142.062 112.075 L
142.062 104.87 LE
142.045 104.898 LS
153.435 104.898 L
153.435 112.045 L
142.045 112.045 L
142.045 104.898 LE
142.019 104.926 LS
153.441 104.926 L
153.441 112.015 L
142.019 112.015 L
142.019 104.926 LE
142.001 104.955 LS
153.438 104.955 L
153.438 111.985 L
142.001 111.985 L
142.001 104.955 LE
141.968 104.984 LS
153.452 104.984 L
153.452 111.955 L
141.968 111.955 L
141.968 104.984 LE
141.927 105.012 LS
153.475 105.012 L
153.475 111.926 L
141.927 111.926 L
141.927 105.012 LE
141.889 105.041 LS
153.494 105.041 L
153.494 111.896 L
141.889 111.896 L
141.889 105.041 LE
141.852 105.071 LS
153.515 105.071 L
153.515 111.867 L
141.852 111.867 L
141.852 105.071 LE
141.813 105.1 LS
153.537 105.1 L
153.537 111.837 L
141.813 111.837 L
141.813 105.1 LE
141.774 105.129 LS
153.56 105.129 L
153.56 111.808 L
141.774 111.808 L
141.774 105.129 LE
141.736 105.158 LS
153.582 105.158 L
153.582 111.78 L
141.736 111.78 L
141.736 105.158 LE
141.699 105.187 LS
153.605 105.187 L
153.605 111.751 L
141.699 111.751 L
141.699 105.187 LE
141.666 105.216 LS
153.624 105.216 L
153.624 111.723 L
141.666 111.723 L
141.666 105.216 LE
141.642 105.246 LS
153.634 105.246 L
153.634 111.695 L
141.642 111.695 L
141.642 105.246 LE
141.623 105.27 LS
153.64 105.27 L
153.64 111.672 L
141.623 111.672 L
141.623 105.27 LE
141.607 105.287 LS
153.643 105.287 L
153.643 111.657 L
141.607 111.657 L
141.607 105.287 LE
141.595 105.303 LS
153.643 105.303 L
153.643 111.642 L
141.595 111.642 L
141.595 105.303 LE
141.582 105.32 LS
153.645 105.32 L
153.645 111.627 L
141.582 111.627 L
141.582 105.32 LE
141.567 105.337 LS
153.649 105.337 L
153.649 111.612 L
141.567 111.612 L
141.567 105.337 LE
141.551 105.354 LS
153.654 105.354 L
153.654 111.597 L
141.551 111.597 L
141.551 105.354 LE
141.534 105.372 LS
153.662 105.372 L
153.662 111.581 L
141.534 111.581 L
141.534 105.372 LE
141.517 105.39 LS
153.669 105.39 L
153.669 111.566 L
141.517 111.566 L
141.517 105.39 LE
141.503 105.408 LS
153.674 105.408 L
153.674 111.55 L
141.503 111.55 L
141.503 105.408 LE
141.498 105.427 LS
153.67 105.427 L
153.67 111.534 L
141.498 111.534 L
141.498 105.427 LE
141.497 105.446 LS
153.663 105.446 L
153.663 111.517 L
141.497 111.517 L
141.497 105.446 LE
141.499 105.465 LS
153.654 105.465 L
153.654 111.501 L
141.499 111.501 L
141.499 105.465 LE
141.504 105.484 LS
153.642 105.484 L
153.642 111.485 L
141.504 111.485 L
141.504 105.484 LE
141.507 105.503 LS
153.632 105.503 L
153.632 111.468 L
141.507 111.468 L
141.507 105.503 LE
141.507 105.522 LS
153.625 105.522 L
153.625 111.452 L
141.507 111.452 L
141.507 105.522 LE
141.506 105.541 LS
153.621 105.541 L
153.621 111.436 L
141.506 111.436 L
141.506 105.541 LE
141.504 105.56 LS
153.617 105.56 L
153.617 111.42 L
141.504 111.42 L
141.504 105.56 LE
141.501 105.579 LS
153.615 105.579 L
153.615 111.404 L
141.501 111.404 L
141.501 105.579 LE
141.501 105.598 LS
153.61 105.598 L
153.61 111.388 L
141.501 111.388 L
141.501 105.598 LE
141.509 105.617 LS
153.597 105.617 L
153.597 111.372 L
141.509 111.372 L
141.509 105.617 LE
141.52 105.636 LS
153.582 105.636 L
153.582 111.356 L
141.52 111.356 L
141.52 105.636 LE
141.533 105.655 LS
153.565 105.655 L
153.565 111.34 L
141.533 111.34 L
141.533 105.655 LE
141.549 105.673 LS
153.546 105.673 L
153.546 111.324 L
141.549 111.324 L
141.549 105.673 LE
141.562 105.691 LS
153.53 105.691 L
153.53 111.309 L
141.562 111.309 L
141.562 105.691 LE
141.572 105.71 LS
153.517 105.71 L
153.517 111.294 L
141.572 111.294 L
141.572 105.71 LE
141.579 105.727 LS
153.507 105.727 L
153.507 111.279 L
141.579 111.279 L
141.579 105.727 LE
141.585 105.745 LS
153.499 105.745 L
153.499 111.265 L
141.585 111.265 L
141.585 105.745 LE
141.59 105.762 LS
153.492 105.762 L
153.492 111.25 L
141.59 111.25 L
141.59 105.762 LE
141.597 105.779 LS
153.483 105.779 L
153.483 111.236 L
141.597 111.236 L
141.597 105.779 LE
141.612 105.796 LS
153.466 105.796 L
153.466 111.222 L
141.612 111.222 L
141.612 105.796 LE
141.629 105.812 LS
153.448 105.812 L
153.448 111.208 L
141.629 111.208 L
141.629 105.812 LE
141.648 105.829 LS
153.427 105.829 L
153.427 111.195 L
141.648 111.195 L
141.648 105.829 LE
141.669 105.845 LS
153.405 105.845 L
153.405 111.182 L
141.669 111.182 L
141.669 105.845 LE
141.687 105.86 LS
153.386 105.86 L
153.386 111.169 L
141.687 111.169 L
141.687 105.86 LE
141.702 105.875 LS
153.371 105.875 L
153.371 111.156 L
141.702 111.156 L
141.702 105.875 LE
141.714 105.89 LS
153.359 105.89 L
153.359 111.144 L
141.714 111.144 L
141.714 105.89 LE
141.723 105.905 LS
153.349 105.905 L
153.349 111.132 L
141.723 111.132 L
141.723 105.905 LE
141.731 105.919 LS
153.341 105.919 L
153.341 111.12 L
141.731 111.12 L
141.731 105.919 LE
141.741 105.932 LS
153.331 105.932 L
153.331 111.11 L
141.741 111.11 L
141.741 105.932 LE
141.759 105.936 LS
153.314 105.936 L
153.314 111.108 L
141.759 111.108 L
141.759 105.936 LE
141.778 105.94 LS
153.295 105.94 L
153.295 111.107 L
141.778 111.107 L
141.778 105.94 LE
141.798 105.943 LS
153.275 105.943 L
153.275 111.106 L
141.798 111.106 L
141.798 105.943 LE
141.821 105.946 LS
153.253 105.946 L
153.253 111.105 L
141.821 111.105 L
141.821 105.946 LE
141.838 105.949 LS
153.236 105.949 L
153.236 111.104 L
141.838 111.104 L
141.838 105.949 LE
141.846 105.952 LS
153.229 105.952 L
153.229 111.103 L
141.846 111.103 L
141.846 105.952 LE
141.851 105.955 LS
153.225 105.955 L
153.225 111.102 L
141.851 111.102 L
141.851 105.955 LE
141.855 105.958 LS
153.222 105.958 L
153.222 111.101 L
141.855 111.101 L
141.855 105.958 LE
141.856 105.962 LS
153.222 105.962 L
153.222 111.1 L
141.856 111.1 L
141.856 105.962 LE
141.86 105.965 LS
153.219 105.965 L
153.219 111.098 L
141.86 111.098 L
141.86 105.965 LE
141.872 105.969 LS
153.209 105.969 L
153.209 111.097 L
141.872 111.097 L
141.872 105.969 LE
141.885 105.971 LS
153.197 105.971 L
153.197 111.096 L
141.885 111.096 L
141.885 105.971 LE
141.9 105.974 LS
153.183 105.974 L
153.183 111.095 L
141.9 111.095 L
141.9 105.974 LE
141.917 105.976 LS
153.167 105.976 L
153.167 111.094 L
141.917 111.094 L
141.917 105.976 LE
141.931 105.978 LS
153.155 105.978 L
153.155 111.094 L
141.931 111.094 L
141.931 105.978 LE
141.941 105.979 LS
153.146 105.979 L
153.146 111.095 L
141.941 111.095 L
141.941 105.979 LE
141.948 105.979 LS
153.14 105.979 L
153.14 111.096 L
141.948 111.096 L
141.948 105.979 LE
141.953 105.979 LS
153.137 105.979 L
153.137 111.098 L
141.953 111.098 L
141.953 105.979 LE
141.956 105.978 LS
153.136 105.978 L
153.136 111.101 L
141.956 111.101 L
141.956 105.978 LE
141.961 105.976 LS
153.132 105.976 L
153.132 111.104 L
141.961 111.104 L
141.961 105.976 LE
141.973 105.974 LS
153.121 105.974 L
153.121 111.107 L
141.973 111.107 L
141.973 105.974 LE
141.987 105.972 LS
153.109 105.972 L
153.109 111.11 L
141.987 111.11 L
141.987 105.972 LE
142.003 105.97 LS
153.095 105.97 L
153.095 111.113 L
142.003 111.113 L
142.003 105.97 LE
142.021 105.968 LS
153.079 105.968 L
153.079 111.117 L
142.021 111.117 L
142.021 105.968 LE
142.034 105.966 LS
153.067 105.966 L
153.067 111.12 L
142.034 111.12 L
142.034 105.966 LE
142.044 105.964 LS
153.059 105.964 L
153.059 111.122 L
142.044 111.122 L
142.044 105.964 LE
142.052 105.963 LS
153.053 105.963 L
153.053 111.124 L
142.052 111.124 L
142.052 105.963 LE
142.056 105.963 LS
153.05 105.963 L
153.05 111.126 L
142.056 111.126 L
142.056 105.963 LE
142.059 105.962 LS
153.049 105.962 L
153.049 111.127 L
142.059 111.127 L
142.059 105.962 LE
142.063 105.963 LS
153.046 105.963 L
153.046 111.128 L
142.063 111.128 L
142.063 105.963 LE
142.075 105.963 LS
153.036 105.963 L
153.036 111.129 L
142.075 111.129 L
142.075 105.963 LE
142.088 105.962 LS
153.025 105.962 L
153.025 111.13 L
142.088 111.13 L
142.088 105.962 LE
142.103 105.962 LS
153.011 105.962 L
153.011 111.131 L
142.103 111.131 L
142.103 105.962 LE
142.12 105.961 LS
152.997 105.961 L
152.997 111.132 L
142.12 111.132 L
142.12 105.961 LE
142.132 105.961 LS
152.985 105.961 L
152.985 111.134 L
142.132 111.134 L
142.132 105.961 LE
142.141 105.961 LS
152.978 105.961 L
152.978 111.134 L
142.141 111.134 L
142.141 105.961 LE
142.147 105.961 LS
152.974 105.961 L
152.974 111.135 L
142.147 111.135 L
142.147 105.961 LE
142.15 105.962 LS
152.972 105.962 L
152.972 111.134 L
142.15 111.134 L
142.15 105.962 LE
142.152 105.962 LS
152.972 105.962 L
152.972 111.134 L
142.152 111.134 L
142.152 105.962 LE
142.155 105.964 LS
152.971 105.964 L
152.971 111.133 L
142.155 111.133 L
142.155 105.964 LE
142.165 105.965 LS
152.962 105.965 L
152.962 111.133 L
142.165 111.133 L
142.165 105.965 LE
142.176 105.965 LS
152.952 105.965 L
152.952 111.133 L
142.176 111.133 L
142.176 105.965 LE
142.189 105.966 LS
152.94 105.966 L
152.94 111.133 L
142.189 111.133 L
142.189 105.966 LE
142.202 105.966 LS
152.929 105.966 L
152.929 111.133 L
142.202 111.133 L
142.202 105.966 LE
142.207 105.966 LS
152.925 105.966 L
152.925 111.133 L
142.207 111.133 L
142.207 105.966 LE
142.209 105.967 LS
152.925 105.967 L
152.925 111.132 L
142.209 111.132 L
142.209 105.967 LE
142.208 105.968 LS
152.927 105.968 L
152.927 111.132 L
142.208 111.132 L
142.208 105.968 LE
142.204 105.969 LS
152.932 105.969 L
152.932 111.131 L
142.204 111.131 L
142.204 105.969 LE
142.198 105.971 LS
152.939 105.971 L
152.939 111.129 L
142.198 111.129 L
142.198 105.971 LE
142.194 105.972 LS
152.944 105.972 L
152.944 111.128 L
142.194 111.128 L
142.194 105.972 LE
142.198 105.974 LS
152.942 105.974 L
152.942 111.127 L
142.198 111.127 L
142.198 105.974 LE
142.203 105.975 LS
152.937 105.975 L
152.937 111.126 L
142.203 111.126 L
142.203 105.975 LE
142.211 105.976 LS
152.931 105.976 L
152.931 111.125 L
142.211 111.125 L
142.211 105.976 LE
142.22 105.977 LS
152.923 105.977 L
152.923 111.125 L
142.22 111.125 L
142.22 105.977 LE
142.225 105.977 LS
152.919 105.977 L
152.919 111.124 L
142.225 111.124 L
142.225 105.977 LE
142.227 105.978 LS
152.918 105.978 L
152.918 111.123 L
142.227 111.123 L
142.227 105.978 LE
142.225 105.98 LS
152.921 105.98 L
152.921 111.122 L
142.225 111.122 L
142.225 105.98 LE
142.221 105.981 LS
152.926 105.981 L
152.926 111.12 L
142.221 111.12 L
142.221 105.981 LE
142.214 105.983 LS
152.934 105.983 L
152.934 111.119 L
142.214 111.119 L
142.214 105.983 LE
142.209 105.985 LS
152.94 105.985 L
152.94 111.117 L
142.209 111.117 L
142.209 105.985 LE
142.211 105.986 LS
152.939 105.986 L
152.939 111.115 L
142.211 111.115 L
142.211 105.986 LE
142.214 105.988 LS
152.936 105.988 L
152.936 111.114 L
142.214 111.114 L
142.214 105.988 LE
142.219 105.988 LS
152.932 105.988 L
152.932 111.113 L
142.219 111.113 L
142.219 105.988 LE
142.225 105.989 LS
152.927 105.989 L
152.927 111.112 L
142.225 111.112 L
142.225 105.989 LE
142.227 105.99 LS
152.925 105.99 L
152.925 111.112 L
142.227 111.112 L
142.227 105.99 LE
142.226 105.991 LS
152.927 105.991 L
152.927 111.111 L
142.226 111.111 L
142.226 105.991 LE
142.222 105.992 LS
152.932 105.992 L
152.932 111.109 L
142.222 111.109 L
142.222 105.992 LE
142.215 105.993 LS
152.94 105.993 L
152.94 111.109 L
142.215 111.109 L
142.215 105.993 LE
142.207 105.994 LS
152.948 105.994 L
152.948 111.107 L
142.207 111.107 L
142.207 105.994 LE
142.201 105.995 LS
152.955 105.995 L
152.955 111.106 L
142.201 111.106 L
142.201 105.995 LE
142.202 105.996 LS
152.954 105.996 L
152.954 111.105 L
142.202 111.105 L
142.202 105.996 LE
142.206 105.997 LS
152.951 105.997 L
152.951 111.104 L
142.206 111.104 L
142.206 105.997 LE
142.211 105.997 LS
152.947 105.997 L
152.947 111.104 L
142.211 111.104 L
142.211 105.997 LE
142.218 105.997 LS
152.94 105.997 L
152.94 111.104 L
142.218 111.104 L
142.218 105.997 LE
142.222 105.998 LS
152.937 105.998 L
152.937 111.103 L
142.222 111.103 L
142.222 105.998 LE
142.221 105.998 LS
152.938 105.998 L
152.938 111.103 L
142.221 111.103 L
142.221 105.998 LE
142.218 105.999 LS
152.942 105.999 L
152.942 111.102 L
142.218 111.102 L
142.218 105.999 LE
142.212 106 LS
152.948 106 L
152.948 111.101 L
142.212 111.101 L
142.212 106 LE
142.204 106.001 LS
152.956 106.001 L
152.956 111.099 L
142.204 111.099 L
142.204 106.001 LE
142 105.964 LS
153.161 105.964 L
153.161 111.136 L
142 111.136 L
142 105.964 LE
141.784 105.925 LS
153.377 105.925 L
153.377 111.175 L
141.784 111.175 L
141.784 105.925 LE
141.562 105.885 LS
153.6 105.885 L
153.6 111.215 L
141.562 111.215 L
141.562 105.885 LE
141.332 105.844 LS
153.829 105.844 L
153.829 111.256 L
141.332 111.256 L
141.332 105.844 LE
141.096 105.801 LS
154.065 105.801 L
154.065 111.298 L
141.096 111.298 L
141.096 105.801 LE
140.854 105.758 LS
154.308 105.758 L
154.308 111.342 L
140.854 111.342 L
140.854 105.758 LE
140.605 105.713 LS
154.558 105.713 L
154.558 111.387 L
140.605 111.387 L
140.605 105.713 LE
140.349 105.666 LS
154.814 105.666 L
154.814 111.433 L
140.349 111.433 L
140.349 105.666 LE
140.087 105.617 LS
155.076 105.617 L
155.076 111.482 L
140.087 111.482 L
140.087 105.617 LE
139.818 105.567 LS
155.345 105.567 L
155.345 111.532 L
139.818 111.532 L
139.818 105.567 LE
139.538 105.514 LS
155.625 105.514 L
155.625 111.584 L
139.538 111.584 L
139.538 105.514 LE
139.305 105.461 LS
155.858 105.461 L
155.858 111.638 L
139.305 111.638 L
139.305 105.461 LE
139.099 105.406 LS
156.064 105.406 L
156.064 111.692 L
139.099 111.692 L
139.099 105.406 LE
138.918 105.351 LS
156.246 105.351 L
156.246 111.747 L
138.918 111.747 L
138.918 105.351 LE
138.761 105.296 LS
156.403 105.296 L
156.403 111.802 L
138.761 111.802 L
138.761 105.296 LE
138.619 105.241 LS
156.545 105.241 L
156.545 111.857 L
138.619 111.857 L
138.619 105.241 LE
138.5 105.186 LS
156.663 105.186 L
156.663 111.912 L
138.5 111.912 L
138.5 105.186 LE
138.406 105.132 LS
156.758 105.132 L
156.758 111.965 L
138.406 111.965 L
138.406 105.132 LE
138.334 105.08 LS
156.83 105.08 L
156.83 112.018 L
138.334 112.018 L
138.334 105.08 LE
138.284 105.028 LS
156.88 105.028 L
156.88 112.069 L
138.284 112.069 L
138.284 105.028 LE
138.261 104.979 LS
156.904 104.979 L
156.904 112.118 L
138.261 112.118 L
138.261 104.979 LE
138.251 104.931 LS
156.913 104.931 L
156.913 112.166 L
138.251 112.166 L
138.251 104.931 LE
138.254 104.885 LS
156.91 104.885 L
156.91 112.212 L
138.254 112.212 L
138.254 104.885 LE
138.269 104.842 LS
156.895 104.842 L
156.895 112.255 L
138.269 112.255 L
138.269 104.842 LE
138.295 104.8 LS
156.869 104.8 L
156.869 112.297 L
138.295 112.297 L
138.295 104.8 LE
138.332 104.761 LS
156.832 104.761 L
156.832 112.336 L
138.332 112.336 L
138.332 104.761 LE
138.381 104.723 LS
156.783 104.723 L
156.783 112.373 L
138.381 112.373 L
138.381 104.723 LE
138.44 104.689 LS
156.724 104.689 L
156.724 112.408 L
138.44 112.408 L
138.44 104.689 LE
138.511 104.656 LS
156.653 104.656 L
156.653 112.44 L
138.511 112.44 L
138.511 104.656 LE
138.592 104.626 LS
156.572 104.626 L
156.572 112.47 L
138.592 112.47 L
138.592 104.626 LE
138.687 104.599 LS
156.477 104.599 L
156.477 112.497 L
138.687 112.497 L
138.687 104.599 LE
138.788 104.575 LS
156.376 104.575 L
156.376 112.521 L
138.788 112.521 L
138.788 104.575 LE
138.893 104.552 LS
156.271 104.552 L
156.271 112.543 L
138.893 112.543 L
138.893 104.552 LE
139.002 104.533 LS
156.162 104.533 L
156.162 112.563 L
139.002 112.563 L
139.002 104.533 LE
139.112 104.516 LS
156.052 104.516 L
156.052 112.58 L
139.112 112.58 L
139.112 104.516 LE
139.225 104.501 LS
155.938 104.501 L
155.938 112.595 L
139.225 112.595 L
139.225 104.501 LE
139.343 104.488 LS
155.821 104.488 L
155.821 112.607 L
139.343 112.607 L
139.343 104.488 LE
139.46 104.478 LS
155.704 104.478 L
155.704 112.617 L
139.46 112.617 L
139.46 104.478 LE
139.581 104.47 LS
155.583 104.47 L
155.583 112.625 L
139.581 112.625 L
139.581 104.47 LE
139.706 104.464 LS
155.458 104.464 L
155.458 112.631 L
139.706 112.631 L
139.706 104.464 LE
139.834 104.461 LS
155.329 104.461 L
155.329 112.634 L
139.834 112.634 L
139.834 104.461 LE
139.971 104.46 LS
155.193 104.46 L
155.193 112.635 L
139.971 112.635 L
139.971 104.46 LE
140.107 104.46 LS
155.057 104.46 L
155.057 112.635 L
140.107 112.635 L
140.107 104.46 LE
140.242 104.463 LS
154.921 104.463 L
154.921 112.632 L
140.242 112.632 L
140.242 104.463 LE
140.376 104.468 LS
154.787 104.468 L
154.787 112.627 L
140.376 112.627 L
140.376 104.468 LE
140.51 104.475 LS
154.654 104.475 L
154.654 112.62 L
140.51 112.62 L
140.51 104.475 LE
140.643 104.483 LS
154.52 104.483 L
154.52 112.611 L
140.643 112.611 L
140.643 104.483 LE
140.776 104.493 LS
154.388 104.493 L
154.388 112.601 L
140.776 112.601 L
140.776 104.493 LE
140.908 104.505 LS
154.255 104.505 L
154.255 112.589 L
140.908 112.589 L
140.908 104.505 LE
141.04 104.519 LS
154.123 104.519 L
154.123 112.576 L
141.04 112.576 L
141.04 104.519 LE
141.172 104.533 LS
153.991 104.533 L
153.991 112.561 L
141.172 112.561 L
141.172 104.533 LE
141.308 104.55 LS
153.855 104.55 L
153.855 112.544 L
141.308 112.544 L
141.308 104.55 LE
141.441 104.568 LS
153.722 104.568 L
153.722 112.527 L
141.441 112.527 L
141.441 104.568 LE
141.571 104.587 LS
153.592 104.587 L
153.592 112.507 L
141.571 112.507 L
141.571 104.587 LE
141.69 104.607 LS
153.473 104.607 L
153.473 112.487 L
141.69 112.487 L
141.69 104.607 LE
141.708 104.627 LS
153.455 104.627 L
153.455 112.467 L
141.708 112.467 L
141.708 104.627 LE
141.722 104.648 LS
153.44 104.648 L
153.44 112.447 L
141.722 112.447 L
141.722 104.648 LE
141.734 104.669 LS
153.428 104.669 L
153.428 112.425 L
141.734 112.425 L
141.734 104.669 LE
141.744 104.692 LS
153.418 104.692 L
153.418 112.402 L
141.744 112.402 L
141.744 104.692 LE
141.753 104.715 LS
153.409 104.715 L
153.409 112.379 L
141.753 112.379 L
141.753 104.715 LE
141.764 104.74 LS
153.398 104.74 L
153.398 112.354 L
141.764 112.354 L
141.764 104.74 LE
141.783 104.765 LS
153.379 104.765 L
153.379 112.329 L
141.783 112.329 L
141.783 104.765 LE
141.805 104.791 LS
153.357 104.791 L
153.357 112.303 L
141.805 112.303 L
141.805 104.791 LE
141.828 104.817 LS
153.334 104.817 L
153.334 112.276 L
141.828 112.276 L
141.828 104.817 LE
141.853 104.845 LS
153.309 104.845 L
153.309 112.249 L
141.853 112.249 L
141.853 104.845 LE
141.874 104.872 LS
153.288 104.872 L
153.288 112.222 L
141.874 112.222 L
141.874 104.872 LE
141.892 104.9 LS
153.27 104.9 L
153.27 112.194 L
141.892 112.194 L
141.892 104.9 LE
141.906 104.929 LS
153.255 104.929 L
153.255 112.165 L
141.906 112.165 L
141.906 104.929 LE
141.918 104.957 LS
153.243 104.957 L
153.243 112.137 L
141.918 112.137 L
141.918 104.957 LE
141.911 104.986 LS
153.251 104.986 L
153.251 112.108 L
141.911 112.108 L
141.911 104.986 LE
141.894 105.014 LS
153.267 105.014 L
153.267 112.079 L
141.894 112.079 L
141.894 105.014 LE
141.886 105.043 LS
153.275 105.043 L
153.275 112.05 L
141.886 112.05 L
141.886 105.043 LE
141.862 105.072 LS
153.299 105.072 L
153.299 112.022 L
141.862 112.022 L
141.862 105.072 LE
141.829 105.101 LS
153.332 105.101 L
153.332 111.993 L
141.829 111.993 L
141.829 105.101 LE
141.8 105.13 LS
153.361 105.13 L
153.361 111.964 L
141.8 111.964 L
141.8 105.13 LE
141.77 105.159 LS
153.391 105.159 L
153.391 111.935 L
141.77 111.935 L
141.77 105.159 LE
141.739 105.187 LS
153.422 105.187 L
153.422 111.906 L
141.739 111.906 L
141.739 105.187 LE
141.708 105.216 LS
153.453 105.216 L
153.453 111.878 L
141.708 111.878 L
141.708 105.216 LE
141.677 105.245 LS
153.484 105.245 L
153.484 111.849 L
141.677 111.849 L
141.677 105.245 LE
141.646 105.273 LS
153.515 105.273 L
153.515 111.821 L
141.646 111.821 L
141.646 105.273 LE
141.62 105.301 LS
153.541 105.301 L
153.541 111.792 L
141.62 111.792 L
141.62 105.301 LE
141.602 105.329 LS
153.558 105.329 L
153.558 111.764 L
141.602 111.764 L
141.602 105.329 LE
141.589 105.353 LS
153.572 105.353 L
153.572 111.74 L
141.589 111.74 L
141.589 105.353 LE
141.579 105.368 LS
153.582 105.368 L
153.582 111.725 L
141.579 111.725 L
141.579 105.368 LE
141.572 105.384 LS
153.588 105.384 L
153.588 111.71 L
141.572 111.71 L
141.572 105.384 LE
141.564 105.399 LS
153.596 105.399 L
153.596 111.694 L
141.564 111.694 L
141.564 105.399 LE
141.554 105.416 LS
153.606 105.416 L
153.606 111.678 L
141.554 111.678 L
141.554 105.416 LE
141.543 105.432 LS
153.617 105.432 L
153.617 111.662 L
141.543 111.662 L
141.543 105.432 LE
141.53 105.448 LS
153.63 105.448 L
153.63 111.645 L
141.53 111.645 L
141.53 105.448 LE
141.517 105.465 LS
153.643 105.465 L
153.643 111.628 L
141.517 111.628 L
141.517 105.465 LE
141.508 105.482 LS
153.652 105.482 L
153.652 111.611 L
141.508 111.611 L
141.508 105.482 LE
141.507 105.5 LS
153.653 105.5 L
153.653 111.594 L
141.507 111.594 L
141.507 105.5 LE
141.51 105.517 LS
153.651 105.517 L
153.651 111.576 L
141.51 111.576 L
141.51 105.517 LE
141.515 105.535 LS
153.645 105.535 L
153.645 111.559 L
141.515 111.559 L
141.515 105.535 LE
141.523 105.552 LS
153.637 105.552 L
153.637 111.541 L
141.523 111.541 L
141.523 105.552 LE
141.529 105.57 LS
153.631 105.57 L
153.631 111.523 L
141.529 111.523 L
141.529 105.57 LE
141.533 105.588 LS
153.628 105.588 L
153.628 111.506 L
141.533 111.506 L
141.533 105.588 LE
141.534 105.605 LS
153.626 105.605 L
153.626 111.488 L
141.534 111.488 L
141.534 105.605 LE
141.534 105.623 LS
153.626 105.623 L
153.626 111.471 L
141.534 111.471 L
141.534 105.623 LE
141.534 105.64 LS
153.626 105.64 L
153.626 111.453 L
141.534 111.453 L
141.534 105.64 LE
0 0 0 C
(Flowpipe for Ex. 5) 298.08 410.6 10 /Helvetica SBC
grestore
showpage
cleartomark
%%PageTrailer
%%Trailer
end
%%EOF
